caller_protocol;callee1_protocol;callee2_protocol;caller_listenport;callee1_listenport;callee2_listenport;caller_transportprotocol;callee1_transportprotocol;callee2_transportprotocol;caller_encryption;callee1_encryption;callee2_encryption;caller_sipzrtpattribute;callee1_sipzrtpattribute;callee2_sipzrtpattribute;caller_maxpeers;callee1_maxpeers;callee2_maxpeers;caller_mtu;callee1_mtu;callee2_mtu;caller_defaultcallrate;callee1_defaultcallrate;callee2_defaultcallrate;caller_maxreceivecallrate;callee1_maxreceivecallrate;callee2_maxreceivecallrate;caller_maxtransmitcallrate;callee1_maxtransmitcallrate;callee2_maxtransmitcallrate;caller_audiocodec;callee1_audiocodec;callee2_audiocodec;caller_videocodec;callee1_videocodec;callee2_videocodec;caller_maxresolution;callee1_maxresolution;callee2_maxresolution;
GoogleTalk;ICQ;iptel.org;On;Off;Off;TCP;TCP;Tls;BestEffort;Off;BestEffort;Auto;FALSE;TRUE;3;4;3;1048;767;1407;916;2231;1222;5739;1627;5472;843;500;5771;speex-8000;speex-32000;speex-16000;h264;h264;VP8;360;720;1080;NotDone
GoogleTalk;SIP;iptel.org;Off;On;Off;TCP;UDP;TCP;On;Off;Off;Auto;Auto;TRUE;3;2;2;661;767;868;916;2231;1222;2974;1627;3028;143;4608;2218;SILK-24000;speex-16000;speex-16000;Auto;VP8;VP8;240;720;1080;NotDone
GoogleTalk;GoogleTalk;iPPi;Off;Off;On;TCP;TCP;Tls;BestEffort;On;Off;Auto;FALSE;FALSE;3;2;4;1048;932;1407;916;5846;1222;5739;2003;368;2386;5719;747;G722-16000;SILK-8000;SILK-24000;ulpfec;VP8;VP8;360;720;1080;NotDone
GoogleTalk;GoogleTalk;GoogleTalk;Off;Off;On;UDP;UDP;Auto;BestEffort;Off;BestEffort;Auto;TRUE;Auto;2;4;4;1180;984;984;5095;1256;3437;3406;2225;938;4012;1433;3260;PCMU-8000;G722-16000;SILK-16000;ulpfec;red;red;1080;1080;720;NotDone
GoogleTalk;iptel.org;GoogleTalk;On;Off;Off;TCP;Tls;Auto;Off;On;BestEffort;Auto;FALSE;FALSE;4;3;3;1885;767;1140;4861;2231;2085;2871;1627;2635;843;500;1850;Auto;SILK-8000;iLBC-8000;VP8;VP8;VP8;720;720;720;NotDone
GoogleTalk;ICQ;IRC;Off;Off;Off;TCP;TCP;Tls;On;On;Off;TRUE;Auto;TRUE;2;4;3;1291;767;1407;4797;2046;1222;5739;1627;2193;843;824;5771;PCMU-8000;speex-32000;SILK-8000;h264;VP8;VP8;480;240;1080;NotDone
GoogleTalk;ICQ;iptel.org;On;Off;On;Auto;Tls;Tls;On;On;BestEffort;Auto;FALSE;TRUE;4;4;2;634;1724;1828;5839;2231;1222;5739;5676;5472;384;500;5771;SILK-16000;SILK-8000;speex-16000;h264;ulpfec;VP8;360;720;360;NotDone
GoogleTalk;ICQ;GoogleTalk;On;Off;Off;TCP;TCP;Tls;BestEffort;Off;Off;Auto;FALSE;Auto;3;4;3;1048;652;1823;101;458;85;5739;1627;5472;843;500;214;AMR-WB-16000;SILK-16000;speex-16000;red;ulpfec;red;720;720;1080;NotDone
GoogleTalk;AIM;SIP;On;Off;Off;TCP;UDP;Tls;Off;BestEffort;BestEffort;FALSE;FALSE;Auto;3;4;4;1048;1251;1961;5720;172;539;5739;147;5472;2062;5557;5771;GSM-8000;speex-32000;iLBC-8000;h264;VP8;h264;360;720;720;NotDone
GoogleTalk;ICQ;SIP;Off;Off;Off;TCP;Auto;Tls;BestEffort;On;On;Auto;FALSE;TRUE;3;4;3;1799;1698;1407;3945;1229;3721;5739;1627;5959;5028;2880;422;speex-8000;SILK-8000;AMR-WB-16000;ulpfec;VP8;VP8;360;720;480;NotDone
GoogleTalk;ICQ;iptel.org;On;On;On;UDP;TCP;TCP;On;Off;Off;Auto;FALSE;TRUE;4;4;3;1412;1117;1704;969;121;388;5739;189;4140;843;500;5771;SILK-8000;speex-16000;speex-16000;red;VP8;VP8;360;480;240;NotDone
AIM;AIM;GoogleTalk;Off;Off;Off;TCP;TCP;TCP;Off;On;Off;Auto;FALSE;TRUE;3;2;4;1577;767;1493;2799;2231;5040;5793;2743;5472;3137;500;5771;speex-8000;SILK-12000;telephone-event-80000;ulpfec;VP8;VP8;360;720;1080;NotDone
GoogleTalk;ICQ;AIM;On;Off;Off;UDP;TCP;TCP;On;Off;Off;Auto;FALSE;TRUE;2;3;2;1048;635;639;5461;2231;1222;808;1627;129;5894;176;1688;speex-8000;speex-32000;AMR-WB-16000;red;VP8;VP8;1080;480;240;NotDone
GoogleTalk;ICQ;iPPi;On;Off;Off;TCP;TCP;TCP;Off;Off;Off;Auto;FALSE;FALSE;3;3;3;1827;1086;887;4230;5339;1222;5858;699;5472;2711;3748;1859;SILK-12000;telephone-event-80000;speex-8000;Auto;ulpfec;VP8;360;720;720;NotDone
GoogleTalk;IRC;iptel.org;On;Off;Off;Auto;Tls;Tls;Off;On;BestEffort;TRUE;TRUE;TRUE;2;4;3;1048;1176;1583;5425;2382;5432;4042;1627;5429;5944;2015;5771;speex-8000;PCMU-8000;PCMA-8000;ulpfec;VP8;VP8;480;720;360;NotDone
GoogleTalk;AIM;iPPi;On;On;On;Tls;TCP;Tls;On;BestEffort;Off;TRUE;FALSE;TRUE;2;4;4;805;767;1171;916;133;1222;5739;2086;2869;871;500;5310;iLBC-8000;GSM-8000;SILK-8000;Auto;VP8;VP8;360;720;1080;NotDone
SIP;iptel.org;IRC;On;Off;On;TCP;Tls;Tls;Off;Off;BestEffort;Auto;FALSE;TRUE;4;3;3;1408;735;1407;3589;5862;2754;283;521;5524;5265;500;5771;Auto;G722-16000;speex-16000;VP8;rtx;VP8;720;1080;480;NotDone
GoogleTalk;IRC;iptel.org;On;Off;Off;Auto;TCP;Tls;Off;On;Off;Auto;FALSE;Auto;4;4;2;603;767;1976;5286;2231;1222;3701;5639;5472;5406;500;173;speex-8000;SILK-8000;SILK-16000;ulpfec;VP8;VP8;360;480;1080;NotDone
AIM;ICQ;GoogleTalk;Off;On;On;TCP;UDP;Auto;BestEffort;On;BestEffort;FALSE;Auto;Auto;2;3;2;1130;1218;1027;5095;3170;1081;3406;2225;3403;4012;5307;3260;PCMU-8000;G722-16000;GSM-8000;ulpfec;h264;red;480;1080;480;NotDone
GoogleTalk;ICQ;iptel.org;On;Off;Off;UDP;UDP;Auto;On;Off;Off;Auto;FALSE;TRUE;3;4;2;1048;767;1490;3368;3465;4417;5739;1627;5472;95;2066;5771;PCMU-8000;telephone-event-80000;AMR-WB-16000;h264;VP8;VP8;720;720;720;NotDone
GoogleTalk;iPPi;SIP;On;Off;Off;Tls;TCP;Tls;Off;Off;BestEffort;Auto;FALSE;FALSE;3;4;3;1785;767;1407;3316;5335;1222;5739;261;111;843;1379;5771;SILK-12000;AMR-WB-16000;SILK-8000;VP8;h264;VP8;360;720;1080;NotDone
GoogleTalk;IRC;iptel.org;On;On;On;Tls;TCP;Tls;BestEffort;On;Off;TRUE;Auto;Auto;2;2;3;1473;1609;704;4184;1746;370;5739;4983;5472;5563;500;2738;iLBC-8000;speex-32000;speex-16000;rtx;VP8;VP8;240;720;360;NotDone
ICQ;ICQ;iptel.org;On;On;Off;Tls;UDP;Tls;Off;On;BestEffort;Auto;FALSE;TRUE;3;4;4;1144;1868;901;5743;260;622;5739;415;5472;1591;500;5771;SILK-8000;speex-16000;speex-16000;h264;h264;Auto;240;720;1080;NotDone
iptel.org;IRC;iptel.org;On;Off;On;TCP;TCP;Auto;Off;Off;On;FALSE;Auto;TRUE;3;4;3;1294;805;1837;4599;3032;607;5739;108;5472;4133;500;5771;speex-8000;SILK-8000;opus-48000;h264;h264;VP8;360;720;1080;NotDone
iptel.org;SIP;iptel.org;On;Off;Off;UDP;Tls;Tls;BestEffort;Off;BestEffort;Auto;Auto;TRUE;3;4;3;1285;1878;1407;4777;2231;116;5739;5839;5472;5930;500;5771;speex-32000;PCMU-8000;speex-16000;h264;VP8;VP8;360;720;1080;NotDone
GoogleTalk;ICQ;AIM;On;Off;On;Tls;Auto;Tls;On;Off;Off;Auto;FALSE;TRUE;3;4;3;1163;1729;1407;916;4695;5805;5206;214;4354;843;145;5771;speex-8000;SILK-16000;speex-16000;ulpfec;VP8;VP8;360;720;480;NotDone
ICQ;ICQ;iptel.org;On;Off;Off;TCP;TCP;Tls;On;BestEffort;BestEffort;Auto;FALSE;FALSE;4;2;3;1482;1982;1407;4233;2231;5957;5739;287;213;843;500;5771;speex-8000;telephone-event-80000;opus-48000;h264;h264;VP8;720;720;240;NotDone
GoogleTalk;AIM;iptel.org;Off;Off;Off;TCP;UDP;Tls;Off;Off;Off;Auto;FALSE;TRUE;4;2;4;1048;1849;1409;5479;1357;5586;5739;1627;5872;5757;500;5771;speex-8000;PCMA-8000;Auto;rtx;red;VP8;720;720;1080;NotDone
GoogleTalk;IRC;iptel.org;Off;On;Off;TCP;UDP;TCP;BestEffort;On;Off;TRUE;FALSE;FALSE;4;4;4;1048;720;635;916;1191;3444;4753;5003;5428;5932;2506;5051;speex-8000;opus-48000;SILK-12000;h264;VP8;VP8;1080;360;360;NotDone
GoogleTalk;ICQ;GoogleTalk;On;Off;Off;UDP;Tls;Tls;BestEffort;BestEffort;BestEffort;Auto;FALSE;TRUE;4;2;3;1989;767;1877;5418;1127;371;5739;85;5472;1059;758;5771;SILK-12000;speex-32000;SILK-16000;h264;Auto;VP8;360;240;1080;NotDone
AIM;ICQ;SIP;Off;On;On;UDP;UDP;Auto;Off;Off;BestEffort;FALSE;Auto;Auto;2;3;2;711;982;1027;1820;5980;2192;3406;2225;938;4012;6000;3554;telephone-event-80000;G722-16000;GSM-8000;ulpfec;VP8;rtx;360;360;240;NotDone
GoogleTalk;SIP;iptel.org;Off;Off;On;UDP;Auto;Tls;On;On;Off;TRUE;FALSE;Auto;4;4;3;919;767;1298;5403;4863;1311;5739;1346;5472;3703;1436;454;speex-8000;PCMU-8000;PCMA-8000;h264;VP8;VP8;360;720;1080;NotDone
GoogleTalk;iPPi;iptel.org;On;Off;On;UDP;UDP;TCP;BestEffort;On;BestEffort;TRUE;Auto;TRUE;3;4;3;1048;767;1944;105;68;884;5739;1627;5472;5296;344;5771;AMR-WB-16000;opus-48000;AMR-WB-16000;h264;rtx;VP8;240;720;480;NotDone
ICQ;iptel.org;ICQ;Off;Off;Off;TCP;TCP;Tls;BestEffort;On;BestEffort;FALSE;FALSE;TRUE;4;4;3;1048;1936;1407;916;95;5574;5925;5630;5472;163;500;5771;speex-8000;speex-32000;PCMU-8000;h264;rtx;VP8;360;720;480;NotDone
GoogleTalk;IRC;GoogleTalk;Off;Off;On;UDP;TCP;UDP;BestEffort;Off;Off;Auto;Auto;FALSE;3;2;3;656;767;1270;5783;2645;937;5739;1627;595;843;3497;5771;GSM-8000;speex-32000;speex-16000;red;VP8;VP8;360;360;1080;NotDone
GoogleTalk;AIM;SIP;Off;On;Off;TCP;TCP;Tls;Off;Off;BestEffort;Auto;FALSE;Auto;4;4;3;1866;1470;819;3874;2231;1222;3529;3746;5472;1816;1690;5771;SILK-8000;SILK-8000;SILK-8000;h264;VP8;VP8;720;1080;360;NotDone
GoogleTalk;iptel.org;iptel.org;Off;On;On;TCP;Tls;Tls;BestEffort;On;BestEffort;FALSE;Auto;FALSE;2;2;2;1048;1953;1407;5902;2231;5716;5739;943;5472;843;5712;5771;speex-32000;speex-16000;iLBC-8000;VP8;ulpfec;ulpfec;1080;480;1080;NotDone
GoogleTalk;ICQ;iptel.org;Off;Off;On;UDP;TCP;Tls;On;Off;Off;TRUE;TRUE;FALSE;3;2;3;869;717;1785;1372;2231;1222;5739;5093;5472;2738;500;5771;PCMU-8000;telephone-event-80000;SILK-8000;h264;VP8;VP8;360;720;1080;NotDone
GoogleTalk;ICQ;iptel.org;On;On;Off;Auto;TCP;Tls;BestEffort;Off;Off;Auto;FALSE;Auto;3;2;3;1768;767;1855;916;5989;303;5739;5248;5472;843;885;4997;speex-8000;AMR-WB-16000;GSM-8000;rtx;VP8;VP8;240;480;720;NotDone
GoogleTalk;iPPi;iptel.org;Off;Off;Off;TCP;TCP;Tls;On;On;On;TRUE;FALSE;FALSE;2;4;2;1648;1743;1312;5632;3861;5539;868;375;5472;843;5721;5771;speex-8000;PCMA-8000;SILK-12000;h264;VP8;VP8;720;720;1080;NotDone
IRC;SIP;IRC;On;Off;On;TCP;UDP;Tls;BestEffort;On;On;Auto;FALSE;TRUE;2;2;3;1645;1880;1094;916;2231;5625;5727;325;5803;5315;5684;5771;speex-8000;speex-32000;SILK-12000;Auto;VP8;ulpfec;360;480;1080;NotDone
GoogleTalk;GoogleTalk;GoogleTalk;Off;Off;On;UDP;UDP;Auto;BestEffort;Off;BestEffort;Auto;TRUE;Auto;2;4;4;1115;982;1027;2971;4111;1081;3406;2225;4753;4012;1433;3260;PCMU-8000;G722-16000;GSM-8000;ulpfec;red;red;480;1080;480;NotDone
SIP;iptel.org;iptel.org;Off;On;Off;UDP;TCP;Tls;On;Off;On;Auto;FALSE;FALSE;2;4;4;1594;689;726;4223;107;391;5739;3522;866;843;500;2224;opus-48000;speex-16000;SILK-8000;rtx;VP8;VP8;360;720;720;NotDone
