caller_protocol;callee1_protocol;callee2_protocol;caller_listenport;callee1_listenport;callee2_listenport;caller_transportprotocol;callee1_transportprotocol;callee2_transportprotocol;caller_encryption;callee1_encryption;callee2_encryption;caller_sipzrtpattribute;callee1_sipzrtpattribute;callee2_sipzrtpattribute;caller_maxpeers;callee1_maxpeers;callee2_maxpeers;caller_mtu;callee1_mtu;callee2_mtu;caller_defaultcallrate;callee1_defaultcallrate;callee2_defaultcallrate;caller_maxreceivecallrate;callee1_maxreceivecallrate;callee2_maxreceivecallrate;caller_maxtransmitcallrate;callee1_maxtransmitcallrate;callee2_maxtransmitcallrate;caller_audiocodec;callee1_audiocodec;callee2_audiocodec;caller_videocodec;callee1_videocodec;callee2_videocodec;caller_maxresolution;callee1_maxresolution;callee2_maxresolution;
IRC;GoogleTalk;GoogleTalk;On;On;Off;Tls;UDP;Tls;Off;BestEffort;On;FALSE;TRUE;TRUE;4;4;2;676;1591;1593;5477;104;3438;1258;3860;2431;3425;1765;552;speex-8000;opus-48000;iLBC-8000;red;Auto;red;240;480;720;NotDone
SIP;iptel.org;iPPi;On;On;On;UDP;TCP;Auto;Off;BestEffort;BestEffort;Auto;FALSE;Auto;4;4;2;1522;894;1327;298;2511;2444;2157;5644;5089;756;4520;4927;speex-16000;telephone-event-80000;Auto;rtx;Auto;ulpfec;360;720;720;NotDone
AIM;iptel.org;GoogleTalk;On;Off;On;Tls;Tls;Auto;Off;Off;On;FALSE;FALSE;TRUE;4;4;3;876;1911;651;434;5850;4414;4645;4119;2806;879;779;3459;SILK-16000;iLBC-8000;Auto;rtx;rtx;ulpfec;720;240;360;NotDone
AIM;ICQ;IRC;On;On;Off;TCP;UDP;UDP;Off;On;Off;Auto;TRUE;FALSE;2;4;2;1980;884;689;4470;5797;4682;4501;5314;2777;5787;80;5901;speex-16000;opus-48000;speex-8000;VP8;VP8;h264;240;240;480;NotDone
AIM;AIM;ICQ;On;Off;On;Tls;Tls;TCP;Off;BestEffort;BestEffort;FALSE;FALSE;TRUE;3;4;2;1618;1764;1531;4248;2097;5551;414;5809;5825;5781;5257;4247;Auto;telephone-event-80000;telephone-event-80000;red;h264;ulpfec;360;240;720;NotDone
iptel.org;SIP;GoogleTalk;Off;On;Off;UDP;UDP;TCP;On;On;Off;TRUE;FALSE;FALSE;3;2;2;1879;1621;595;3629;4474;5161;5944;5711;1431;5268;437;4192;PCMA-8000;SILK-16000;speex-32000;rtx;Auto;ulpfec;480;1080;480;NotDone
IRC;iptel.org;IRC;On;Off;Off;Tls;TCP;Auto;Off;BestEffort;BestEffort;TRUE;Auto;TRUE;3;4;4;1231;1533;1245;5645;5835;5146;3195;222;797;1617;5253;3939;SILK-12000;SILK-24000;PCMU-8000;VP8;VP8;VP8;360;360;240;NotDone
IRC;iptel.org;ICQ;On;Off;On;Tls;UDP;Auto;Off;Off;On;TRUE;TRUE;FALSE;3;4;2;1275;1333;1862;4566;2807;5548;5413;764;5772;5606;4020;3223;PCMA-8000;telephone-event-80000;SILK-12000;h264;ulpfec;h264;1080;480;720;NotDone
GoogleTalk;SIP;IRC;On;On;Off;Auto;Auto;UDP;Off;Off;Off;Auto;Auto;TRUE;2;2;4;1915;1992;1430;3975;253;1172;1324;3405;2304;4898;163;4483;opus-48000;SILK-16000;SILK-8000;VP8;Auto;VP8;480;480;480;NotDone
IRC;IRC;AIM;Off;On;Off;Tls;UDP;Auto;Off;BestEffort;On;Auto;FALSE;Auto;2;3;3;1870;1800;1436;5098;4714;3905;1798;372;5969;1149;225;5988;Auto;telephone-event-80000;GSM-8000;Auto;Auto;VP8;1080;240;360;NotDone
AIM;ICQ;IRC;On;On;On;TCP;TCP;UDP;Off;On;Off;Auto;FALSE;TRUE;2;2;3;1328;1402;1226;5439;353;3943;5978;109;649;3910;5420;2357;Auto;speex-32000;SILK-12000;VP8;Auto;VP8;240;240;720;NotDone
iptel.org;iPPi;AIM;On;On;Off;Tls;Auto;UDP;Off;Off;BestEffort;TRUE;Auto;TRUE;3;2;4;1240;1427;694;5524;1069;139;681;131;587;4896;696;5708;opus-48000;G722-16000;SILK-8000;h264;h264;h264;240;480;720;NotDone
IRC;IRC;iptel.org;On;Off;On;Tls;Auto;Tls;Off;Off;BestEffort;FALSE;FALSE;TRUE;4;4;3;1369;1370;837;5648;3427;309;5578;243;4690;5549;5544;3655;SILK-16000;PCMA-8000;iLBC-8000;rtx;Auto;VP8;240;360;240;NotDone
ICQ;SIP;AIM;Off;Off;Off;TCP;TCP;Auto;Off;Off;On;TRUE;FALSE;TRUE;2;3;2;922;1222;937;5811;4649;177;261;3125;5919;844;4565;4159;iLBC-8000;telephone-event-80000;speex-8000;rtx;VP8;ulpfec;720;240;720;NotDone
AIM;SIP;GoogleTalk;On;Off;Off;UDP;Auto;Tls;BestEffort;Off;Off;Auto;FALSE;Auto;3;3;2;859;1154;640;1143;1335;5002;2192;1840;4182;5121;3001;1108;AMR-WB-16000;opus-48000;SILK-12000;ulpfec;Auto;VP8;240;480;1080;NotDone
SIP;ICQ;iptel.org;On;On;Off;TCP;Tls;UDP;BestEffort;Off;Off;FALSE;FALSE;Auto;2;4;3;687;1068;624;5609;4865;3628;2478;3718;5946;3409;4701;4975;SILK-12000;telephone-event-80000;telephone-event-80000;VP8;Auto;VP8;480;360;1080;NotDone
SIP;SIP;iptel.org;On;On;On;UDP;TCP;UDP;Off;BestEffort;Off;FALSE;FALSE;TRUE;3;3;3;1762;1411;624;4983;5563;5321;5810;2087;5698;1946;4904;5997;PCMA-8000;G722-16000;speex-32000;ulpfec;ulpfec;rtx;720;360;720;NotDone
IRC;SIP;IRC;On;Off;On;Tls;UDP;Tls;Off;BestEffort;BestEffort;FALSE;FALSE;FALSE;3;4;2;891;705;1334;5986;5930;5547;5540;2297;4677;697;404;5783;SILK-8000;SILK-12000;GSM-8000;VP8;VP8;VP8;240;360;1080;NotDone
IRC;IRC;SIP;Off;On;Off;TCP;Tls;TCP;Off;BestEffort;BestEffort;TRUE;Auto;Auto;3;3;4;1140;1939;1451;5451;5680;3937;2643;2838;1244;73;221;1604;speex-32000;iLBC-8000;PCMU-8000;h264;Auto;ulpfec;1080;1080;1080;NotDone
ICQ;GoogleTalk;iPPi;Off;Off;On;Auto;Auto;TCP;On;BestEffort;BestEffort;Auto;TRUE;TRUE;2;3;2;1122;623;1870;3820;5644;5582;5830;4005;1638;4082;4150;5763;AMR-WB-16000;iLBC-8000;telephone-event-80000;VP8;ulpfec;red;360;480;360;NotDone
ICQ;iPPi;iptel.org;Off;Off;Off;Tls;Tls;Tls;On;BestEffort;On;FALSE;TRUE;FALSE;3;4;3;1252;790;1705;5560;5971;1814;2428;563;458;5670;5632;5991;Auto;telephone-event-80000;SILK-24000;ulpfec;ulpfec;VP8;480;480;720;NotDone
IRC;ICQ;GoogleTalk;On;On;On;UDP;Auto;Auto;Off;Off;Off;TRUE;Auto;TRUE;2;2;3;1911;1705;1855;5866;1989;3830;391;495;5943;664;5532;5476;G722-16000;opus-48000;PCMU-8000;red;Auto;Auto;240;480;720;NotDone
IRC;AIM;AIM;Off;On;Off;Tls;TCP;TCP;Off;Off;Off;Auto;Auto;TRUE;4;4;3;1689;634;1764;5614;557;5536;4679;5591;508;4736;1675;5018;opus-48000;SILK-8000;SILK-16000;Auto;VP8;VP8;1080;1080;1080;NotDone
IRC;IRC;GoogleTalk;Off;On;Off;Tls;Tls;TCP;Off;On;Off;FALSE;TRUE;Auto;3;4;3;1864;1334;854;5005;2245;4573;1857;5431;3079;5768;312;5225;SILK-8000;iLBC-8000;SILK-8000;red;Auto;VP8;480;480;360;NotDone
IRC;iPPi;GoogleTalk;Off;On;On;TCP;Tls;UDP;On;BestEffort;On;Auto;TRUE;Auto;4;3;2;1509;1703;1196;278;4890;4939;5014;4327;5571;3137;2855;5994;SILK-8000;PCMA-8000;SILK-12000;rtx;Auto;VP8;480;480;360;NotDone
IRC;iptel.org;iPPi;On;On;On;Auto;UDP;UDP;Off;Off;Off;FALSE;TRUE;FALSE;3;4;4;952;1052;1831;4128;5307;1464;4945;5715;5690;4048;5411;5265;speex-32000;telephone-event-80000;speex-8000;red;VP8;VP8;240;480;240;NotDone
IRC;SIP;AIM;On;On;On;Auto;TCP;UDP;Off;On;Off;TRUE;TRUE;TRUE;3;4;4;1199;1507;1828;3302;272;5726;263;3721;5942;466;5175;4878;telephone-event-80000;speex-16000;opus-48000;Auto;Auto;VP8;720;720;720;NotDone
SIP;iPPi;iPPi;Off;On;Off;Auto;Tls;Auto;Off;Off;Off;Auto;TRUE;TRUE;4;3;4;1933;958;1280;4376;1919;79;2155;5412;5597;2383;566;5999;G722-16000;opus-48000;speex-8000;rtx;Auto;ulpfec;480;480;480;NotDone
ICQ;IRC;ICQ;Off;On;On;TCP;TCP;TCP;Off;Off;Off;FALSE;FALSE;TRUE;4;2;4;873;1919;808;4832;1279;740;5554;770;819;4546;5867;5916;SILK-16000;SILK-8000;AMR-WB-16000;red;Auto;h264;720;240;360;NotDone
AIM;ICQ;iptel.org;Off;Off;Off;Tls;UDP;UDP;Off;On;Off;Auto;TRUE;Auto;4;3;4;1098;1173;1319;265;3857;4706;1808;5936;995;5907;5133;4659;PCMU-8000;SILK-24000;SILK-8000;ulpfec;Auto;VP8;1080;720;720;NotDone
AIM;GoogleTalk;GoogleTalk;Off;Off;Off;UDP;UDP;Tls;On;BestEffort;Off;FALSE;Auto;Auto;4;3;2;686;937;740;322;264;5145;2441;832;184;1753;4377;4782;Auto;PCMA-8000;GSM-8000;red;Auto;VP8;360;1080;1080;NotDone
IRC;iptel.org;GoogleTalk;On;Off;On;Tls;UDP;TCP;BestEffort;On;Off;FALSE;TRUE;TRUE;3;4;4;708;1814;1404;4862;5630;5535;5519;1373;5964;413;5679;5858;telephone-event-80000;speex-32000;telephone-event-80000;h264;VP8;red;240;360;240;NotDone
IRC;iPPi;GoogleTalk;Off;On;Off;UDP;Tls;TCP;BestEffort;Off;Off;TRUE;Auto;FALSE;2;3;4;1611;771;675;5850;4906;1278;4381;4164;1547;4820;174;1171;SILK-16000;opus-48000;PCMA-8000;Auto;Auto;VP8;1080;480;480;NotDone
iPPi;iPPi;ICQ;Off;On;On;TCP;Tls;Tls;BestEffort;Off;BestEffort;Auto;FALSE;FALSE;2;4;3;695;934;621;5044;4794;364;3804;5706;2561;5445;1539;5822;telephone-event-80000;PCMA-8000;SILK-8000;VP8;VP8;VP8;480;240;480;NotDone
AIM;AIM;iPPi;On;Off;On;Tls;Tls;TCP;BestEffort;Off;Off;FALSE;TRUE;FALSE;2;3;2;801;762;971;4638;3777;4696;4916;732;3287;5296;4276;5268;Auto;AMR-WB-16000;PCMU-8000;h264;Auto;VP8;480;720;1080;NotDone
IRC;iptel.org;AIM;On;On;On;Tls;Tls;Auto;On;On;On;Auto;TRUE;FALSE;3;2;2;1590;857;620;5961;4387;5759;4292;4266;1555;3162;5165;5817;PCMU-8000;SILK-24000;speex-16000;VP8;Auto;ulpfec;480;360;240;NotDone
AIM;iptel.org;GoogleTalk;Off;On;Off;Tls;UDP;TCP;On;On;Off;Auto;Auto;FALSE;2;3;3;1754;1173;1572;5894;1904;5692;879;4368;5986;4968;5645;4974;AMR-WB-16000;PCMA-8000;Auto;red;red;VP8;720;360;480;NotDone
AIM;iptel.org;IRC;Off;On;Off;TCP;Tls;Auto;On;Off;Off;FALSE;FALSE;FALSE;4;4;3;1351;1293;1735;3429;3815;2593;2874;5659;2087;5944;1142;5912;GSM-8000;PCMA-8000;SILK-12000;h264;Auto;VP8;1080;240;240;NotDone
AIM;ICQ;ICQ;Off;On;Off;Tls;TCP;UDP;Off;On;BestEffort;Auto;Auto;Auto;3;2;3;911;1940;1983;5905;5764;5468;1682;5587;79;640;427;4829;SILK-24000;telephone-event-80000;speex-8000;VP8;Auto;Auto;240;480;720;NotDone
AIM;SIP;GoogleTalk;On;On;Off;Auto;Auto;Auto;Off;BestEffort;Off;Auto;FALSE;Auto;2;2;3;668;1316;716;705;1182;5794;621;1187;731;73;5629;5346;Auto;SILK-8000;AMR-WB-16000;h264;Auto;VP8;480;720;720;NotDone
ICQ;IRC;iPPi;Off;Off;On;Auto;TCP;UDP;On;Off;BestEffort;TRUE;Auto;TRUE;2;4;2;623;1231;1084;3774;413;5253;1796;4159;3596;5740;1984;5864;SILK-16000;PCMA-8000;speex-8000;ulpfec;Auto;VP8;720;720;240;NotDone
ICQ;GoogleTalk;IRC;Off;Off;On;TCP;TCP;TCP;Off;On;Off;FALSE;TRUE;Auto;4;3;4;1502;1564;1064;5346;130;1789;1739;850;3180;1247;5584;2099;telephone-event-80000;speex-8000;SILK-12000;VP8;Auto;VP8;480;720;360;NotDone
AIM;SIP;GoogleTalk;On;On;Off;TCP;Auto;Auto;On;BestEffort;Off;FALSE;FALSE;TRUE;3;3;2;941;1000;985;4972;3245;1892;142;5353;2885;5253;2779;5237;telephone-event-80000;speex-16000;PCMA-8000;h264;VP8;ulpfec;240;720;720;NotDone
IRC;ICQ;GoogleTalk;On;Off;On;Auto;TCP;Tls;On;BestEffort;BestEffort;TRUE;FALSE;TRUE;2;4;2;1977;1572;770;3740;5523;5917;4228;403;95;4255;387;5916;speex-32000;speex-8000;SILK-16000;VP8;Auto;h264;1080;480;240;NotDone
AIM;ICQ;GoogleTalk;On;On;Off;Tls;TCP;TCP;Off;BestEffort;Off;TRUE;TRUE;TRUE;2;2;4;1125;1414;868;5346;83;4064;548;3043;388;5367;3716;5301;SILK-24000;opus-48000;opus-48000;Auto;VP8;VP8;240;240;480;NotDone
AIM;AIM;iptel.org;Off;On;Off;TCP;TCP;Tls;On;Off;Off;FALSE;FALSE;Auto;3;4;4;1001;937;820;579;4448;4966;321;879;4831;5813;4441;5514;speex-32000;iLBC-8000;SILK-16000;red;Auto;VP8;480;720;480;NotDone
IRC;IRC;iPPi;Off;Off;On;Auto;TCP;Auto;Off;Off;On;TRUE;Auto;FALSE;4;3;3;1259;1601;1149;3353;3445;4695;960;2175;5730;5419;5338;744;opus-48000;SILK-16000;Auto;h264;h264;ulpfec;1080;480;360;NotDone
IRC;iptel.org;iptel.org;Off;On;On;Auto;UDP;Auto;Off;BestEffort;Off;TRUE;TRUE;TRUE;2;4;3;823;1285;980;4617;5394;1535;1887;1290;2852;3894;4496;2488;AMR-WB-16000;PCMA-8000;iLBC-8000;h264;Auto;ulpfec;360;1080;240;NotDone
IRC;IRC;IRC;Off;Off;Off;Auto;Auto;Tls;Off;On;Off;Auto;TRUE;Auto;4;2;3;946;781;1481;2504;5231;1761;2153;3387;1297;1223;713;5982;telephone-event-80000;speex-8000;Auto;VP8;Auto;Auto;360;720;720;NotDone
AIM;IRC;IRC;On;Off;Off;Auto;Tls;Auto;Off;BestEffort;Off;TRUE;TRUE;TRUE;2;4;2;1475;903;1508;5801;5743;1611;5759;5766;5270;2112;5724;4502;SILK-12000;iLBC-8000;telephone-event-80000;Auto;rtx;ulpfec;1080;480;720;NotDone
AIM;ICQ;iptel.org;Off;On;On;UDP;Tls;UDP;Off;On;On;FALSE;FALSE;Auto;4;4;3;1418;1817;921;5749;5846;4507;71;155;338;245;1367;5738;SILK-8000;Auto;telephone-event-80000;h264;ulpfec;VP8;720;240;480;NotDone
ICQ;GoogleTalk;iptel.org;Off;Off;On;Tls;Auto;UDP;BestEffort;BestEffort;BestEffort;FALSE;Auto;Auto;3;3;3;1492;1140;1565;4035;266;3331;5991;2103;5961;5635;722;5683;speex-32000;speex-16000;SILK-12000;red;Auto;VP8;360;720;360;NotDone
ICQ;iptel.org;AIM;Off;On;On;TCP;UDP;TCP;Off;On;Off;TRUE;Auto;FALSE;2;2;3;1673;633;938;5066;4240;5393;5382;2892;3493;4353;3204;454;SILK-16000;telephone-event-80000;AMR-WB-16000;Auto;Auto;VP8;720;1080;360;NotDone
GoogleTalk;IRC;ICQ;Off;Off;On;UDP;Auto;UDP;On;BestEffort;BestEffort;FALSE;TRUE;TRUE;4;2;3;1466;758;1407;5968;5902;2348;3294;204;4522;5836;1049;4297;GSM-8000;Auto;speex-8000;VP8;VP8;ulpfec;360;1080;1080;NotDone
iptel.org;IRC;AIM;Off;On;Off;UDP;Auto;TCP;On;Off;Off;Auto;Auto;Auto;2;3;4;1748;1683;1920;1964;1663;217;1976;2185;5639;5475;360;5797;iLBC-8000;PCMU-8000;telephone-event-80000;ulpfec;Auto;VP8;1080;480;240;NotDone
AIM;GoogleTalk;GoogleTalk;On;On;On;Tls;TCP;Tls;BestEffort;On;On;TRUE;FALSE;TRUE;3;2;4;1681;985;1914;5692;4163;4207;2600;5747;5108;5356;703;5882;SILK-12000;iLBC-8000;SILK-24000;Auto;Auto;VP8;240;360;240;NotDone
IRC;AIM;iPPi;Off;Off;On;TCP;UDP;UDP;On;BestEffort;Off;Auto;FALSE;Auto;3;4;3;999;628;835;3906;4323;5103;1305;4146;5592;741;2997;5402;G722-16000;SILK-16000;PCMU-8000;rtx;Auto;VP8;480;1080;720;NotDone
iPPi;GoogleTalk;IRC;Off;On;Off;UDP;Tls;UDP;Off;BestEffort;On;FALSE;Auto;FALSE;3;4;2;773;1257;660;4946;5091;5557;5035;5978;4759;2634;5485;5963;SILK-12000;GSM-8000;opus-48000;VP8;Auto;VP8;360;720;720;NotDone
ICQ;IRC;SIP;Off;Off;On;TCP;UDP;Auto;On;Off;Off;TRUE;TRUE;TRUE;3;4;3;1348;1049;1083;3130;3782;3094;1023;715;155;5122;283;3018;AMR-WB-16000;opus-48000;SILK-24000;h264;Auto;VP8;240;240;480;NotDone
AIM;iPPi;iptel.org;Off;On;On;Tls;TCP;TCP;On;Off;BestEffort;TRUE;Auto;TRUE;2;3;3;769;1190;899;2873;3880;4508;67;856;1943;3889;1715;2005;iLBC-8000;opus-48000;SILK-8000;red;Auto;VP8;240;240;480;NotDone
iPPi;GoogleTalk;GoogleTalk;Off;On;Off;Tls;Auto;TCP;Off;On;Off;FALSE;FALSE;Auto;2;2;3;972;1769;1440;4456;3987;2577;4357;94;201;2702;5900;4945;speex-8000;speex-8000;iLBC-8000;h264;Auto;VP8;480;240;1080;NotDone
IRC;IRC;SIP;On;Off;On;UDP;Tls;UDP;BestEffort;BestEffort;On;Auto;TRUE;TRUE;2;2;2;1390;635;658;5959;1555;3197;5530;5938;5341;318;3365;5950;SILK-16000;telephone-event-80000;SILK-8000;ulpfec;Auto;VP8;720;240;240;NotDone
AIM;GoogleTalk;IRC;Off;On;On;UDP;UDP;Auto;On;BestEffort;BestEffort;Auto;Auto;Auto;2;2;2;1208;1403;682;543;1775;5800;5197;3761;5673;754;5635;5919;PCMA-8000;speex-16000;PCMU-8000;rtx;red;VP8;720;240;360;NotDone
AIM;SIP;AIM;On;On;Off;Auto;Tls;Auto;Off;BestEffort;Off;FALSE;Auto;Auto;4;3;4;1677;1915;1154;5542;4418;5647;5843;5318;5078;4647;633;4775;speex-16000;PCMU-8000;AMR-WB-16000;red;Auto;VP8;480;720;240;NotDone
SIP;iptel.org;AIM;Off;On;Off;TCP;TCP;Auto;Off;Off;Off;FALSE;TRUE;TRUE;4;2;2;1904;741;1707;4696;1154;4447;3037;1061;120;277;2213;5708;telephone-event-80000;telephone-event-80000;SILK-16000;VP8;ulpfec;VP8;240;240;240;NotDone
IRC;AIM;iPPi;Off;On;Off;Auto;Tls;TCP;On;Off;Off;FALSE;FALSE;FALSE;3;3;3;1306;969;1523;755;2817;375;4040;5418;1343;5251;239;5255;speex-8000;SILK-12000;SILK-24000;red;Auto;VP8;360;1080;1080;NotDone
ICQ;IRC;ICQ;Off;On;Off;Tls;UDP;UDP;Off;Off;On;Auto;FALSE;TRUE;3;2;3;924;1833;1687;5768;609;1981;292;315;3487;5311;5973;5760;speex-16000;speex-32000;G722-16000;VP8;VP8;VP8;1080;480;360;NotDone
AIM;IRC;GoogleTalk;On;Off;On;UDP;Auto;TCP;On;Off;On;FALSE;Auto;TRUE;4;2;3;650;1967;1487;4962;2224;2773;85;1383;2331;183;4835;5885;PCMA-8000;speex-32000;SILK-12000;ulpfec;Auto;ulpfec;360;360;360;NotDone
AIM;IRC;iptel.org;Off;Off;Off;TCP;TCP;UDP;Off;On;On;Auto;Auto;TRUE;2;3;4;1970;1506;841;5892;1086;4574;867;4655;1190;732;5380;5285;SILK-8000;PCMA-8000;speex-16000;rtx;ulpfec;ulpfec;720;240;360;NotDone
IRC;iptel.org;iptel.org;On;On;On;Tls;Tls;TCP;Off;On;On;FALSE;Auto;TRUE;4;2;4;801;1731;1663;5215;5936;5870;751;4259;4353;3822;5613;3258;GSM-8000;telephone-event-80000;PCMU-8000;h264;Auto;ulpfec;240;480;480;NotDone
ICQ;AIM;GoogleTalk;On;Off;On;UDP;TCP;Tls;Off;On;Off;Auto;Auto;FALSE;3;4;3;1977;727;1193;4341;91;1041;930;2496;515;5793;1747;1789;telephone-event-80000;telephone-event-80000;SILK-8000;red;Auto;VP8;1080;240;240;NotDone
SIP;SIP;iptel.org;On;Off;Off;TCP;UDP;Tls;Off;BestEffort;Off;TRUE;TRUE;FALSE;2;3;2;1886;1542;1482;2786;5092;5651;1986;5540;4494;4355;5637;5800;PCMA-8000;speex-8000;Auto;ulpfec;Auto;VP8;1080;360;1080;NotDone
ICQ;GoogleTalk;GoogleTalk;Off;On;Off;Tls;Tls;UDP;Off;On;Off;Auto;Auto;Auto;2;3;4;796;1990;1623;5027;1281;1682;2167;4482;3910;3850;328;693;AMR-WB-16000;SILK-16000;SILK-16000;rtx;ulpfec;h264;480;480;480;NotDone
IRC;IRC;ICQ;On;On;On;UDP;TCP;Tls;Off;BestEffort;BestEffort;FALSE;FALSE;TRUE;3;4;2;1576;1015;995;156;1861;1663;3165;5910;5548;4301;1727;5575;PCMA-8000;telephone-event-80000;AMR-WB-16000;h264;VP8;VP8;240;1080;240;NotDone
AIM;iptel.org;iPPi;Off;Off;On;UDP;UDP;Tls;Off;BestEffort;Off;TRUE;Auto;TRUE;2;4;3;1729;908;1661;3402;479;4550;913;4218;3801;5155;5271;2233;opus-48000;telephone-event-80000;opus-48000;rtx;Auto;h264;480;480;240;NotDone
AIM;AIM;iPPi;Off;Off;Off;Tls;TCP;UDP;BestEffort;On;BestEffort;FALSE;FALSE;TRUE;4;4;3;702;1994;1996;5950;4350;5171;5858;772;4547;521;643;4064;GSM-8000;speex-16000;iLBC-8000;h264;VP8;rtx;480;240;1080;NotDone
SIP;SIP;iPPi;Off;On;On;TCP;UDP;UDP;BestEffort;BestEffort;BestEffort;FALSE;FALSE;Auto;2;2;2;1941;631;1362;202;850;5126;338;1820;1018;1529;5732;5695;speex-8000;SILK-16000;AMR-WB-16000;rtx;Auto;Auto;360;1080;1080;NotDone
IRC;ICQ;ICQ;On;Off;On;Auto;TCP;TCP;Off;BestEffort;Off;Auto;FALSE;FALSE;3;4;3;1874;1564;1184;5701;5201;1893;3989;4911;4038;639;5265;5928;SILK-12000;PCMA-8000;PCMA-8000;ulpfec;VP8;VP8;720;1080;720;NotDone
ICQ;SIP;iptel.org;On;On;On;Auto;UDP;Auto;Off;Off;BestEffort;TRUE;FALSE;TRUE;4;4;3;1852;811;1861;4560;683;5012;5196;490;3455;4454;5974;541;speex-8000;speex-32000;SILK-12000;VP8;Auto;VP8;720;1080;1080;NotDone
ICQ;GoogleTalk;iPPi;On;Off;On;Tls;Auto;Auto;Off;On;Off;Auto;Auto;FALSE;3;3;3;871;736;932;4344;2183;3118;2408;5372;1263;5910;3303;5973;speex-16000;telephone-event-80000;PCMA-8000;rtx;Auto;ulpfec;240;240;720;NotDone
iPPi;iptel.org;iptel.org;Off;On;Off;Tls;TCP;TCP;Off;BestEffort;BestEffort;Auto;Auto;FALSE;3;4;2;606;1135;1067;4947;5338;2237;5998;4415;5235;1063;878;3769;SILK-24000;SILK-8000;PCMU-8000;ulpfec;Auto;VP8;480;1080;480;NotDone
ICQ;GoogleTalk;IRC;Off;Off;On;Auto;UDP;TCP;Off;Off;Off;TRUE;TRUE;FALSE;4;3;4;691;1333;1111;687;1006;2253;2392;3853;913;281;3453;1066;Auto;PCMU-8000;opus-48000;ulpfec;ulpfec;rtx;360;720;1080;NotDone
AIM;ICQ;GoogleTalk;On;Off;On;TCP;Tls;Tls;Off;BestEffort;On;Auto;FALSE;FALSE;2;2;3;1431;1349;874;1761;3259;2441;1194;4038;5450;4882;5267;253;SILK-16000;PCMA-8000;Auto;ulpfec;Auto;VP8;1080;720;480;NotDone
IRC;iPPi;AIM;Off;Off;On;Tls;Auto;TCP;On;BestEffort;On;TRUE;FALSE;FALSE;4;3;2;1945;1972;669;3933;230;5508;1424;5084;3035;5514;5248;3263;G722-16000;opus-48000;telephone-event-80000;Auto;rtx;VP8;1080;720;360;NotDone
GoogleTalk;IRC;IRC;On;Off;Off;Auto;Tls;Auto;BestEffort;Off;BestEffort;Auto;FALSE;FALSE;4;2;4;1672;1726;1456;979;1983;436;2102;2241;3992;5853;247;4923;speex-16000;speex-16000;speex-32000;ulpfec;rtx;VP8;360;480;1080;NotDone
AIM;GoogleTalk;GoogleTalk;Off;Off;On;UDP;TCP;Tls;Off;Off;BestEffort;Auto;TRUE;FALSE;4;3;2;672;1047;1051;3452;4139;5940;2495;418;85;320;5988;5776;PCMA-8000;GSM-8000;SILK-12000;VP8;Auto;h264;240;1080;240;NotDone
ICQ;iptel.org;IRC;On;On;On;Tls;Auto;TCP;Off;Off;BestEffort;FALSE;FALSE;Auto;4;4;3;1377;1064;1198;5216;1054;4130;2724;592;427;1059;154;337;SILK-12000;SILK-16000;GSM-8000;Auto;ulpfec;rtx;360;480;1080;NotDone
ICQ;iPPi;ICQ;On;On;Off;TCP;UDP;TCP;On;BestEffort;Off;FALSE;Auto;FALSE;3;3;2;1768;693;1979;5926;3609;1764;4306;2726;686;511;1792;666;PCMA-8000;AMR-WB-16000;Auto;Auto;rtx;h264;1080;1080;240;NotDone
iptel.org;iptel.org;AIM;Off;Off;Off;TCP;UDP;UDP;On;BestEffort;On;TRUE;TRUE;TRUE;4;3;2;729;1090;579;1655;510;3877;3594;5903;137;4166;472;4397;speex-32000;GSM-8000;speex-16000;h264;red;rtx;480;720;360;NotDone
iptel.org;IRC;iptel.org;On;On;Off;TCP;Tls;TCP;Off;BestEffort;Off;TRUE;FALSE;Auto;2;3;4;1550;1327;1286;410;1650;661;4114;5421;3119;3018;1789;2190;SILK-16000;SILK-24000;AMR-WB-16000;red;h264;rtx;720;240;720;NotDone
AIM;iPPi;SIP;Off;On;Off;TCP;TCP;TCP;Off;BestEffort;BestEffort;Auto;FALSE;Auto;3;4;4;1245;1653;1283;5906;4751;1210;818;5968;992;2399;2783;5617;SILK-12000;opus-48000;speex-16000;h264;rtx;red;1080;240;480;NotDone
IRC;IRC;SIP;On;On;Off;TCP;UDP;Tls;Off;Off;Off;FALSE;FALSE;Auto;3;3;3;1747;578;1707;1026;2642;4979;3925;3437;5661;1967;794;5661;SILK-16000;PCMA-8000;G722-16000;VP8;ulpfec;h264;1080;240;1080;NotDone
ICQ;ICQ;ICQ;On;Off;Off;TCP;Auto;UDP;Off;BestEffort;Off;Auto;Auto;Auto;2;3;2;579;1297;862;3548;4954;822;376;2864;3850;2167;5003;648;SILK-16000;G722-16000;SILK-12000;h264;red;ulpfec;1080;480;480;NotDone
ICQ;IRC;IRC;Off;On;On;Tls;Auto;Auto;BestEffort;Off;On;FALSE;FALSE;Auto;3;2;4;1096;650;1236;5742;3962;1280;4145;4417;4803;2448;1640;3623;opus-48000;PCMU-8000;SILK-24000;ulpfec;VP8;red;360;360;360;NotDone
IRC;iptel.org;AIM;Off;Off;Off;Auto;Tls;Tls;Off;BestEffort;BestEffort;FALSE;Auto;FALSE;3;3;4;1406;1659;1089;293;1263;2416;134;3034;2304;3131;3717;4539;opus-48000;PCMA-8000;opus-48000;VP8;red;rtx;360;360;360;NotDone
AIM;SIP;AIM;On;On;On;UDP;Auto;Auto;Off;BestEffort;BestEffort;FALSE;Auto;TRUE;3;4;3;1889;1694;838;2676;5845;5478;1754;3834;4005;663;1582;2595;iLBC-8000;speex-16000;PCMA-8000;red;h264;red;1080;1080;360;NotDone
ICQ;iptel.org;IRC;On;On;On;Tls;Tls;Auto;Off;BestEffort;BestEffort;TRUE;Auto;Auto;4;3;4;1089;1161;1302;4372;1997;3241;2631;3194;1668;994;2891;5754;SILK-12000;PCMA-8000;SILK-12000;h264;Auto;h264;240;360;360;NotDone
GoogleTalk;SIP;iptel.org;On;On;On;UDP;Auto;Auto;BestEffort;BestEffort;Off;FALSE;FALSE;FALSE;4;2;2;1173;1951;1103;4719;4836;2260;869;3651;802;4186;2001;1558;AMR-WB-16000;PCMU-8000;telephone-event-80000;rtx;h264;rtx;1080;480;360;NotDone
AIM;ICQ;iptel.org;Off;Off;Off;Auto;Auto;Tls;Off;BestEffort;BestEffort;Auto;TRUE;TRUE;3;3;4;767;1515;1005;4978;3142;1448;4481;1931;2281;4239;3471;3748;speex-8000;opus-48000;speex-32000;VP8;h264;red;480;720;240;NotDone
ICQ;IRC;AIM;Off;Off;Off;TCP;TCP;Auto;Off;BestEffort;BestEffort;TRUE;FALSE;Auto;2;2;2;1952;1561;1425;3951;2059;1308;3761;2782;5084;1078;2318;725;speex-32000;speex-16000;GSM-8000;VP8;Auto;red;720;360;1080;NotDone
