caller_protocol;callee1_protocol;callee2_protocol;caller_listenport;callee1_listenport;callee2_listenport;caller_transportprotocol;callee1_transportprotocol;callee2_transportprotocol;caller_encryption;callee1_encryption;callee2_encryption;caller_sipzrtpattribute;callee1_sipzrtpattribute;callee2_sipzrtpattribute;caller_maxpeers;callee1_maxpeers;callee2_maxpeers;caller_mtu;callee1_mtu;callee2_mtu;caller_defaultcallrate;callee1_defaultcallrate;callee2_defaultcallrate;caller_maxreceivecallrate;callee1_maxreceivecallrate;callee2_maxreceivecallrate;caller_maxtransmitcallrate;callee1_maxtransmitcallrate;callee2_maxtransmitcallrate;caller_audiocodec;callee1_audiocodec;callee2_audiocodec;caller_videocodec;callee1_videocodec;callee2_videocodec;caller_maxresolution;callee1_maxresolution;callee2_maxresolution;
SIP;iPPi;AIM;On;On;On;TCP;UDP;TCP;Off;Off;Off;FALSE;Auto;Auto;3;2;4;1913;678;922;5720;425;4004;4015;5167;5837;4280;2989;3382;SILK-16000;PCMU-8000;telephone-event-80000;h264;ulpfec;red;720;720;720;NotDone
ICQ;SIP;IRC;Off;Off;Off;Auto;Auto;Auto;Off;Off;Off;Auto;Auto;Auto;2;2;2;1422;2000;2000;6000;6000;6000;6000;64;6000;6000;64;6000;Auto;Auto;telephone-event-80000;Auto;ulpfec;Auto;1080;1080;1080;NotDone
AIM;IRC;GoogleTalk;Off;Off;Off;Auto;TCP;TCP;On;Off;Off;Auto;Auto;TRUE;2;2;3;798;1195;1195;3032;5333;2478;5953;3416;3032;5456;1105;5768;SILK-16000;GSM-8000;SILK-8000;Auto;VP8;VP8;1080;1080;1080;NotDone
SIP;iptel.org;SIP;Off;Off;Off;Auto;Auto;Auto;Off;Off;Off;Auto;Auto;Auto;2;2;2;638;647;647;4220;5986;360;5982;5712;110;5986;202;5986;Auto;Auto;SILK-8000;Auto;VP8;VP8;1080;1080;1080;NotDone
SIP;IRC;SIP;Off;Off;Off;Auto;Auto;Auto;Off;Off;Off;Auto;Auto;Auto;2;2;2;1376;983;983;6000;5894;5004;6000;3607;313;5995;231;5994;Auto;PCMU-8000;SILK-8000;Auto;ulpfec;VP8;1080;1080;1080;NotDone
SIP;IRC;GoogleTalk;Off;Off;Off;Auto;Auto;Auto;Off;Off;Off;Auto;Auto;Auto;2;2;2;2000;2000;2000;6000;64;6000;6000;64;6000;64;64;64;Auto;Auto;Auto;Auto;Auto;Auto;1080;1080;1080;NotDone
SIP;iptel.org;SIP;Off;Off;Off;Auto;Auto;Auto;Off;Off;Off;Auto;Auto;Auto;2;2;2;1015;2000;2000;6000;6000;6000;6000;64;64;5977;242;5977;Auto;speex-16000;SILK-12000;Auto;ulpfec;ulpfec;1080;1080;1080;NotDone
SIP;iptel.org;SIP;Off;Off;Off;Auto;Auto;Auto;Off;Off;Off;Auto;Auto;Auto;2;2;2;2000;2000;2000;6000;64;6000;6000;64;6000;64;64;64;Auto;Auto;Auto;Auto;Auto;Auto;1080;1080;1080;NotDone
IRC;SIP;IRC;Off;Off;Off;Auto;Auto;Auto;Off;Off;Off;Auto;Auto;Auto;2;2;2;2000;2000;2000;6000;64;6000;64;64;6000;64;64;64;SILK-8000;SILK-8000;Auto;Auto;Auto;Auto;480;480;1080;NotDone
SIP;ICQ;SIP;Off;Off;Off;Auto;TCP;TCP;On;Off;Off;Auto;Auto;TRUE;2;2;3;647;576;576;5390;6000;64;3032;6000;592;6000;64;6000;iLBC-8000;telephone-event-80000;SILK-12000;Auto;VP8;VP8;1080;1080;1080;NotDone
SIP;SIP;IRC;Off;Off;Off;Auto;Auto;Auto;Off;Off;Off;Auto;Auto;Auto;2;2;2;2000;2000;2000;6000;6000;6000;6000;64;64;6000;64;6000;Auto;Auto;SILK-12000;VP8;Auto;Auto;1080;1080;1080;NotDone
GoogleTalk;IRC;SIP;Off;Off;Off;Auto;Auto;Auto;Off;Off;Off;Auto;TRUE;Auto;2;2;2;1062;872;950;4010;6000;3032;3148;4200;3466;5540;64;6000;Auto;SILK-12000;SILK-8000;red;VP8;VP8;1080;480;1080;NotDone
SIP;IRC;SIP;Off;Off;Off;Auto;Auto;Auto;Off;Off;Off;Auto;Auto;Auto;2;2;2;900;576;576;5962;5891;1737;2945;4992;64;5904;127;5891;Auto;SILK-8000;PCMU-8000;Auto;VP8;VP8;1080;1080;1080;NotDone
SIP;SIP;IRC;Off;Off;Off;Auto;Auto;Auto;Off;Off;Off;Auto;Auto;Auto;2;2;2;2000;2000;2000;6000;64;6000;6000;64;64;64;64;64;Auto;Auto;Auto;Auto;Auto;Auto;1080;1080;1080;NotDone
SIP;ICQ;SIP;Off;Off;Off;Auto;TCP;TCP;On;Off;Off;Auto;Auto;TRUE;2;2;3;719;647;647;4361;5162;360;3032;5703;2934;5970;3032;5966;PCMU-8000;SILK-8000;AMR-WB-16000;Auto;VP8;VP8;1080;720;720;NotDone
SIP;IRC;SIP;Off;Off;Off;Auto;TCP;TCP;On;Off;Off;Auto;Auto;TRUE;2;2;3;576;576;576;64;6000;64;6000;6000;6000;6000;6000;6000;Auto;telephone-event-80000;telephone-event-80000;Auto;VP8;VP8;1080;1080;1080;NotDone
IRC;SIP;IRC;Off;Off;Off;Auto;Auto;Auto;Off;Off;Off;Auto;Auto;Auto;2;2;2;2000;2000;2000;6000;6000;6000;6000;64;6000;6000;64;6000;Auto;Auto;telephone-event-80000;Auto;Auto;Auto;1080;1080;1080;NotDone
SIP;iPPi;GoogleTalk;Off;Off;Off;Auto;Auto;Auto;Off;Off;Off;Auto;Auto;Auto;2;2;2;1327;693;676;4575;5881;403;3281;3918;985;5865;188;3858;SILK-16000;iLBC-8000;GSM-8000;Auto;VP8;VP8;1080;1080;1080;NotDone
IRC;SIP;IRC;Off;Off;Off;Auto;Auto;Auto;Off;Off;Off;Auto;Auto;Auto;2;2;2;2000;2000;2000;6000;64;6000;64;64;6000;64;64;64;telephone-event-80000;Auto;Auto;Auto;Auto;Auto;240;1080;1080;NotDone
SIP;IRC;SIP;Off;Off;Off;Auto;Auto;Auto;Off;Off;Off;Auto;Auto;Auto;2;2;2;2000;2000;2000;5997;6000;6000;64;64;64;6000;64;6000;Auto;Auto;telephone-event-80000;Auto;Auto;Auto;1080;1080;1080;NotDone
SIP;ICQ;GoogleTalk;Off;Off;Off;Auto;TCP;Auto;On;Off;Off;Auto;Auto;Auto;2;2;3;1294;576;576;4720;6000;64;3634;5142;1278;6000;1109;3209;G722-16000;SILK-8000;SILK-12000;Auto;VP8;VP8;1080;1080;1080;NotDone
SIP;AIM;GoogleTalk;Off;Off;Off;Auto;TCP;Auto;On;Off;Off;Auto;Auto;Auto;2;2;3;1503;610;610;5592;5703;230;2436;5942;585;5703;180;2036;PCMA-8000;SILK-8000;telephone-event-80000;Auto;VP8;VP8;1080;1080;1080;NotDone
SIP;SIP;SIP;Off;Off;Off;Auto;Auto;Auto;Off;Off;Off;Auto;Auto;Auto;2;2;2;2000;2000;2000;6000;6000;6000;64;64;64;6000;64;6000;telephone-event-80000;Auto;Auto;Auto;Auto;Auto;1080;1080;1080;NotDone
SIP;ICQ;SIP;Off;Off;Off;Auto;Auto;Auto;Off;Off;Off;Auto;Auto;Auto;2;2;2;1662;2000;2000;6000;6000;6000;2328;3032;64;6000;2798;6000;Auto;SILK-24000;telephone-event-80000;Auto;VP8;VP8;1080;1080;1080;NotDone
GoogleTalk;ICQ;ICQ;Off;Off;Off;Auto;TCP;Auto;On;Off;Off;Auto;Auto;Auto;2;2;3;1214;953;953;4583;6000;1305;3032;4494;2105;6000;1215;3578;PCMU-8000;SILK-12000;SILK-8000;Auto;VP8;VP8;720;720;1080;NotDone
SIP;IRC;SIP;Off;Off;Off;Tls;Auto;Auto;BestEffort;Off;Off;Auto;Auto;Auto;2;2;2;576;576;576;64;6000;64;6000;6000;6000;6000;6000;64;Auto;telephone-event-80000;telephone-event-80000;Auto;VP8;VP8;1080;240;1080;NotDone
SIP;GoogleTalk;AIM;Off;Off;Off;Auto;TCP;Auto;On;Off;Off;Auto;Auto;Auto;2;2;3;1078;598;598;5020;5826;184;3814;5344;1791;5875;2476;3999;speex-32000;SILK-8000;AMR-WB-16000;Auto;VP8;VP8;1080;1080;1080;NotDone
SIP;GoogleTalk;SIP;Off;Off;Off;Auto;TCP;TCP;On;Off;Off;Auto;Auto;TRUE;2;2;3;891;1011;1011;5585;5635;1895;3135;4264;475;6000;64;5412;PCMU-8000;GSM-8000;SILK-12000;Auto;VP8;VP8;1080;1080;1080;NotDone
GoogleTalk;IRC;SIP;Off;Off;Off;Auto;Auto;Auto;Off;Off;Off;Auto;TRUE;Auto;2;2;2;1257;815;945;3966;6000;3988;2345;4066;4035;5885;64;6000;Auto;SILK-8000;SILK-8000;red;VP8;VP8;1080;480;1080;NotDone
SIP;IRC;SIP;Off;Off;Off;Auto;Auto;Auto;Off;Off;Off;Auto;Auto;Auto;2;2;2;733;647;647;5811;5878;3657;4890;5434;3743;5881;83;5904;Auto;SILK-8000;AMR-WB-16000;Auto;VP8;ulpfec;1080;1080;1080;NotDone
SIP;IRC;SIP;Off;Off;Off;Auto;TCP;Auto;On;Off;Off;Auto;Auto;Auto;2;2;3;576;576;576;5965;6000;490;5931;6000;572;6000;73;6000;Auto;SILK-8000;telephone-event-80000;Auto;VP8;VP8;1080;1080;1080;NotDone
IRC;IRC;IRC;Off;Off;Off;Auto;Auto;Auto;Off;Off;Off;Auto;Auto;Auto;2;2;2;2000;2000;2000;6000;64;6000;64;64;6000;64;64;64;telephone-event-80000;telephone-event-80000;Auto;Auto;VP8;VP8;240;240;1080;NotDone
SIP;iptel.org;SIP;Off;Off;Off;Auto;Auto;Auto;Off;Off;Off;Auto;Auto;Auto;2;2;2;576;690;689;5766;5662;2006;5662;5504;1391;5662;80;4717;Auto;SILK-8000;SILK-8000;Auto;VP8;VP8;1080;1080;1080;NotDone
SIP;GoogleTalk;SIP;Off;Off;Off;Auto;TCP;TCP;On;Off;Off;Auto;Auto;TRUE;2;2;3;576;576;576;5372;6000;64;4565;6000;64;6000;64;6000;AMR-WB-16000;telephone-event-80000;telephone-event-80000;Auto;VP8;VP8;1080;1080;1080;NotDone
SIP;iptel.org;SIP;Off;Off;Off;Auto;TCP;Auto;On;Off;Off;Auto;Auto;Auto;2;2;3;576;576;576;6000;6000;64;6000;6000;6000;6000;64;5986;Auto;SILK-8000;telephone-event-80000;Auto;VP8;ulpfec;1080;1080;1080;NotDone
SIP;IRC;SIP;Off;Off;Off;Auto;Auto;Auto;Off;Off;Off;Auto;Auto;Auto;2;2;2;1750;1848;1830;6000;6000;6000;269;64;64;6000;64;6000;Auto;Auto;telephone-event-80000;Auto;VP8;VP8;1080;1080;1080;NotDone
SIP;iPPi;SIP;Off;Off;Off;Auto;Auto;Auto;Off;Off;Off;Auto;Auto;Auto;2;2;2;576;576;576;3228;6000;64;3641;6000;6000;6000;89;6000;Auto;telephone-event-80000;telephone-event-80000;h264;VP8;VP8;1080;1080;1080;NotDone
SIP;SIP;SIP;Off;Off;Off;Auto;Auto;Auto;Off;Off;Off;Auto;Auto;Auto;2;2;2;2000;2000;2000;6000;6000;6000;64;64;64;6000;64;6000;Auto;Auto;telephone-event-80000;Auto;VP8;VP8;1080;1080;1080;NotDone
SIP;IRC;SIP;Off;Off;Off;Auto;Tls;Auto;BestEffort;Off;Off;Auto;Auto;Auto;2;2;4;576;576;576;6000;6000;64;6000;6000;64;6000;888;6000;Auto;telephone-event-80000;telephone-event-80000;Auto;VP8;VP8;1080;1080;1080;NotDone
SIP;iptel.org;SIP;Off;Off;Off;Auto;Auto;Auto;BestEffort;Off;Off;Auto;Auto;Auto;2;2;2;1719;2000;2000;64;6000;64;64;64;6000;6000;6000;64;Auto;Auto;SILK-12000;Auto;VP8;VP8;1080;1080;1080;NotDone
GoogleTalk;iPPi;SIP;Off;Off;Off;Auto;Auto;Auto;Off;Off;Off;Auto;TRUE;Auto;2;2;2;1097;930;1020;3476;6000;3362;3463;3847;3888;5523;205;6000;Auto;AMR-WB-16000;SILK-12000;red;VP8;VP8;1080;480;1080;NotDone
SIP;IRC;SIP;Off;Off;Off;Auto;Auto;Auto;Off;Off;Off;Auto;Auto;Auto;2;2;2;1024;887;916;5128;5923;2735;3032;4384;186;5958;336;5992;Auto;GSM-8000;SILK-12000;Auto;VP8;VP8;1080;1080;1080;NotDone
SIP;SIP;SIP;Off;Off;Off;Auto;TCP;TCP;On;Off;Off;Auto;Auto;TRUE;2;2;3;1889;2000;2000;64;64;94;64;64;6000;64;6000;64;telephone-event-80000;telephone-event-80000;Auto;Auto;VP8;VP8;1080;1080;1080;NotDone
SIP;iptel.org;SIP;Off;Off;Off;Auto;Auto;Auto;On;Off;Off;Auto;Auto;TRUE;2;2;3;781;1130;953;3950;6000;1033;5331;4050;1134;6000;1999;3889;Auto;SILK-12000;AMR-WB-16000;Auto;VP8;VP8;1080;1080;1080;NotDone
SIP;IRC;SIP;Off;Off;Off;Auto;Auto;Auto;Off;Off;Off;Auto;Auto;Auto;2;2;2;624;576;576;6000;6000;854;2735;6000;64;6000;64;6000;Auto;SILK-8000;speex-16000;Auto;VP8;VP8;1080;1080;1080;NotDone
IRC;IRC;IRC;Off;Off;Off;Auto;Auto;Auto;Off;Off;Off;Auto;Auto;Auto;2;2;2;2000;2000;2000;6000;64;6000;64;64;6000;64;64;64;SILK-8000;SILK-8000;Auto;Auto;ulpfec;ulpfec;240;480;1080;NotDone
SIP;IRC;SIP;Off;Off;Off;Auto;Auto;Auto;Off;Off;Off;Auto;Auto;Auto;2;2;2;1359;1320;1319;6000;5265;4445;3014;2877;64;5584;64;5802;Auto;Auto;SILK-8000;Auto;VP8;VP8;1080;1080;1080;NotDone
SIP;IRC;SIP;Off;Off;Off;Auto;Tls;Auto;BestEffort;Off;Off;Auto;Auto;Auto;2;2;4;576;576;576;5824;6000;64;6000;6000;6000;6000;64;5849;Auto;PCMU-8000;telephone-event-80000;red;VP8;VP8;1080;1080;1080;NotDone
SIP;IRC;SIP;Off;Off;Off;Auto;Auto;Auto;Off;Off;Off;Auto;Auto;Auto;2;2;2;1393;1665;1629;4112;6000;5466;64;192;64;6000;330;6000;Auto;Auto;SILK-8000;Auto;ulpfec;ulpfec;1080;1080;1080;NotDone
SIP;IRC;SIP;Off;Off;Off;Auto;TCP;Auto;On;Off;Off;Auto;Auto;Auto;2;2;3;647;647;647;5497;5913;331;6000;5703;938;5925;274;3942;Auto;telephone-event-80000;iLBC-8000;Auto;VP8;VP8;1080;1080;1080;NotDone
SIP;iptel.org;SIP;Off;Off;Off;Auto;Auto;Auto;Off;Off;Off;Auto;Auto;Auto;2;2;2;1248;609;607;5864;5991;253;3211;5886;553;6000;64;4253;Auto;SILK-8000;SILK-8000;Auto;VP8;VP8;1080;1080;1080;NotDone
SIP;AIM;SIP;Off;Off;Off;Auto;Auto;Auto;Off;Off;Off;Auto;Auto;Auto;2;2;2;2000;2000;2000;5801;64;6000;64;64;6000;64;6000;64;telephone-event-80000;speex-16000;Auto;Auto;VP8;VP8;1080;1080;1080;NotDone
IRC;SIP;IRC;Off;Off;Off;Auto;Auto;Auto;Off;Off;Off;Auto;Auto;Auto;2;2;2;2000;2000;2000;6000;64;6000;64;64;6000;64;64;64;telephone-event-80000;telephone-event-80000;Auto;Auto;Auto;Auto;240;240;1080;NotDone
SIP;IRC;SIP;Off;Off;Off;Auto;Auto;Auto;On;Off;Off;Auto;Auto;Auto;2;2;3;576;576;576;4281;5328;618;873;6000;64;5398;581;5469;Auto;AMR-WB-16000;iLBC-8000;Auto;VP8;VP8;1080;1080;1080;NotDone
SIP;IRC;SIP;Off;Off;Off;Auto;Auto;Auto;Off;Off;Off;Auto;Auto;FALSE;2;2;2;576;576;576;64;6000;64;6000;6000;64;6000;6000;6000;Auto;telephone-event-80000;telephone-event-80000;Auto;VP8;VP8;1080;1080;1080;NotDone
SIP;IRC;SIP;Off;Off;Off;Auto;Auto;Auto;Off;Off;Off;Auto;Auto;Auto;2;2;2;1687;1869;1842;6000;5861;6000;621;64;64;5860;64;5860;Auto;Auto;SILK-12000;h264;VP8;VP8;1080;1080;1080;NotDone
SIP;iptel.org;SIP;Off;Off;Off;Auto;Auto;Auto;Off;On;Off;Auto;FALSE;Auto;2;3;2;1288;723;851;3032;4983;1604;3032;4869;1927;5194;117;4973;PCMU-8000;SILK-8000;PCMU-8000;Auto;VP8;VP8;1080;1080;720;NotDone
SIP;GoogleTalk;SIP;Off;Off;Off;Auto;Auto;Auto;Off;Off;Off;Auto;Auto;Auto;2;2;2;576;576;576;4131;6000;64;3568;6000;2307;6000;3532;3970;speex-32000;SILK-8000;SILK-8000;Auto;VP8;VP8;1080;1080;1080;NotDone
SIP;SIP;SIP;Off;Off;Off;TCP;Auto;Auto;On;Off;Off;Auto;Auto;Auto;2;2;2;576;576;576;64;6000;64;6000;6000;6000;6000;6000;64;Auto;telephone-event-80000;SILK-8000;Auto;VP8;VP8;1080;240;1080;NotDone
IRC;SIP;IRC;Off;Off;Off;Auto;Auto;Auto;Off;Off;Off;Auto;Auto;Auto;2;2;2;2000;2000;2000;6000;6000;6000;6000;64;6000;6000;64;6000;Auto;Auto;telephone-event-80000;Auto;Auto;Auto;1080;1080;1080;NotDone
SIP;SIP;IRC;Off;Off;Off;Auto;Auto;Auto;Off;Off;Off;Auto;Auto;Auto;2;2;2;2000;2000;2000;6000;64;6000;64;64;6000;64;64;64;telephone-event-80000;telephone-event-80000;Auto;VP8;Auto;Auto;1080;1080;1080;NotDone
IRC;GoogleTalk;IRC;Off;Off;Off;Auto;Auto;Auto;Off;Off;Off;Auto;Auto;Auto;2;2;2;2000;2000;2000;64;64;6000;64;64;6000;64;6000;64;telephone-event-80000;telephone-event-80000;Auto;Auto;VP8;VP8;240;480;1080;NotDone
SIP;iptel.org;ICQ;Off;Off;Off;Auto;Auto;Auto;Off;Off;Off;Auto;Auto;Auto;2;2;2;576;576;576;6000;64;64;3368;6000;6000;64;303;64;Auto;SILK-8000;telephone-event-80000;Auto;VP8;VP8;1080;1080;1080;NotDone
SIP;iptel.org;SIP;Off;Off;Off;Auto;TCP;Auto;On;Off;Off;Auto;Auto;Auto;2;2;3;576;576;576;6000;6000;64;6000;6000;64;6000;1284;6000;Auto;telephone-event-80000;telephone-event-80000;Auto;VP8;VP8;1080;1080;1080;NotDone
SIP;IRC;SIP;Off;Off;Off;Auto;Auto;Auto;Off;Off;Off;Auto;Auto;Auto;2;2;2;576;2000;2000;64;6000;64;64;64;6000;6000;6000;64;Auto;Auto;telephone-event-80000;Auto;VP8;VP8;1080;1080;1080;NotDone
SIP;SIP;SIP;Off;Off;Off;Auto;Auto;Auto;Off;Off;Off;Auto;Auto;Auto;2;2;2;1976;1962;1974;6000;6000;5990;64;128;64;6000;64;6000;Auto;Auto;SILK-8000;Auto;VP8;VP8;1080;1080;1080;NotDone
IRC;IRC;IRC;Off;Off;Off;Auto;Auto;Auto;Off;Off;Off;Auto;Auto;Auto;2;2;2;2000;2000;2000;6000;64;6000;64;64;6000;64;64;64;telephone-event-80000;telephone-event-80000;Auto;Auto;Auto;Auto;240;240;1080;NotDone
SIP;iptel.org;SIP;Off;Off;Off;Auto;Auto;Auto;On;Off;Off;Auto;Auto;Auto;2;2;2;1359;1359;1359;3028;6000;64;3031;2735;6000;6000;6000;64;Auto;speex-16000;SILK-12000;Auto;VP8;VP8;1080;1080;1080;NotDone
SIP;iptel.org;SIP;Off;Off;Off;Auto;Auto;Auto;Off;Off;Off;Auto;Auto;Auto;2;2;2;576;576;576;6000;6000;64;2915;6000;64;6000;64;6000;Auto;telephone-event-80000;Auto;Auto;VP8;VP8;1080;1080;1080;NotDone
SIP;SIP;SIP;Off;Off;Off;Auto;Auto;Auto;Off;Off;Off;Auto;Auto;Auto;2;2;2;2000;2000;2000;5962;5975;6000;64;64;203;5967;68;6000;Auto;Auto;telephone-event-80000;Auto;VP8;VP8;1080;1080;1080;NotDone
iptel.org;iptel.org;iptel.org;Off;Off;Off;Auto;Auto;Auto;Off;Off;Off;Auto;Auto;Auto;2;2;2;2000;2000;2000;6000;64;6000;64;64;6000;64;64;64;telephone-event-80000;telephone-event-80000;Auto;Auto;ulpfec;VP8;360;360;1080;NotDone
SIP;SIP;SIP;Off;Off;Off;Auto;Auto;Auto;Off;Off;Off;Auto;Auto;Auto;2;2;2;2000;576;576;6000;6000;6000;6000;6000;64;6000;6000;6000;Auto;Auto;telephone-event-80000;Auto;VP8;VP8;1080;1080;1080;NotDone
IRC;IRC;IRC;Off;Off;Off;Auto;Auto;Auto;Off;Off;Off;Auto;Auto;Auto;2;2;2;2000;2000;2000;6000;64;6000;64;64;6000;64;64;64;SILK-8000;SILK-8000;Auto;Auto;ulpfec;ulpfec;240;240;1080;NotDone
GoogleTalk;iPPi;SIP;Off;Off;Off;Auto;Auto;Auto;Off;Off;Off;Auto;TRUE;Auto;2;2;2;998;752;851;4041;5450;3042;2817;4549;4250;5163;286;5258;opus-48000;SILK-8000;AMR-WB-16000;red;VP8;VP8;1080;480;1080;NotDone
SIP;GoogleTalk;GoogleTalk;Off;Off;Off;Auto;TCP;Auto;On;Off;Off;Auto;Auto;Auto;2;2;3;1564;576;576;5806;5609;64;2258;6000;351;5615;71;1424;PCMU-8000;SILK-8000;telephone-event-80000;Auto;VP8;VP8;1080;1080;1080;NotDone
SIP;ICQ;SIP;Off;Off;Off;Auto;Auto;Auto;Off;Off;Off;Auto;Auto;Auto;2;2;2;1821;1663;1793;6000;6000;6000;174;518;64;6000;64;6000;Auto;G722-16000;telephone-event-80000;Auto;VP8;VP8;1080;1080;1080;NotDone
SIP;iptel.org;SIP;Off;Off;Off;Auto;Auto;Auto;Off;Off;Off;Auto;Auto;Auto;2;2;2;820;697;736;4568;6000;2353;3376;5067;64;6000;372;4809;Auto;PCMA-8000;SILK-8000;Auto;VP8;VP8;1080;1080;1080;NotDone
SIP;iPPi;SIP;Off;Off;Off;Auto;Auto;Auto;Off;Off;Off;Auto;Auto;Auto;2;2;2;1541;2000;2000;6000;6000;6000;64;64;64;6000;64;6000;Auto;Auto;telephone-event-80000;Auto;VP8;VP8;1080;1080;1080;NotDone
SIP;SIP;SIP;Off;Off;Off;Auto;Tls;Tls;BestEffort;Off;Off;Auto;Auto;FALSE;2;2;4;2000;2000;2000;64;64;64;64;64;6000;64;6000;64;SILK-8000;SILK-8000;Auto;Auto;VP8;VP8;1080;1080;1080;NotDone
IRC;ICQ;IRC;Off;Off;Off;Auto;Auto;Auto;Off;Off;Off;Auto;Auto;Auto;2;2;2;1893;1981;1981;6000;64;5834;92;97;6000;64;64;64;telephone-event-80000;telephone-event-80000;Auto;Auto;VP8;VP8;240;240;1080;NotDone
SIP;SIP;SIP;Off;Off;Off;Auto;Auto;Auto;Off;Off;Off;Auto;Auto;Auto;2;2;2;2000;2000;2000;5999;5907;5859;64;445;180;5921;87;5921;Auto;Auto;SILK-8000;Auto;VP8;VP8;1080;1080;1080;NotDone
SIP;SIP;SIP;Off;Off;Off;Auto;Auto;Auto;Off;Off;Off;Auto;Auto;Auto;2;2;2;1900;932;768;5910;6000;4430;64;64;64;6000;71;6000;Auto;Auto;telephone-event-80000;Auto;VP8;VP8;1080;1080;1080;NotDone
IRC;IRC;IRC;Off;Off;Off;Auto;Auto;Auto;Off;Off;Off;Auto;Auto;Auto;2;2;2;2000;2000;2000;6000;64;6000;64;64;6000;64;64;64;SILK-8000;telephone-event-80000;Auto;Auto;VP8;VP8;240;240;1080;NotDone
IRC;IRC;IRC;Off;Off;Off;Auto;Auto;Auto;Off;Off;Off;Auto;Auto;Auto;2;2;2;2000;2000;2000;6000;64;6000;64;64;6000;64;64;64;telephone-event-80000;telephone-event-80000;Auto;Auto;ulpfec;ulpfec;240;240;1080;NotDone
SIP;IRC;AIM;Off;Off;Off;Auto;Auto;Auto;Off;Off;Off;Auto;Auto;Auto;2;2;2;576;576;576;6000;6000;64;6000;6000;5955;6000;64;6000;Auto;Auto;telephone-event-80000;h264;VP8;VP8;1080;1080;1080;NotDone
SIP;iptel.org;SIP;Off;Off;Off;Auto;Auto;Auto;Off;Off;Off;Auto;Auto;Auto;2;2;2;576;576;584;3874;5995;199;6000;6000;64;6000;64;6000;Auto;Auto;SILK-8000;Auto;VP8;VP8;1080;1080;1080;NotDone
SIP;iptel.org;SIP;Off;Off;Off;Auto;Auto;Auto;Off;Off;Off;Auto;Auto;Auto;2;2;2;638;576;576;6000;4590;5844;6000;5922;64;6000;64;6000;Auto;SILK-12000;SILK-8000;Auto;VP8;VP8;1080;1080;1080;NotDone
SIP;iPPi;SIP;Off;Off;Off;Auto;Auto;Auto;Off;Off;Off;Auto;Auto;Auto;2;2;2;576;576;576;6000;6000;5795;6000;6000;64;6000;64;6000;Auto;speex-8000;telephone-event-80000;Auto;VP8;VP8;1080;1080;1080;NotDone
SIP;iptel.org;SIP;Off;Off;Off;Auto;Auto;Auto;On;Off;Off;Auto;Auto;Auto;2;2;3;576;576;576;4104;5197;679;712;6000;157;5387;621;5403;Auto;SILK-12000;PCMA-8000;Auto;VP8;VP8;1080;1080;1080;NotDone
SIP;IRC;SIP;Off;Off;Off;Auto;TCP;Auto;On;Off;Off;Auto;Auto;Auto;2;2;3;582;592;592;5811;5962;429;5560;5931;811;5969;144;5241;Auto;SILK-12000;AMR-WB-16000;Auto;VP8;VP8;1080;1080;1080;NotDone
GoogleTalk;ICQ;GoogleTalk;Off;Off;Off;Auto;TCP;Auto;On;Off;Off;Auto;Auto;Auto;2;2;3;576;576;576;6000;6000;64;3032;6000;64;6000;1077;6000;PCMU-8000;SILK-8000;telephone-event-80000;Auto;VP8;VP8;720;720;1080;NotDone
SIP;SIP;SIP;Off;Off;Off;Auto;Auto;Auto;Off;Off;Off;Auto;Auto;Auto;2;2;2;1316;576;576;4986;6000;64;64;6000;64;6000;150;64;speex-16000;telephone-event-80000;Auto;Auto;VP8;VP8;1080;1080;1080;NotDone
SIP;ICQ;SIP;Off;Off;Off;Auto;Auto;Auto;Off;Off;Off;Auto;Auto;Auto;2;2;2;576;576;576;3993;6000;64;6000;6000;64;6000;1354;6000;SILK-24000;telephone-event-80000;telephone-event-80000;Auto;VP8;VP8;1080;1080;1080;NotDone
SIP;SIP;SIP;Off;Off;Off;Auto;Auto;Auto;Off;Off;Off;Auto;Auto;Auto;2;2;2;1999;2000;2000;5858;6000;6000;64;64;64;6000;205;5858;Auto;Auto;SILK-8000;Auto;VP8;VP8;1080;1080;1080;NotDone
SIP;iptel.org;SIP;Off;Off;Off;Auto;Auto;Auto;Off;Off;Off;Auto;Auto;Auto;2;2;2;622;576;576;5341;6000;1251;673;6000;64;6000;64;6000;Auto;SILK-12000;telephone-event-80000;Auto;VP8;VP8;1080;1080;1080;NotDone
SIP;SIP;SIP;Off;Off;Off;Auto;Auto;Auto;Off;Off;Off;Auto;Auto;Auto;2;2;2;1995;1314;1314;5954;5951;3143;302;796;162;5940;64;5495;Auto;Auto;telephone-event-80000;Auto;VP8;VP8;1080;1080;1080;NotDone
IRC;SIP;IRC;Off;Off;Off;Auto;Auto;Auto;Off;Off;Off;Auto;Auto;Auto;2;2;2;2000;2000;2000;6000;64;6000;64;64;6000;64;64;64;telephone-event-80000;telephone-event-80000;Auto;Auto;Auto;Auto;240;240;1080;NotDone
ICQ;ICQ;ICQ;Off;Off;Off;Auto;Auto;Auto;Off;Off;Off;Auto;Auto;Auto;2;2;2;1997;1977;1974;5772;201;5153;64;64;5862;201;256;201;SILK-12000;SILK-8000;Auto;Auto;VP8;VP8;480;480;1080;NotDone
SIP;SIP;SIP;Off;Off;Off;Auto;Auto;Auto;Off;Off;Off;Auto;Auto;Auto;2;2;2;576;576;576;5568;6000;64;5881;6000;64;6000;5881;6000;Auto;AMR-WB-16000;SILK-12000;Auto;VP8;VP8;1080;1080;1080;NotDone
SIP;SIP;SIP;Off;Off;Off;Auto;Auto;Auto;Off;Off;Off;Auto;Auto;Auto;2;2;2;576;576;576;6000;6000;64;4055;6000;64;6000;64;6000;Auto;telephone-event-80000;iLBC-8000;Auto;VP8;VP8;1080;1080;1080;NotDone
