caller_protocol;callee1_protocol;callee2_protocol;caller_listenport;callee1_listenport;callee2_listenport;caller_transportprotocol;callee1_transportprotocol;callee2_transportprotocol;caller_encryption;callee1_encryption;callee2_encryption;caller_sipzrtpattribute;callee1_sipzrtpattribute;callee2_sipzrtpattribute;caller_maxpeers;callee1_maxpeers;callee2_maxpeers;caller_mtu;callee1_mtu;callee2_mtu;caller_defaultcallrate;callee1_defaultcallrate;callee2_defaultcallrate;caller_maxreceivecallrate;callee1_maxreceivecallrate;callee2_maxreceivecallrate;caller_maxtransmitcallrate;callee1_maxtransmitcallrate;callee2_maxtransmitcallrate;caller_audiocodec;callee1_audiocodec;callee2_audiocodec;caller_videocodec;callee1_videocodec;callee2_videocodec;caller_maxresolution;callee1_maxresolution;callee2_maxresolution;
IRC;iptel.org;iptel.org;On;On;On;UDP;TCP;Tls;BestEffort;Off;BestEffort;Auto;FALSE;FALSE;2;2;4;988;695;646;2609;2793;4950;2231;5711;4547;2257;257;1404;SILK-8000;opus-48000;AMR-WB-16000;rtx;rtx;ulpfec;360;720;480;NotDone
AIM;ICQ;GoogleTalk;Off;On;On;Auto;UDP;Tls;On;On;Off;Auto;FALSE;FALSE;4;4;3;1143;987;1156;5075;3581;5239;704;979;1125;5894;5985;4832;opus-48000;SILK-24000;GSM-8000;rtx;Auto;VP8;480;720;480;NotDone
IRC;GoogleTalk;SIP;Off;Off;On;TCP;Auto;UDP;Off;On;Off;TRUE;TRUE;Auto;4;4;2;690;602;1074;5038;410;1978;1410;122;5301;789;5809;4649;SILK-24000;speex-16000;GSM-8000;ulpfec;Auto;VP8;720;240;1080;NotDone
AIM;iPPi;iptel.org;On;Off;Off;Tls;Auto;Tls;Off;BestEffort;Off;TRUE;Auto;FALSE;2;2;4;1161;1019;720;4115;1544;4058;3673;2009;5882;503;1476;1200;PCMU-8000;telephone-event-80000;PCMA-8000;Auto;Auto;VP8;360;1080;480;NotDone
IRC;iptel.org;SIP;On;Off;On;Auto;TCP;UDP;Off;Off;Off;FALSE;FALSE;TRUE;4;2;4;1737;761;965;576;4830;717;1070;5935;4540;421;5857;5457;speex-8000;PCMU-8000;PCMA-8000;h264;red;ulpfec;720;480;720;NotDone
IRC;ICQ;IRC;On;Off;On;Tls;UDP;Auto;On;BestEffort;BestEffort;FALSE;FALSE;Auto;4;2;4;1794;1575;1958;5608;5735;3577;614;429;313;435;5833;4193;Auto;AMR-WB-16000;SILK-24000;red;h264;VP8;360;240;360;NotDone
IRC;SIP;AIM;Off;Off;Off;UDP;TCP;TCP;Off;Off;Off;FALSE;Auto;TRUE;3;3;3;1868;1241;1179;868;5458;122;5983;5449;5418;5930;1702;3749;Auto;AMR-WB-16000;SILK-12000;h264;rtx;VP8;1080;240;480;NotDone
ICQ;iptel.org;GoogleTalk;On;On;On;Auto;Auto;Tls;Off;Off;Off;FALSE;Auto;Auto;3;2;3;1855;1202;1129;1789;675;5903;1135;5630;231;2974;5954;4965;PCMU-8000;telephone-event-80000;SILK-12000;VP8;ulpfec;h264;1080;240;480;NotDone
AIM;iPPi;IRC;Off;On;Off;Auto;Auto;TCP;On;BestEffort;On;Auto;TRUE;Auto;3;2;2;1441;1461;617;5401;1523;1798;658;3201;4194;4923;5029;5676;PCMU-8000;telephone-event-80000;speex-8000;red;Auto;VP8;720;240;480;NotDone
AIM;IRC;IRC;On;On;On;Auto;TCP;TCP;Off;Off;BestEffort;FALSE;TRUE;Auto;3;3;4;1183;1653;1023;5444;270;5613;157;1234;1786;1022;3393;5184;SILK-8000;speex-32000;speex-8000;Auto;VP8;VP8;240;360;1080;NotDone
GoogleTalk;AIM;IRC;Off;On;Off;Auto;TCP;Auto;Off;On;BestEffort;TRUE;TRUE;TRUE;3;3;4;1914;1571;644;3279;3794;5363;4925;3824;3469;4016;4536;944;opus-48000;speex-8000;AMR-WB-16000;red;ulpfec;VP8;240;1080;480;NotDone
iptel.org;IRC;IRC;Off;Off;Off;Auto;Tls;UDP;Off;On;On;TRUE;FALSE;TRUE;2;2;3;874;1821;1954;2849;1166;5824;3135;310;418;770;5983;2470;telephone-event-80000;telephone-event-80000;SILK-24000;red;ulpfec;VP8;240;360;480;NotDone
ICQ;AIM;GoogleTalk;On;Off;On;TCP;Tls;Auto;Off;BestEffort;Off;FALSE;FALSE;FALSE;3;4;2;1470;1941;1800;4335;816;2312;5596;1187;2126;4111;2969;3367;SILK-12000;G722-16000;AMR-WB-16000;red;Auto;Auto;720;240;720;NotDone
IRC;IRC;GoogleTalk;Off;On;Off;Auto;TCP;UDP;Off;BestEffort;BestEffort;TRUE;TRUE;TRUE;2;3;3;755;656;1085;5645;327;780;3955;4733;465;2091;5426;5896;speex-8000;speex-32000;GSM-8000;VP8;Auto;VP8;720;360;240;NotDone
IRC;GoogleTalk;ICQ;Off;Off;Off;UDP;UDP;Tls;Off;BestEffort;BestEffort;FALSE;Auto;FALSE;3;2;4;1982;1955;1857;5595;5597;5013;1757;3913;1718;5062;1601;5312;speex-16000;GSM-8000;speex-8000;ulpfec;h264;ulpfec;720;360;720;NotDone
IRC;AIM;iptel.org;On;Off;On;Tls;Tls;Auto;On;BestEffort;BestEffort;TRUE;TRUE;TRUE;2;3;2;1636;1454;1568;4324;4491;5228;5653;208;5002;354;5784;5308;speex-8000;telephone-event-80000;speex-16000;rtx;Auto;red;240;1080;240;NotDone
IRC;AIM;IRC;Off;On;On;UDP;UDP;UDP;On;Off;Off;Auto;Auto;FALSE;3;4;3;1993;1536;1045;5810;4224;5677;520;5123;1299;5959;5738;3944;speex-8000;speex-8000;SILK-16000;VP8;rtx;h264;480;480;720;NotDone
iptel.org;iptel.org;iptel.org;Off;Off;On;TCP;TCP;Auto;On;On;BestEffort;FALSE;Auto;Auto;2;4;4;1065;1080;638;4748;5003;400;1186;849;69;5227;4937;5465;SILK-8000;SILK-24000;SILK-8000;Auto;Auto;VP8;240;360;720;NotDone
AIM;GoogleTalk;iPPi;On;On;On;TCP;UDP;TCP;Off;Off;Off;TRUE;FALSE;FALSE;2;4;4;919;987;1675;4797;4795;3779;5052;5753;3519;5973;1035;5424;opus-48000;iLBC-8000;PCMA-8000;Auto;ulpfec;ulpfec;720;360;240;NotDone
AIM;GoogleTalk;AIM;Off;Off;Off;TCP;Tls;UDP;Off;Off;BestEffort;TRUE;FALSE;Auto;3;2;2;1840;1803;1008;470;4550;1111;5429;364;2031;5456;5621;4987;PCMU-8000;speex-8000;speex-32000;red;Auto;VP8;1080;720;1080;NotDone
IRC;iptel.org;SIP;Off;On;On;UDP;Tls;Tls;Off;Off;BestEffort;Auto;FALSE;FALSE;3;3;4;1790;1238;1902;5570;5875;2647;2888;107;380;827;4917;5416;PCMA-8000;speex-8000;GSM-8000;ulpfec;VP8;ulpfec;480;720;240;NotDone
AIM;iptel.org;IRC;On;On;Off;Tls;Tls;TCP;Off;Off;Off;Auto;Auto;FALSE;2;2;3;1900;657;1474;5875;921;2004;2116;3060;3004;5202;1026;5803;speex-32000;speex-8000;AMR-WB-16000;Auto;VP8;VP8;240;1080;240;NotDone
IRC;ICQ;iptel.org;On;On;On;Tls;TCP;TCP;BestEffort;Off;Off;Auto;TRUE;TRUE;3;4;3;1372;791;1434;4618;4629;5905;5873;5989;1631;709;2364;5440;PCMU-8000;PCMA-8000;AMR-WB-16000;red;Auto;VP8;240;360;720;NotDone
ICQ;AIM;AIM;On;Off;Off;UDP;Auto;Tls;BestEffort;Off;Off;TRUE;TRUE;Auto;3;3;2;1334;1122;1502;199;2312;5703;339;3611;5935;1127;5773;5064;SILK-16000;opus-48000;speex-32000;Auto;ulpfec;ulpfec;720;1080;1080;NotDone
AIM;iPPi;SIP;On;Off;On;UDP;TCP;TCP;Off;On;Off;TRUE;Auto;FALSE;3;4;3;1356;869;1497;5985;4971;2015;1462;4446;5579;5790;4340;5057;speex-16000;GSM-8000;speex-8000;VP8;Auto;VP8;240;1080;240;NotDone
AIM;SIP;GoogleTalk;Off;Off;On;Tls;TCP;TCP;Off;Off;BestEffort;FALSE;FALSE;Auto;2;3;3;1621;1372;583;718;5133;108;285;2874;5421;1685;5262;5312;PCMU-8000;PCMU-8000;PCMU-8000;VP8;Auto;VP8;240;480;360;NotDone
IRC;ICQ;AIM;Off;Off;On;Tls;UDP;Auto;Off;BestEffort;On;FALSE;Auto;Auto;2;3;4;1899;603;987;3017;4427;2544;5193;940;942;5348;1073;5144;SILK-8000;telephone-event-80000;SILK-12000;Auto;ulpfec;h264;720;360;1080;NotDone
AIM;SIP;SIP;Off;On;Off;TCP;TCP;UDP;BestEffort;Off;BestEffort;Auto;TRUE;Auto;4;2;2;1836;994;1857;135;124;1010;5959;2292;5120;1849;352;5444;speex-32000;G722-16000;speex-8000;Auto;VP8;VP8;360;1080;360;NotDone
IRC;GoogleTalk;iPPi;Off;Off;Off;UDP;Tls;Auto;Off;BestEffort;Off;FALSE;TRUE;FALSE;3;4;4;649;1150;713;555;355;5886;3900;5006;5533;4530;596;5541;AMR-WB-16000;PCMU-8000;AMR-WB-16000;rtx;Auto;VP8;240;1080;240;NotDone
ICQ;GoogleTalk;iptel.org;Off;Off;On;Auto;TCP;Tls;Off;Off;On;Auto;Auto;FALSE;4;2;4;1959;865;1016;3887;5730;4919;1072;2671;4503;976;5536;1289;PCMA-8000;telephone-event-80000;opus-48000;red;Auto;ulpfec;360;720;1080;NotDone
ICQ;iptel.org;iPPi;Off;Off;Off;TCP;Tls;Tls;Off;BestEffort;BestEffort;FALSE;FALSE;TRUE;4;3;2;1118;1594;1665;1051;5062;4994;1334;1172;5704;5763;5627;5307;G722-16000;opus-48000;GSM-8000;rtx;VP8;rtx;480;1080;1080;NotDone
ICQ;ICQ;ICQ;On;Off;Off;Tls;UDP;TCP;Off;Off;BestEffort;Auto;FALSE;FALSE;3;3;3;1687;603;815;5205;5613;159;3500;5027;5461;5496;5925;4184;speex-32000;Auto;Auto;Auto;Auto;VP8;360;480;720;NotDone
ICQ;iptel.org;IRC;On;On;On;TCP;TCP;UDP;Off;Off;BestEffort;TRUE;FALSE;TRUE;2;4;3;1352;1296;1143;4822;4881;2675;1174;645;109;3652;3164;3246;speex-32000;telephone-event-80000;iLBC-8000;h264;Auto;red;240;480;360;NotDone
IRC;SIP;ICQ;On;Off;Off;Tls;Auto;Auto;Off;BestEffort;BestEffort;Auto;Auto;Auto;2;3;4;597;1982;1127;4884;97;455;98;5996;2940;205;1766;5886;telephone-event-80000;telephone-event-80000;opus-48000;red;h264;red;360;1080;360;NotDone
ICQ;ICQ;GoogleTalk;Off;Off;On;TCP;Auto;UDP;Off;Off;On;TRUE;TRUE;FALSE;2;3;2;677;1068;670;3671;5694;5611;1301;66;5469;356;4534;5968;telephone-event-80000;iLBC-8000;PCMU-8000;h264;Auto;red;720;1080;1080;NotDone
ICQ;iPPi;IRC;Off;On;Off;TCP;Auto;UDP;Off;BestEffort;BestEffort;FALSE;Auto;Auto;4;4;4;1945;1737;1276;5853;5577;5901;4480;5912;5430;391;5794;4306;PCMU-8000;opus-48000;G722-16000;Auto;rtx;red;480;720;1080;NotDone
ICQ;AIM;iPPi;On;Off;Off;UDP;Auto;TCP;Off;On;Off;TRUE;Auto;TRUE;4;4;4;1707;828;1285;5487;5456;1961;5200;887;513;110;5495;5626;GSM-8000;PCMA-8000;speex-8000;red;ulpfec;red;240;240;480;NotDone
AIM;GoogleTalk;GoogleTalk;On;On;On;Auto;Tls;TCP;Off;On;BestEffort;TRUE;Auto;FALSE;3;3;3;1546;1086;1065;3781;4850;5889;1091;443;5750;5097;4078;4188;PCMU-8000;G722-16000;SILK-8000;rtx;ulpfec;ulpfec;1080;480;720;NotDone
IRC;GoogleTalk;iptel.org;On;Off;On;Auto;Tls;Auto;Off;BestEffort;Off;FALSE;Auto;FALSE;3;4;3;1367;1222;643;4459;5615;4677;2387;845;2795;4738;4423;4080;SILK-8000;Auto;SILK-8000;h264;Auto;VP8;720;240;240;NotDone
ICQ;AIM;GoogleTalk;Off;Off;Off;UDP;Tls;TCP;BestEffort;On;BestEffort;FALSE;TRUE;Auto;3;3;3;705;1979;1187;726;208;2170;3776;5341;568;190;5910;5271;SILK-12000;iLBC-8000;SILK-12000;Auto;ulpfec;VP8;480;720;1080;NotDone
AIM;iPPi;AIM;On;On;On;UDP;TCP;Tls;On;BestEffort;On;TRUE;TRUE;TRUE;2;3;2;1852;714;750;5721;1671;5329;217;218;3803;130;5496;5656;speex-16000;PCMA-8000;SILK-12000;VP8;rtx;red;480;360;240;NotDone
iptel.org;IRC;GoogleTalk;On;On;On;TCP;Tls;Auto;Off;Off;BestEffort;TRUE;Auto;FALSE;4;2;4;1089;1849;602;3447;5576;4609;5588;2030;5490;438;864;5816;SILK-12000;opus-48000;G722-16000;red;ulpfec;VP8;1080;360;720;NotDone
AIM;iPPi;AIM;On;Off;Off;Auto;Auto;Auto;Off;BestEffort;On;Auto;TRUE;Auto;3;3;4;1624;1367;1629;4131;976;224;853;5747;5637;467;5827;4360;SILK-12000;SILK-16000;SILK-12000;ulpfec;ulpfec;Auto;240;720;360;NotDone
IRC;IRC;AIM;Off;On;On;Tls;Tls;Tls;Off;BestEffort;BestEffort;TRUE;TRUE;FALSE;2;4;2;1443;1952;1499;4047;4128;3350;3693;4202;899;1129;2459;561;SILK-12000;PCMA-8000;iLBC-8000;red;Auto;ulpfec;1080;360;240;NotDone
IRC;GoogleTalk;ICQ;Off;Off;On;Auto;Auto;Auto;Off;BestEffort;Off;FALSE;Auto;Auto;2;2;4;1725;1182;690;5758;4269;5149;565;636;4183;3276;5706;5969;Auto;SILK-12000;SILK-12000;red;h264;VP8;480;360;360;NotDone
AIM;iptel.org;iptel.org;Off;On;Off;Auto;UDP;TCP;Off;BestEffort;Off;Auto;FALSE;Auto;3;2;3;1059;1564;1602;4950;4387;3591;1579;4293;5938;93;3553;5986;Auto;PCMA-8000;AMR-WB-16000;Auto;Auto;VP8;1080;480;720;NotDone
IRC;iptel.org;AIM;Off;Off;Off;Tls;Tls;UDP;Off;BestEffort;On;TRUE;FALSE;TRUE;4;2;3;1307;1226;1340;5550;5152;5816;4700;5127;5798;4196;5563;5406;telephone-event-80000;iLBC-8000;opus-48000;rtx;ulpfec;red;480;1080;720;NotDone
GoogleTalk;AIM;IRC;On;On;Off;TCP;Auto;UDP;On;Off;Off;Auto;Auto;Auto;2;3;3;1688;745;1731;5155;4623;5655;1604;950;5937;547;2162;4774;G722-16000;opus-48000;SILK-8000;VP8;Auto;VP8;1080;720;720;NotDone
iPPi;ICQ;SIP;On;On;On;TCP;TCP;Tls;Off;BestEffort;BestEffort;FALSE;Auto;Auto;3;3;3;1950;1794;829;5905;976;2130;4767;572;5677;5404;201;5823;SILK-16000;SILK-8000;SILK-8000;ulpfec;rtx;VP8;1080;1080;240;NotDone
IRC;iptel.org;AIM;Off;Off;On;Auto;Tls;Tls;Off;BestEffort;BestEffort;TRUE;TRUE;FALSE;3;4;3;1563;602;661;5307;282;5211;2406;5011;5008;1636;2057;3399;Auto;SILK-24000;SILK-16000;rtx;Auto;VP8;240;360;480;NotDone
AIM;iPPi;iptel.org;Off;Off;On;TCP;Tls;Tls;On;On;BestEffort;FALSE;TRUE;FALSE;2;2;2;1381;667;783;4035;5956;1096;2130;2131;1096;5886;2493;3583;AMR-WB-16000;GSM-8000;opus-48000;VP8;Auto;VP8;480;720;1080;NotDone
IRC;SIP;iptel.org;Off;On;On;UDP;Tls;Tls;Off;BestEffort;Off;TRUE;TRUE;FALSE;2;2;4;1803;591;727;3997;2028;929;110;5988;1281;5649;4402;3119;SILK-12000;speex-8000;PCMU-8000;red;Auto;VP8;360;720;1080;NotDone
AIM;SIP;iptel.org;Off;On;On;TCP;Tls;Auto;Off;BestEffort;Off;FALSE;FALSE;TRUE;3;3;2;716;1147;1516;5781;297;5435;1557;291;1611;3741;1981;1549;PCMU-8000;speex-16000;PCMU-8000;h264;Auto;VP8;720;720;1080;NotDone
IRC;GoogleTalk;iPPi;On;Off;On;TCP;TCP;TCP;On;BestEffort;BestEffort;Auto;Auto;TRUE;2;3;3;1507;1286;608;4455;5431;4818;185;4199;5996;1996;5614;5945;PCMA-8000;GSM-8000;iLBC-8000;red;red;Auto;360;1080;360;NotDone
AIM;iptel.org;IRC;Off;On;On;UDP;Auto;Tls;Off;BestEffort;BestEffort;TRUE;TRUE;FALSE;2;2;3;1908;622;1227;5877;1055;899;5912;5274;1167;97;1120;4470;SILK-24000;opus-48000;PCMU-8000;red;Auto;VP8;720;480;240;NotDone
ICQ;ICQ;ICQ;On;Off;Off;Auto;UDP;Auto;Off;BestEffort;Off;Auto;FALSE;TRUE;2;3;3;1805;1298;1685;5254;5957;5679;454;5795;5821;3982;671;4306;speex-8000;telephone-event-80000;opus-48000;VP8;Auto;red;240;240;720;NotDone
IRC;iptel.org;SIP;On;On;On;Auto;Tls;Auto;Off;Off;Off;FALSE;FALSE;TRUE;2;4;3;1628;976;639;3885;1884;3789;4899;4251;1868;5424;2675;202;GSM-8000;iLBC-8000;GSM-8000;ulpfec;Auto;VP8;1080;360;480;NotDone
IRC;IRC;GoogleTalk;Off;On;Off;TCP;Tls;TCP;Off;On;BestEffort;TRUE;FALSE;FALSE;3;2;2;1715;1937;649;2704;2986;4244;2419;1151;2037;2308;3317;1332;SILK-8000;G722-16000;telephone-event-80000;red;Auto;VP8;240;360;480;NotDone
ICQ;AIM;iptel.org;Off;On;On;Auto;TCP;Tls;Off;Off;BestEffort;TRUE;Auto;FALSE;3;2;3;1302;1710;1000;4092;1731;5056;575;4566;5279;2029;897;5010;speex-32000;speex-32000;speex-8000;h264;ulpfec;VP8;240;1080;360;NotDone
SIP;iptel.org;AIM;On;Off;On;TCP;UDP;TCP;Off;On;BestEffort;Auto;FALSE;TRUE;4;3;4;1941;1759;1893;397;5622;4519;5981;5481;5508;5382;4705;5561;PCMA-8000;SILK-16000;SILK-8000;ulpfec;VP8;h264;240;360;1080;NotDone
AIM;ICQ;GoogleTalk;Off;On;On;Auto;Auto;TCP;On;BestEffort;BestEffort;Auto;Auto;TRUE;4;3;4;1445;1779;862;5790;5973;1246;224;655;4051;4884;5921;5798;GSM-8000;Auto;SILK-8000;red;rtx;h264;360;360;360;NotDone
IRC;GoogleTalk;GoogleTalk;On;Off;On;TCP;Tls;Tls;BestEffort;BestEffort;Off;FALSE;Auto;Auto;2;3;2;1670;1332;1914;243;5121;3978;2239;5695;1929;5936;5278;4410;PCMA-8000;telephone-event-80000;PCMA-8000;Auto;Auto;VP8;240;360;480;NotDone
ICQ;iPPi;iPPi;Off;On;On;UDP;UDP;Tls;Off;BestEffort;On;FALSE;FALSE;FALSE;3;3;3;1979;582;577;5651;5777;255;3730;5419;5461;2197;4201;4508;SILK-16000;speex-16000;SILK-24000;VP8;VP8;VP8;1080;360;720;NotDone
IRC;IRC;GoogleTalk;Off;Off;Off;Tls;UDP;UDP;Off;BestEffort;On;TRUE;TRUE;TRUE;2;2;4;1466;667;1074;4517;5835;1176;3142;5692;5330;5951;5496;5875;SILK-8000;PCMA-8000;SILK-8000;rtx;Auto;ulpfec;1080;480;360;NotDone
ICQ;SIP;AIM;On;On;On;Tls;TCP;Auto;Off;Off;BestEffort;TRUE;TRUE;Auto;4;2;2;1193;1534;1004;2915;5287;2416;1307;575;5980;5897;5522;5456;Auto;GSM-8000;Auto;Auto;Auto;ulpfec;480;480;240;NotDone
IRC;IRC;SIP;On;Off;Off;UDP;UDP;TCP;Off;Off;Off;TRUE;FALSE;TRUE;4;2;2;631;872;643;4265;480;5578;115;5761;3123;4140;506;3960;SILK-24000;SILK-24000;SILK-8000;Auto;Auto;VP8;1080;1080;480;NotDone
ICQ;ICQ;SIP;On;Off;On;Tls;Tls;Auto;Off;BestEffort;Off;Auto;FALSE;Auto;3;4;4;1510;1859;587;5977;5127;565;5797;4942;4779;5606;5183;5389;PCMA-8000;Auto;iLBC-8000;VP8;ulpfec;h264;480;1080;480;NotDone
IRC;iPPi;iPPi;Off;Off;On;TCP;Auto;UDP;Off;BestEffort;Off;FALSE;Auto;Auto;4;3;3;1814;623;1832;5690;832;4802;4216;461;5690;5859;5694;3980;speex-32000;speex-16000;PCMU-8000;Auto;red;VP8;1080;480;1080;NotDone
ICQ;IRC;AIM;Off;On;On;TCP;Tls;Tls;Off;BestEffort;Off;FALSE;FALSE;Auto;3;2;3;1683;1897;1522;5396;5966;4025;512;5115;5651;461;721;4089;PCMA-8000;SILK-24000;SILK-24000;ulpfec;ulpfec;Auto;360;480;360;NotDone
AIM;GoogleTalk;SIP;Off;Off;On;Auto;TCP;Tls;Off;BestEffort;BestEffort;Auto;TRUE;Auto;3;3;3;1870;1912;1568;5011;4823;5882;5626;2579;342;5310;2122;5316;telephone-event-80000;AMR-WB-16000;speex-16000;ulpfec;Auto;VP8;360;1080;720;NotDone
ICQ;AIM;iPPi;Off;On;On;Auto;Tls;Tls;Off;On;BestEffort;Auto;TRUE;FALSE;2;2;2;1310;676;944;5674;686;1615;5264;5572;3737;1878;4888;5004;speex-32000;SILK-24000;Auto;Auto;Auto;VP8;480;360;1080;NotDone
SIP;GoogleTalk;ICQ;Off;On;Off;TCP;Auto;TCP;Off;Off;Off;FALSE;Auto;Auto;2;3;4;1892;1890;1285;4726;5543;5233;1170;2737;5393;5199;1682;2877;opus-48000;PCMA-8000;SILK-16000;h264;Auto;red;720;720;720;NotDone
IRC;GoogleTalk;iptel.org;On;On;Off;UDP;Auto;TCP;Off;Off;BestEffort;TRUE;FALSE;TRUE;3;4;3;1664;1030;1894;5862;5487;1735;1117;686;4343;348;235;5025;Auto;GSM-8000;Auto;ulpfec;Auto;VP8;480;480;720;NotDone
SIP;IRC;iPPi;On;Off;Off;TCP;UDP;UDP;Off;Off;On;Auto;FALSE;FALSE;3;2;3;961;923;1864;4994;4375;296;1539;719;3343;3955;2940;2061;opus-48000;SILK-12000;SILK-12000;red;Auto;VP8;240;1080;480;NotDone
IRC;ICQ;iPPi;Off;On;On;Tls;TCP;Tls;On;On;BestEffort;Auto;FALSE;Auto;3;2;3;1890;1921;732;337;5463;163;683;1556;3912;4744;4236;2427;speex-16000;telephone-event-80000;AMR-WB-16000;rtx;red;ulpfec;720;240;1080;NotDone
IRC;iPPi;IRC;On;On;On;UDP;TCP;TCP;On;On;BestEffort;FALSE;TRUE;FALSE;4;3;2;1163;1114;1249;5583;5349;5559;5823;599;5502;4854;4014;2113;PCMU-8000;GSM-8000;speex-8000;ulpfec;VP8;VP8;480;480;1080;NotDone
ICQ;iptel.org;IRC;On;On;Off;TCP;Auto;TCP;On;Off;On;Auto;FALSE;FALSE;3;3;4;1906;1886;1911;2828;194;2832;1963;83;202;2741;1512;3665;speex-8000;speex-8000;PCMA-8000;VP8;Auto;ulpfec;360;240;480;NotDone
iptel.org;AIM;ICQ;Off;Off;Off;Tls;TCP;UDP;BestEffort;On;On;FALSE;FALSE;TRUE;2;2;2;1012;691;1907;131;4754;349;5065;3049;4102;1212;5736;5651;GSM-8000;opus-48000;AMR-WB-16000;VP8;Auto;VP8;240;360;360;NotDone
AIM;iptel.org;ICQ;Off;On;On;Tls;TCP;TCP;Off;BestEffort;On;Auto;FALSE;Auto;3;3;3;1762;1964;1735;5618;5478;5930;5932;5676;134;3098;4176;5081;G722-16000;PCMA-8000;PCMA-8000;VP8;VP8;Auto;720;360;1080;NotDone
AIM;ICQ;SIP;Off;On;Off;UDP;TCP;UDP;Off;BestEffort;Off;Auto;Auto;FALSE;4;4;4;706;911;822;1069;5933;2168;4990;4881;5227;273;5247;2973;SILK-24000;iLBC-8000;GSM-8000;red;h264;red;480;240;360;NotDone
IRC;IRC;iptel.org;On;Off;Off;UDP;Auto;Tls;BestEffort;BestEffort;BestEffort;FALSE;Auto;TRUE;2;4;3;1765;949;1455;5392;3741;897;949;973;3878;5707;4386;5293;AMR-WB-16000;SILK-16000;AMR-WB-16000;red;rtx;h264;1080;480;720;NotDone
IRC;AIM;AIM;Off;On;Off;TCP;Tls;Tls;Off;Off;Off;TRUE;Auto;TRUE;4;4;3;1690;651;1930;3487;863;1679;5725;3722;1091;1258;4105;5554;PCMU-8000;speex-32000;SILK-8000;h264;Auto;VP8;1080;360;480;NotDone
ICQ;iptel.org;ICQ;On;On;On;Tls;Tls;Tls;Off;BestEffort;BestEffort;Auto;Auto;Auto;3;2;4;1038;1718;699;5176;514;4956;72;2770;4581;4739;3600;3946;opus-48000;G722-16000;SILK-12000;red;rtx;h264;720;1080;1080;NotDone
ICQ;ICQ;iPPi;Off;Off;Off;TCP;UDP;Tls;Off;Off;On;FALSE;FALSE;FALSE;4;2;3;1957;823;681;4534;215;106;3497;5636;2396;5251;4170;4342;PCMA-8000;speex-16000;GSM-8000;Auto;ulpfec;ulpfec;240;240;720;NotDone
AIM;IRC;GoogleTalk;On;Off;Off;Tls;Auto;Auto;BestEffort;Off;Off;Auto;FALSE;FALSE;4;3;4;1159;1991;772;5047;5619;4259;557;5911;2080;157;1024;475;iLBC-8000;SILK-12000;Auto;rtx;red;Auto;720;1080;480;NotDone
IRC;IRC;iptel.org;Off;On;On;UDP;Auto;Tls;BestEffort;BestEffort;BestEffort;TRUE;Auto;Auto;4;2;2;1942;1520;935;2848;4044;1840;4732;1681;594;3583;699;5315;AMR-WB-16000;opus-48000;SILK-8000;rtx;Auto;rtx;480;360;240;NotDone
ICQ;GoogleTalk;GoogleTalk;Off;Off;On;UDP;Tls;Tls;Off;BestEffort;Off;FALSE;FALSE;TRUE;2;2;4;749;1576;1681;4684;3115;3613;1817;1417;2206;1031;2027;4931;AMR-WB-16000;telephone-event-80000;SILK-24000;VP8;Auto;rtx;360;1080;1080;NotDone
GoogleTalk;iptel.org;SIP;On;On;Off;UDP;Auto;Tls;Off;On;BestEffort;Auto;FALSE;Auto;2;4;2;1833;802;1784;4921;1689;4990;2948;1243;4133;5326;348;3596;SILK-24000;GSM-8000;SILK-16000;VP8;Auto;VP8;240;240;360;NotDone
AIM;IRC;IRC;Off;Off;On;TCP;UDP;UDP;Off;BestEffort;BestEffort;FALSE;TRUE;TRUE;2;3;2;1446;1820;1331;1857;3077;3865;4401;5802;4878;1738;872;155;speex-32000;GSM-8000;SILK-16000;h264;Auto;Auto;720;720;240;NotDone
AIM;iPPi;AIM;Off;On;Off;Tls;TCP;Tls;Off;BestEffort;On;FALSE;FALSE;TRUE;3;3;3;767;1950;1328;5219;4878;2132;1903;1151;2088;1749;5237;1470;speex-16000;Auto;iLBC-8000;h264;Auto;Auto;720;480;1080;NotDone
AIM;AIM;GoogleTalk;On;Off;Off;TCP;UDP;Auto;Off;Off;BestEffort;TRUE;Auto;Auto;3;3;3;1829;602;1986;907;4639;3528;4807;3954;3104;1567;1390;2406;G722-16000;speex-8000;SILK-12000;h264;Auto;red;1080;1080;240;NotDone
ICQ;SIP;ICQ;On;On;On;UDP;Auto;UDP;On;BestEffort;Off;Auto;FALSE;TRUE;4;3;3;1356;1232;1927;1004;3958;1964;4426;1403;1757;4127;3108;1090;PCMU-8000;PCMU-8000;SILK-12000;h264;red;ulpfec;1080;1080;1080;NotDone
IRC;AIM;SIP;On;On;Off;Tls;TCP;Auto;Off;BestEffort;BestEffort;TRUE;FALSE;TRUE;2;2;2;1183;1664;1826;5128;819;5275;2675;3442;3264;2189;1410;5773;SILK-16000;opus-48000;speex-32000;rtx;Auto;h264;480;360;240;NotDone
AIM;iptel.org;GoogleTalk;On;Off;On;Auto;Tls;UDP;Off;On;BestEffort;FALSE;FALSE;Auto;2;4;4;1487;848;690;4003;1573;4641;2951;5974;4981;1025;5156;971;PCMU-8000;PCMA-8000;SILK-12000;rtx;red;red;1080;720;720;NotDone
AIM;iPPi;iptel.org;On;On;Off;TCP;TCP;UDP;Off;BestEffort;Off;Auto;FALSE;FALSE;4;4;4;721;1394;1349;1428;1038;3451;1802;4603;5743;110;2181;70;iLBC-8000;SILK-16000;SILK-8000;Auto;red;Auto;480;720;1080;NotDone
AIM;ICQ;ICQ;Off;On;Off;Auto;UDP;Auto;Off;BestEffort;On;FALSE;FALSE;TRUE;3;2;3;1975;1091;1947;1081;811;207;652;5299;4391;1392;224;5831;PCMU-8000;telephone-event-80000;PCMU-8000;red;VP8;ulpfec;1080;480;720;NotDone
IRC;iPPi;IRC;Off;Off;On;Tls;Tls;Tls;Off;Off;Off;FALSE;Auto;FALSE;3;2;2;1363;1743;850;3691;4543;5062;2066;4441;3631;3494;3159;3759;telephone-event-80000;PCMU-8000;Auto;rtx;Auto;ulpfec;720;240;720;NotDone
ICQ;iptel.org;iPPi;On;Off;On;UDP;Auto;Tls;Off;Off;Off;TRUE;Auto;TRUE;2;3;3;934;1505;1253;4539;2176;5932;3783;3860;3462;3486;2512;5321;speex-32000;speex-16000;telephone-event-80000;red;rtx;rtx;480;1080;480;NotDone
IRC;SIP;AIM;Off;On;Off;Auto;Auto;Auto;BestEffort;On;Off;FALSE;TRUE;TRUE;2;3;4;968;1354;787;1634;185;96;452;345;129;1466;962;2804;SILK-16000;iLBC-8000;iLBC-8000;ulpfec;rtx;rtx;720;240;360;NotDone
AIM;GoogleTalk;IRC;Off;On;Off;Tls;UDP;Auto;BestEffort;On;BestEffort;FALSE;Auto;Auto;2;5;2;1962;1620;931;2642;4444;3840;5732;1681;694;3183;691;5115;PCMU-8000;G722-16000;GSM-8000;ulpfec;red;red;1080;1080;240;NotDone
