caller_protocol;callee1_protocol;callee2_protocol;caller_listenport;callee1_listenport;callee2_listenport;caller_transportprotocol;callee1_transportprotocol;callee2_transportprotocol;caller_encryption;callee1_encryption;callee2_encryption;caller_sipzrtpattribute;callee1_sipzrtpattribute;callee2_sipzrtpattribute;caller_maxpeers;callee1_maxpeers;callee2_maxpeers;caller_mtu;callee1_mtu;callee2_mtu;caller_defaultcallrate;callee1_defaultcallrate;callee2_defaultcallrate;caller_maxreceivecallrate;callee1_maxreceivecallrate;callee2_maxreceivecallrate;caller_maxtransmitcallrate;callee1_maxtransmitcallrate;callee2_maxtransmitcallrate;caller_audiocodec;callee1_audiocodec;callee2_audiocodec;caller_videocodec;callee1_videocodec;callee2_videocodec;caller_maxresolution;callee1_maxresolution;callee2_maxresolution;
AIM;GoogleTalk;AIM;On;Off;On;UDP;UDP;Auto;On;BestEffort;On;FALSE;FALSE;FALSE;2;3;2;1458;1008;1650;4809;662;1428;4247;178;310;2856;4137;2084;SILK-8000;PCMA-8000;PCMA-8000;VP8;ulpfec;h264;720;240;240;NotDone
iptel.org;GoogleTalk;AIM;Off;On;Off;TCP;TCP;Tls;Off;BestEffort;Off;TRUE;Auto;TRUE;2;4;3;1952;1325;716;5076;5590;3344;4647;3315;5749;1369;5844;5874;speex-32000;speex-8000;PCMU-8000;VP8;Auto;rtx;480;720;480;NotDone
IRC;GoogleTalk;IRC;Off;On;On;Tls;Tls;Tls;Off;Off;Off;FALSE;TRUE;FALSE;2;2;2;1566;864;684;4239;3875;4961;2625;1215;5850;4741;5871;227;iLBC-8000;PCMA-8000;telephone-event-80000;Auto;Auto;VP8;480;360;240;NotDone
AIM;IRC;iPPi;On;Off;Off;Auto;Auto;TCP;On;On;Off;TRUE;FALSE;TRUE;2;4;2;1607;951;1153;5912;1398;746;4540;313;5628;5190;5222;5606;opus-48000;PCMU-8000;speex-16000;VP8;red;red;720;720;360;NotDone
ICQ;iptel.org;AIM;On;On;On;UDP;Tls;TCP;Off;Off;BestEffort;Auto;FALSE;TRUE;4;4;2;1691;713;1928;1231;1709;375;4070;4757;5470;5708;2378;4359;speex-8000;SILK-8000;PCMA-8000;rtx;Auto;VP8;240;240;1080;NotDone
IRC;ICQ;ICQ;On;On;On;TCP;Tls;Auto;Off;Off;BestEffort;TRUE;TRUE;FALSE;4;4;4;1886;778;997;4011;4000;5693;676;5904;5391;418;2251;4954;SILK-24000;Auto;G722-16000;h264;Auto;VP8;720;480;360;NotDone
ICQ;SIP;SIP;On;On;On;TCP;Auto;Auto;Off;BestEffort;BestEffort;FALSE;TRUE;FALSE;4;2;4;1321;1040;585;5664;210;5518;5325;5217;1748;172;348;5672;GSM-8000;PCMA-8000;speex-8000;VP8;red;Auto;360;480;1080;NotDone
IRC;AIM;iPPi;On;Off;Off;TCP;UDP;TCP;Off;Off;BestEffort;TRUE;Auto;Auto;3;4;4;1880;1757;1708;2622;1301;5841;5944;501;2158;5743;427;5569;SILK-8000;GSM-8000;SILK-8000;ulpfec;Auto;VP8;1080;360;360;NotDone
AIM;SIP;GoogleTalk;Off;Off;On;TCP;Auto;Auto;On;Off;Off;Auto;Auto;TRUE;3;2;3;1894;917;752;5145;5982;3404;1351;4132;1331;5991;4619;4097;SILK-8000;SILK-16000;PCMU-8000;ulpfec;Auto;VP8;480;480;480;NotDone
ICQ;IRC;iPPi;On;On;Off;TCP;Auto;Tls;Off;BestEffort;Off;FALSE;FALSE;FALSE;3;4;4;1052;952;1138;3932;4970;5309;5008;2953;5710;2602;1034;5787;telephone-event-80000;PCMA-8000;telephone-event-80000;VP8;Auto;ulpfec;480;720;720;NotDone
ICQ;IRC;iptel.org;Off;On;Off;TCP;TCP;Tls;On;Off;Off;TRUE;Auto;FALSE;3;4;4;1448;709;1565;5029;5871;5848;443;1084;182;440;2774;2669;Auto;opus-48000;AMR-WB-16000;h264;VP8;VP8;240;480;720;NotDone
ICQ;iPPi;IRC;Off;On;On;TCP;UDP;TCP;Off;BestEffort;BestEffort;FALSE;Auto;TRUE;2;2;3;1522;875;945;3701;5418;4105;488;569;5798;5948;5825;4154;SILK-8000;SILK-12000;speex-32000;VP8;Auto;VP8;240;1080;480;NotDone
ICQ;SIP;iPPi;On;Off;On;Auto;Auto;TCP;Off;On;BestEffort;Auto;Auto;TRUE;2;3;4;1619;764;1551;620;431;5234;3968;378;2250;5715;1517;4926;PCMA-8000;PCMU-8000;SILK-12000;red;VP8;VP8;240;1080;720;NotDone
AIM;SIP;iPPi;Off;On;Off;Tls;TCP;UDP;Off;Off;Off;Auto;TRUE;Auto;3;3;2;1864;1146;1327;5218;4527;5592;564;574;5509;154;3123;5561;Auto;PCMU-8000;speex-32000;Auto;Auto;h264;240;240;720;NotDone
IRC;iPPi;iPPi;Off;On;On;Tls;UDP;UDP;On;On;Off;TRUE;TRUE;FALSE;4;3;2;940;1252;981;4523;877;5295;2232;292;3852;503;5058;4254;speex-16000;telephone-event-80000;AMR-WB-16000;h264;Auto;VP8;720;240;720;NotDone
AIM;IRC;SIP;On;Off;On;Tls;TCP;TCP;Off;Off;Off;Auto;FALSE;Auto;2;4;3;1827;674;763;3468;4746;4769;5586;3872;3070;1910;267;4801;AMR-WB-16000;iLBC-8000;telephone-event-80000;VP8;red;VP8;720;360;720;NotDone
AIM;ICQ;AIM;Off;Off;On;Tls;UDP;Tls;Off;Off;BestEffort;FALSE;FALSE;TRUE;2;2;4;941;626;576;5926;4804;5461;5707;91;925;769;401;2719;PCMA-8000;telephone-event-80000;GSM-8000;Auto;ulpfec;VP8;480;240;1080;NotDone
GoogleTalk;iptel.org;iPPi;Off;On;On;Auto;Tls;TCP;Off;BestEffort;BestEffort;Auto;FALSE;Auto;4;3;2;1777;1299;797;3762;5186;518;170;4727;4811;3290;216;1367;AMR-WB-16000;SILK-24000;PCMA-8000;Auto;Auto;VP8;480;480;480;NotDone
AIM;iPPi;GoogleTalk;On;Off;Off;Auto;UDP;UDP;Off;BestEffort;BestEffort;TRUE;TRUE;TRUE;2;3;4;943;976;693;4410;5220;4966;2736;4435;966;5700;802;5320;opus-48000;PCMA-8000;SILK-24000;VP8;VP8;VP8;1080;360;1080;NotDone
IRC;AIM;GoogleTalk;Off;On;On;Auto;Auto;TCP;Off;Off;On;Auto;FALSE;Auto;4;2;4;1996;877;1522;5615;366;4851;1260;5214;3294;5480;4191;5625;speex-16000;GSM-8000;GSM-8000;ulpfec;Auto;ulpfec;720;240;480;NotDone
ICQ;IRC;ICQ;On;On;Off;TCP;UDP;Tls;Off;On;On;FALSE;FALSE;FALSE;3;2;3;1335;1737;674;5308;734;3180;2547;89;5495;5143;830;5834;G722-16000;opus-48000;SILK-8000;ulpfec;rtx;Auto;240;720;720;NotDone
AIM;SIP;SIP;On;Off;On;Auto;TCP;Auto;Off;BestEffort;Off;TRUE;FALSE;TRUE;4;3;4;1934;1252;1859;4392;2608;4949;1601;2253;5958;555;248;5330;SILK-8000;speex-16000;speex-16000;VP8;Auto;VP8;720;360;720;NotDone
IRC;SIP;ICQ;On;Off;Off;Auto;Tls;Auto;Off;Off;Off;FALSE;TRUE;TRUE;3;2;2;1988;1727;1206;2967;3567;891;289;1628;5799;5184;5825;5931;SILK-24000;Auto;GSM-8000;h264;ulpfec;VP8;1080;480;1080;NotDone
IRC;ICQ;ICQ;Off;On;On;TCP;TCP;Auto;Off;BestEffort;On;TRUE;TRUE;FALSE;4;3;4;1361;1792;1257;5788;582;4386;518;5348;137;4501;4557;5080;iLBC-8000;speex-8000;SILK-8000;ulpfec;ulpfec;red;360;360;240;NotDone
AIM;IRC;AIM;Off;On;Off;Tls;Auto;Tls;BestEffort;Off;BestEffort;Auto;FALSE;FALSE;4;3;2;942;1369;656;123;1523;66;4904;4989;3345;5448;4947;4589;SILK-24000;SILK-8000;SILK-8000;h264;Auto;VP8;360;1080;360;NotDone
IRC;iptel.org;iPPi;Off;Off;Off;Auto;Tls;UDP;Off;On;Off;Auto;TRUE;TRUE;2;2;4;800;1988;992;5339;4485;2102;5769;5233;2128;5154;5264;1348;SILK-8000;SILK-24000;SILK-8000;h264;VP8;VP8;360;360;240;NotDone
IRC;IRC;iptel.org;Off;On;On;UDP;Auto;Auto;Off;On;Off;FALSE;TRUE;TRUE;2;3;3;1041;1925;1311;5810;2782;217;263;493;2828;5885;5179;5269;SILK-12000;Auto;speex-8000;VP8;rtx;Auto;480;720;480;NotDone
AIM;GoogleTalk;iPPi;On;On;On;Tls;Auto;TCP;Off;BestEffort;Off;FALSE;TRUE;FALSE;2;3;3;1368;932;1045;2554;2855;2705;525;3033;1667;3863;1068;3923;speex-16000;telephone-event-80000;AMR-WB-16000;red;Auto;VP8;240;720;720;NotDone
AIM;SIP;SIP;On;On;Off;Auto;Auto;TCP;Off;Off;On;TRUE;FALSE;TRUE;2;3;3;1318;1416;1237;107;266;933;5853;5748;655;1809;4767;5943;SILK-16000;opus-48000;SILK-12000;ulpfec;Auto;VP8;360;1080;1080;NotDone
AIM;iPPi;GoogleTalk;On;On;On;Tls;TCP;Auto;BestEffort;BestEffort;Off;Auto;Auto;TRUE;2;3;2;1546;1469;683;1176;5128;5235;382;5694;2506;3242;5373;3569;PCMA-8000;telephone-event-80000;PCMU-8000;h264;Auto;VP8;720;1080;240;NotDone
AIM;iPPi;ICQ;Off;Off;On;Tls;UDP;TCP;BestEffort;On;Off;TRUE;FALSE;TRUE;4;3;2;631;738;1748;749;5334;223;5459;5725;240;5681;4360;1994;SILK-16000;GSM-8000;SILK-8000;Auto;Auto;VP8;1080;720;240;NotDone
IRC;iPPi;AIM;Off;On;Off;TCP;TCP;Tls;On;Off;BestEffort;TRUE;FALSE;TRUE;4;3;3;1765;1679;1964;5385;3858;5769;4263;5356;5477;4448;1511;5537;AMR-WB-16000;PCMA-8000;opus-48000;h264;Auto;VP8;360;1080;720;NotDone
IRC;iPPi;ICQ;Off;Off;Off;Tls;UDP;Tls;On;BestEffort;Off;Auto;FALSE;TRUE;4;3;3;658;1089;1136;3225;2515;4397;1032;4001;5749;685;5991;5645;iLBC-8000;iLBC-8000;iLBC-8000;red;Auto;VP8;720;360;360;NotDone
IRC;iptel.org;IRC;On;On;On;Tls;Tls;Auto;Off;BestEffort;Off;TRUE;Auto;Auto;4;4;4;828;724;1059;5766;3114;1176;1566;1957;3174;1748;1094;1566;Auto;speex-32000;SILK-8000;rtx;Auto;VP8;240;240;240;NotDone
IRC;iptel.org;AIM;Off;Off;On;Auto;Auto;UDP;Off;Off;On;TRUE;Auto;FALSE;4;3;2;1928;1366;597;4800;1324;5711;280;170;5629;2726;1620;5431;speex-16000;opus-48000;telephone-event-80000;ulpfec;Auto;VP8;720;480;720;NotDone
ICQ;GoogleTalk;ICQ;Off;On;On;TCP;Tls;Auto;Off;Off;BestEffort;TRUE;TRUE;TRUE;2;4;3;1997;735;996;2827;198;1003;5396;764;5660;3358;5167;5069;SILK-16000;SILK-16000;speex-32000;red;Auto;ulpfec;360;480;480;NotDone
ICQ;iptel.org;SIP;Off;Off;On;UDP;UDP;Tls;Off;Off;BestEffort;TRUE;TRUE;Auto;2;2;3;1699;1892;1867;5961;1424;5302;499;1520;5409;5683;5366;5999;iLBC-8000;Auto;telephone-event-80000;rtx;ulpfec;red;720;240;720;NotDone
AIM;iPPi;IRC;On;On;Off;TCP;UDP;TCP;Off;On;Off;TRUE;TRUE;TRUE;4;2;4;1187;1241;1735;5073;3612;2008;5378;1955;3308;385;5186;5064;Auto;speex-8000;PCMA-8000;VP8;VP8;VP8;720;1080;360;NotDone
SIP;iptel.org;iptel.org;Off;On;On;UDP;TCP;Tls;Off;Off;BestEffort;FALSE;Auto;TRUE;4;4;4;1964;1188;950;4078;3615;269;5183;3850;5891;2273;254;4710;iLBC-8000;iLBC-8000;SILK-8000;ulpfec;Auto;VP8;1080;360;240;NotDone
SIP;SIP;IRC;On;Off;On;Tls;Auto;Auto;On;BestEffort;On;TRUE;FALSE;TRUE;4;4;4;1994;736;1577;5841;5400;5740;5756;979;1502;79;351;5196;opus-48000;SILK-24000;PCMU-8000;h264;Auto;ulpfec;720;360;720;NotDone
ICQ;iptel.org;IRC;Off;On;Off;Tls;TCP;Auto;Off;Off;On;Auto;Auto;TRUE;4;2;4;1014;1662;948;5919;271;1423;151;5978;3412;1260;4107;5489;PCMA-8000;telephone-event-80000;SILK-12000;rtx;ulpfec;h264;360;240;240;NotDone
IRC;IRC;ICQ;Off;On;On;Tls;UDP;Tls;Off;Off;BestEffort;TRUE;TRUE;TRUE;3;3;3;1562;1984;1291;4652;192;2667;1120;5319;3668;5731;4758;5326;PCMU-8000;GSM-8000;GSM-8000;ulpfec;ulpfec;VP8;240;720;480;NotDone
GoogleTalk;iptel.org;iptel.org;Off;On;Off;Tls;Auto;TCP;Off;Off;Off;TRUE;TRUE;TRUE;3;3;4;1447;577;689;4686;5930;4223;5469;4030;2446;4578;2202;803;AMR-WB-16000;telephone-event-80000;AMR-WB-16000;ulpfec;Auto;VP8;240;360;240;NotDone
ICQ;iPPi;IRC;On;On;Off;Tls;Auto;TCP;Off;Off;BestEffort;FALSE;Auto;Auto;2;3;4;1791;1940;826;4743;628;1268;2146;1443;4288;4538;1442;4446;opus-48000;PCMU-8000;PCMU-8000;red;red;ulpfec;360;480;240;NotDone
GoogleTalk;AIM;iptel.org;On;Off;Off;TCP;Auto;Auto;Off;On;BestEffort;FALSE;FALSE;Auto;4;3;3;819;1714;1661;5576;4296;5708;162;938;5581;627;5820;3721;G722-16000;PCMA-8000;telephone-event-80000;red;red;h264;360;240;480;NotDone
ICQ;AIM;iptel.org;Off;On;On;TCP;Tls;Auto;Off;Off;Off;TRUE;TRUE;Auto;3;3;3;1211;1076;1508;3164;4711;3123;1392;1289;489;4380;1513;2192;Auto;telephone-event-80000;opus-48000;h264;VP8;VP8;1080;360;1080;NotDone
IRC;GoogleTalk;iptel.org;On;Off;Off;UDP;UDP;Tls;Off;Off;Off;FALSE;FALSE;Auto;2;3;4;1825;1865;1979;5292;1370;5618;1962;4058;1029;5632;801;5392;SILK-8000;PCMA-8000;speex-8000;h264;Auto;VP8;240;1080;360;NotDone
IRC;SIP;iPPi;On;On;Off;UDP;Tls;Auto;On;BestEffort;On;TRUE;FALSE;TRUE;3;4;4;1853;1793;1142;5744;547;5981;72;5000;719;4883;5470;5796;AMR-WB-16000;speex-16000;SILK-8000;rtx;Auto;h264;360;1080;480;NotDone
IRC;AIM;iPPi;On;Off;Off;Auto;TCP;Tls;On;BestEffort;Off;TRUE;Auto;FALSE;2;2;3;1567;881;1753;4510;3913;2805;5172;2574;3549;5082;3233;1315;PCMA-8000;PCMA-8000;GSM-8000;VP8;Auto;VP8;1080;1080;720;NotDone
ICQ;iPPi;iptel.org;Off;On;On;TCP;UDP;Auto;Off;On;Off;FALSE;TRUE;FALSE;3;3;4;1200;1501;979;3622;1204;5375;5193;853;5817;5376;1336;5386;speex-32000;speex-8000;speex-16000;Auto;VP8;VP8;1080;1080;480;NotDone
IRC;iPPi;iptel.org;Off;On;Off;UDP;UDP;TCP;On;BestEffort;Off;FALSE;Auto;FALSE;4;3;3;891;1158;603;244;391;4752;5829;5499;3859;152;5754;5294;speex-16000;Auto;SILK-8000;VP8;rtx;ulpfec;360;1080;720;NotDone
IRC;IRC;ICQ;On;On;Off;Auto;Auto;TCP;Off;Off;BestEffort;Auto;FALSE;TRUE;3;4;4;782;776;1690;3677;297;4070;2169;5770;206;5941;5290;5174;PCMU-8000;telephone-event-80000;speex-32000;rtx;Auto;Auto;1080;480;1080;NotDone
ICQ;IRC;GoogleTalk;Off;On;Off;Auto;Auto;UDP;On;BestEffort;BestEffort;TRUE;FALSE;FALSE;2;2;3;1025;920;817;4261;2823;4405;1138;331;4220;383;4103;2530;PCMU-8000;SILK-24000;SILK-8000;ulpfec;Auto;VP8;240;720;1080;NotDone
IRC;IRC;IRC;On;On;On;Auto;UDP;UDP;BestEffort;BestEffort;BestEffort;FALSE;FALSE;FALSE;4;3;3;1552;1997;1509;5806;636;5387;615;838;5729;1124;5913;5066;SILK-24000;SILK-24000;iLBC-8000;Auto;h264;VP8;1080;1080;240;NotDone
AIM;ICQ;AIM;Off;On;On;Auto;Auto;TCP;BestEffort;Off;On;TRUE;Auto;Auto;2;3;2;725;1306;1507;4299;3066;5922;3206;2394;3804;5897;5977;79;iLBC-8000;speex-8000;PCMU-8000;ulpfec;Auto;VP8;480;240;240;NotDone
ICQ;GoogleTalk;GoogleTalk;On;Off;On;Tls;Auto;UDP;On;Off;On;Auto;Auto;FALSE;4;2;4;1687;813;1652;3950;114;3358;796;4349;1285;922;5920;3393;telephone-event-80000;GSM-8000;iLBC-8000;h264;VP8;ulpfec;720;480;1080;NotDone
ICQ;GoogleTalk;GoogleTalk;On;On;Off;Auto;Auto;Tls;Off;On;On;TRUE;Auto;TRUE;4;3;3;904;637;1808;4224;301;4211;1862;3186;2248;263;5371;614;Auto;telephone-event-80000;PCMA-8000;h264;ulpfec;VP8;360;240;360;NotDone
IRC;AIM;SIP;On;On;Off;UDP;Auto;UDP;BestEffort;BestEffort;On;TRUE;TRUE;Auto;4;3;3;1548;773;1131;5292;5350;79;361;910;448;5688;5468;4282;PCMU-8000;opus-48000;AMR-WB-16000;h264;Auto;Auto;240;360;360;NotDone
iptel.org;iPPi;GoogleTalk;Off;On;On;UDP;UDP;TCP;Off;BestEffort;Off;FALSE;TRUE;TRUE;3;2;3;1603;1355;633;3559;1835;5620;5255;5680;647;4317;4354;3212;speex-32000;telephone-event-80000;AMR-WB-16000;Auto;Auto;VP8;240;240;240;NotDone
ICQ;AIM;GoogleTalk;On;On;Off;TCP;Tls;Auto;Off;BestEffort;On;Auto;Auto;TRUE;3;4;2;1579;1799;1645;5933;2873;3272;4615;5415;5697;1076;5295;4997;speex-8000;PCMA-8000;PCMA-8000;Auto;VP8;VP8;240;1080;1080;NotDone
ICQ;GoogleTalk;GoogleTalk;On;Off;Off;Tls;Tls;Auto;Off;Off;Off;Auto;Auto;TRUE;2;2;3;924;1275;802;4469;1578;2375;892;3195;955;1272;2073;141;SILK-12000;telephone-event-80000;SILK-12000;red;Auto;red;720;1080;240;NotDone
AIM;iptel.org;IRC;On;Off;Off;TCP;Auto;UDP;BestEffort;On;Off;TRUE;TRUE;Auto;4;3;3;1238;1525;1434;5833;835;5201;1294;109;314;3797;1358;5525;SILK-12000;GSM-8000;opus-48000;ulpfec;Auto;VP8;480;720;1080;NotDone
IRC;SIP;iPPi;Off;On;Off;Tls;Tls;TCP;Off;BestEffort;On;FALSE;Auto;FALSE;2;3;2;1882;918;631;5442;5611;4996;2471;4553;1321;3365;5405;5886;Auto;iLBC-8000;PCMA-8000;red;Auto;VP8;720;360;240;NotDone
ICQ;GoogleTalk;iPPi;Off;Off;Off;UDP;Tls;Auto;BestEffort;BestEffort;BestEffort;FALSE;FALSE;FALSE;3;4;4;1818;674;692;5562;3364;710;3462;3111;1359;5861;304;5384;PCMU-8000;speex-16000;speex-8000;red;VP8;Auto;720;1080;240;NotDone
IRC;SIP;iPPi;On;On;Off;TCP;TCP;Auto;Off;BestEffort;BestEffort;Auto;TRUE;FALSE;4;2;3;1083;1976;1335;5848;939;4840;3473;1110;1642;4524;4803;4770;G722-16000;opus-48000;SILK-24000;rtx;Auto;VP8;1080;1080;720;NotDone
ICQ;SIP;iPPi;Off;On;On;Auto;TCP;Auto;Off;Off;On;FALSE;FALSE;Auto;3;3;3;1527;787;1488;5507;4844;261;3278;4144;2005;1099;5799;2443;opus-48000;G722-16000;opus-48000;Auto;Auto;VP8;240;360;360;NotDone
ICQ;ICQ;SIP;On;Off;Off;TCP;UDP;Auto;Off;BestEffort;Off;Auto;TRUE;Auto;3;2;3;1437;1927;1195;371;5263;5712;1677;5798;5713;79;5988;5683;speex-16000;telephone-event-80000;Auto;Auto;rtx;Auto;240;480;360;NotDone
IRC;iptel.org;ICQ;On;Off;Off;UDP;UDP;Auto;Off;BestEffort;BestEffort;TRUE;TRUE;FALSE;2;3;2;836;1063;770;5943;1027;2392;3663;2840;2058;5662;1074;3318;iLBC-8000;SILK-16000;PCMU-8000;Auto;h264;VP8;480;240;360;NotDone
IRC;iptel.org;AIM;On;On;On;Tls;Tls;Tls;Off;Off;BestEffort;FALSE;TRUE;TRUE;3;4;2;1663;1819;593;4566;3303;2692;1354;502;5673;5965;306;5958;G722-16000;PCMA-8000;Auto;red;ulpfec;VP8;480;1080;480;NotDone
GoogleTalk;SIP;SIP;Off;Off;Off;TCP;TCP;TCP;On;On;BestEffort;FALSE;FALSE;FALSE;4;2;3;629;753;1949;5670;5130;3450;1630;5870;764;5756;5920;5500;PCMA-8000;GSM-8000;speex-16000;ulpfec;Auto;VP8;1080;1080;480;NotDone
IRC;IRC;iptel.org;On;On;On;Tls;UDP;TCP;Off;On;On;TRUE;TRUE;Auto;2;2;4;825;1163;1917;3147;87;4113;2025;3153;5871;5640;2906;4330;Auto;telephone-event-80000;iLBC-8000;h264;Auto;h264;240;240;480;NotDone
AIM;iptel.org;iptel.org;On;On;On;Auto;UDP;Tls;Off;Off;BestEffort;Auto;Auto;Auto;2;4;4;1760;1145;615;4321;5267;5169;1145;3433;185;405;5897;5843;opus-48000;speex-8000;speex-16000;red;h264;Auto;360;480;480;NotDone
AIM;IRC;iPPi;Off;On;On;UDP;UDP;Auto;Off;On;BestEffort;TRUE;Auto;Auto;4;2;3;1242;1934;1186;5006;428;2903;1646;1503;4595;5847;3420;3339;Auto;SILK-24000;SILK-8000;VP8;Auto;VP8;1080;720;240;NotDone
AIM;iptel.org;IRC;On;Off;Off;UDP;TCP;UDP;Off;BestEffort;Off;TRUE;FALSE;TRUE;2;4;4;961;693;1314;4909;3129;1899;122;5440;467;3555;4997;2585;PCMA-8000;speex-16000;speex-16000;rtx;ulpfec;ulpfec;1080;480;720;NotDone
IRC;GoogleTalk;IRC;Off;On;On;Auto;Auto;Auto;Off;Off;BestEffort;Auto;Auto;TRUE;4;2;3;1885;1828;798;541;1249;5511;5874;4516;4366;822;5847;5389;speex-16000;speex-16000;PCMU-8000;ulpfec;ulpfec;VP8;1080;240;360;NotDone
ICQ;ICQ;SIP;Off;Off;On;Tls;Tls;TCP;Off;On;Off;Auto;TRUE;TRUE;2;3;2;1895;1889;867;3508;1332;2279;5094;2156;4459;5894;4472;3460;speex-16000;iLBC-8000;SILK-8000;VP8;Auto;VP8;1080;1080;240;NotDone
ICQ;iPPi;ICQ;On;On;Off;TCP;Tls;Tls;BestEffort;Off;BestEffort;Auto;FALSE;FALSE;4;4;2;710;757;1873;3547;511;5542;5650;4754;5830;5365;278;1790;opus-48000;PCMA-8000;G722-16000;rtx;rtx;VP8;240;1080;360;NotDone
ICQ;iptel.org;ICQ;On;On;Off;Auto;TCP;Tls;Off;BestEffort;On;FALSE;FALSE;TRUE;3;4;2;701;1000;1195;2904;2495;5384;2515;2816;127;2154;3945;4763;speex-16000;G722-16000;GSM-8000;red;rtx;VP8;240;480;720;NotDone
IRC;iptel.org;iPPi;On;On;Off;Auto;Tls;UDP;Off;On;BestEffort;TRUE;Auto;FALSE;3;2;2;1925;1929;1381;5131;5222;5686;796;3459;2872;4992;5840;5476;SILK-12000;PCMU-8000;iLBC-8000;Auto;rtx;VP8;720;240;480;NotDone
IRC;ICQ;AIM;On;On;On;UDP;Auto;Tls;Off;Off;BestEffort;TRUE;TRUE;Auto;3;3;4;729;1315;723;5583;2198;5157;5775;314;5550;733;5305;3347;telephone-event-80000;PCMA-8000;telephone-event-80000;VP8;Auto;red;480;480;720;NotDone
IRC;iPPi;iPPi;On;On;On;TCP;Tls;TCP;Off;BestEffort;Off;Auto;FALSE;Auto;3;3;4;698;577;675;2113;4071;2095;2822;2245;5377;2596;5689;4198;G722-16000;telephone-event-80000;speex-8000;Auto;ulpfec;VP8;360;480;360;NotDone
ICQ;ICQ;IRC;Off;On;Off;Tls;UDP;Tls;On;Off;Off;TRUE;FALSE;Auto;4;4;3;819;1557;1971;4989;4969;4162;2966;4722;1395;2721;2332;2831;PCMA-8000;SILK-8000;SILK-24000;rtx;Auto;Auto;360;240;720;NotDone
iPPi;IRC;ICQ;Off;Off;Off;Tls;UDP;UDP;Off;BestEffort;On;TRUE;TRUE;TRUE;2;2;3;1713;1843;1421;118;283;5229;68;995;2876;5731;5858;4630;opus-48000;opus-48000;GSM-8000;h264;red;Auto;480;240;240;NotDone
IRC;GoogleTalk;iptel.org;Off;Off;On;Auto;UDP;TCP;On;Off;Off;FALSE;Auto;TRUE;2;2;4;694;1838;812;2276;490;5615;2791;1481;5127;439;5615;5698;speex-16000;SILK-16000;speex-16000;VP8;Auto;VP8;720;360;1080;NotDone
ICQ;IRC;AIM;On;On;On;UDP;Tls;Auto;Off;Off;BestEffort;FALSE;Auto;FALSE;4;2;4;1173;1226;613;4489;1233;1720;5631;1485;5739;5611;2090;5065;PCMU-8000;iLBC-8000;AMR-WB-16000;VP8;Auto;h264;480;240;240;NotDone
iptel.org;GoogleTalk;ICQ;On;On;Off;Tls;UDP;Tls;Off;BestEffort;BestEffort;FALSE;TRUE;FALSE;4;4;4;1995;813;1402;3554;291;1189;5056;5410;2115;4518;2174;2518;speex-16000;speex-16000;telephone-event-80000;rtx;red;VP8;480;360;1080;NotDone
AIM;iPPi;iptel.org;Off;Off;On;TCP;UDP;UDP;Off;Off;On;FALSE;Auto;FALSE;4;4;4;1308;1360;819;4207;2729;3007;5937;1069;1458;2872;5413;3980;SILK-24000;Auto;Auto;Auto;ulpfec;VP8;1080;480;720;NotDone
IRC;iPPi;iPPi;Off;On;On;Tls;TCP;Auto;On;Off;BestEffort;Auto;TRUE;TRUE;2;3;4;1664;1891;973;2822;696;234;5998;102;3696;1338;3506;5998;telephone-event-80000;PCMA-8000;GSM-8000;ulpfec;ulpfec;VP8;480;360;240;NotDone
IRC;AIM;SIP;On;Off;Off;Auto;UDP;TCP;BestEffort;Off;On;Auto;Auto;Auto;4;4;2;739;1004;1684;3577;5060;3871;2820;5834;457;4836;3507;4984;opus-48000;PCMA-8000;SILK-8000;ulpfec;ulpfec;ulpfec;480;360;1080;NotDone
ICQ;GoogleTalk;IRC;Off;On;On;Tls;UDP;TCP;On;On;BestEffort;Auto;FALSE;Auto;4;3;2;1963;1537;1487;4198;1695;870;2580;4457;4214;5327;1364;3380;SILK-24000;SILK-8000;telephone-event-80000;rtx;Auto;h264;720;240;480;NotDone
IRC;SIP;GoogleTalk;Off;On;On;Tls;Auto;Auto;Off;BestEffort;On;FALSE;FALSE;TRUE;4;4;4;1684;1294;1009;3467;5960;5965;3153;5177;846;5811;5990;5341;G722-16000;SILK-12000;speex-16000;red;h264;VP8;480;480;480;NotDone
AIM;AIM;AIM;Off;Off;On;Auto;Tls;Tls;BestEffort;Off;BestEffort;Auto;FALSE;Auto;4;2;2;1642;1137;1919;5912;3033;3376;254;3827;926;5160;3751;698;Auto;G722-16000;SILK-8000;rtx;ulpfec;Auto;360;240;720;NotDone
AIM;iptel.org;GoogleTalk;On;Off;On;UDP;TCP;TCP;BestEffort;Off;BestEffort;FALSE;TRUE;TRUE;2;4;2;1365;1038;1137;2780;5560;2598;3137;2366;1794;3682;5444;1675;telephone-event-80000;telephone-event-80000;GSM-8000;VP8;h264;VP8;1080;1080;1080;NotDone
IRC;IRC;iptel.org;On;On;Off;UDP;Tls;Auto;Off;BestEffort;Off;TRUE;Auto;FALSE;3;3;2;1424;1602;611;3555;5844;5994;4951;2763;1755;3789;215;5528;PCMU-8000;iLBC-8000;GSM-8000;red;Auto;VP8;360;360;240;NotDone
IRC;iptel.org;GoogleTalk;On;On;On;UDP;TCP;Tls;Off;Off;BestEffort;TRUE;TRUE;FALSE;3;2;2;1208;592;1012;5073;5539;4265;4390;5854;5650;5864;2313;5327;telephone-event-80000;opus-48000;AMR-WB-16000;h264;ulpfec;VP8;360;720;480;NotDone
IRC;GoogleTalk;iptel.org;Off;Off;On;Auto;Auto;Auto;Off;BestEffort;Off;FALSE;Auto;Auto;2;4;3;1161;862;1972;1762;372;731;5404;2440;2302;5828;5144;4664;speex-16000;Auto;speex-8000;VP8;ulpfec;rtx;240;240;360;NotDone
IRC;ICQ;ICQ;On;Off;On;UDP;Tls;Auto;Off;Off;BestEffort;TRUE;TRUE;FALSE;3;2;2;1196;1420;753;2235;1447;2259;4528;192;4070;5541;3792;2555;opus-48000;speex-32000;PCMU-8000;Auto;Auto;red;360;480;720;NotDone
iPPi;GoogleTalk;IRC;Off;On;Off;Auto;Tls;UDP;BestEffort;Off;BestEffort;Auto;TRUE;TRUE;3;4;3;1831;1896;1965;2514;1985;5555;4211;5614;3422;1741;4857;2251;speex-16000;iLBC-8000;Auto;red;red;red;1080;360;360;NotDone
GoogleTalk;SIP;AIM;Off;On;Off;Tls;Auto;Tls;On;BestEffort;BestEffort;TRUE;FALSE;FALSE;2;2;3;1882;992;907;2620;5527;3910;5513;5366;3887;2958;289;5522;speex-16000;PCMU-8000;Auto;VP8;Auto;rtx;360;720;1080;NotDone
iPPi;iPPi;SIP;Off;On;Off;UDP;Tls;TCP;Off;BestEffort;BestEffort;FALSE;FALSE;FALSE;4;3;2;747;1547;1734;5834;3893;2340;4371;2139;4856;5867;1196;4993;speex-32000;telephone-event-80000;SILK-8000;red;red;rtx;360;1080;360;NotDone
