caller_protocol;callee1_protocol;callee2_protocol;caller_listenport;callee1_listenport;callee2_listenport;caller_transportprotocol;callee1_transportprotocol;callee2_transportprotocol;caller_encryption;callee1_encryption;callee2_encryption;caller_sipzrtpattribute;callee1_sipzrtpattribute;callee2_sipzrtpattribute;caller_maxpeers;callee1_maxpeers;callee2_maxpeers;caller_mtu;callee1_mtu;callee2_mtu;caller_defaultcallrate;callee1_defaultcallrate;callee2_defaultcallrate;caller_maxreceivecallrate;callee1_maxreceivecallrate;callee2_maxreceivecallrate;caller_maxtransmitcallrate;callee1_maxtransmitcallrate;callee2_maxtransmitcallrate;caller_audiocodec;callee1_audiocodec;callee2_audiocodec;caller_videocodec;callee1_videocodec;callee2_videocodec;caller_maxresolution;callee1_maxresolution;callee2_maxresolution;
GoogleTalk;IRC;AIM;Off;On;On;Auto;Tls;TCP;Off;Off;Off;Auto;FALSE;Auto;2;2;2;1934;750;627;5921;5985;5840;70;78;5966;5949;408;86;PCMU-8000;SILK-8000;SILK-8000;ulpfec;VP8;VP8;720;720;240;NotDone
GoogleTalk;IRC;GoogleTalk;Off;On;On;Tls;Auto;TCP;On;On;Off;TRUE;FALSE;TRUE;2;3;3;1934;1007;900;5945;5519;375;228;78;5966;5949;408;86;PCMU-8000;SILK-8000;SILK-8000;ulpfec;VP8;VP8;720;360;240;NotDone
GoogleTalk;IRC;GoogleTalk;Off;On;On;Tls;Auto;TCP;On;On;Off;FALSE;FALSE;TRUE;4;3;3;1934;1130;900;5945;5656;313;3071;395;3125;5949;408;86;Auto;SILK-8000;SILK-8000;ulpfec;VP8;VP8;720;360;240;NotDone
GoogleTalk;SIP;GoogleTalk;Off;On;On;Tls;Auto;TCP;On;On;Off;Auto;Auto;Auto;2;2;3;630;1130;862;5921;5985;5840;70;78;5966;5949;567;86;PCMU-8000;SILK-8000;SILK-8000;ulpfec;VP8;VP8;720;360;240;NotDone
GoogleTalk;IRC;IRC;On;On;On;Auto;Auto;TCP;Off;Off;Off;FALSE;FALSE;FALSE;2;3;3;1934;1130;900;5722;5985;5840;70;78;494;5949;408;86;Auto;SILK-8000;SILK-8000;h264;VP8;VP8;1080;720;360;NotDone
GoogleTalk;IRC;IRC;On;On;On;Auto;Auto;TCP;Off;Off;Off;FALSE;FALSE;FALSE;2;2;3;1934;750;627;4596;5985;5840;70;78;5966;5949;408;86;PCMU-8000;SILK-8000;SILK-8000;ulpfec;VP8;VP8;720;360;240;NotDone
GoogleTalk;IRC;iptel.org;Off;On;On;Tls;Auto;TCP;On;On;Off;TRUE;FALSE;Auto;4;3;3;1934;1893;1959;5921;5985;5840;70;78;5966;5949;408;86;PCMU-8000;SILK-8000;SILK-8000;ulpfec;VP8;VP8;720;360;240;NotDone
GoogleTalk;IRC;GoogleTalk;Off;On;On;Tls;Auto;TCP;On;On;Off;TRUE;Auto;TRUE;2;4;3;1096;1130;862;4357;5554;313;5380;395;3125;5949;408;928;PCMU-8000;SILK-8000;SILK-8000;ulpfec;VP8;VP8;720;360;240;NotDone
GoogleTalk;IRC;IRC;On;On;On;Auto;Auto;TCP;Off;Off;Off;FALSE;FALSE;FALSE;2;2;3;1934;1800;1802;5921;5985;5840;70;78;5966;5949;408;86;PCMU-8000;SILK-8000;SILK-8000;ulpfec;VP8;VP8;720;360;240;NotDone
GoogleTalk;IRC;GoogleTalk;Off;On;On;Auto;Auto;TCP;Off;Off;Off;FALSE;Auto;Auto;4;2;3;1934;1800;1982;5722;5985;5840;70;78;494;5949;408;86;Auto;SILK-8000;SILK-8000;h264;VP8;VP8;1080;720;360;NotDone
GoogleTalk;IRC;GoogleTalk;Off;On;On;Tls;Auto;TCP;On;On;Off;TRUE;FALSE;TRUE;2;3;3;1934;1893;1959;5921;5985;5840;70;78;3125;5949;408;86;PCMU-8000;SILK-8000;SILK-8000;ulpfec;VP8;VP8;720;720;360;NotDone
GoogleTalk;IRC;IRC;On;On;On;Auto;Auto;TCP;Off;Off;Off;FALSE;FALSE;FALSE;2;2;3;1934;1800;1802;5722;5985;5840;70;78;5966;5949;408;86;Auto;SILK-8000;SILK-8000;h264;VP8;VP8;720;360;240;NotDone
GoogleTalk;IRC;IRC;On;On;On;Auto;Auto;TCP;Off;Off;Off;FALSE;FALSE;TRUE;2;3;3;1934;1130;900;5722;5519;5803;186;708;494;5949;408;86;Auto;SILK-8000;SILK-8000;h264;VP8;VP8;720;360;240;NotDone
GoogleTalk;IRC;IRC;On;On;On;Auto;Auto;TCP;Off;Off;Off;TRUE;FALSE;TRUE;4;3;3;1934;1130;900;5945;5519;375;228;78;494;5949;408;86;Auto;SILK-8000;SILK-8000;h264;VP8;VP8;720;720;240;NotDone
GoogleTalk;IRC;IRC;On;On;On;Auto;Tls;TCP;On;On;Off;FALSE;FALSE;TRUE;4;3;3;1934;750;1802;5921;5985;5840;70;78;5966;5949;408;86;PCMU-8000;SILK-8000;SILK-8000;ulpfec;VP8;VP8;720;360;240;NotDone
GoogleTalk;IRC;AIM;Off;On;On;Auto;Tls;TCP;Off;Off;Off;Auto;FALSE;TRUE;2;4;2;1096;1130;900;3970;5554;375;228;78;3125;5949;408;86;PCMU-8000;SILK-8000;SILK-8000;ulpfec;VP8;VP8;720;720;240;NotDone
GoogleTalk;IRC;IRC;Off;On;On;Tls;Auto;TCP;On;On;Off;TRUE;FALSE;TRUE;2;3;3;1934;1130;1959;5722;5519;5840;70;78;494;5949;408;86;PCMU-8000;SILK-8000;SILK-8000;ulpfec;VP8;VP8;720;360;240;NotDone
GoogleTalk;SIP;GoogleTalk;Off;On;On;UDP;UDP;TCP;On;On;Off;Auto;FALSE;TRUE;2;3;3;1934;1893;1959;5921;5985;5840;70;78;5966;5949;408;86;PCMU-8000;SILK-8000;SILK-8000;ulpfec;VP8;VP8;720;360;240;NotDone
GoogleTalk;IRC;GoogleTalk;Off;On;On;Auto;Tls;TCP;Off;Off;Off;FALSE;FALSE;FALSE;2;3;3;1934;1893;1802;5722;5519;5803;70;78;494;5949;408;86;Auto;SILK-8000;SILK-8000;h264;VP8;VP8;1080;720;360;NotDone
GoogleTalk;IRC;AIM;Off;On;On;Auto;Tls;TCP;Off;Off;Off;FALSE;FALSE;FALSE;2;3;3;1934;1130;862;5921;5985;5840;70;78;5966;5949;567;86;PCMU-8000;SILK-8000;SILK-8000;red;VP8;VP8;720;360;240;NotDone
GoogleTalk;SIP;GoogleTalk;On;On;On;Auto;Auto;TCP;Off;Off;Off;FALSE;Auto;Auto;4;2;3;1934;1800;1982;5722;5985;5840;70;78;5966;5949;408;86;PCMU-8000;SILK-8000;SILK-8000;ulpfec;VP8;VP8;720;360;240;NotDone
GoogleTalk;IRC;IRC;On;On;On;Auto;Tls;TCP;On;On;Off;FALSE;FALSE;TRUE;4;3;3;1934;1130;900;5945;5656;375;228;66;5966;5949;408;86;Auto;SILK-8000;SILK-8000;ulpfec;VP8;VP8;720;360;360;NotDone
GoogleTalk;IRC;IRC;On;On;On;Auto;Auto;TCP;Off;Off;Off;FALSE;FALSE;TRUE;2;3;3;1934;1130;900;5945;5519;5803;228;78;494;5949;408;86;Auto;SILK-8000;SILK-8000;h264;VP8;VP8;1080;720;360;NotDone
GoogleTalk;SIP;GoogleTalk;Off;On;On;UDP;UDP;TCP;On;On;Off;Auto;FALSE;TRUE;2;3;3;1934;1893;1959;5921;5985;313;70;78;5966;5949;408;86;PCMU-8000;SILK-8000;SILK-8000;ulpfec;VP8;VP8;1080;1080;240;NotDone
GoogleTalk;IRC;iptel.org;Off;On;On;Auto;Auto;TCP;Off;Off;Off;TRUE;FALSE;TRUE;4;3;3;1898;1130;900;5945;5519;375;228;78;494;5949;408;86;PCMU-8000;SILK-8000;SILK-8000;ulpfec;VP8;VP8;720;720;360;NotDone
GoogleTalk;IRC;iptel.org;Off;On;On;Tls;Auto;TCP;On;On;Off;TRUE;FALSE;FALSE;2;2;3;1934;1130;900;4357;5519;375;228;78;3125;5949;408;928;PCMU-8000;SILK-8000;SILK-8000;ulpfec;VP8;VP8;720;360;240;NotDone
GoogleTalk;IRC;IRC;On;On;On;Auto;UDP;TCP;BestEffort;On;Off;Auto;Auto;Auto;4;2;3;1934;1800;1982;5722;5985;5840;70;78;5966;5949;69;86;PCMU-8000;SILK-8000;SILK-8000;ulpfec;VP8;VP8;720;360;240;NotDone
GoogleTalk;IRC;GoogleTalk;Off;On;On;Tls;Auto;TCP;On;On;Off;FALSE;FALSE;TRUE;4;3;3;1934;1130;900;4541;5554;313;3071;395;3125;5949;408;86;Auto;SILK-8000;SILK-8000;h264;VP8;VP8;1080;720;360;NotDone
GoogleTalk;IRC;iptel.org;Off;On;On;Auto;Tls;TCP;Off;Off;Off;Auto;FALSE;TRUE;2;3;3;1934;1130;900;5945;5656;313;3071;395;3125;5949;408;86;Auto;SILK-8000;SILK-8000;ulpfec;VP8;VP8;720;360;240;NotDone
GoogleTalk;IRC;iptel.org;Off;On;On;Auto;Tls;TCP;Off;Off;Off;Auto;FALSE;TRUE;2;4;3;1096;1130;900;5945;5519;375;228;78;2070;5949;408;86;Auto;SILK-8000;SILK-8000;ulpfec;VP8;VP8;720;360;240;NotDone
GoogleTalk;IRC;AIM;Off;On;On;Auto;Tls;TCP;Off;Off;Off;Auto;FALSE;TRUE;2;4;2;1096;1130;900;3970;5554;3973;266;78;494;5949;408;2196;PCMU-8000;SILK-8000;SILK-8000;ulpfec;VP8;VP8;720;360;240;NotDone
GoogleTalk;IRC;iptel.org;Off;On;On;Auto;Tls;TCP;Off;Off;Off;Auto;FALSE;TRUE;2;4;3;1777;1130;900;5945;5519;375;228;78;2070;5949;408;86;Auto;SILK-8000;SILK-8000;ulpfec;VP8;VP8;720;720;360;NotDone
GoogleTalk;IRC;GoogleTalk;Off;On;On;Tls;Auto;TCP;On;On;Off;TRUE;FALSE;TRUE;4;3;3;1934;1130;900;5945;5519;375;228;78;494;5949;408;86;Auto;SILK-8000;SILK-8000;ulpfec;VP8;VP8;720;360;240;NotDone
GoogleTalk;IRC;GoogleTalk;Off;On;On;Tls;Auto;TCP;On;On;Off;TRUE;FALSE;TRUE;2;3;3;1934;1130;900;3970;5554;313;70;78;5966;5949;408;86;PCMU-8000;SILK-8000;SILK-8000;ulpfec;VP8;VP8;720;1080;240;NotDone
GoogleTalk;IRC;GoogleTalk;Off;On;On;Tls;Auto;TCP;On;On;Off;TRUE;FALSE;TRUE;2;4;3;1934;1130;862;4357;5554;2900;3071;395;3125;5949;408;86;Auto;SILK-8000;SILK-8000;ulpfec;VP8;VP8;720;360;240;NotDone
GoogleTalk;IRC;IRC;On;On;On;Auto;Auto;TCP;Off;Off;Off;TRUE;FALSE;FALSE;2;2;3;1934;1130;900;4357;5519;375;228;78;3125;5949;408;928;PCMU-8000;SILK-8000;SILK-8000;ulpfec;VP8;VP8;720;360;240;NotDone
GoogleTalk;IRC;IRC;Off;On;On;Auto;Tls;TCP;Off;Off;Off;Auto;FALSE;TRUE;2;4;3;1096;1130;900;5945;5519;769;228;78;104;5949;408;86;Auto;SILK-8000;SILK-8000;ulpfec;VP8;VP8;720;360;240;NotDone
GoogleTalk;IRC;GoogleTalk;Off;On;On;Tls;Auto;TCP;On;On;Off;TRUE;FALSE;TRUE;4;3;3;1934;1211;1929;5879;5519;375;228;78;3125;5949;408;928;PCMU-8000;SILK-8000;SILK-8000;ulpfec;VP8;VP8;1080;360;240;NotDone
GoogleTalk;IRC;GoogleTalk;Off;On;On;Tls;Auto;TCP;On;On;Off;TRUE;Auto;TRUE;2;4;3;1096;1130;900;5945;5519;375;3843;395;3125;5949;408;86;PCMU-8000;SILK-8000;SILK-8000;ulpfec;VP8;VP8;720;720;360;NotDone
GoogleTalk;IRC;GoogleTalk;On;On;On;Auto;Auto;TCP;Off;Off;Off;FALSE;FALSE;TRUE;4;3;3;1934;1130;900;4541;5554;313;3071;395;3125;5949;408;86;Auto;SILK-8000;SILK-8000;h264;VP8;VP8;720;720;360;NotDone
GoogleTalk;IRC;IRC;On;On;On;Auto;Auto;TCP;Off;Off;Off;FALSE;FALSE;TRUE;2;3;3;1934;1130;900;5945;5656;313;3071;395;3125;5949;408;86;Auto;SILK-8000;SILK-8000;ulpfec;VP8;VP8;720;360;240;NotDone
GoogleTalk;IRC;iptel.org;Off;On;On;Tls;Auto;TCP;On;On;Off;TRUE;FALSE;FALSE;2;2;3;1934;1130;900;4357;5519;375;1574;78;3125;5949;408;928;PCMU-8000;SILK-8000;SILK-8000;ulpfec;VP8;VP8;720;360;240;NotDone
GoogleTalk;IRC;IRC;On;On;On;Auto;Auto;TCP;Off;Off;Off;FALSE;FALSE;TRUE;4;3;3;1934;1130;900;5945;5554;313;3071;395;3125;5949;408;2677;PCMU-8000;SILK-8000;SILK-8000;ulpfec;VP8;VP8;720;360;240;NotDone
GoogleTalk;IRC;AIM;Off;On;On;Auto;Auto;TCP;On;On;Off;Auto;Auto;Auto;2;2;3;1394;1130;862;5921;5985;5840;70;78;5966;5949;567;86;PCMU-8000;SILK-8000;SILK-8000;ulpfec;VP8;VP8;720;360;240;NotDone
GoogleTalk;IRC;GoogleTalk;Off;On;On;Tls;Auto;TCP;On;On;Off;TRUE;FALSE;TRUE;2;4;3;1096;1130;900;4357;5519;3668;5380;395;3125;5949;408;2196;PCMU-8000;SILK-8000;SILK-8000;ulpfec;VP8;VP8;720;480;240;NotDone
GoogleTalk;IRC;GoogleTalk;Off;On;On;Tls;Auto;TCP;On;On;Off;Auto;Auto;Auto;2;3;3;1934;1130;900;5945;5519;375;5380;395;3125;5949;408;86;PCMU-8000;SILK-8000;SILK-8000;ulpfec;VP8;VP8;1080;720;360;NotDone
GoogleTalk;SIP;GoogleTalk;Off;On;On;Auto;Tls;TCP;Off;Off;Off;Auto;FALSE;TRUE;2;4;3;1096;1130;900;5945;5519;375;228;78;104;5949;408;86;Auto;SILK-8000;SILK-8000;ulpfec;VP8;VP8;720;360;240;NotDone
GoogleTalk;IRC;GoogleTalk;Off;On;On;Tls;Auto;TCP;On;On;Off;TRUE;Auto;TRUE;2;4;3;1096;1130;900;5945;5519;375;5380;395;3125;5949;408;86;PCMU-8000;SILK-8000;SILK-8000;ulpfec;VP8;VP8;720;720;360;NotDone
GoogleTalk;SIP;GoogleTalk;Off;On;On;Auto;Auto;TCP;Off;On;Off;TRUE;FALSE;TRUE;2;4;4;1934;750;627;5921;5985;5840;70;78;5966;5949;408;86;PCMU-8000;SILK-8000;SILK-8000;ulpfec;VP8;VP8;1080;720;360;NotDone
GoogleTalk;SIP;GoogleTalk;Off;On;On;UDP;UDP;TCP;On;On;Off;Auto;Auto;Auto;4;3;3;1934;1130;900;5722;5985;5840;70;78;5966;5949;408;86;PCMU-8000;SILK-8000;SILK-8000;ulpfec;VP8;VP8;720;360;240;NotDone
GoogleTalk;IRC;IRC;Off;On;On;Tls;Auto;TCP;On;On;Off;TRUE;FALSE;TRUE;2;3;3;1934;1130;900;5945;5519;375;5380;395;3125;5949;408;86;PCMU-8000;SILK-8000;SILK-8000;ulpfec;VP8;VP8;720;720;360;NotDone
GoogleTalk;SIP;GoogleTalk;Off;On;On;UDP;UDP;TCP;On;On;Off;TRUE;FALSE;TRUE;2;4;3;630;1889;1802;5492;5985;266;70;78;5966;5949;408;86;PCMU-8000;SILK-8000;SILK-8000;ulpfec;VP8;VP8;720;360;240;NotDone
SIP;IRC;IRC;On;Off;On;TCP;Auto;TCP;Off;Off;Off;FALSE;FALSE;FALSE;2;3;3;1934;1893;1802;5722;5985;5840;70;78;494;5949;408;86;Auto;SILK-8000;SILK-8000;h264;VP8;VP8;1080;720;360;NotDone
GoogleTalk;IRC;AIM;Off;On;On;Auto;Tls;TCP;Off;Off;Off;Auto;FALSE;TRUE;2;4;2;1096;1130;900;3970;5554;375;266;78;494;5949;408;2196;PCMU-8000;SILK-8000;SILK-8000;ulpfec;VP8;VP8;720;360;240;NotDone
GoogleTalk;IRC;GoogleTalk;Off;On;On;Auto;Tls;TCP;Off;Off;Off;FALSE;FALSE;FALSE;2;3;3;1934;1893;1802;5722;5519;5803;70;78;494;5949;408;86;Auto;SILK-8000;SILK-8000;h264;VP8;VP8;1080;720;360;NotDone
GoogleTalk;IRC;GoogleTalk;Off;On;On;Auto;Auto;TCP;Off;Off;Off;FALSE;FALSE;TRUE;4;3;3;1934;1130;900;3970;5554;313;5380;78;494;5949;408;86;Auto;SILK-8000;SILK-8000;h264;VP8;VP8;720;360;240;NotDone
GoogleTalk;AIM;GoogleTalk;Off;On;Off;UDP;UDP;TCP;BestEffort;On;Off;Auto;Auto;Auto;4;2;3;1934;1800;1982;5722;5985;5840;70;78;5966;5949;69;86;PCMU-8000;SILK-8000;SILK-8000;ulpfec;VP8;VP8;720;360;240;NotDone
GoogleTalk;IRC;iptel.org;Off;On;On;Tls;Auto;TCP;On;On;On;Auto;Auto;Auto;2;3;3;630;1130;628;4357;5985;5840;70;78;5966;5949;408;86;PCMU-8000;SILK-8000;SILK-8000;ulpfec;VP8;VP8;720;360;240;NotDone
GoogleTalk;IRC;iptel.org;Off;On;On;UDP;UDP;TCP;On;On;Off;FALSE;FALSE;TRUE;2;3;3;1934;1130;900;5945;5519;3844;228;78;494;5949;408;86;Auto;SILK-8000;SILK-8000;ulpfec;VP8;VP8;720;360;240;NotDone
iPPi;IRC;IRC;On;Off;On;TCP;Auto;TCP;Off;Off;Off;FALSE;FALSE;FALSE;2;3;3;1934;1893;1959;5921;5985;5840;70;78;5966;5949;408;86;Auto;SILK-8000;SILK-8000;Auto;VP8;VP8;720;1080;240;NotDone
GoogleTalk;SIP;GoogleTalk;Off;On;On;UDP;UDP;TCP;On;On;Off;FALSE;FALSE;TRUE;2;3;3;1934;1007;900;5945;5519;375;228;78;5966;5949;408;86;PCMU-8000;SILK-8000;SILK-8000;ulpfec;VP8;VP8;720;360;240;NotDone
GoogleTalk;IRC;iptel.org;Off;On;On;UDP;UDP;TCP;On;On;Off;Auto;Auto;Auto;2;2;2;1934;750;1802;5921;5985;5840;70;78;5966;5949;408;86;PCMU-8000;SILK-8000;SILK-8000;ulpfec;VP8;VP8;720;360;240;NotDone
GoogleTalk;IRC;iptel.org;Off;On;On;UDP;UDP;TCP;On;On;Off;Auto;Auto;Auto;2;2;2;1934;750;1802;5921;5985;5840;70;78;5966;5949;408;86;PCMU-8000;SILK-8000;SILK-8000;ulpfec;VP8;VP8;720;720;240;NotDone
GoogleTalk;IRC;IRC;On;On;On;Auto;Auto;TCP;Off;Off;Off;FALSE;FALSE;TRUE;2;3;3;1934;1130;900;5722;5519;5803;186;708;494;5949;408;86;Auto;SILK-8000;SILK-8000;h264;VP8;VP8;480;720;240;NotDone
GoogleTalk;AIM;GoogleTalk;Off;On;Off;UDP;UDP;TCP;BestEffort;On;Off;Auto;Auto;Auto;4;2;3;1934;1800;1982;5722;5985;5840;70;78;5966;5949;408;86;iLBC-8000;SILK-8000;SILK-8000;ulpfec;VP8;VP8;720;360;240;NotDone
GoogleTalk;IRC;iptel.org;Off;On;On;Auto;Tls;TCP;Off;Off;Off;TRUE;FALSE;FALSE;4;3;3;1934;1130;862;4357;5554;2900;3071;395;3125;5949;408;598;Auto;SILK-8000;SILK-8000;ulpfec;VP8;VP8;720;720;360;NotDone
GoogleTalk;IRC;GoogleTalk;Off;On;Off;UDP;UDP;TCP;BestEffort;On;Off;Auto;Auto;Auto;4;2;3;1934;1800;1982;5722;5985;5840;70;78;5966;5949;408;86;PCMU-8000;SILK-8000;SILK-8000;ulpfec;VP8;VP8;720;360;240;NotDone
GoogleTalk;SIP;GoogleTalk;Off;On;On;UDP;UDP;TCP;On;On;Off;FALSE;FALSE;Auto;2;2;2;1934;750;627;5921;5985;5840;70;78;5966;5949;408;86;PCMU-8000;SILK-8000;SILK-8000;ulpfec;VP8;VP8;720;360;240;NotDone
GoogleTalk;SIP;GoogleTalk;Off;On;On;UDP;UDP;TCP;On;On;Off;Auto;FALSE;TRUE;2;3;3;1934;1893;1959;5921;5985;5840;70;78;5966;5949;408;86;PCMU-8000;SILK-8000;SILK-8000;ulpfec;VP8;VP8;720;360;240;NotDone
GoogleTalk;IRC;GoogleTalk;On;On;On;Auto;Auto;TCP;Off;Off;Off;FALSE;FALSE;TRUE;4;3;3;1934;1130;900;5945;5554;313;3071;395;3125;5949;408;2677;PCMU-8000;SILK-8000;SILK-8000;ulpfec;VP8;VP8;720;360;240;NotDone
GoogleTalk;IRC;GoogleTalk;Off;On;On;Tls;Auto;TCP;On;On;Off;TRUE;FALSE;TRUE;2;3;3;1934;1130;900;5945;5519;375;5380;395;3125;5949;408;86;PCMU-8000;SILK-8000;SILK-8000;ulpfec;VP8;VP8;720;720;360;NotDone
GoogleTalk;SIP;GoogleTalk;Off;On;On;UDP;UDP;TCP;On;On;Off;TRUE;FALSE;Auto;2;4;3;630;1130;862;4357;5554;313;5380;395;3125;5949;408;86;PCMU-8000;SILK-8000;SILK-8000;ulpfec;VP8;VP8;720;360;240;NotDone
GoogleTalk;IRC;GoogleTalk;Off;On;On;Tls;Auto;TCP;On;On;Off;TRUE;FALSE;TRUE;2;4;3;1096;1130;900;5945;5519;342;153;78;494;5949;408;86;iLBC-8000;SILK-8000;SILK-8000;ulpfec;VP8;VP8;720;360;240;NotDone
GoogleTalk;SIP;GoogleTalk;Off;On;On;UDP;UDP;TCP;On;On;Off;TRUE;FALSE;Auto;2;4;3;630;1130;862;4357;5554;313;5380;395;3125;5949;408;928;PCMU-8000;SILK-8000;SILK-8000;ulpfec;VP8;VP8;720;360;240;NotDone
GoogleTalk;SIP;GoogleTalk;Off;On;On;UDP;UDP;TCP;On;On;Off;Auto;Auto;Auto;4;2;3;630;1130;628;890;5985;2900;5380;78;5966;5949;408;86;iLBC-8000;SILK-8000;SILK-8000;ulpfec;VP8;VP8;720;360;240;NotDone
GoogleTalk;SIP;GoogleTalk;Off;On;On;UDP;UDP;TCP;On;On;Off;Auto;Auto;Auto;4;2;3;630;1130;628;890;5985;2900;5380;78;5966;5949;408;86;PCMU-8000;SILK-8000;SILK-8000;ulpfec;VP8;VP8;720;360;240;NotDone
GoogleTalk;SIP;GoogleTalk;Off;On;On;Tls;Auto;TCP;On;On;Off;Auto;Auto;Auto;2;2;3;630;1130;862;5921;5985;5840;70;78;3125;5949;408;86;PCMU-8000;SILK-8000;SILK-8000;ulpfec;VP8;VP8;720;360;480;NotDone
GoogleTalk;IRC;IRC;On;On;On;Auto;Auto;TCP;Off;Off;Off;TRUE;FALSE;TRUE;4;3;3;1934;1211;1929;5879;5519;375;228;78;3125;5949;408;928;PCMU-8000;SILK-8000;SILK-8000;ulpfec;VP8;VP8;1080;360;240;NotDone
GoogleTalk;IRC;GoogleTalk;Off;On;On;Tls;Auto;TCP;On;On;Off;TRUE;FALSE;TRUE;2;4;3;1096;1130;900;4357;5519;3668;5380;395;3125;5949;408;2196;PCMU-8000;SILK-8000;SILK-8000;ulpfec;VP8;VP8;720;360;240;NotDone
GoogleTalk;IRC;GoogleTalk;Off;On;On;UDP;UDP;TCP;On;On;Off;Auto;Auto;Auto;2;3;3;630;1217;628;4357;5985;2900;5380;78;5966;5949;408;86;PCMU-8000;SILK-8000;SILK-8000;ulpfec;VP8;VP8;720;720;360;NotDone
GoogleTalk;IRC;IRC;On;On;On;Auto;Auto;TCP;Off;Off;Off;FALSE;FALSE;TRUE;2;3;3;1934;1130;900;5945;5519;5803;228;78;494;5949;408;86;Auto;SILK-8000;SILK-8000;h264;VP8;VP8;1080;720;360;NotDone
GoogleTalk;SIP;GoogleTalk;Off;On;On;UDP;UDP;TCP;On;On;Off;FALSE;FALSE;TRUE;2;3;3;1934;1130;900;5945;5519;375;228;78;494;5949;408;86;Auto;SILK-8000;SILK-8000;ulpfec;VP8;VP8;720;360;240;NotDone
GoogleTalk;IRC;IRC;On;On;On;Auto;Auto;TCP;Off;Off;Off;TRUE;FALSE;TRUE;4;3;3;1934;1130;900;5945;5519;375;228;78;494;5949;408;86;Auto;SILK-8000;SILK-8000;h264;VP8;VP8;720;720;240;NotDone
GoogleTalk;IRC;iptel.org;Off;On;On;Tls;Auto;TCP;On;On;Off;TRUE;FALSE;Auto;2;4;3;630;1130;862;4357;5554;2900;5380;395;3125;5949;408;86;PCMU-8000;SILK-8000;SILK-8000;h264;VP8;VP8;720;360;240;NotDone
GoogleTalk;IRC;IRC;On;On;On;Auto;Auto;TCP;Off;Off;Off;FALSE;FALSE;FALSE;2;4;3;1934;1893;1959;5722;5519;5840;70;78;494;5949;408;86;PCMU-8000;SILK-8000;SILK-8000;ulpfec;VP8;VP8;720;360;240;NotDone
GoogleTalk;IRC;IRC;On;On;On;Auto;Auto;TCP;Off;Off;Off;FALSE;FALSE;TRUE;4;3;3;1693;1130;900;5722;5519;5803;186;708;494;5949;408;3138;Auto;SILK-8000;SILK-8000;h264;VP8;VP8;720;360;240;NotDone
GoogleTalk;IRC;iptel.org;Off;On;On;UDP;UDP;TCP;On;On;Off;Auto;Auto;Auto;2;2;2;1934;750;1802;5921;5985;5840;70;78;5966;5949;408;86;PCMU-8000;SILK-8000;SILK-8000;ulpfec;VP8;VP8;720;720;240;NotDone
GoogleTalk;SIP;GoogleTalk;Off;On;On;UDP;UDP;TCP;On;On;Off;Auto;Auto;Auto;4;2;3;630;1288;628;4357;5519;1257;5380;395;368;5949;408;86;iLBC-8000;SILK-8000;SILK-8000;h264;VP8;VP8;720;360;240;NotDone
GoogleTalk;IRC;iptel.org;Off;On;On;Tls;Auto;TCP;On;On;On;Auto;Auto;Auto;2;3;3;630;1130;628;4357;5985;5840;5998;78;5966;5949;408;86;iLBC-8000;SILK-8000;SILK-8000;ulpfec;VP8;VP8;720;360;360;NotDone
GoogleTalk;SIP;GoogleTalk;Off;On;On;UDP;UDP;TCP;On;On;Off;Auto;Auto;Auto;4;2;3;630;1130;628;890;5985;2900;5380;78;5966;5949;408;86;iLBC-8000;SILK-8000;SILK-8000;ulpfec;VP8;VP8;720;360;240;NotDone
GoogleTalk;IRC;IRC;On;On;On;Auto;Auto;TCP;Off;Off;Off;FALSE;FALSE;FALSE;2;2;3;1934;1800;1802;5722;5985;5840;70;78;5966;5949;408;86;Auto;SILK-8000;SILK-8000;h264;VP8;VP8;720;480;360;NotDone
GoogleTalk;IRC;IRC;On;On;On;Auto;Auto;TCP;Off;Off;Off;FALSE;FALSE;FALSE;2;3;3;1934;1130;900;5722;5985;5840;70;78;494;5949;408;86;Auto;SILK-8000;SILK-8000;h264;VP8;VP8;1080;720;360;NotDone
SIP;IRC;IRC;On;Off;On;TCP;Auto;TCP;Off;Off;Off;FALSE;FALSE;FALSE;2;3;3;1934;1893;1802;5722;5985;5840;70;78;5966;5949;408;86;Auto;SILK-8000;SILK-8000;ulpfec;VP8;VP8;720;360;240;NotDone
GoogleTalk;IRC;IRC;On;On;On;Auto;Auto;TCP;Off;Off;Off;FALSE;FALSE;TRUE;4;3;3;1693;1130;900;5722;5519;5803;186;708;494;5949;408;86;Auto;SILK-8000;SILK-8000;h264;VP8;VP8;1080;720;240;NotDone
GoogleTalk;IRC;IRC;On;On;On;Auto;Auto;TCP;Off;Off;Off;FALSE;FALSE;FALSE;2;2;3;1934;1800;1802;5722;5985;5840;70;78;5966;5949;408;86;Auto;SILK-8000;SILK-8000;h264;VP8;VP8;720;480;240;NotDone
GoogleTalk;IRC;iptel.org;Off;On;On;Tls;Auto;TCP;On;On;Off;FALSE;FALSE;FALSE;2;2;3;1934;1800;1802;5722;5985;5840;70;78;5966;5949;408;86;Auto;iLBC-8000;SILK-8000;h264;VP8;VP8;720;480;240;NotDone
GoogleTalk;IRC;IRC;On;On;On;Auto;Auto;TCP;Off;Off;Off;FALSE;FALSE;FALSE;2;3;3;1934;1130;900;5722;5985;5840;70;78;494;5949;408;86;Auto;SILK-8000;SILK-8000;h264;VP8;VP8;1080;720;360;NotDone
GoogleTalk;IRC;IRC;On;On;On;Auto;Auto;TCP;Off;Off;Off;TRUE;FALSE;TRUE;4;3;3;1934;1211;1929;5722;5519;5803;70;78;494;5949;408;86;Auto;SILK-8000;SILK-8000;h264;VP8;VP8;1080;720;360;NotDone
GoogleTalk;IRC;IRC;On;On;On;Auto;Auto;TCP;Off;Off;Off;FALSE;FALSE;TRUE;2;3;3;1934;1130;900;5722;5519;5803;186;708;494;5949;408;86;Auto;SILK-8000;SILK-8000;h264;VP8;VP8;480;720;240;NotDone
SIP;iptel.org;iPPi;On;On;On;Auto;Auto;TCP;Off;Off;Off;FALSE;FALSE;FALSE;4;3;3;1934;1697;1737;5722;5519;5803;228;660;494;5949;408;86;Auto;SILK-8000;SILK-8000;h264;VP8;VP8;1080;720;360;NotDone
