caller_protocol;callee1_protocol;callee2_protocol;caller_listenport;callee1_listenport;callee2_listenport;caller_transportprotocol;callee1_transportprotocol;callee2_transportprotocol;caller_encryption;callee1_encryption;callee2_encryption;caller_sipzrtpattribute;callee1_sipzrtpattribute;callee2_sipzrtpattribute;caller_maxpeers;callee1_maxpeers;callee2_maxpeers;caller_mtu;callee1_mtu;callee2_mtu;caller_defaultcallrate;callee1_defaultcallrate;callee2_defaultcallrate;caller_maxreceivecallrate;callee1_maxreceivecallrate;callee2_maxreceivecallrate;caller_maxtransmitcallrate;callee1_maxtransmitcallrate;callee2_maxtransmitcallrate;caller_audiocodec;callee1_audiocodec;callee2_audiocodec;caller_videocodec;callee1_videocodec;callee2_videocodec;caller_maxresolution;callee1_maxresolution;callee2_maxresolution;
IRC;iptel.org;ICQ;Off;On;Off;UDP;Tls;Auto;BestEffort;BestEffort;BestEffort;TRUE;Auto;TRUE;3;3;3;1441;1257;763;1534;1953;2682;4457;5818;692;3112;5908;4428;opus-48000;telephone-event-80000;speex-32000;h264;Auto;ulpfec;360;1080;360;NotDone
AIM;iptel.org;IRC;On;On;On;Tls;Auto;Tls;Off;Off;Off;Auto;TRUE;FALSE;4;4;4;1249;1510;869;5083;5744;1982;3967;673;2976;4977;413;5282;PCMU-8000;Auto;SILK-16000;rtx;Auto;h264;720;1080;480;NotDone
IRC;ICQ;GoogleTalk;Off;On;On;Tls;Auto;Auto;Off;Off;BestEffort;TRUE;Auto;FALSE;3;2;4;1651;687;600;2807;1399;3192;438;4124;5215;297;1491;5513;opus-48000;telephone-event-80000;PCMA-8000;h264;h264;h264;240;720;240;NotDone
IRC;GoogleTalk;IRC;Off;On;On;Auto;UDP;Tls;Off;BestEffort;Off;FALSE;FALSE;TRUE;4;3;2;1618;835;930;888;5981;5593;3514;757;5211;314;5659;5866;telephone-event-80000;speex-8000;SILK-8000;Auto;VP8;Auto;240;240;1080;NotDone
AIM;GoogleTalk;GoogleTalk;Off;On;On;UDP;TCP;TCP;Off;Off;Off;TRUE;TRUE;Auto;2;3;3;1992;1619;1660;5366;182;2359;607;4376;2689;3804;4221;3161;speex-16000;telephone-event-80000;speex-8000;h264;ulpfec;VP8;360;480;720;NotDone
AIM;AIM;ICQ;On;On;On;Tls;Tls;UDP;Off;Off;BestEffort;FALSE;TRUE;Auto;4;3;2;1020;989;1039;241;645;3749;2176;621;4605;4390;5153;5176;speex-8000;iLBC-8000;AMR-WB-16000;ulpfec;Auto;VP8;720;480;1080;NotDone
AIM;ICQ;iPPi;On;On;On;UDP;UDP;Auto;BestEffort;On;BestEffort;FALSE;Auto;Auto;2;2;2;1161;982;1027;2976;3331;2613;3407;2226;5710;2300;1442;81;SILK-8000;G722-16000;GSM-8000;ulpfec;h264;red;720;720;360;NotDone
IRC;ICQ;AIM;On;Off;Off;UDP;Tls;Tls;On;Off;Off;TRUE;Auto;TRUE;3;3;3;651;1943;978;3848;4991;5672;847;194;5104;4041;3115;2018;speex-8000;SILK-24000;SILK-8000;ulpfec;VP8;VP8;720;480;360;NotDone
AIM;IRC;SIP;Off;On;On;TCP;Auto;TCP;Off;On;Off;Auto;FALSE;FALSE;2;2;3;1166;1115;590;3017;1556;4624;4193;2205;371;860;3338;3568;speex-8000;PCMA-8000;opus-48000;Auto;Auto;VP8;480;720;240;NotDone
ICQ;iptel.org;SIP;On;On;Off;Auto;Auto;UDP;On;Off;BestEffort;TRUE;FALSE;FALSE;3;2;3;1442;1526;1211;5050;1840;4522;5067;809;281;1460;2999;3322;PCMU-8000;AMR-WB-16000;PCMA-8000;ulpfec;Auto;VP8;480;360;1080;NotDone
AIM;AIM;iptel.org;On;Off;Off;TCP;UDP;TCP;Off;BestEffort;Off;FALSE;FALSE;Auto;4;4;2;1306;1775;1775;188;5453;359;135;4017;422;5974;5842;5775;SILK-12000;GSM-8000;speex-8000;red;rtx;VP8;360;480;1080;NotDone
AIM;ICQ;iptel.org;On;On;On;TCP;UDP;Auto;BestEffort;On;BestEffort;FALSE;Auto;Auto;5;5;2;1161;982;1027;2976;1325;3153;3407;2226;5773;2300;1442;5487;PCMU-8000;G722-16000;GSM-8000;rtx;red;red;480;720;360;NotDone
iptel.org;GoogleTalk;iptel.org;Off;Off;On;UDP;TCP;Auto;BestEffort;Off;BestEffort;Auto;TRUE;Auto;2;2;4;1470;983;984;5096;1256;2460;3439;2226;3943;2300;1442;817;speex-16000;speex-8000;GSM-8000;rtx;red;red;240;360;480;NotDone
SIP;AIM;SIP;On;On;Off;Auto;Auto;Auto;On;BestEffort;Off;FALSE;TRUE;Auto;3;3;4;1899;1959;792;1153;534;5144;2602;5170;3879;1875;4406;5436;opus-48000;telephone-event-80000;speex-32000;VP8;VP8;VP8;240;720;1080;NotDone
AIM;iPPi;iptel.org;On;On;Off;Tls;Auto;TCP;Off;Off;BestEffort;Auto;TRUE;TRUE;4;2;4;1664;1594;610;5480;4345;883;4667;3131;5707;3279;1444;130;SILK-12000;PCMU-8000;speex-8000;VP8;VP8;VP8;1080;1080;480;NotDone
IRC;IRC;iPPi;On;Off;Off;Auto;Auto;UDP;Off;On;On;TRUE;Auto;TRUE;3;2;3;1077;1057;627;431;4791;5000;3294;5976;5308;1324;5529;4312;G722-16000;telephone-event-80000;speex-8000;ulpfec;Auto;VP8;480;360;720;NotDone
AIM;iPPi;IRC;On;On;On;UDP;Auto;Auto;Off;Off;Off;FALSE;Auto;FALSE;3;3;4;1857;883;1077;4236;2580;536;5571;3096;4706;5890;1235;2390;Auto;opus-48000;PCMA-8000;h264;ulpfec;ulpfec;1080;720;240;NotDone
AIM;SIP;iptel.org;On;On;On;UDP;Tls;UDP;Off;BestEffort;Off;Auto;Auto;Auto;2;2;2;1021;948;588;3970;2192;4680;5404;5558;1397;1358;5831;2257;PCMU-8000;speex-8000;SILK-8000;Auto;Auto;VP8;360;1080;480;NotDone
AIM;GoogleTalk;IRC;On;On;On;TCP;Auto;Tls;Off;BestEffort;Off;Auto;Auto;FALSE;2;3;3;851;1846;1765;5702;2347;5677;5867;803;4158;243;1395;5346;Auto;SILK-24000;speex-8000;red;Auto;ulpfec;1080;720;360;NotDone
GoogleTalk;ICQ;iPPi;Off;Off;On;UDP;UDP;Auto;BestEffort;Off;BestEffort;TRUE;Auto;Auto;3;2;4;1470;983;984;5278;2235;890;3454;2226;5739;2300;6000;849;SILK-8000;G722-16000;PCMU-8000;rtx;h264;red;360;720;360;NotDone
AIM;IRC;iptel.org;Off;Off;Off;Auto;Tls;Auto;Off;BestEffort;Off;Auto;Auto;TRUE;3;3;4;664;1862;1191;4497;5590;5807;1033;1384;3456;711;3421;2540;SILK-24000;telephone-event-80000;iLBC-8000;ulpfec;Auto;VP8;720;1080;720;NotDone
SIP;SIP;iptel.org;Off;On;On;Auto;UDP;UDP;Off;On;BestEffort;Auto;TRUE;Auto;3;4;4;1933;1064;627;191;3289;5333;171;2292;5958;3217;394;5304;Auto;GSM-8000;PCMA-8000;h264;Auto;VP8;480;360;480;NotDone
AIM;IRC;iptel.org;On;On;On;Auto;TCP;TCP;Off;BestEffort;Off;FALSE;TRUE;TRUE;3;2;4;1382;974;760;4894;3457;5588;1703;4965;762;1027;4428;4501;telephone-event-80000;speex-32000;opus-48000;rtx;Auto;VP8;240;360;480;NotDone
iptel.org;GoogleTalk;iptel.org;Off;Off;On;Tls;TCP;Auto;BestEffort;Off;On;FALSE;TRUE;Auto;3;2;4;675;983;984;5096;1256;2766;3407;2226;2684;2300;1442;5101;speex-16000;G722-16000;GSM-8000;rtx;red;red;240;1080;1080;NotDone
GoogleTalk;ICQ;iPPi;On;On;On;UDP;UDP;Auto;BestEffort;On;BestEffort;FALSE;Auto;Auto;4;4;2;1427;982;1027;5149;1633;2766;3407;2226;2048;2300;5673;557;PCMU-8000;G722-16000;GSM-8000;rtx;red;red;360;480;1080;NotDone
ICQ;iPPi;iptel.org;On;On;Off;Tls;Tls;Auto;Off;BestEffort;On;Auto;FALSE;Auto;3;3;4;1965;938;1838;672;132;5187;777;132;5908;661;4659;5384;SILK-24000;telephone-event-80000;SILK-16000;Auto;VP8;VP8;240;240;720;NotDone
AIM;ICQ;iptel.org;Off;On;Off;Auto;Tls;Tls;Off;BestEffort;BestEffort;TRUE;Auto;TRUE;3;4;3;1283;747;1279;5237;718;4615;4450;291;3305;5347;5983;3945;telephone-event-80000;PCMU-8000;AMR-WB-16000;rtx;Auto;Auto;240;720;240;NotDone
AIM;iptel.org;iPPi;On;On;On;Tls;Tls;UDP;BestEffort;On;Off;FALSE;TRUE;TRUE;4;3;4;1707;1766;776;591;170;5942;742;317;5601;515;250;5743;speex-16000;telephone-event-80000;SILK-12000;VP8;Auto;ulpfec;240;240;240;NotDone
ICQ;IRC;AIM;On;On;Off;UDP;Auto;UDP;Off;On;BestEffort;Auto;FALSE;TRUE;3;2;3;856;1770;1844;3378;5080;5651;4100;1995;5110;3279;248;5390;speex-8000;opus-48000;Auto;VP8;Auto;VP8;1080;240;480;NotDone
IRC;iPPi;iptel.org;On;On;Off;UDP;TCP;TCP;Off;Off;BestEffort;Auto;Auto;Auto;2;3;2;1535;1974;1960;4239;5147;5472;5698;5929;555;5837;1463;5638;G722-16000;Auto;SILK-12000;ulpfec;VP8;ulpfec;1080;480;720;NotDone
IRC;iptel.org;SIP;Off;Off;Off;TCP;TCP;TCP;Off;Off;BestEffort;FALSE;Auto;Auto;2;3;2;1931;1147;1507;5206;2277;5054;242;541;283;5340;70;4608;speex-8000;GSM-8000;opus-48000;Auto;Auto;VP8;720;480;240;NotDone
SIP;ICQ;iptel.org;On;Off;On;TCP;Auto;Auto;Off;Off;BestEffort;Auto;TRUE;TRUE;3;3;3;886;1345;1246;5289;3273;4823;2864;3270;3577;5872;642;4282;SILK-24000;PCMA-8000;SILK-8000;rtx;ulpfec;VP8;1080;480;360;NotDone
SIP;SIP;iPPi;Off;Off;On;TCP;Tls;UDP;Off;Off;BestEffort;Auto;TRUE;Auto;3;3;4;743;1927;1440;5882;5747;4382;1096;5831;446;2267;1037;4943;SILK-16000;telephone-event-80000;AMR-WB-16000;VP8;ulpfec;VP8;1080;1080;240;NotDone
SIP;GoogleTalk;ICQ;On;On;On;Tls;UDP;Tls;On;BestEffort;Off;FALSE;Auto;Auto;2;3;2;1477;1298;1534;3095;5239;5473;5816;5949;5753;4812;4432;5178;Auto;speex-16000;Auto;rtx;Auto;Auto;720;480;720;NotDone
ICQ;SIP;iptel.org;On;On;On;TCP;Tls;UDP;Off;BestEffort;Off;TRUE;Auto;FALSE;4;3;4;996;1067;655;5481;5399;72;3300;674;3633;1563;3336;5706;SILK-8000;speex-32000;iLBC-8000;VP8;VP8;VP8;480;480;240;NotDone
IRC;AIM;AIM;On;Off;Off;Auto;UDP;UDP;Off;BestEffort;Off;FALSE;Auto;FALSE;3;3;3;1471;1480;1274;3231;2151;5995;1409;2232;5346;807;5507;5183;telephone-event-80000;PCMA-8000;AMR-WB-16000;h264;Auto;VP8;360;720;1080;NotDone
ICQ;SIP;SIP;On;Off;Off;TCP;TCP;Auto;Off;Off;On;Auto;TRUE;TRUE;4;4;2;1488;839;1776;3524;1062;5204;5104;3353;798;5341;5991;5329;G722-16000;speex-8000;speex-8000;h264;Auto;VP8;720;720;720;NotDone
AIM;iptel.org;GoogleTalk;Off;On;Off;TCP;TCP;Auto;On;Off;Off;FALSE;TRUE;TRUE;2;4;3;1592;1599;1308;3722;2275;3908;1123;113;3560;3061;951;673;speex-16000;speex-32000;SILK-12000;Auto;Auto;VP8;1080;480;1080;NotDone
AIM;ICQ;IRC;Off;Off;On;UDP;UDP;Auto;BestEffort;Off;BestEffort;FALSE;TRUE;Auto;5;4;4;627;983;983;5096;2616;4965;3467;2227;1339;2300;5283;791;SILK-8000;SILK-24000;iLBC-8000;rtx;h264;red;360;360;1080;NotDone
AIM;ICQ;GoogleTalk;Off;Off;On;UDP;UDP;Auto;BestEffort;Off;On;Auto;TRUE;Auto;3;2;4;1342;983;945;5096;3736;337;3406;2227;3173;2300;1445;643;PCMU-8000;G722-16000;GSM-8000;rtx;red;red;1080;1080;1080;NotDone
IRC;SIP;iptel.org;On;On;Off;Auto;Auto;Auto;Off;BestEffort;Off;FALSE;FALSE;Auto;2;4;3;1752;897;1517;4434;5041;5858;3399;4450;1988;679;4983;4817;GSM-8000;SILK-16000;Auto;Auto;Auto;VP8;480;360;480;NotDone
IRC;IRC;iPPi;Off;Off;On;Auto;TCP;Auto;On;Off;On;Auto;Auto;TRUE;4;4;4;1648;954;828;415;3752;5216;327;762;339;5850;528;5952;SILK-8000;Auto;PCMA-8000;rtx;Auto;ulpfec;720;360;720;NotDone
ICQ;AIM;GoogleTalk;On;Off;On;TCP;Auto;TCP;Off;Off;On;FALSE;Auto;FALSE;3;3;3;1505;630;1629;5725;5918;245;657;4839;99;1349;2560;2777;PCMU-8000;opus-48000;speex-8000;Auto;Auto;VP8;720;720;720;NotDone
ICQ;IRC;iptel.org;Off;On;Off;Tls;Tls;TCP;BestEffort;Off;BestEffort;TRUE;Auto;FALSE;2;2;4;746;782;781;5681;5264;214;2672;2457;2485;5653;5363;4771;G722-16000;speex-32000;AMR-WB-16000;red;Auto;VP8;480;480;360;NotDone
IRC;GoogleTalk;SIP;Off;On;On;Tls;Auto;Tls;Off;Off;BestEffort;Auto;FALSE;TRUE;2;2;4;732;877;876;3343;248;669;2707;5315;3762;1050;693;5484;GSM-8000;speex-32000;speex-8000;VP8;ulpfec;VP8;720;1080;360;NotDone
SIP;AIM;ICQ;Off;On;On;Auto;TCP;Auto;BestEffort;On;Off;TRUE;FALSE;FALSE;4;3;2;1692;1455;736;1164;4881;349;2982;1411;4479;5729;5729;4871;speex-32000;SILK-8000;telephone-event-80000;red;VP8;VP8;240;720;720;NotDone
IRC;ICQ;GoogleTalk;On;Off;On;UDP;UDP;UDP;Off;Off;On;Auto;TRUE;Auto;4;4;4;1405;1460;1894;5868;5694;372;3616;4614;2408;5468;249;5543;G722-16000;telephone-event-80000;PCMA-8000;h264;Auto;Auto;360;480;1080;NotDone
ICQ;iptel.org;AIM;Off;On;On;UDP;Auto;TCP;Off;Off;BestEffort;Auto;Auto;FALSE;2;4;2;1827;1836;854;3447;1692;4641;4049;5011;4524;5894;227;2974;SILK-12000;iLBC-8000;AMR-WB-16000;rtx;ulpfec;VP8;720;1080;240;NotDone
AIM;IRC;SIP;On;Off;On;TCP;UDP;Tls;Off;BestEffort;Off;TRUE;FALSE;TRUE;2;3;2;1755;1889;660;4393;5825;3809;5701;2403;3218;4647;438;5863;AMR-WB-16000;speex-16000;GSM-8000;h264;Auto;h264;480;480;1080;NotDone
AIM;AIM;iPPi;Off;Off;On;Auto;TCP;UDP;Off;On;On;Auto;FALSE;TRUE;3;3;3;1648;1015;616;4616;779;4599;4597;4617;3587;2075;3118;2298;speex-16000;iLBC-8000;telephone-event-80000;VP8;Auto;VP8;360;720;240;NotDone
GoogleTalk;SIP;ICQ;On;On;Off;TCP;UDP;Auto;BestEffort;Off;Off;TRUE;Auto;FALSE;2;2;2;1050;678;1524;4438;5241;1801;5977;3347;1655;377;5651;2905;G722-16000;G722-16000;AMR-WB-16000;rtx;VP8;VP8;240;240;720;NotDone
AIM;ICQ;ICQ;Off;On;On;UDP;TCP;Tls;On;On;Off;FALSE;FALSE;TRUE;3;3;4;1972;1933;1967;5537;1440;1764;3626;818;5899;5886;5754;4951;speex-32000;PCMA-8000;speex-32000;h264;Auto;red;720;480;720;NotDone
IRC;SIP;ICQ;On;Off;On;UDP;Auto;Tls;Off;Off;Off;TRUE;FALSE;FALSE;3;4;2;1587;1586;1688;3887;5798;5405;678;5425;5830;5141;2299;5929;opus-48000;SILK-8000;speex-32000;ulpfec;Auto;Auto;720;1080;480;NotDone
ICQ;iPPi;GoogleTalk;Off;On;Off;TCP;TCP;Tls;On;On;Off;FALSE;Auto;TRUE;3;3;3;1584;1931;1996;5782;245;1739;2930;1147;882;936;1564;5672;speex-32000;speex-16000;SILK-12000;Auto;ulpfec;VP8;1080;720;720;NotDone
AIM;AIM;iPPi;Off;Off;On;TCP;Tls;Auto;BestEffort;BestEffort;Off;FALSE;TRUE;TRUE;4;4;4;1508;1044;1382;363;5909;5708;4894;4233;569;5138;5362;5927;G722-16000;PCMA-8000;SILK-16000;VP8;Auto;VP8;720;480;480;NotDone
AIM;IRC;IRC;On;Off;Off;UDP;Tls;UDP;On;BestEffort;Off;Auto;Auto;Auto;4;4;2;1245;984;1723;4710;5227;224;5897;5531;1708;3767;277;5141;GSM-8000;telephone-event-80000;speex-16000;red;Auto;h264;720;1080;240;NotDone
AIM;SIP;iPPi;On;Off;On;Auto;Tls;UDP;On;Off;On;FALSE;TRUE;Auto;3;2;3;1408;1259;951;3667;1498;258;486;1137;593;4132;4898;4322;G722-16000;iLBC-8000;AMR-WB-16000;red;Auto;VP8;480;1080;360;NotDone
AIM;AIM;SIP;On;Off;Off;TCP;UDP;UDP;Off;Off;BestEffort;TRUE;TRUE;TRUE;3;4;2;1668;1136;1983;708;5458;4953;283;4781;124;550;1008;5146;Auto;GSM-8000;SILK-8000;rtx;Auto;VP8;720;240;720;NotDone
IRC;iPPi;IRC;On;On;Off;Auto;Auto;TCP;Off;Off;On;FALSE;Auto;Auto;4;2;3;848;1089;1900;5742;3408;1808;2974;224;3336;869;868;3608;SILK-12000;telephone-event-80000;AMR-WB-16000;Auto;Auto;VP8;240;720;480;NotDone
AIM;SIP;iptel.org;Off;On;Off;UDP;TCP;Auto;Off;BestEffort;On;Auto;FALSE;Auto;3;3;2;1879;1798;704;3067;1333;2204;5333;280;5283;858;4890;5284;SILK-24000;speex-8000;opus-48000;h264;Auto;VP8;720;720;480;NotDone
AIM;GoogleTalk;ICQ;Off;Off;On;Auto;TCP;TCP;Off;BestEffort;Off;Auto;TRUE;TRUE;2;4;2;1964;692;1634;5793;4723;1893;696;3085;5913;1003;580;4907;SILK-24000;speex-8000;GSM-8000;red;Auto;rtx;720;360;240;NotDone
IRC;AIM;iPPi;On;On;On;Tls;UDP;Tls;BestEffort;BestEffort;Off;Auto;Auto;TRUE;4;3;2;614;744;1764;940;4216;2438;5185;1920;5279;5151;3340;5969;AMR-WB-16000;GSM-8000;iLBC-8000;VP8;Auto;VP8;1080;1080;240;NotDone
AIM;AIM;AIM;Off;Off;On;Tls;UDP;Auto;BestEffort;Off;Off;FALSE;TRUE;TRUE;3;3;3;1076;842;954;5504;1081;1373;1976;523;2080;465;5372;3833;SILK-16000;PCMA-8000;speex-8000;rtx;VP8;VP8;1080;240;1080;NotDone
IRC;iptel.org;SIP;On;On;On;TCP;Auto;Auto;Off;On;BestEffort;Auto;Auto;FALSE;2;4;2;1685;1051;1995;2819;491;5673;342;76;231;1590;4856;5922;SILK-12000;PCMA-8000;AMR-WB-16000;VP8;red;Auto;360;240;240;NotDone
AIM;ICQ;SIP;Off;Off;On;Auto;TCP;Auto;On;Off;Off;Auto;Auto;FALSE;2;2;3;1834;1488;894;5192;453;5975;682;5108;1781;2345;365;110;speex-8000;PCMA-8000;PCMA-8000;Auto;Auto;ulpfec;720;480;1080;NotDone
AIM;iPPi;AIM;Off;On;On;UDP;UDP;UDP;Off;Off;Off;TRUE;TRUE;Auto;3;4;2;1298;839;1229;5658;5957;743;719;1424;5975;1701;660;4796;AMR-WB-16000;telephone-event-80000;AMR-WB-16000;Auto;ulpfec;ulpfec;720;480;720;NotDone
AIM;GoogleTalk;IRC;On;On;Off;Tls;UDP;Auto;BestEffort;On;BestEffort;FALSE;Auto;Auto;3;2;2;942;982;1027;5096;5700;2474;3406;2227;253;2300;1447;1137;SILK-8000;G722-16000;GSM-8000;rtx;red;red;1080;240;1080;NotDone
AIM;AIM;iptel.org;Off;On;On;Tls;TCP;Tls;Off;Off;Off;FALSE;TRUE;TRUE;2;2;3;1174;1331;840;1885;407;2474;4974;939;3043;4184;2393;4556;opus-48000;G722-16000;SILK-12000;ulpfec;Auto;VP8;240;240;360;NotDone
IRC;AIM;IRC;Off;On;On;Auto;TCP;TCP;Off;Off;On;TRUE;TRUE;Auto;4;3;3;597;1520;1486;2926;5530;4770;2433;5925;1914;1853;1357;2754;SILK-8000;telephone-event-80000;AMR-WB-16000;VP8;Auto;VP8;240;240;720;NotDone
AIM;AIM;AIM;Off;On;On;Tls;Auto;TCP;Off;BestEffort;Off;Auto;TRUE;TRUE;3;2;4;988;1818;1351;540;3770;4838;123;5933;5593;5308;394;5920;SILK-24000;PCMA-8000;iLBC-8000;rtx;Auto;VP8;360;720;240;NotDone
AIM;AIM;ICQ;Off;On;Off;Tls;TCP;UDP;On;BestEffort;BestEffort;FALSE;FALSE;Auto;4;4;3;1853;1160;1859;5409;4823;4545;4700;2368;1384;4820;5660;5731;telephone-event-80000;telephone-event-80000;opus-48000;Auto;VP8;VP8;240;720;480;NotDone
IRC;SIP;IRC;Off;On;On;TCP;Tls;Tls;Off;On;Off;FALSE;FALSE;TRUE;4;4;3;630;824;1139;3141;3682;5291;5098;4831;1842;3901;5482;1039;SILK-24000;telephone-event-80000;telephone-event-80000;ulpfec;Auto;VP8;1080;480;240;NotDone
GoogleTalk;iPPi;AIM;Off;On;On;Tls;UDP;Auto;BestEffort;Off;BestEffort;FALSE;Auto;Auto;5;2;2;713;982;1056;5004;4890;2474;3406;2227;3093;2300;6000;3907;PCMU-8000;G722-16000;GSM-8000;ulpfec;red;red;480;240;1080;NotDone
iptel.org;IRC;iPPi;On;On;Off;UDP;UDP;TCP;On;On;Off;Auto;TRUE;TRUE;3;4;3;1945;1653;1390;3730;4960;3112;1077;3776;4564;5428;1077;4446;opus-48000;opus-48000;speex-8000;VP8;VP8;VP8;480;480;240;NotDone
IRC;SIP;SIP;On;Off;Off;TCP;UDP;UDP;On;BestEffort;Off;FALSE;TRUE;TRUE;4;3;2;836;1333;697;4803;4917;722;1789;4153;4263;5813;1752;5502;GSM-8000;opus-48000;Auto;Auto;Auto;VP8;1080;1080;480;NotDone
ICQ;iPPi;iptel.org;On;Off;Off;UDP;UDP;Auto;On;BestEffort;BestEffort;TRUE;Auto;Auto;4;3;4;1250;1578;1274;5699;1421;284;2565;5752;5840;5447;5360;3644;Auto;telephone-event-80000;SILK-16000;Auto;Auto;VP8;360;720;1080;NotDone
IRC;IRC;ICQ;On;On;Off;TCP;Tls;Auto;Off;Off;Off;Auto;TRUE;TRUE;3;2;3;1653;1848;1115;4981;5476;5555;4195;5873;1266;5572;4947;4739;SILK-24000;G722-16000;PCMU-8000;Auto;VP8;VP8;1080;480;720;NotDone
ICQ;iPPi;GoogleTalk;Off;On;On;Auto;UDP;Tls;Off;Off;Off;FALSE;TRUE;FALSE;2;2;4;1966;1644;641;3566;159;1455;5883;3855;4365;5956;5988;5379;opus-48000;SILK-24000;speex-8000;VP8;Auto;h264;240;1080;240;NotDone
IRC;GoogleTalk;IRC;Off;Off;On;Tls;TCP;Tls;Off;BestEffort;On;Auto;FALSE;Auto;2;4;4;1708;1719;705;4453;5865;255;399;5977;5644;258;3381;5504;G722-16000;G722-16000;SILK-16000;ulpfec;Auto;VP8;480;1080;1080;NotDone
IRC;iPPi;ICQ;Off;On;Off;Auto;Tls;UDP;Off;BestEffort;Off;Auto;Auto;TRUE;4;2;4;1791;1059;1846;5274;2943;113;5602;2462;329;4796;5175;5514;speex-16000;iLBC-8000;GSM-8000;h264;Auto;VP8;480;720;1080;NotDone
iPPi;ICQ;SIP;On;On;On;Tls;TCP;Auto;On;BestEffort;Off;FALSE;FALSE;TRUE;4;2;2;1114;852;1315;4329;5379;4339;5928;5244;137;4581;1026;5738;SILK-8000;GSM-8000;speex-8000;Auto;ulpfec;ulpfec;480;480;360;NotDone
IRC;SIP;IRC;Off;On;On;TCP;Tls;UDP;Off;Off;Off;Auto;FALSE;TRUE;2;2;4;1590;1577;624;3620;674;5735;456;387;187;5296;5898;4901;PCMU-8000;speex-8000;SILK-24000;red;rtx;ulpfec;360;1080;1080;NotDone
ICQ;AIM;IRC;On;Off;On;Tls;Auto;Tls;On;BestEffort;Off;TRUE;TRUE;Auto;3;4;2;906;1628;759;3476;3997;3677;1253;4181;610;4806;293;3327;telephone-event-80000;GSM-8000;GSM-8000;VP8;ulpfec;VP8;720;720;480;NotDone
iptel.org;IRC;IRC;On;Off;On;Tls;Tls;UDP;BestEffort;Off;BestEffort;FALSE;TRUE;Auto;3;2;4;1490;1948;834;3298;168;4981;677;5947;5878;2423;473;3647;iLBC-8000;telephone-event-80000;SILK-12000;VP8;Auto;VP8;240;240;1080;NotDone
IRC;iptel.org;iptel.org;On;Off;Off;UDP;Auto;Auto;Off;BestEffort;Off;Auto;TRUE;FALSE;3;2;3;1684;1744;887;4337;2214;5564;5143;5292;414;669;4453;4205;speex-8000;PCMA-8000;SILK-24000;red;ulpfec;VP8;720;240;1080;NotDone
GoogleTalk;SIP;iptel.org;Off;Off;On;Auto;Auto;Auto;Off;Off;Off;Auto;Auto;Auto;4;4;2;1609;891;1869;5701;3521;2915;624;3246;3580;353;3901;3684;PCMA-8000;SILK-8000;SILK-24000;h264;Auto;VP8;480;360;480;NotDone
GoogleTalk;GoogleTalk;IRC;On;On;On;Auto;Auto;TCP;Off;BestEffort;Off;TRUE;TRUE;TRUE;4;3;3;1607;1698;1879;5533;2827;2243;5880;5268;4185;178;3571;5218;GSM-8000;telephone-event-80000;SILK-16000;VP8;Auto;rtx;1080;240;1080;NotDone
AIM;iPPi;GoogleTalk;On;On;Off;Auto;TCP;UDP;Off;BestEffort;On;Auto;FALSE;TRUE;2;2;4;1630;1865;736;5235;138;3846;1294;5856;5966;1345;5799;5794;iLBC-8000;speex-16000;speex-8000;Auto;Auto;Auto;1080;720;480;NotDone
AIM;iptel.org;iptel.org;Off;On;Off;Auto;UDP;Auto;Off;BestEffort;On;Auto;Auto;TRUE;2;3;4;1353;1490;738;5312;4897;1835;4755;5124;1231;4836;5608;5083;GSM-8000;SILK-24000;GSM-8000;rtx;VP8;VP8;720;720;1080;NotDone
ICQ;GoogleTalk;ICQ;Off;On;On;Tls;Tls;Auto;Off;Off;On;FALSE;Auto;TRUE;4;2;4;1757;1987;808;2836;3316;5049;2249;5608;2362;5412;5852;5807;opus-48000;PCMA-8000;GSM-8000;h264;h264;h264;720;1080;360;NotDone
AIM;iPPi;iptel.org;Off;Off;On;TCP;Auto;Tls;Off;BestEffort;Off;TRUE;Auto;Auto;3;3;3;1327;1224;1155;4233;1052;5817;5727;2503;984;5751;4654;3783;telephone-event-80000;G722-16000;iLBC-8000;Auto;Auto;VP8;720;360;480;NotDone
ICQ;GoogleTalk;ICQ;On;On;On;Tls;UDP;UDP;Off;Off;Off;TRUE;FALSE;FALSE;2;4;3;991;1517;1430;5370;4967;4182;1393;4630;531;1318;229;3997;speex-32000;PCMA-8000;SILK-12000;ulpfec;rtx;VP8;480;720;240;NotDone
IRC;GoogleTalk;GoogleTalk;Off;Off;Off;Tls;Auto;UDP;Off;On;Off;FALSE;FALSE;FALSE;3;3;2;1168;712;1059;3035;1799;5284;3522;5788;3377;1481;4729;5219;Auto;PCMA-8000;speex-8000;Auto;Auto;VP8;480;240;240;NotDone
ICQ;AIM;iPPi;On;On;On;TCP;UDP;Tls;On;BestEffort;BestEffort;TRUE;Auto;TRUE;2;4;3;1451;770;1657;4202;5356;69;5177;5668;1673;2537;1308;4876;speex-32000;GSM-8000;iLBC-8000;VP8;Auto;VP8;720;360;720;NotDone
IRC;iptel.org;ICQ;On;Off;On;TCP;UDP;Auto;Off;On;Off;Auto;FALSE;Auto;2;3;3;1737;844;770;682;400;1306;5642;2643;5576;4568;1974;5808;speex-8000;PCMU-8000;SILK-12000;rtx;Auto;VP8;480;1080;720;NotDone
AIM;ICQ;SIP;On;Off;On;Tls;UDP;Tls;Off;Off;Off;FALSE;Auto;TRUE;3;3;2;1043;1569;583;4001;373;2644;4416;5808;2111;4959;2398;1374;SILK-8000;speex-32000;GSM-8000;ulpfec;Auto;rtx;1080;1080;360;NotDone
AIM;iptel.org;AIM;On;On;On;UDP;Auto;UDP;Off;BestEffort;Off;TRUE;FALSE;Auto;4;2;2;961;1827;1279;4289;3092;5796;5069;539;1495;5442;1642;5584;G722-16000;Auto;AMR-WB-16000;red;VP8;VP8;1080;240;1080;NotDone
IRC;iptel.org;IRC;On;On;On;Tls;TCP;Tls;Off;BestEffort;BestEffort;FALSE;FALSE;FALSE;3;3;2;1906;1554;1703;3014;5117;3802;1765;5123;648;1598;687;3472;GSM-8000;telephone-event-80000;PCMU-8000;ulpfec;Auto;ulpfec;1080;240;1080;NotDone
IRC;iptel.org;AIM;Off;On;On;TCP;Auto;UDP;Off;Off;BestEffort;FALSE;FALSE;TRUE;3;2;4;1067;1869;1401;5604;5971;5696;5813;1315;4021;472;4066;5140;speex-8000;PCMA-8000;PCMU-8000;ulpfec;Auto;VP8;360;1080;240;NotDone
IRC;ICQ;SIP;On;Off;Off;UDP;TCP;UDP;Off;Off;BestEffort;TRUE;TRUE;FALSE;4;3;2;1736;1643;1188;3799;2992;362;5210;4901;459;2538;260;5168;opus-48000;opus-48000;GSM-8000;rtx;Auto;ulpfec;720;360;720;NotDone
