caller_protocol;callee1_protocol;callee2_protocol;caller_listenport;callee1_listenport;callee2_listenport;caller_transportprotocol;callee1_transportprotocol;callee2_transportprotocol;caller_encryption;callee1_encryption;callee2_encryption;caller_sipzrtpattribute;callee1_sipzrtpattribute;callee2_sipzrtpattribute;caller_maxpeers;callee1_maxpeers;callee2_maxpeers;caller_mtu;callee1_mtu;callee2_mtu;caller_defaultcallrate;callee1_defaultcallrate;callee2_defaultcallrate;caller_maxreceivecallrate;callee1_maxreceivecallrate;callee2_maxreceivecallrate;caller_maxtransmitcallrate;callee1_maxtransmitcallrate;callee2_maxtransmitcallrate;caller_audiocodec;callee1_audiocodec;callee2_audiocodec;caller_videocodec;callee1_videocodec;callee2_videocodec;caller_maxresolution;callee1_maxresolution;callee2_maxresolution;
iPPi;GoogleTalk;iPPi;Off;Off;Off;UDP;Tls;UDP;On;On;On;TRUE;TRUE;Auto;2;4;3;1256;693;1164;2597;582;5535;291;5059;4531;2076;470;1629;telephone-event-80000;SILK-8000;speex-16000;ulpfec;red;Auto;480;1080;480;NotDone
GoogleTalk;IRC;iptel.org;Off;Off;Off;Tls;Auto;TCP;On;On;Off;TRUE;TRUE;TRUE;3;4;2;1893;1673;1873;4715;141;2962;771;4889;3132;643;3173;155;G722-16000;SILK-8000;speex-8000;rtx;VP8;VP8;720;360;240;NotDone
IRC;ICQ;GoogleTalk;On;On;Off;TCP;UDP;Auto;BestEffort;On;BestEffort;FALSE;Auto;Auto;5;2;4;798;982;1188;2971;5933;2507;3407;2226;2440;4010;1442;4728;PCMU-8000;G722-16000;GSM-8000;ulpfec;Auto;red;480;1080;240;NotDone
GoogleTalk;iptel.org;AIM;Off;On;Off;Tls;TCP;Tls;Off;Off;Off;TRUE;FALSE;TRUE;4;2;3;1723;1931;1303;4495;5442;2485;4985;565;1150;4462;4237;1238;speex-8000;SILK-8000;SILK-12000;h264;VP8;VP8;720;480;360;NotDone
IRC;GoogleTalk;SIP;Off;On;On;TCP;TCP;Auto;BestEffort;On;On;FALSE;TRUE;Auto;2;4;4;1410;982;1054;2971;4969;3006;3407;2226;2520;4010;1442;3238;PCMU-8000;G722-16000;GSM-8000;ulpfec;red;red;480;360;1080;NotDone
ICQ;IRC;ICQ;Off;On;Off;Auto;UDP;Auto;Off;On;Off;TRUE;FALSE;FALSE;4;3;4;1849;909;639;4183;5567;848;422;5844;850;3275;1693;887;speex-32000;SILK-8000;AMR-WB-16000;red;VP8;VP8;240;480;720;NotDone
GoogleTalk;IRC;iptel.org;Off;On;Off;Tls;Auto;TCP;Off;On;Off;TRUE;TRUE;TRUE;3;4;2;1034;1489;1994;291;5960;4467;3095;5567;4902;5823;392;301;Auto;G722-16000;AMR-WB-16000;ulpfec;VP8;VP8;240;240;360;NotDone
GoogleTalk;AIM;SIP;Off;Off;Off;UDP;Tls;Tls;BestEffort;Off;Off;TRUE;FALSE;TRUE;2;3;3;1296;921;1202;1020;5986;2441;4583;186;317;5802;79;322;SILK-12000;SILK-16000;G722-16000;rtx;VP8;VP8;360;360;1080;NotDone
GoogleTalk;IRC;iptel.org;Off;On;On;Tls;UDP;TCP;On;On;Off;TRUE;TRUE;TRUE;3;4;3;1440;1222;1057;5188;5392;5308;5841;2300;2042;749;252;891;AMR-WB-16000;GSM-8000;speex-8000;h264;VP8;VP8;1080;720;720;NotDone
SIP;iPPi;iPPi;Off;Off;Off;Tls;Auto;Tls;Off;BestEffort;Off;Auto;FALSE;TRUE;3;2;4;1804;752;1381;3132;336;5884;3481;740;2542;5985;5924;1051;telephone-event-80000;iLBC-8000;AMR-WB-16000;ulpfec;VP8;VP8;480;720;240;NotDone
iPPi;IRC;IRC;On;Off;Off;Auto;TCP;TCP;On;On;On;Auto;Auto;FALSE;2;3;4;1852;1096;1937;5548;567;5912;1863;758;5847;617;3792;126;SILK-12000;PCMA-8000;SILK-8000;ulpfec;VP8;VP8;720;720;720;NotDone
GoogleTalk;IRC;SIP;On;On;Off;Auto;TCP;Tls;Off;On;Off;FALSE;FALSE;TRUE;3;2;3;1348;1788;663;5416;1237;2497;1412;4895;2478;3193;596;891;opus-48000;PCMA-8000;telephone-event-80000;h264;VP8;VP8;480;720;1080;NotDone
AIM;IRC;SIP;On;On;On;TCP;UDP;TCP;Off;Off;BestEffort;FALSE;FALSE;TRUE;2;4;4;1896;641;1824;5610;5790;5837;759;641;5087;899;4119;535;GSM-8000;AMR-WB-16000;SILK-8000;VP8;h264;VP8;240;720;1080;NotDone
AIM;IRC;iPPi;Off;On;On;UDP;Tls;UDP;BestEffort;Off;Off;TRUE;FALSE;TRUE;2;2;3;1114;1567;1832;1020;141;296;499;1046;5577;5281;5953;155;speex-8000;SILK-8000;iLBC-8000;h264;VP8;ulpfec;720;720;360;NotDone
SIP;IRC;AIM;On;Off;Off;TCP;Auto;Auto;On;On;Off;Auto;FALSE;TRUE;4;2;3;1831;1099;987;5043;1248;695;5960;96;99;4384;167;5493;Auto;AMR-WB-16000;speex-16000;VP8;VP8;VP8;1080;480;720;NotDone
ICQ;AIM;ICQ;On;On;Off;TCP;UDP;Tls;BestEffort;On;Off;Auto;FALSE;Auto;3;3;2;692;832;850;5654;602;1206;5334;5876;5871;5637;5392;408;AMR-WB-16000;SILK-12000;telephone-event-80000;rtx;VP8;VP8;720;360;720;NotDone
iptel.org;AIM;IRC;On;Off;On;Tls;UDP;Tls;On;Off;Off;Auto;Auto;TRUE;2;4;4;1916;822;810;5509;5986;2126;3972;1160;5939;5394;5453;110;opus-48000;Auto;Auto;ulpfec;VP8;VP8;240;720;480;NotDone
SIP;GoogleTalk;IRC;Off;On;On;Auto;UDP;Auto;On;On;Off;TRUE;FALSE;Auto;4;3;3;745;1127;697;5877;5567;848;2438;138;4421;3256;2129;887;opus-48000;Auto;AMR-WB-16000;red;VP8;VP8;360;1080;720;NotDone
GoogleTalk;iPPi;iPPi;Off;Off;On;UDP;TCP;Tls;Off;On;On;TRUE;Auto;FALSE;4;4;3;1440;1300;1995;5188;5392;1159;3166;93;5791;5969;252;472;SILK-12000;GSM-8000;speex-8000;rtx;VP8;VP8;720;720;720;NotDone
GoogleTalk;IRC;iptel.org;Off;Off;On;Tls;Auto;TCP;On;On;On;TRUE;TRUE;FALSE;3;2;4;1034;1392;1770;4933;1878;5754;3444;1123;4100;4530;5887;77;Auto;AMR-WB-16000;SILK-8000;Auto;VP8;VP8;360;240;720;NotDone
iPPi;iptel.org;iptel.org;On;Off;On;UDP;TCP;Auto;Off;Off;Off;TRUE;Auto;Auto;3;3;3;1315;1448;1698;5902;5642;4548;5612;236;1925;4764;1939;390;SILK-8000;SILK-12000;telephone-event-80000;rtx;VP8;VP8;240;360;240;NotDone
GoogleTalk;ICQ;AIM;Off;On;On;TCP;UDP;Tls;BestEffort;On;On;TRUE;TRUE;FALSE;3;3;2;853;606;1994;177;5960;182;5815;5567;4902;692;392;301;G722-16000;G722-16000;opus-48000;h264;VP8;VP8;480;1080;1080;NotDone
GoogleTalk;iptel.org;iptel.org;Off;Off;On;UDP;Tls;TCP;Off;On;Off;TRUE;FALSE;FALSE;2;2;4;1867;745;1386;5928;1772;4879;590;836;2660;566;2512;2372;GSM-8000;GSM-8000;telephone-event-80000;red;VP8;VP8;1080;1080;1080;NotDone
GoogleTalk;GoogleTalk;iptel.org;Off;On;On;TCP;Tls;TCP;On;Off;Off;TRUE;Auto;Auto;4;3;2;1272;1620;601;4838;5529;4952;5852;525;1997;1111;3909;1392;speex-32000;PCMU-8000;telephone-event-80000;ulpfec;VP8;VP8;480;360;720;NotDone
GoogleTalk;GoogleTalk;iPPi;Off;On;On;Auto;TCP;TCP;On;Off;Off;TRUE;FALSE;FALSE;4;4;2;1259;961;1374;5188;5208;1332;1917;93;2647;5969;252;472;speex-16000;SILK-16000;Auto;rtx;VP8;VP8;360;360;480;NotDone
GoogleTalk;AIM;iptel.org;On;Off;On;UDP;Auto;TCP;On;On;Off;FALSE;Auto;TRUE;4;4;4;625;620;841;5697;5873;641;492;2866;5704;4116;151;3503;PCMA-8000;SILK-12000;iLBC-8000;VP8;VP8;VP8;1080;360;240;NotDone
GoogleTalk;IRC;GoogleTalk;Off;On;On;UDP;Auto;UDP;On;On;Off;Auto;FALSE;Auto;3;2;3;587;640;1184;5980;2081;4184;3863;290;1098;647;5761;5851;PCMU-8000;opus-48000;SILK-12000;red;VP8;VP8;360;720;720;NotDone
GoogleTalk;AIM;ICQ;Off;On;Off;TCP;UDP;TCP;On;On;On;FALSE;FALSE;FALSE;4;4;3;1088;1886;1353;5927;5891;182;3611;5774;5888;5566;4480;301;speex-16000;SILK-8000;SILK-24000;VP8;VP8;ulpfec;720;1080;240;NotDone
GoogleTalk;AIM;IRC;Off;On;Off;TCP;UDP;TCP;Off;Off;Off;Auto;FALSE;Auto;4;3;4;1979;857;789;5274;1858;645;5979;3584;506;5672;234;4866;telephone-event-80000;speex-8000;PCMU-8000;h264;VP8;VP8;480;720;1080;NotDone
GoogleTalk;iptel.org;IRC;Off;Off;Off;Auto;UDP;Tls;On;On;Off;TRUE;TRUE;TRUE;4;2;2;1979;1638;1624;587;5364;5860;5547;1044;99;837;3842;163;SILK-8000;AMR-WB-16000;PCMU-8000;h264;VP8;VP8;480;240;480;NotDone
iPPi;IRC;IRC;On;Off;On;Auto;UDP;UDP;Off;On;Off;Auto;FALSE;FALSE;2;3;4;1081;1222;590;4436;2246;385;2195;5540;808;1051;5695;961;speex-32000;SILK-8000;AMR-WB-16000;red;VP8;VP8;1080;1080;720;NotDone
GoogleTalk;GoogleTalk;iptel.org;Off;Off;On;UDP;Tls;Auto;On;BestEffort;On;Auto;TRUE;Auto;4;2;2;1012;1248;1528;5602;537;255;5702;241;2409;5630;4325;4582;G722-16000;SILK-12000;telephone-event-80000;Auto;VP8;VP8;240;720;240;NotDone
GoogleTalk;ICQ;AIM;Off;Off;On;UDP;UDP;TCP;On;On;Off;FALSE;TRUE;TRUE;4;2;2;1916;1318;1203;3945;67;4537;5702;241;3132;5630;1141;4582;opus-48000;SILK-12000;AMR-WB-16000;h264;VP8;VP8;720;240;360;NotDone
GoogleTalk;SIP;GoogleTalk;Off;On;On;Auto;Tls;Auto;On;On;Off;Auto;Auto;TRUE;3;4;3;1597;1740;1371;4933;5733;5754;5758;131;4237;4428;632;3037;speex-8000;SILK-16000;PCMA-8000;Auto;VP8;VP8;480;360;240;NotDone
ICQ;iPPi;AIM;Off;On;Off;Auto;UDP;TCP;BestEffort;On;Off;TRUE;Auto;FALSE;2;2;3;1956;1605;1333;5665;1427;5182;5707;322;5960;139;512;426;speex-32000;speex-8000;G722-16000;h264;rtx;VP8;360;240;720;NotDone
GoogleTalk;AIM;AIM;On;On;On;UDP;Auto;TCP;On;Off;Off;FALSE;FALSE;Auto;2;2;2;595;1437;606;5927;5891;3677;2928;1158;5888;5658;4480;5332;AMR-WB-16000;SILK-8000;SILK-8000;h264;VP8;ulpfec;240;360;360;NotDone
GoogleTalk;SIP;iPPi;Off;On;Off;UDP;Auto;TCP;On;Off;Off;TRUE;TRUE;TRUE;3;4;2;960;800;619;652;5208;2128;5833;1046;2039;5281;3915;155;AMR-WB-16000;SILK-8000;iLBC-8000;ulpfec;VP8;VP8;720;720;360;NotDone
AIM;SIP;AIM;On;Off;On;Auto;Tls;TCP;On;On;Off;FALSE;Auto;FALSE;4;3;3;1223;620;841;5932;5873;4445;4558;5193;5704;4116;2140;4992;SILK-12000;SILK-12000;GSM-8000;ulpfec;VP8;VP8;720;360;480;NotDone
iptel.org;ICQ;GoogleTalk;On;On;On;Auto;UDP;Auto;On;On;On;TRUE;TRUE;Auto;2;4;3;1779;1639;1804;5884;5858;5402;5735;740;2918;5985;5924;5644;speex-32000;Auto;speex-16000;rtx;red;VP8;360;1080;720;NotDone
GoogleTalk;IRC;ICQ;Off;Off;On;Tls;Auto;Tls;On;BestEffort;Off;TRUE;Auto;Auto;2;2;3;1899;1113;853;5980;119;5342;4795;290;1066;647;5761;5851;PCMA-8000;SILK-8000;SILK-12000;red;VP8;ulpfec;480;480;720;NotDone
AIM;ICQ;IRC;On;Off;On;Auto;TCP;Auto;On;On;BestEffort;Auto;Auto;Auto;2;4;2;1718;1798;1611;5483;5575;5873;5148;570;5832;5889;742;155;telephone-event-80000;PCMU-8000;speex-8000;rtx;rtx;VP8;720;360;240;NotDone
iptel.org;IRC;GoogleTalk;On;On;Off;Tls;UDP;UDP;On;On;On;TRUE;FALSE;TRUE;4;2;2;1878;1728;1995;5964;2471;5988;5930;93;5693;5788;5811;2184;SILK-16000;Auto;PCMA-8000;red;rtx;Auto;720;1080;480;NotDone
AIM;SIP;IRC;Off;On;Off;Auto;Auto;Auto;Off;On;On;TRUE;Auto;FALSE;2;4;2;1852;1096;594;5548;4652;5377;1863;4257;549;617;5816;330;AMR-WB-16000;SILK-8000;SILK-8000;ulpfec;VP8;VP8;480;720;720;NotDone
SIP;SIP;ICQ;On;On;On;Tls;Tls;Auto;Off;On;Off;FALSE;FALSE;TRUE;3;2;3;1964;1037;1109;5416;1135;739;3490;665;3800;5750;3898;877;PCMA-8000;SILK-8000;telephone-event-80000;h264;VP8;VP8;720;1080;1080;NotDone
iPPi;IRC;GoogleTalk;On;On;On;TCP;TCP;TCP;On;Off;Off;FALSE;TRUE;Auto;3;2;2;1518;1537;1603;5265;3050;479;3011;1484;549;5434;5816;103;speex-8000;AMR-WB-16000;SILK-8000;VP8;VP8;VP8;480;360;1080;NotDone
ICQ;SIP;iPPi;Off;Off;On;UDP;UDP;UDP;BestEffort;On;Off;TRUE;FALSE;FALSE;4;2;2;1878;1808;802;5896;5714;774;1207;93;2096;5969;5243;5269;speex-8000;SILK-12000;G722-16000;h264;VP8;VP8;1080;360;720;NotDone
IRC;IRC;AIM;On;On;Off;Auto;Auto;Auto;On;Off;On;TRUE;TRUE;TRUE;4;2;4;1933;1230;1564;5781;5557;5765;5062;5790;537;675;5770;344;speex-8000;AMR-WB-16000;SILK-12000;rtx;VP8;VP8;720;240;240;NotDone
SIP;iptel.org;iPPi;Off;Off;On;Auto;Tls;UDP;Off;Off;Off;TRUE;Auto;TRUE;4;2;2;1826;604;1465;4993;5442;1358;196;4568;1150;5598;3659;1048;PCMU-8000;AMR-WB-16000;SILK-12000;VP8;VP8;VP8;480;720;720;NotDone
GoogleTalk;SIP;ICQ;On;On;On;TCP;TCP;UDP;On;On;Off;Auto;FALSE;FALSE;2;2;3;1947;801;650;5396;5557;5765;5062;5898;537;191;5770;344;opus-48000;SILK-24000;iLBC-8000;rtx;VP8;Auto;720;240;240;NotDone
ICQ;iptel.org;ICQ;Off;Off;Off;Auto;Auto;Tls;Off;Off;Off;Auto;TRUE;FALSE;3;2;3;1399;1019;1079;5777;5392;5308;5607;1485;1070;749;252;2207;telephone-event-80000;AMR-WB-16000;AMR-WB-16000;h264;VP8;VP8;720;720;720;NotDone
iptel.org;ICQ;ICQ;Off;On;Off;UDP;UDP;UDP;On;On;Off;TRUE;TRUE;Auto;4;3;3;1835;1246;1994;5546;5986;5941;4583;4871;5133;4399;1735;3818;SILK-8000;telephone-event-80000;SILK-8000;h264;VP8;VP8;240;480;480;NotDone
iPPi;iptel.org;AIM;On;Off;On;Tls;Auto;TCP;Off;On;Off;FALSE;FALSE;FALSE;3;3;4;1303;666;1988;5902;5642;1208;252;236;1925;4764;1939;390;telephone-event-80000;iLBC-8000;SILK-12000;h264;VP8;h264;240;360;240;NotDone
AIM;SIP;iPPi;On;On;On;UDP;Tls;UDP;On;Off;Off;FALSE;Auto;Auto;4;2;4;804;731;1824;5713;5790;5705;4547;1835;5087;899;4119;305;PCMU-8000;AMR-WB-16000;SILK-12000;ulpfec;VP8;VP8;480;1080;720;NotDone
SIP;iptel.org;IRC;On;Off;On;Tls;UDP;Auto;Off;Off;On;TRUE;TRUE;Auto;3;3;3;1685;1755;1398;4943;4821;5721;2018;236;434;1851;2094;3488;AMR-WB-16000;telephone-event-80000;PCMU-8000;VP8;VP8;VP8;720;360;480;NotDone
SIP;AIM;IRC;Off;Off;On;Auto;Tls;TCP;Off;Off;On;TRUE;FALSE;FALSE;3;3;3;1066;1377;1937;3007;567;476;1863;758;5857;5995;2509;3209;telephone-event-80000;PCMA-8000;SILK-8000;ulpfec;ulpfec;VP8;720;720;720;NotDone
GoogleTalk;ICQ;iptel.org;Off;On;On;UDP;Tls;TCP;BestEffort;BestEffort;Off;Auto;FALSE;TRUE;4;2;4;1851;1285;1412;5357;5442;270;4985;426;4537;5819;4237;1238;PCMU-8000;AMR-WB-16000;Auto;VP8;VP8;VP8;720;1080;360;NotDone
iptel.org;SIP;SIP;Off;On;Off;Auto;UDP;Auto;On;Off;Off;TRUE;Auto;TRUE;4;4;3;619;1187;955;4993;5442;4538;3727;2371;1150;5598;1182;1048;PCMU-8000;AMR-WB-16000;SILK-12000;rtx;VP8;VP8;240;240;240;NotDone
GoogleTalk;IRC;ICQ;On;On;On;TCP;TCP;UDP;Off;On;Off;Auto;TRUE;Auto;4;4;3;1378;1377;663;3662;5524;2272;2827;996;2308;4448;596;1610;opus-48000;GSM-8000;telephone-event-80000;VP8;VP8;VP8;240;480;240;NotDone
iptel.org;AIM;IRC;On;On;On;Auto;UDP;Auto;Off;Off;Off;TRUE;FALSE;FALSE;2;2;3;1916;602;1001;5509;576;5808;1876;311;1150;5598;5390;3624;speex-16000;AMR-WB-16000;SILK-12000;VP8;VP8;VP8;360;720;720;NotDone
SIP;iPPi;IRC;On;Off;Off;TCP;TCP;Auto;On;Off;Off;Auto;Auto;Auto;3;4;2;1080;1217;1371;5121;2336;5964;275;131;4237;4428;641;199;AMR-WB-16000;AMR-WB-16000;G722-16000;Auto;VP8;VP8;240;720;1080;NotDone
AIM;iPPi;GoogleTalk;Off;On;On;TCP;UDP;TCP;Off;On;Off;Auto;Auto;Auto;2;2;3;1309;884;580;3662;5524;2272;5425;725;1421;4448;1118;1610;speex-32000;speex-8000;telephone-event-80000;ulpfec;ulpfec;h264;360;240;240;NotDone
AIM;IRC;iptel.org;Off;Off;On;Auto;Auto;Tls;Off;On;On;Auto;TRUE;Auto;3;3;4;1666;1720;1804;5314;954;5402;3409;644;2918;5985;5924;928;SILK-12000;Auto;telephone-event-80000;Auto;red;h264;1080;1080;240;NotDone
AIM;IRC;iptel.org;On;Off;Off;TCP;Tls;UDP;Off;Off;On;FALSE;FALSE;TRUE;3;2;4;1896;1894;1112;5665;643;3691;5707;322;221;139;512;4375;speex-32000;Auto;SILK-12000;h264;Auto;VP8;360;480;720;NotDone
ICQ;SIP;iPPi;Off;On;Off;TCP;Tls;UDP;Off;Off;Off;TRUE;Auto;TRUE;2;3;3;1596;1290;781;3854;630;1159;3224;290;1249;403;1805;643;SILK-8000;AMR-WB-16000;AMR-WB-16000;red;VP8;VP8;720;360;360;NotDone
SIP;GoogleTalk;GoogleTalk;On;On;Off;UDP;Tls;UDP;On;BestEffort;Off;FALSE;FALSE;TRUE;4;4;3;1859;1184;1512;5167;4802;5907;4795;290;5325;5983;5137;5851;Auto;SILK-8000;GSM-8000;ulpfec;VP8;VP8;240;240;480;NotDone
