caller_protocol;callee1_protocol;callee2_protocol;caller_listenport;callee1_listenport;callee2_listenport;caller_transportprotocol;callee1_transportprotocol;callee2_transportprotocol;caller_encryption;callee1_encryption;callee2_encryption;caller_sipzrtpattribute;callee1_sipzrtpattribute;callee2_sipzrtpattribute;caller_maxpeers;callee1_maxpeers;callee2_maxpeers;caller_mtu;callee1_mtu;callee2_mtu;caller_defaultcallrate;callee1_defaultcallrate;callee2_defaultcallrate;caller_maxreceivecallrate;callee1_maxreceivecallrate;callee2_maxreceivecallrate;caller_maxtransmitcallrate;callee1_maxtransmitcallrate;callee2_maxtransmitcallrate;caller_audiocodec;callee1_audiocodec;callee2_audiocodec;caller_videocodec;callee1_videocodec;callee2_videocodec;caller_maxresolution;callee1_maxresolution;callee2_maxresolution;
GoogleTalk;IRC;GoogleTalk;Off;On;On;Auto;Auto;TCP;Off;Off;Off;Auto;FALSE;TRUE;2;4;3;1960;1279;1827;5988;5932;224;167;205;5885;5924;230;232;AMR-WB-16000;SILK-8000;SILK-8000;ulpfec;VP8;VP8;720;240;240;NotDone
SIP;IRC;GoogleTalk;Off;On;On;Auto;Auto;TCP;On;On;Off;Auto;FALSE;TRUE;3;2;3;1960;1125;871;5988;5319;412;70;205;5885;5924;230;232;AMR-WB-16000;SILK-8000;SILK-8000;ulpfec;VP8;VP8;720;240;240;NotDone
GoogleTalk;IRC;GoogleTalk;Off;On;On;TCP;Tls;TCP;On;On;Off;Auto;FALSE;TRUE;3;2;3;1531;1125;871;5988;5932;412;507;205;5885;5924;220;3369;AMR-WB-16000;SILK-8000;SILK-8000;ulpfec;VP8;VP8;720;240;240;NotDone
GoogleTalk;IRC;GoogleTalk;Off;On;On;Auto;UDP;TCP;On;On;Off;Auto;TRUE;TRUE;2;3;3;1009;1305;871;5988;5932;412;3049;205;2537;5587;1603;4465;PCMU-8000;SILK-8000;SILK-12000;VP8;VP8;VP8;720;240;1080;NotDone
GoogleTalk;IRC;GoogleTalk;Off;On;On;Auto;Auto;TCP;Off;On;Off;Auto;FALSE;TRUE;2;2;3;1960;1984;1506;5988;5932;412;70;205;5885;5924;230;232;AMR-WB-16000;SILK-8000;SILK-8000;Auto;VP8;VP8;240;240;1080;NotDone
GoogleTalk;IRC;GoogleTalk;Off;On;On;Auto;UDP;TCP;On;On;Off;TRUE;TRUE;TRUE;2;3;3;699;1532;871;5988;5932;224;70;205;1333;5924;230;232;AMR-WB-16000;SILK-8000;SILK-8000;ulpfec;VP8;VP8;720;240;1080;NotDone
GoogleTalk;IRC;GoogleTalk;Off;On;On;Auto;Auto;TCP;Off;On;Off;Auto;FALSE;TRUE;2;3;3;1293;1008;871;5988;5319;412;70;205;5885;5627;230;2024;PCMU-8000;SILK-8000;SILK-8000;ulpfec;VP8;VP8;720;240;240;NotDone
GoogleTalk;IRC;iptel.org;Off;On;On;Auto;Auto;Auto;Off;Off;Off;Auto;FALSE;TRUE;2;2;3;1960;1984;871;5988;5932;412;507;205;5885;5924;230;232;AMR-WB-16000;SILK-8000;SILK-8000;ulpfec;VP8;VP8;720;480;1080;NotDone
GoogleTalk;IRC;GoogleTalk;Off;On;Off;Auto;Tls;TCP;On;On;Off;Auto;Auto;TRUE;4;3;4;699;1305;871;5988;5932;412;3049;205;5885;542;230;232;AMR-WB-16000;SILK-8000;SILK-8000;ulpfec;VP8;VP8;720;720;240;NotDone
GoogleTalk;IRC;GoogleTalk;Off;On;On;Auto;UDP;TCP;On;On;Off;Auto;TRUE;TRUE;2;3;3;699;1305;871;5988;5932;412;3049;205;4214;5779;230;232;iLBC-8000;SILK-8000;SILK-12000;ulpfec;VP8;VP8;720;360;480;NotDone
GoogleTalk;IRC;GoogleTalk;Off;On;On;Auto;Tls;TCP;On;On;Off;Auto;FALSE;TRUE;3;2;3;1960;1621;636;5988;5932;412;70;205;5885;5924;230;232;AMR-WB-16000;SILK-8000;SILK-8000;ulpfec;VP8;VP8;720;360;1080;NotDone
GoogleTalk;IRC;GoogleTalk;Off;On;On;TCP;UDP;TCP;On;On;Off;Auto;FALSE;TRUE;2;3;3;1781;1305;871;5988;5932;412;70;205;5885;5924;230;232;AMR-WB-16000;SILK-8000;SILK-8000;ulpfec;VP8;VP8;720;240;1080;NotDone
GoogleTalk;IRC;iptel.org;Off;On;On;Auto;Auto;Tls;Off;Off;On;Auto;FALSE;Auto;2;2;3;1960;1984;1506;5988;5932;412;70;205;606;5966;230;232;AMR-WB-16000;SILK-8000;SILK-8000;ulpfec;VP8;VP8;720;240;1080;NotDone
GoogleTalk;IRC;GoogleTalk;Off;On;On;Auto;UDP;TCP;On;On;Off;Auto;FALSE;TRUE;2;3;3;1293;1008;871;5988;5738;224;70;205;1333;5924;230;645;AMR-WB-16000;SILK-8000;SILK-8000;ulpfec;VP8;VP8;720;240;360;NotDone
AIM;IRC;iptel.org;Off;On;On;Auto;TCP;TCP;Off;Off;On;TRUE;FALSE;FALSE;2;2;3;1960;1984;1989;5988;5319;412;70;205;5885;5924;230;232;AMR-WB-16000;SILK-8000;SILK-8000;ulpfec;VP8;VP8;720;720;240;NotDone
AIM;IRC;iptel.org;Off;On;On;Auto;TCP;TCP;Off;Off;On;TRUE;FALSE;FALSE;2;2;3;1960;1984;1989;5988;5319;412;70;205;5885;5924;230;232;AMR-WB-16000;SILK-8000;SILK-8000;ulpfec;VP8;VP8;720;720;240;NotDone
GoogleTalk;IRC;GoogleTalk;Off;On;On;Auto;UDP;TCP;On;On;Off;Auto;TRUE;TRUE;2;3;3;699;1305;871;5988;5932;412;3049;205;4214;5779;230;4459;iLBC-8000;SILK-8000;SILK-12000;ulpfec;VP8;VP8;720;360;480;NotDone
GoogleTalk;IRC;GoogleTalk;Off;On;On;Auto;TCP;TCP;Off;Off;On;TRUE;FALSE;FALSE;2;2;3;1960;1984;1989;5988;5319;412;70;205;5885;5924;230;232;AMR-WB-16000;SILK-8000;SILK-8000;ulpfec;VP8;VP8;720;720;240;NotDone
GoogleTalk;IRC;GoogleTalk;Off;On;On;Auto;UDP;TCP;On;On;Off;Auto;FALSE;TRUE;2;2;3;590;1305;871;298;5932;412;3049;205;4214;5779;230;232;iLBC-8000;SILK-8000;SILK-12000;ulpfec;VP8;VP8;720;360;480;NotDone
GoogleTalk;IRC;GoogleTalk;Off;On;On;Auto;UDP;TCP;On;On;Off;Auto;FALSE;TRUE;2;4;3;590;1305;871;298;5932;412;3049;2389;2537;5587;1603;4465;iLBC-8000;SILK-8000;SILK-8000;ulpfec;VP8;VP8;720;360;1080;NotDone
GoogleTalk;IRC;GoogleTalk;Off;On;On;Auto;UDP;TCP;On;On;Off;Auto;FALSE;TRUE;4;3;3;1781;1305;871;5988;5932;412;3049;205;2537;5627;230;4626;AMR-WB-16000;SILK-8000;SILK-8000;ulpfec;VP8;VP8;720;240;240;NotDone
GoogleTalk;IRC;GoogleTalk;Off;On;On;Auto;UDP;TCP;On;On;Off;Auto;Auto;TRUE;4;2;3;699;1125;636;5988;5738;201;167;205;2744;5627;230;232;PCMU-8000;SILK-8000;SILK-8000;ulpfec;VP8;VP8;720;240;240;NotDone
GoogleTalk;IRC;GoogleTalk;Off;On;On;Auto;UDP;TCP;On;On;Off;Auto;FALSE;TRUE;4;3;3;1781;1305;871;5988;5932;412;3049;205;2537;5627;230;232;PCMU-8000;SILK-8000;SILK-8000;ulpfec;VP8;VP8;720;240;240;NotDone
GoogleTalk;IRC;iptel.org;Off;On;On;Auto;Auto;Auto;Off;Off;On;Auto;FALSE;TRUE;2;2;3;1960;1279;1827;5988;5319;412;70;205;490;5924;230;232;AMR-WB-16000;SILK-8000;SILK-8000;ulpfec;VP8;VP8;720;240;240;NotDone
GoogleTalk;IRC;iptel.org;Off;On;On;Auto;Auto;Auto;Off;Off;On;Auto;FALSE;TRUE;2;2;3;1960;1984;1506;5988;5932;412;70;205;5885;5924;230;232;AMR-WB-16000;SILK-8000;SILK-8000;Auto;VP8;VP8;1080;240;1080;NotDone
GoogleTalk;IRC;GoogleTalk;Off;On;On;Auto;Tls;TCP;On;On;Off;Auto;FALSE;TRUE;2;3;3;1960;1125;636;5988;5738;224;3386;205;5885;5627;230;232;PCMU-8000;SILK-8000;SILK-8000;ulpfec;VP8;VP8;720;240;240;NotDone
GoogleTalk;IRC;GoogleTalk;Off;On;Off;Tls;Tls;TCP;On;On;Off;Auto;FALSE;FALSE;4;4;3;1960;1279;1827;5988;5932;412;70;205;5885;5924;230;232;AMR-WB-16000;SILK-8000;SILK-8000;ulpfec;VP8;VP8;720;240;1080;NotDone
GoogleTalk;IRC;iptel.org;Off;On;On;Auto;Auto;Auto;Off;Off;On;Auto;FALSE;TRUE;2;2;3;1960;1984;1506;5988;5932;412;70;205;5885;5924;230;232;AMR-WB-16000;SILK-8000;SILK-8000;Auto;VP8;VP8;1080;240;1080;NotDone
GoogleTalk;IRC;GoogleTalk;On;On;On;Auto;Auto;TCP;Off;On;Off;Auto;FALSE;TRUE;3;3;3;1293;1008;871;5988;5932;412;3049;205;2279;5924;230;232;AMR-WB-16000;SILK-8000;SILK-8000;ulpfec;VP8;VP8;720;240;240;NotDone
SIP;IRC;GoogleTalk;Off;On;On;Auto;Auto;Auto;Off;Off;On;Auto;FALSE;TRUE;2;2;3;1960;1984;1506;5988;5932;412;70;205;5885;5924;230;232;AMR-WB-16000;SILK-8000;SILK-8000;Auto;VP8;VP8;1080;240;1080;NotDone
GoogleTalk;IRC;IRC;On;On;On;Auto;Auto;TCP;Off;On;Off;Auto;FALSE;TRUE;2;2;3;1960;1984;1989;5988;5932;224;167;205;5885;5924;230;232;AMR-WB-16000;SILK-8000;SILK-8000;ulpfec;VP8;VP8;720;360;240;NotDone
GoogleTalk;IRC;iptel.org;Off;On;On;Auto;Tls;TCP;Off;On;Off;TRUE;FALSE;TRUE;2;4;3;1960;834;871;5988;5932;412;507;205;5885;5924;230;232;AMR-WB-16000;SILK-8000;SILK-8000;ulpfec;VP8;VP8;720;240;240;NotDone
GoogleTalk;IRC;GoogleTalk;Off;On;On;Auto;Auto;TCP;Off;On;Off;Auto;FALSE;TRUE;4;4;3;1293;1008;915;5988;5932;412;5179;205;606;5966;230;232;AMR-WB-16000;SILK-8000;SILK-8000;ulpfec;VP8;VP8;720;240;1080;NotDone
GoogleTalk;IRC;GoogleTalk;Off;On;On;UDP;UDP;TCP;On;On;Off;Auto;FALSE;TRUE;2;3;3;699;1305;1597;5988;5932;224;70;205;5885;5627;230;2024;PCMU-8000;SILK-8000;SILK-12000;ulpfec;VP8;VP8;240;240;240;NotDone
GoogleTalk;IRC;IRC;On;On;On;Auto;Auto;TCP;Off;On;Off;Auto;FALSE;TRUE;2;2;3;1960;1984;1989;5988;5932;224;167;205;5885;5924;230;232;AMR-WB-16000;SILK-8000;SILK-8000;ulpfec;VP8;VP8;720;360;240;NotDone
GoogleTalk;IRC;GoogleTalk;Off;On;On;Auto;UDP;TCP;On;On;Off;Auto;TRUE;TRUE;2;3;3;699;1305;871;5988;5932;412;5521;205;5885;5627;230;232;iLBC-8000;SILK-8000;SILK-12000;ulpfec;VP8;VP8;720;360;1080;NotDone
GoogleTalk;IRC;GoogleTalk;Off;On;On;UDP;UDP;TCP;On;On;Off;Auto;FALSE;TRUE;2;3;3;699;1305;1597;5988;5932;224;70;205;5885;5627;230;2024;PCMU-8000;SILK-8000;SILK-12000;ulpfec;VP8;VP8;240;240;240;NotDone
GoogleTalk;IRC;GoogleTalk;Off;On;On;Auto;UDP;TCP;On;On;Off;Auto;FALSE;TRUE;2;2;3;699;1305;871;5988;5932;412;3049;205;5885;5627;794;2024;PCMU-8000;SILK-8000;SILK-8000;ulpfec;VP8;VP8;720;360;1080;NotDone
GoogleTalk;IRC;GoogleTalk;On;On;On;Auto;Auto;TCP;On;On;Off;Auto;TRUE;TRUE;2;3;3;1171;1305;871;5988;5319;412;70;205;5885;5627;230;232;PCMU-8000;SILK-8000;SILK-8000;ulpfec;VP8;VP8;720;240;240;NotDone
GoogleTalk;IRC;GoogleTalk;Off;On;On;Auto;UDP;TCP;On;On;Off;Auto;FALSE;TRUE;2;2;3;590;1305;871;298;5932;412;3049;205;4214;5779;230;232;iLBC-8000;SILK-8000;SILK-12000;ulpfec;VP8;VP8;720;360;480;NotDone
GoogleTalk;IRC;GoogleTalk;Off;On;On;Auto;Tls;TCP;On;On;Off;Auto;FALSE;TRUE;2;3;3;1960;1984;1989;5988;5932;412;70;205;5885;5924;230;232;iLBC-8000;SILK-8000;SILK-12000;ulpfec;VP8;VP8;720;360;1080;NotDone
GoogleTalk;IRC;GoogleTalk;Off;On;On;Auto;Tls;TCP;On;On;Off;Auto;FALSE;TRUE;3;2;2;1960;1125;636;5988;5932;412;70;205;5885;5924;230;232;AMR-WB-16000;SILK-8000;SILK-8000;ulpfec;VP8;VP8;720;360;1080;NotDone
GoogleTalk;IRC;GoogleTalk;Off;On;On;Auto;Auto;TCP;Off;Off;Off;Auto;FALSE;TRUE;2;2;3;1293;789;871;5988;5738;224;70;205;2622;5924;111;4375;AMR-WB-16000;SILK-8000;SILK-8000;ulpfec;VP8;VP8;720;480;240;NotDone
GoogleTalk;IRC;GoogleTalk;Off;On;On;Auto;UDP;TCP;On;On;Off;Auto;TRUE;TRUE;2;3;3;699;1305;871;5988;5319;412;70;205;5885;5627;230;232;PCMU-8000;SILK-8000;SILK-8000;ulpfec;VP8;VP8;720;240;240;NotDone
GoogleTalk;IRC;GoogleTalk;On;On;On;Auto;Auto;TCP;On;On;Off;Auto;FALSE;TRUE;2;2;3;1960;1984;1827;5988;5932;224;167;205;5885;5924;230;232;AMR-WB-16000;SILK-8000;SILK-8000;ulpfec;VP8;VP8;720;240;240;NotDone
GoogleTalk;IRC;GoogleTalk;Off;On;On;Auto;UDP;TCP;On;On;Off;Auto;FALSE;TRUE;2;4;3;590;1305;871;298;5932;412;3049;2389;2537;5587;1603;4465;iLBC-8000;SILK-8000;SILK-8000;ulpfec;VP8;VP8;720;360;1080;NotDone
GoogleTalk;IRC;GoogleTalk;Off;On;On;Auto;UDP;TCP;On;On;Off;Auto;TRUE;TRUE;2;3;3;699;1305;871;5988;5319;412;70;205;5885;5627;230;232;PCMU-8000;SILK-8000;SILK-8000;ulpfec;VP8;VP8;720;240;1080;NotDone
GoogleTalk;IRC;GoogleTalk;Off;On;On;Auto;UDP;TCP;Off;Off;Off;Auto;FALSE;Auto;3;3;3;1960;1125;871;5107;5319;412;70;205;490;5924;230;232;AMR-WB-16000;SILK-8000;SILK-8000;rtx;VP8;VP8;720;240;240;NotDone
GoogleTalk;IRC;GoogleTalk;Off;On;On;Auto;UDP;TCP;On;On;Off;Auto;FALSE;TRUE;2;3;3;699;1305;871;5988;5932;412;3049;205;2537;5627;230;4264;PCMU-8000;SILK-8000;SILK-8000;ulpfec;VP8;VP8;720;480;240;NotDone
GoogleTalk;IRC;GoogleTalk;Off;On;On;Auto;UDP;TCP;On;On;Off;Auto;FALSE;TRUE;4;4;3;1960;1279;1827;5988;5932;224;167;205;5885;5924;230;5614;AMR-WB-16000;SILK-8000;SILK-8000;ulpfec;VP8;VP8;720;240;240;NotDone
GoogleTalk;IRC;GoogleTalk;Off;On;On;Auto;UDP;TCP;On;On;Off;Auto;FALSE;TRUE;2;3;3;699;1305;871;5988;5932;412;70;205;606;5966;230;232;AMR-WB-16000;SILK-8000;SILK-8000;ulpfec;VP8;VP8;720;240;1080;NotDone
GoogleTalk;IRC;GoogleTalk;Off;On;On;Auto;UDP;TCP;On;On;Off;Auto;TRUE;TRUE;2;3;3;1960;1125;636;5988;5738;201;167;205;5885;5627;230;232;iLBC-8000;SILK-8000;SILK-12000;ulpfec;VP8;VP8;720;360;1080;NotDone
GoogleTalk;IRC;GoogleTalk;Off;On;On;Auto;Auto;TCP;Off;On;Off;Auto;FALSE;TRUE;3;2;3;1960;1984;1594;5988;5932;412;70;205;5885;5924;220;232;AMR-WB-16000;SILK-8000;SILK-8000;ulpfec;VP8;VP8;1080;240;1080;NotDone
GoogleTalk;IRC;GoogleTalk;Off;On;On;Auto;Auto;TCP;Off;On;Off;Auto;FALSE;TRUE;3;2;3;1960;1984;1989;5988;5932;412;70;205;5885;5924;220;232;AMR-WB-16000;SILK-8000;SILK-8000;ulpfec;VP8;VP8;1080;240;1080;NotDone
IRC;ICQ;iptel.org;On;On;Off;TCP;UDP;Auto;BestEffort;On;On;FALSE;Auto;Auto;4;4;2;609;982;893;2979;5996;2862;3406;2226;4969;2300;1447;182;PCMU-8000;G722-16000;GSM-8000;ulpfec;red;red;1080;360;720;NotDone
GoogleTalk;IRC;GoogleTalk;Off;On;On;UDP;UDP;TCP;On;On;Off;Auto;TRUE;TRUE;2;3;3;699;1305;1597;5988;5932;224;70;894;5885;5627;230;2024;PCMU-8000;SILK-8000;SILK-12000;ulpfec;VP8;VP8;720;240;240;NotDone
GoogleTalk;IRC;GoogleTalk;Off;On;On;Auto;Auto;TCP;Off;On;Off;Auto;FALSE;Auto;2;4;3;1960;1008;871;5988;5319;412;70;205;5885;5627;230;232;PCMU-8000;SILK-8000;SILK-8000;ulpfec;VP8;VP8;720;360;240;NotDone
GoogleTalk;IRC;GoogleTalk;Off;On;On;Auto;UDP;TCP;On;On;Off;Auto;FALSE;TRUE;4;4;3;1960;1279;1827;5988;5932;224;167;205;5885;5924;230;4465;PCMU-8000;SILK-8000;SILK-8000;ulpfec;VP8;VP8;720;240;1080;NotDone
SIP;IRC;GoogleTalk;Off;On;On;Auto;UDP;TCP;On;On;Off;Auto;TRUE;TRUE;2;3;3;699;1305;871;5988;5932;412;5521;205;5885;5627;230;232;iLBC-8000;SILK-8000;SILK-12000;ulpfec;VP8;VP8;720;360;1080;NotDone
GoogleTalk;IRC;GoogleTalk;Off;On;On;Auto;UDP;TCP;On;On;Off;Auto;FALSE;TRUE;2;2;3;590;1305;871;298;5932;412;3049;3653;4214;5779;230;232;iLBC-8000;SILK-8000;SILK-12000;ulpfec;VP8;VP8;720;360;480;NotDone
GoogleTalk;IRC;GoogleTalk;Off;Off;On;Auto;Auto;TCP;Off;On;Off;Auto;FALSE;TRUE;3;3;3;1293;1008;1924;5988;5932;412;70;205;606;5924;220;232;AMR-WB-16000;SILK-8000;SILK-8000;ulpfec;VP8;VP8;1080;240;1080;NotDone
GoogleTalk;IRC;GoogleTalk;On;On;On;Auto;UDP;TCP;On;On;Off;Auto;FALSE;TRUE;2;3;3;699;1305;871;5988;5738;224;70;205;1333;5924;230;645;AMR-WB-16000;SILK-8000;SILK-8000;ulpfec;VP8;VP8;720;240;240;NotDone
GoogleTalk;IRC;GoogleTalk;Off;Off;On;Auto;Auto;TCP;Off;On;Off;Auto;FALSE;TRUE;3;3;3;1293;1984;1989;5988;5932;224;167;205;5885;5924;230;232;AMR-WB-16000;SILK-8000;SILK-8000;ulpfec;VP8;VP8;720;360;240;NotDone
GoogleTalk;IRC;GoogleTalk;Off;On;On;Auto;TCP;TCP;On;On;Off;Auto;FALSE;TRUE;2;3;3;699;1305;871;5988;5932;412;70;205;606;5924;220;232;AMR-WB-16000;SILK-8000;SILK-8000;ulpfec;VP8;VP8;1080;240;1080;NotDone
GoogleTalk;IRC;GoogleTalk;Off;On;Off;Tls;Tls;TCP;On;On;Off;Auto;Auto;TRUE;4;3;3;699;1305;871;5988;5932;412;3049;205;2537;5627;245;4626;PCMU-8000;SILK-8000;SILK-8000;ulpfec;VP8;VP8;720;240;1080;NotDone
GoogleTalk;IRC;GoogleTalk;On;On;On;Auto;Auto;TCP;Off;On;Off;Auto;FALSE;TRUE;3;2;3;1960;1125;871;5988;5932;5828;3049;205;2537;5924;230;232;AMR-WB-16000;SILK-8000;SILK-8000;ulpfec;VP8;VP8;720;240;240;NotDone
GoogleTalk;IRC;GoogleTalk;Off;Off;On;Auto;Auto;TCP;Off;On;Off;Auto;FALSE;TRUE;3;3;3;1293;1008;871;5988;5738;224;70;205;1333;5924;230;232;AMR-WB-16000;SILK-8000;SILK-8000;ulpfec;VP8;VP8;720;240;360;NotDone
GoogleTalk;IRC;GoogleTalk;Off;On;On;Auto;UDP;TCP;On;On;Off;Auto;FALSE;TRUE;2;3;3;590;1305;871;298;5932;412;3049;205;2537;5627;245;4626;PCMU-8000;SILK-8000;SILK-8000;ulpfec;VP8;VP8;720;240;1080;NotDone
SIP;IRC;GoogleTalk;Off;On;On;Auto;UDP;TCP;On;On;Off;Auto;TRUE;TRUE;2;3;3;699;1305;871;5988;5932;412;5521;205;5885;5627;230;232;iLBC-8000;SILK-8000;SILK-12000;ulpfec;VP8;VP8;720;360;1080;NotDone
GoogleTalk;IRC;GoogleTalk;Off;On;On;UDP;UDP;TCP;On;On;Off;Auto;FALSE;TRUE;2;3;3;590;1305;871;298;5932;412;3049;205;2537;5627;245;4626;PCMU-8000;SILK-8000;SILK-8000;ulpfec;VP8;VP8;720;240;1080;NotDone
GoogleTalk;IRC;GoogleTalk;Off;On;Off;Tls;Tls;TCP;On;On;Off;Auto;FALSE;TRUE;2;3;3;1293;1008;871;5988;5738;224;70;205;1333;5924;230;645;AMR-WB-16000;SILK-8000;SILK-8000;ulpfec;VP8;VP8;720;240;360;NotDone
GoogleTalk;IRC;GoogleTalk;On;On;On;Auto;Auto;TCP;Off;On;Off;Auto;FALSE;TRUE;3;3;3;1960;834;871;5988;5932;412;3049;205;3245;5924;230;232;AMR-WB-16000;SILK-8000;SILK-8000;ulpfec;VP8;VP8;720;240;240;NotDone
GoogleTalk;IRC;GoogleTalk;On;On;On;Auto;Auto;TCP;On;On;Off;FALSE;FALSE;TRUE;2;2;3;1960;1984;871;5988;5932;412;70;205;5885;5924;230;232;AMR-WB-16000;SILK-8000;SILK-8000;ulpfec;VP8;VP8;720;240;1080;NotDone
GoogleTalk;IRC;GoogleTalk;Off;On;On;Auto;Auto;TCP;Off;Off;Off;Auto;FALSE;TRUE;3;2;3;1913;1305;871;5988;5932;412;3049;205;2537;5627;230;1726;PCMU-8000;SILK-8000;SILK-8000;ulpfec;VP8;VP8;720;240;1080;NotDone
GoogleTalk;IRC;GoogleTalk;Off;On;On;Auto;Auto;TCP;Off;On;Off;Auto;FALSE;TRUE;3;3;3;1960;834;871;5988;5932;412;3049;205;3245;5924;230;232;AMR-WB-16000;SILK-8000;SILK-8000;ulpfec;VP8;VP8;720;240;240;NotDone
GoogleTalk;IRC;GoogleTalk;Off;On;On;Auto;UDP;UDP;On;On;Off;Auto;FALSE;TRUE;2;3;3;1009;1305;871;5988;5932;412;3049;205;1333;5924;1603;4465;PCMU-8000;SILK-8000;SILK-8000;ulpfec;VP8;VP8;720;720;480;NotDone
GoogleTalk;IRC;GoogleTalk;Off;On;On;Auto;UDP;TCP;On;On;Off;Auto;FALSE;TRUE;2;3;3;699;1305;871;5988;5932;412;3049;205;5885;5627;245;4626;PCMU-8000;SILK-8000;SILK-8000;ulpfec;VP8;VP8;720;240;1080;NotDone
GoogleTalk;IRC;GoogleTalk;Off;On;On;Auto;UDP;TCP;On;On;Off;Auto;FALSE;TRUE;2;2;3;590;1305;871;5988;5932;412;3049;205;2537;5627;245;4626;PCMU-8000;SILK-8000;SILK-8000;ulpfec;VP8;VP8;720;240;1080;NotDone
GoogleTalk;IRC;GoogleTalk;Off;On;On;Auto;UDP;UDP;On;On;Off;Auto;FALSE;TRUE;2;3;3;1009;1305;871;5988;5932;412;3049;205;1333;5924;1603;4465;PCMU-8000;SILK-8000;SILK-8000;ulpfec;VP8;VP8;720;240;1080;NotDone
GoogleTalk;GoogleTalk;iPPi;On;On;On;UDP;UDP;Auto;BestEffort;Off;BestEffort;FALSE;Auto;Auto;3;2;2;1410;982;1027;2979;5996;2862;3406;2248;4656;4012;5947;4340;telephone-event-80000;G722-16000;GSM-8000;ulpfec;red;red;480;480;240;NotDone
GoogleTalk;IRC;GoogleTalk;Off;On;On;Auto;UDP;TCP;On;On;Off;Auto;FALSE;TRUE;2;3;3;699;1305;871;5988;5932;412;3049;205;2537;5627;230;232;PCMU-8000;SILK-8000;SILK-8000;ulpfec;VP8;VP8;720;240;240;NotDone
GoogleTalk;IRC;GoogleTalk;Off;On;On;Auto;UDP;TCP;On;On;Off;Auto;FALSE;TRUE;2;3;3;699;1305;871;5988;5932;412;3049;205;2537;5627;230;232;PCMU-8000;SILK-8000;SILK-8000;ulpfec;VP8;VP8;720;360;240;NotDone
GoogleTalk;IRC;GoogleTalk;Off;Off;On;Auto;Auto;TCP;Off;On;Off;Auto;FALSE;FALSE;3;3;3;1293;1984;1989;5988;5932;224;167;205;5885;5924;230;232;AMR-WB-16000;SILK-8000;SILK-8000;ulpfec;VP8;VP8;720;360;240;NotDone
GoogleTalk;IRC;GoogleTalk;Off;Off;On;Auto;Auto;TCP;Off;On;Off;Auto;FALSE;TRUE;3;3;3;1293;1008;580;5988;5738;224;70;205;1333;5924;230;4375;AMR-WB-16000;SILK-8000;SILK-8000;ulpfec;VP8;VP8;240;240;480;NotDone
GoogleTalk;IRC;GoogleTalk;On;On;On;Auto;Auto;TCP;On;On;Off;Auto;FALSE;TRUE;2;2;3;1960;1984;871;5988;5932;412;70;205;5885;5924;230;232;AMR-WB-16000;SILK-8000;SILK-8000;ulpfec;VP8;VP8;240;240;1080;NotDone
GoogleTalk;IRC;GoogleTalk;Off;On;Off;Tls;Tls;TCP;On;On;Off;Auto;Auto;TRUE;4;3;3;699;1305;871;5988;5932;412;3049;205;2537;5627;245;4626;PCMU-8000;SILK-8000;SILK-8000;ulpfec;VP8;VP8;720;240;1080;NotDone
GoogleTalk;IRC;GoogleTalk;On;On;On;Auto;Auto;TCP;On;On;Off;Auto;FALSE;TRUE;2;2;3;1960;754;871;5988;5932;412;70;205;5885;5924;230;232;PCMU-8000;SILK-8000;SILK-8000;ulpfec;VP8;VP8;720;360;240;NotDone
SIP;IRC;GoogleTalk;Off;On;On;Auto;Auto;TCP;On;On;Off;Auto;Auto;TRUE;3;2;3;1781;1305;871;5988;5932;224;167;205;5885;5924;230;232;AMR-WB-16000;SILK-8000;SILK-8000;ulpfec;VP8;VP8;720;240;240;NotDone
GoogleTalk;IRC;GoogleTalk;Off;On;On;Auto;UDP;TCP;On;On;Off;Auto;FALSE;TRUE;2;3;3;699;1305;871;5988;5932;224;167;205;5885;5924;230;232;AMR-WB-16000;SILK-8000;SILK-8000;ulpfec;VP8;VP8;720;240;240;NotDone
GoogleTalk;IRC;GoogleTalk;Off;On;On;Auto;UDP;TCP;On;On;Off;Auto;FALSE;TRUE;2;3;3;699;1305;871;5988;5932;224;3049;205;5885;5627;230;2024;PCMU-8000;SILK-8000;SILK-8000;ulpfec;VP8;VP8;720;360;1080;NotDone
GoogleTalk;IRC;GoogleTalk;Off;On;On;Auto;UDP;TCP;On;On;Off;Auto;FALSE;TRUE;2;2;3;590;1305;871;298;5932;412;3049;3653;4214;5779;230;232;iLBC-8000;SILK-8000;SILK-12000;ulpfec;VP8;VP8;720;360;480;NotDone
GoogleTalk;IRC;GoogleTalk;Off;On;On;Auto;UDP;TCP;On;On;Off;Auto;FALSE;TRUE;2;2;3;590;1305;871;298;5932;412;3049;205;4214;5779;230;4459;iLBC-8000;SILK-8000;SILK-12000;ulpfec;VP8;VP8;720;360;480;NotDone
GoogleTalk;iptel.org;GoogleTalk;Off;On;On;Auto;Tls;TCP;On;On;Off;Auto;FALSE;TRUE;2;2;3;1960;1984;1989;5988;5932;224;167;205;5885;5924;230;232;AMR-WB-16000;SILK-8000;SILK-8000;ulpfec;VP8;VP8;720;360;240;NotDone
GoogleTalk;IRC;GoogleTalk;Off;Off;On;Auto;Auto;TCP;Off;On;Off;Auto;FALSE;TRUE;3;3;3;1293;1008;1924;5988;5738;224;70;205;1333;5924;230;232;AMR-WB-16000;SILK-8000;SILK-8000;ulpfec;VP8;VP8;720;240;240;NotDone
GoogleTalk;IRC;GoogleTalk;Off;On;On;Auto;Auto;TCP;Off;On;Off;Auto;FALSE;TRUE;3;3;3;1960;834;871;5988;5932;412;70;205;5885;5924;220;232;AMR-WB-16000;SILK-8000;SILK-8000;ulpfec;VP8;VP8;1080;240;1080;NotDone
GoogleTalk;IRC;GoogleTalk;Off;On;On;Auto;Auto;TCP;Off;On;Off;Auto;FALSE;TRUE;3;4;3;1293;1008;871;5988;5932;5828;3049;205;2537;5924;230;232;AMR-WB-16000;SILK-8000;SILK-8000;ulpfec;VP8;VP8;720;240;1080;NotDone
GoogleTalk;IRC;GoogleTalk;Off;On;On;Auto;UDP;TCP;On;On;Off;Auto;FALSE;TRUE;2;3;3;699;1305;871;5988;5932;224;167;205;5885;5924;230;232;AMR-WB-16000;SILK-8000;SILK-8000;ulpfec;VP8;VP8;720;240;240;NotDone
GoogleTalk;IRC;GoogleTalk;Off;On;On;Auto;Auto;TCP;Off;On;Off;Auto;FALSE;TRUE;3;2;3;1256;1984;1989;5988;5932;412;70;205;5885;5924;220;232;AMR-WB-16000;SILK-8000;SILK-8000;ulpfec;VP8;VP8;1080;240;1080;NotDone
GoogleTalk;IRC;GoogleTalk;Off;On;Off;Tls;Tls;TCP;On;On;Off;Auto;Auto;TRUE;4;3;3;699;1305;871;5988;5932;412;70;205;5885;5562;230;232;AMR-WB-16000;SILK-8000;SILK-8000;ulpfec;VP8;VP8;720;360;480;NotDone
GoogleTalk;IRC;GoogleTalk;Off;On;On;Auto;UDP;TCP;On;On;Off;Auto;FALSE;TRUE;2;3;3;699;1305;871;5988;5932;412;3049;205;5885;5627;230;2024;PCMU-8000;SILK-8000;SILK-8000;ulpfec;VP8;VP8;720;360;1080;NotDone
