caller_protocol;callee1_protocol;callee2_protocol;caller_listenport;callee1_listenport;callee2_listenport;caller_transportprotocol;callee1_transportprotocol;callee2_transportprotocol;caller_encryption;callee1_encryption;callee2_encryption;caller_sipzrtpattribute;callee1_sipzrtpattribute;callee2_sipzrtpattribute;caller_maxpeers;callee1_maxpeers;callee2_maxpeers;caller_mtu;callee1_mtu;callee2_mtu;caller_defaultcallrate;callee1_defaultcallrate;callee2_defaultcallrate;caller_maxreceivecallrate;callee1_maxreceivecallrate;callee2_maxreceivecallrate;caller_maxtransmitcallrate;callee1_maxtransmitcallrate;callee2_maxtransmitcallrate;caller_audiocodec;callee1_audiocodec;callee2_audiocodec;caller_videocodec;callee1_videocodec;callee2_videocodec;caller_maxresolution;callee1_maxresolution;callee2_maxresolution;
AIM;iptel.org;iptel.org;Off;Off;On;Tls;TCP;UDP;BestEffort;On;BestEffort;TRUE;Auto;FALSE;4;4;3;1478;1387;1861;125;2785;5804;2197;4129;5812;2005;976;4639;telephone-event-80000;speex-8000;telephone-event-80000;red;h264;red;360;240;1080;NotDone
AIM;IRC;iPPi;Off;On;On;TCP;Auto;TCP;On;On;Off;TRUE;Auto;FALSE;2;3;3;1378;1611;1159;4623;2311;1176;5278;5592;2053;5984;1302;4007;AMR-WB-16000;telephone-event-80000;SILK-12000;red;VP8;VP8;360;240;360;NotDone
IRC;iPPi;AIM;Off;Off;On;Auto;UDP;Auto;Off;Off;BestEffort;Auto;FALSE;FALSE;4;3;4;1675;1996;1429;4212;290;550;1141;199;5711;5924;693;405;SILK-24000;speex-8000;SILK-8000;h264;ulpfec;VP8;480;240;1080;NotDone
iptel.org;SIP;iptel.org;Off;On;Off;Auto;Auto;Tls;Off;Off;Off;FALSE;Auto;TRUE;3;3;2;1996;788;1998;5114;849;4998;2287;74;1260;5891;683;184;PCMU-8000;G722-16000;opus-48000;rtx;ulpfec;VP8;480;360;1080;NotDone
GoogleTalk;IRC;GoogleTalk;Off;On;On;Auto;TCP;TCP;BestEffort;Off;Off;TRUE;FALSE;TRUE;3;2;3;773;1446;1278;525;5099;1414;1197;4804;585;4776;1186;2044;opus-48000;speex-8000;SILK-12000;ulpfec;VP8;VP8;1080;720;240;NotDone
AIM;iptel.org;iPPi;Off;On;On;Auto;TCP;Auto;Off;BestEffort;BestEffort;FALSE;TRUE;FALSE;3;2;4;1319;1649;1734;5357;768;5751;4178;989;107;529;338;5884;speex-16000;telephone-event-80000;opus-48000;rtx;VP8;VP8;1080;480;240;NotDone
GoogleTalk;iPPi;AIM;Off;On;On;UDP;UDP;Tls;On;BestEffort;Off;TRUE;Auto;TRUE;3;4;2;1874;1154;1076;4370;3842;4221;400;450;924;4668;5259;5926;opus-48000;PCMA-8000;SILK-8000;VP8;VP8;VP8;1080;360;1080;NotDone
GoogleTalk;GoogleTalk;iptel.org;On;On;Off;UDP;TCP;TCP;Off;Off;Off;Auto;FALSE;Auto;2;2;4;1045;1764;610;4844;5476;4140;931;516;3205;1374;4548;95;GSM-8000;SILK-8000;SILK-12000;red;VP8;VP8;480;720;480;NotDone
AIM;iptel.org;SIP;On;Off;On;Auto;UDP;Tls;On;Off;Off;TRUE;FALSE;FALSE;4;4;3;1889;1188;1503;5950;1157;5323;1729;574;5587;531;765;219;telephone-event-80000;iLBC-8000;iLBC-8000;ulpfec;VP8;VP8;240;480;480;NotDone
SIP;iPPi;ICQ;On;On;On;Tls;TCP;Tls;Off;On;Off;Auto;FALSE;FALSE;2;4;2;1927;757;789;3070;5578;5364;64;612;2897;519;3044;5884;opus-48000;G722-16000;AMR-WB-16000;h264;VP8;VP8;240;240;480;NotDone
GoogleTalk;IRC;iPPi;Off;On;Off;Auto;TCP;TCP;Off;On;Off;Auto;FALSE;TRUE;4;3;3;840;1980;1646;5758;1946;4671;4923;3343;369;5788;5960;1563;AMR-WB-16000;speex-8000;AMR-WB-16000;ulpfec;VP8;VP8;480;240;360;NotDone
iPPi;IRC;iptel.org;On;Off;Off;Auto;Auto;Auto;Off;Off;Off;FALSE;Auto;TRUE;2;3;2;1867;655;1951;4591;2775;2752;3025;281;413;1051;2056;5499;telephone-event-80000;GSM-8000;opus-48000;Auto;VP8;VP8;720;480;360;NotDone
GoogleTalk;ICQ;SIP;On;On;On;Tls;UDP;TCP;Off;On;On;Auto;TRUE;Auto;2;3;3;1918;593;654;3884;5975;4221;400;1055;4488;4668;796;5926;opus-48000;PCMA-8000;SILK-8000;ulpfec;VP8;VP8;1080;360;1080;NotDone
AIM;iptel.org;AIM;On;On;On;Tls;Auto;Auto;Off;Off;On;FALSE;TRUE;Auto;2;4;2;1190;1285;1942;4692;5076;5988;4296;284;5362;5912;203;750;AMR-WB-16000;iLBC-8000;speex-8000;rtx;rtx;Auto;360;360;720;NotDone
iptel.org;SIP;iptel.org;Off;On;On;Auto;UDP;TCP;On;On;Off;Auto;FALSE;Auto;4;2;4;883;1304;1112;4370;3842;758;2832;524;4358;5218;5414;3863;SILK-16000;speex-8000;SILK-8000;rtx;VP8;VP8;480;360;480;NotDone
AIM;IRC;iPPi;Off;Off;On;TCP;Auto;TCP;On;On;Off;TRUE;FALSE;FALSE;2;2;3;1186;1019;1993;573;5729;1272;2197;759;2712;5983;721;580;speex-8000;speex-8000;SILK-12000;red;VP8;VP8;720;240;360;NotDone
SIP;ICQ;ICQ;Off;Off;On;Tls;Tls;Auto;Off;Off;Off;TRUE;TRUE;Auto;2;2;3;1479;1278;677;5956;299;5502;1812;5944;498;4186;772;942;AMR-WB-16000;telephone-event-80000;opus-48000;rtx;VP8;VP8;240;480;720;NotDone
SIP;iPPi;AIM;Off;On;Off;Tls;Auto;TCP;On;Off;Off;Auto;TRUE;FALSE;3;3;4;1169;1713;1858;3987;5299;5767;479;972;601;4312;434;149;SILK-8000;Auto;SILK-8000;VP8;VP8;VP8;360;480;720;NotDone
GoogleTalk;iPPi;iPPi;Off;On;On;UDP;UDP;TCP;Off;On;On;TRUE;Auto;TRUE;4;3;4;1708;1508;1749;5734;1489;5871;838;1047;151;3273;580;252;iLBC-8000;SILK-8000;SILK-12000;ulpfec;VP8;VP8;360;240;480;NotDone
GoogleTalk;SIP;ICQ;On;Off;Off;Tls;Auto;Tls;On;On;Off;FALSE;TRUE;Auto;2;3;3;1505;1600;1029;5065;5030;2185;3514;467;100;5899;265;112;speex-8000;Auto;AMR-WB-16000;Auto;VP8;VP8;480;360;1080;NotDone
ICQ;AIM;iptel.org;On;On;On;Auto;Tls;UDP;On;On;BestEffort;FALSE;Auto;TRUE;3;2;2;1928;1475;1998;5956;299;5966;488;1434;5937;620;2381;516;telephone-event-80000;GSM-8000;speex-16000;Auto;VP8;VP8;1080;720;360;NotDone
AIM;IRC;SIP;On;On;On;Auto;UDP;TCP;BestEffort;On;Off;Auto;FALSE;FALSE;2;2;3;1186;1286;731;1068;73;5838;2197;4096;4791;5983;2963;1806;SILK-8000;Auto;SILK-12000;red;VP8;VP8;720;1080;480;NotDone
AIM;IRC;GoogleTalk;On;On;On;UDP;Tls;Auto;On;On;Off;TRUE;TRUE;Auto;4;3;3;1729;781;826;5734;5800;2787;4233;254;5677;3713;693;5554;PCMA-8000;SILK-8000;SILK-8000;red;VP8;VP8;240;480;1080;NotDone
AIM;SIP;iptel.org;Off;Off;On;Auto;Tls;TCP;Off;On;On;Auto;TRUE;TRUE;2;2;2;1479;1278;677;4871;1297;4755;4981;637;5798;5889;78;721;opus-48000;AMR-WB-16000;iLBC-8000;ulpfec;VP8;VP8;720;360;1080;NotDone
iPPi;AIM;iptel.org;On;On;On;Auto;Tls;TCP;Off;Off;On;Auto;Auto;FALSE;3;3;2;1786;1676;1533;4370;5256;5965;85;5315;5143;5566;5994;5945;opus-48000;speex-8000;speex-8000;VP8;VP8;red;480;720;240;NotDone
AIM;IRC;IRC;Off;Off;Off;TCP;UDP;UDP;Off;Off;BestEffort;Auto;TRUE;Auto;3;3;3;1142;1053;1046;2815;320;1159;2465;869;1068;5899;5410;5457;Auto;AMR-WB-16000;AMR-WB-16000;h264;ulpfec;VP8;240;1080;720;NotDone
AIM;IRC;AIM;Off;On;Off;Auto;Tls;Auto;Off;On;Off;Auto;FALSE;Auto;2;3;3;1950;1527;1181;4510;5198;2381;2890;4369;914;962;2992;1927;telephone-event-80000;telephone-event-80000;AMR-WB-16000;Auto;VP8;VP8;240;240;480;NotDone
GoogleTalk;ICQ;GoogleTalk;Off;Off;Off;Tls;UDP;UDP;BestEffort;On;On;TRUE;Auto;Auto;4;2;4;1012;1107;640;4934;378;3237;1472;528;1514;3336;5071;4560;AMR-WB-16000;SILK-8000;SILK-12000;VP8;VP8;VP8;480;1080;1080;NotDone
GoogleTalk;IRC;AIM;Off;On;On;TCP;UDP;Auto;Off;BestEffort;BestEffort;Auto;FALSE;FALSE;2;2;2;1664;624;1981;5733;5593;5014;1073;257;752;5891;2178;4720;opus-48000;PCMU-8000;Auto;h264;VP8;VP8;480;360;1080;NotDone
iptel.org;iptel.org;GoogleTalk;Off;Off;Off;Auto;Auto;Tls;Off;Off;Off;TRUE;FALSE;FALSE;3;4;2;1868;1496;1751;4587;5843;1176;5952;3006;2053;4488;1302;4658;SILK-8000;opus-48000;iLBC-8000;Auto;VP8;VP8;240;240;480;NotDone
SIP;AIM;IRC;On;Off;On;TCP;Auto;Auto;Off;On;On;TRUE;TRUE;FALSE;4;4;2;1167;1755;1952;5959;5264;1757;1528;74;733;5891;777;5041;PCMA-8000;iLBC-8000;GSM-8000;red;ulpfec;VP8;480;720;240;NotDone
iptel.org;IRC;GoogleTalk;On;On;On;Auto;Tls;Tls;Off;Off;Off;FALSE;TRUE;Auto;4;4;4;1308;1048;1754;5758;5200;5919;4923;891;5399;1721;650;1618;AMR-WB-16000;SILK-8000;AMR-WB-16000;h264;VP8;ulpfec;480;240;240;NotDone
GoogleTalk;GoogleTalk;AIM;Off;On;On;Tls;TCP;Tls;Off;On;On;FALSE;Auto;TRUE;2;2;4;1839;1306;1990;5065;258;550;689;199;181;5406;693;5742;Auto;SILK-8000;speex-16000;red;VP8;VP8;720;360;1080;NotDone
iptel.org;AIM;iptel.org;Off;Off;On;Tls;Auto;TCP;On;On;Off;Auto;FALSE;FALSE;3;4;2;883;851;1112;3876;5924;348;5507;5887;4358;5218;5414;3374;opus-48000;PCMA-8000;SILK-8000;rtx;VP8;VP8;360;480;1080;NotDone
GoogleTalk;IRC;iPPi;On;On;On;UDP;TCP;Auto;Off;Off;Off;TRUE;Auto;TRUE;3;2;4;1664;624;1981;5733;2643;5014;3395;257;5408;5891;5573;649;AMR-WB-16000;SILK-16000;PCMA-8000;Auto;ulpfec;VP8;1080;360;720;NotDone
GoogleTalk;AIM;SIP;Off;On;Off;Tls;UDP;Auto;Off;Off;BestEffort;Auto;TRUE;TRUE;3;2;2;1851;864;1998;5956;976;5966;488;1434;5937;68;394;516;AMR-WB-16000;GSM-8000;AMR-WB-16000;h264;ulpfec;ulpfec;1080;360;360;NotDone
GoogleTalk;iPPi;ICQ;On;On;Off;TCP;Tls;UDP;Off;Off;Off;FALSE;TRUE;FALSE;4;4;3;1505;1600;1805;5065;5030;3858;128;467;463;3285;1178;112;speex-8000;PCMA-8000;opus-48000;Auto;VP8;VP8;360;240;720;NotDone
ICQ;SIP;iptel.org;Off;Off;On;TCP;TCP;TCP;On;On;Off;TRUE;FALSE;FALSE;4;4;4;1102;662;616;4480;5579;539;5356;1575;3140;4533;5589;580;speex-16000;speex-8000;SILK-12000;Auto;VP8;VP8;360;240;720;NotDone
iptel.org;SIP;SIP;On;On;Off;UDP;Auto;Auto;BestEffort;On;Off;FALSE;Auto;FALSE;3;3;2;1653;871;1470;5581;5550;5985;345;5184;601;119;5908;5971;GSM-8000;G722-16000;GSM-8000;h264;VP8;ulpfec;720;480;480;NotDone
iptel.org;iPPi;GoogleTalk;On;Off;On;Auto;UDP;Auto;Off;On;Off;TRUE;TRUE;TRUE;4;2;3;1638;1277;1734;2858;1757;5101;108;77;107;2434;790;4691;speex-16000;telephone-event-80000;SILK-12000;h264;VP8;VP8;240;720;240;NotDone
ICQ;IRC;iPPi;Off;On;Off;Tls;TCP;TCP;Off;On;Off;Auto;FALSE;TRUE;4;2;3;1654;1043;1278;5777;5099;4447;1197;4485;2010;4083;2255;5262;AMR-WB-16000;speex-8000;SILK-12000;h264;VP8;VP8;1080;720;240;NotDone
IRC;ICQ;iptel.org;On;On;On;Auto;Auto;TCP;Off;On;Off;FALSE;TRUE;Auto;4;4;2;1065;850;1213;4923;4475;3953;693;5833;1112;3123;5798;4690;telephone-event-80000;iLBC-8000;AMR-WB-16000;Auto;VP8;VP8;1080;480;720;NotDone
GoogleTalk;iptel.org;iptel.org;On;Off;Off;Tls;TCP;TCP;Off;BestEffort;On;TRUE;FALSE;FALSE;3;4;3;784;1866;695;4844;5446;4707;931;516;5980;1374;76;95;opus-48000;SILK-8000;SILK-12000;Auto;VP8;VP8;720;480;480;NotDone
SIP;GoogleTalk;iPPi;On;Off;On;Tls;TCP;Auto;On;On;Off;FALSE;FALSE;TRUE;2;4;4;1784;982;620;3030;4547;414;5493;5868;1810;4571;5496;2361;speex-16000;SILK-8000;telephone-event-80000;ulpfec;VP8;VP8;720;240;1080;NotDone
AIM;ICQ;IRC;On;Off;On;Tls;UDP;Auto;BestEffort;On;BestEffort;FALSE;Auto;Auto;2;2;4;778;655;1027;3115;1032;2497;3403;2226;4620;4011;5997;4455;telephone-event-80000;G722-16000;GSM-8000;ulpfec;Auto;red;360;480;240;NotDone
AIM;AIM;GoogleTalk;On;Off;Off;UDP;Tls;UDP;On;Off;BestEffort;FALSE;TRUE;Auto;4;4;2;744;1475;1998;5956;299;5966;488;4914;5937;5630;1105;516;telephone-event-80000;GSM-8000;AMR-WB-16000;Auto;ulpfec;VP8;240;720;480;NotDone
IRC;GoogleTalk;IRC;On;Off;On;Auto;Auto;Tls;Off;Off;On;TRUE;FALSE;TRUE;4;2;2;1277;1676;1672;4370;5256;5612;2525;4511;594;2777;377;215;speex-32000;SILK-8000;speex-8000;rtx;VP8;VP8;1080;480;720;NotDone
GoogleTalk;AIM;iPPi;Off;Off;On;UDP;Auto;UDP;On;On;Off;TRUE;TRUE;TRUE;2;3;4;1084;961;933;5584;5818;1092;3469;4932;1402;4788;4860;545;speex-32000;GSM-8000;GSM-8000;red;VP8;VP8;240;720;360;NotDone
iPPi;iptel.org;GoogleTalk;On;Off;On;TCP;TCP;TCP;On;Off;Off;TRUE;TRUE;TRUE;3;3;4;1095;708;1693;5627;1393;73;4054;5389;5739;5219;4536;308;speex-16000;SILK-8000;AMR-WB-16000;h264;VP8;VP8;480;240;480;NotDone
SIP;ICQ;GoogleTalk;Off;Off;On;Auto;TCP;TCP;On;On;Off;Auto;Auto;TRUE;2;2;2;1320;1950;882;522;5030;3934;219;849;4860;5141;5456;5642;telephone-event-80000;SILK-8000;telephone-event-80000;h264;VP8;VP8;720;720;360;NotDone
AIM;IRC;GoogleTalk;On;On;Off;TCP;Tls;Auto;On;Off;Off;FALSE;TRUE;Auto;2;4;4;648;719;1877;5841;5719;324;83;5584;952;2824;5071;4560;speex-8000;speex-8000;SILK-12000;Auto;VP8;VP8;360;480;240;NotDone
iPPi;GoogleTalk;SIP;Off;On;On;Auto;Tls;TCP;On;Off;Off;FALSE;Auto;TRUE;4;3;2;1396;727;1420;5908;5256;5965;85;4135;4613;5955;5953;5945;SILK-16000;opus-48000;speex-8000;h264;VP8;VP8;720;360;360;NotDone
GoogleTalk;SIP;AIM;Off;Off;On;UDP;Tls;TCP;Off;Off;Off;TRUE;FALSE;TRUE;4;4;4;765;1232;1356;5560;332;4707;4673;516;5980;1374;76;95;opus-48000;speex-32000;SILK-12000;Auto;VP8;VP8;240;240;1080;NotDone
GoogleTalk;GoogleTalk;iptel.org;Off;Off;Off;Auto;UDP;TCP;On;Off;Off;TRUE;TRUE;FALSE;4;3;3;1838;988;1338;3043;5909;5311;1017;234;5241;5627;875;5939;speex-8000;telephone-event-80000;speex-8000;rtx;VP8;VP8;480;480;240;NotDone
IRC;AIM;SIP;Off;On;On;TCP;UDP;UDP;Off;Off;BestEffort;TRUE;Auto;FALSE;3;4;3;1580;1944;957;5855;5856;5922;2906;467;100;5899;1429;3869;SILK-8000;Auto;SILK-12000;Auto;VP8;VP8;480;360;1080;NotDone
AIM;iptel.org;ICQ;On;On;On;UDP;Auto;Tls;Off;Off;Off;Auto;Auto;TRUE;2;2;4;1554;1604;1695;4735;4851;5832;4981;5988;552;458;500;5961;telephone-event-80000;Auto;AMR-WB-16000;rtx;VP8;VP8;480;240;1080;NotDone
SIP;IRC;AIM;Off;On;On;TCP;UDP;Tls;Off;Off;Off;Auto;Auto;TRUE;3;4;3;1580;1944;1385;3256;4829;1638;2964;4261;2386;5899;1429;5634;speex-8000;Auto;SILK-16000;Auto;VP8;VP8;240;1080;360;NotDone
iPPi;IRC;iPPi;On;Off;On;Auto;Auto;Auto;Off;On;On;FALSE;FALSE;TRUE;4;3;4;1277;1982;1891;5153;5256;4773;2525;1014;2058;4838;377;215;speex-32000;SILK-8000;speex-8000;rtx;VP8;h264;1080;720;720;NotDone
GoogleTalk;ICQ;IRC;Off;On;On;TCP;Tls;TCP;Off;On;Off;FALSE;Auto;TRUE;4;2;4;644;1250;837;1519;4293;1927;3024;891;5399;5728;2056;3270;iLBC-8000;SILK-8000;SILK-8000;VP8;VP8;VP8;720;720;360;NotDone
GoogleTalk;iptel.org;IRC;Off;On;On;TCP;Auto;TCP;On;Off;On;Auto;TRUE;TRUE;4;4;3;1186;590;1385;5907;3971;1118;2523;759;664;4165;3432;1017;PCMU-8000;speex-8000;iLBC-8000;red;VP8;VP8;720;1080;1080;NotDone
iptel.org;GoogleTalk;AIM;Off;On;Off;UDP;UDP;UDP;BestEffort;On;On;FALSE;Auto;Auto;5;2;4;865;982;1225;3395;5061;4643;3403;2226;1035;4011;1439;3842;PCMU-8000;G722-16000;GSM-8000;ulpfec;red;red;360;480;1080;NotDone
GoogleTalk;GoogleTalk;iptel.org;Off;On;Off;UDP;Auto;Auto;Off;Off;Off;Auto;FALSE;Auto;3;2;4;930;1008;610;912;1778;4140;5420;516;3205;1374;1241;3965;GSM-8000;SILK-8000;SILK-12000;rtx;VP8;VP8;720;720;720;NotDone
