caller_protocol;callee1_protocol;callee2_protocol;caller_listenport;callee1_listenport;callee2_listenport;caller_transportprotocol;callee1_transportprotocol;callee2_transportprotocol;caller_encryption;callee1_encryption;callee2_encryption;caller_sipzrtpattribute;callee1_sipzrtpattribute;callee2_sipzrtpattribute;caller_maxpeers;callee1_maxpeers;callee2_maxpeers;caller_mtu;callee1_mtu;callee2_mtu;caller_defaultcallrate;callee1_defaultcallrate;callee2_defaultcallrate;caller_maxreceivecallrate;callee1_maxreceivecallrate;callee2_maxreceivecallrate;caller_maxtransmitcallrate;callee1_maxtransmitcallrate;callee2_maxtransmitcallrate;caller_audiocodec;callee1_audiocodec;callee2_audiocodec;caller_videocodec;callee1_videocodec;callee2_videocodec;caller_maxresolution;callee1_maxresolution;callee2_maxresolution;
ICQ;iptel.org;AIM;On;On;On;UDP;Tls;UDP;Off;BestEffort;Off;FALSE;Auto;TRUE;2;3;4;1124;1921;1912;5775;4324;3023;3795;1001;926;2937;1219;1740;PCMU-8000;G722-16000;iLBC-8000;VP8;Auto;rtx;480;480;720;NotDone
SIP;iptel.org;ICQ;Off;On;Off;UDP;Auto;Auto;Off;BestEffort;BestEffort;TRUE;TRUE;Auto;2;2;2;1910;1447;596;2203;1313;4006;486;2951;5038;3421;2309;1187;speex-32000;speex-32000;speex-8000;VP8;Auto;rtx;720;1080;720;NotDone
ICQ;GoogleTalk;iptel.org;On;Off;Off;UDP;Tls;Auto;On;Off;BestEffort;Auto;TRUE;FALSE;2;3;3;1989;698;679;791;376;5714;3383;1186;5451;202;4673;5850;AMR-WB-16000;PCMA-8000;iLBC-8000;VP8;VP8;h264;360;360;360;NotDone
SIP;ICQ;SIP;On;Off;On;Auto;Tls;Tls;Off;BestEffort;Off;Auto;TRUE;FALSE;3;3;4;605;1665;1495;4826;4631;134;4565;859;419;1172;5664;5778;telephone-event-80000;speex-8000;SILK-8000;Auto;Auto;ulpfec;240;480;240;NotDone
AIM;SIP;ICQ;On;On;On;TCP;Tls;Auto;Off;On;Off;Auto;FALSE;TRUE;2;4;2;1042;1949;974;359;5369;93;5703;5215;5791;5205;4811;4762;SILK-16000;PCMA-8000;opus-48000;rtx;rtx;ulpfec;720;720;360;NotDone
IRC;ICQ;AIM;On;On;On;TCP;Auto;Tls;Off;Off;On;TRUE;TRUE;Auto;2;3;3;1034;1440;938;5545;100;5974;3954;5052;5169;1894;5568;5987;SILK-8000;Auto;G722-16000;red;rtx;VP8;480;240;360;NotDone
IRC;ICQ;GoogleTalk;On;On;Off;UDP;Tls;Tls;Off;BestEffort;Off;Auto;Auto;TRUE;2;3;3;666;1139;1253;975;1135;5762;2240;127;4893;5296;3677;5796;telephone-event-80000;telephone-event-80000;SILK-12000;VP8;Auto;VP8;240;240;720;NotDone
AIM;GoogleTalk;iptel.org;On;On;On;Auto;Auto;UDP;Off;Off;Off;TRUE;TRUE;FALSE;3;3;4;1960;1185;1818;5560;5753;3629;669;3745;404;5131;333;2455;speex-16000;telephone-event-80000;AMR-WB-16000;rtx;Auto;ulpfec;720;1080;720;NotDone
AIM;SIP;IRC;On;On;On;UDP;TCP;Auto;Off;On;On;TRUE;Auto;Auto;2;3;4;593;1400;1447;3423;1789;5645;1523;2674;2473;4724;655;5768;iLBC-8000;PCMA-8000;PCMA-8000;Auto;Auto;VP8;480;480;480;NotDone
SIP;AIM;GoogleTalk;Off;On;Off;TCP;Tls;Tls;Off;BestEffort;Off;FALSE;FALSE;TRUE;4;2;2;1595;1578;1848;4416;5709;5888;3206;4502;252;5739;3637;5970;opus-48000;speex-32000;SILK-8000;Auto;Auto;ulpfec;240;240;480;NotDone
IRC;IRC;IRC;Off;Off;Off;UDP;Auto;TCP;Off;BestEffort;BestEffort;FALSE;Auto;TRUE;3;3;2;1327;1687;624;3627;5721;1456;5835;1030;5881;3390;5658;5991;opus-48000;speex-16000;SILK-12000;VP8;Auto;rtx;720;240;360;NotDone
GoogleTalk;IRC;GoogleTalk;On;On;On;Auto;Tls;UDP;Off;Off;BestEffort;TRUE;TRUE;Auto;4;2;3;1774;1463;1454;3177;1134;323;5180;725;5421;91;4277;5655;speex-32000;SILK-24000;AMR-WB-16000;red;ulpfec;ulpfec;1080;720;720;NotDone
iptel.org;AIM;ICQ;Off;Off;On;Tls;Tls;TCP;BestEffort;On;On;Auto;Auto;TRUE;4;3;2;1987;618;821;5964;3755;4815;4014;289;4884;5830;5500;5936;PCMU-8000;PCMA-8000;PCMA-8000;red;Auto;ulpfec;1080;480;1080;NotDone
AIM;GoogleTalk;iptel.org;On;On;On;Auto;Tls;TCP;BestEffort;BestEffort;Off;FALSE;TRUE;FALSE;3;3;3;687;1302;1354;812;5365;1635;2483;1537;4725;4615;86;5947;opus-48000;speex-32000;GSM-8000;ulpfec;Auto;VP8;1080;360;720;NotDone
GoogleTalk;AIM;ICQ;On;Off;On;Tls;UDP;Auto;Off;Off;Off;Auto;TRUE;TRUE;3;3;4;1337;1370;1487;2984;958;97;4838;5619;877;4330;5646;3861;PCMU-8000;telephone-event-80000;iLBC-8000;rtx;Auto;VP8;360;480;360;NotDone
ICQ;GoogleTalk;SIP;On;Off;Off;UDP;UDP;UDP;Off;Off;BestEffort;TRUE;TRUE;TRUE;4;2;4;1893;1205;1248;5718;4610;482;5513;340;5949;554;4415;4188;telephone-event-80000;telephone-event-80000;GSM-8000;ulpfec;VP8;ulpfec;1080;1080;360;NotDone
ICQ;iptel.org;ICQ;On;On;Off;Auto;UDP;Auto;On;On;Off;Auto;FALSE;TRUE;2;2;3;1117;742;1047;4709;5783;4092;638;1508;4485;4263;2943;2509;speex-32000;SILK-8000;speex-8000;Auto;Auto;VP8;240;480;720;NotDone
iptel.org;IRC;GoogleTalk;On;On;Off;Tls;Tls;Auto;Off;BestEffort;On;TRUE;TRUE;TRUE;4;4;2;1051;1966;1213;1919;168;205;5746;311;5172;2132;4945;5042;SILK-16000;PCMA-8000;Auto;red;Auto;VP8;360;720;240;NotDone
AIM;AIM;ICQ;Off;Off;On;Auto;UDP;TCP;On;BestEffort;Off;TRUE;Auto;TRUE;4;4;3;1525;1638;1195;4074;1545;5519;4989;5142;4884;473;320;5665;opus-48000;PCMU-8000;GSM-8000;ulpfec;Auto;VP8;480;360;720;NotDone
AIM;SIP;iPPi;Off;Off;Off;Auto;Auto;UDP;Off;BestEffort;On;FALSE;TRUE;Auto;4;3;4;1336;757;1862;3668;2408;2557;2977;4795;390;2956;3779;1452;Auto;speex-32000;GSM-8000;ulpfec;Auto;VP8;360;480;240;NotDone
IRC;GoogleTalk;SIP;On;On;On;Auto;UDP;UDP;Off;BestEffort;BestEffort;TRUE;FALSE;FALSE;3;3;4;1726;1773;1511;5075;1275;114;4084;772;227;3693;5629;5776;SILK-16000;opus-48000;Auto;Auto;Auto;Auto;720;1080;1080;NotDone
IRC;ICQ;ICQ;On;Off;On;Tls;UDP;TCP;Off;Off;Off;FALSE;FALSE;TRUE;3;2;4;868;1799;829;4233;5091;385;2356;4277;3175;5527;1685;4304;G722-16000;SILK-24000;opus-48000;VP8;Auto;VP8;240;720;1080;NotDone
iPPi;SIP;ICQ;On;Off;On;Tls;TCP;Auto;Off;Off;BestEffort;FALSE;Auto;Auto;3;3;3;1433;943;1697;3806;125;2596;1073;753;5498;178;4336;5214;Auto;SILK-16000;opus-48000;ulpfec;VP8;VP8;240;720;720;NotDone
SIP;iptel.org;iptel.org;Off;On;Off;UDP;Tls;UDP;Off;Off;BestEffort;FALSE;TRUE;Auto;2;3;3;1337;1804;1388;3645;4366;666;380;4142;5887;2006;5360;5976;PCMU-8000;iLBC-8000;AMR-WB-16000;red;Auto;VP8;480;1080;720;NotDone
AIM;iPPi;ICQ;Off;On;On;Auto;TCP;Auto;Off;On;Off;FALSE;FALSE;Auto;3;4;4;906;1377;1803;4501;5862;5964;251;5481;4366;961;5563;5322;SILK-8000;speex-32000;iLBC-8000;Auto;red;VP8;480;720;480;NotDone
AIM;GoogleTalk;IRC;On;On;On;UDP;Auto;Auto;Off;Off;Off;FALSE;TRUE;Auto;2;2;3;1828;1154;949;492;5925;3304;5535;4830;5602;5991;702;5953;SILK-8000;telephone-event-80000;AMR-WB-16000;ulpfec;red;VP8;240;720;240;NotDone
IRC;IRC;AIM;Off;On;On;UDP;TCP;Tls;Off;On;On;TRUE;TRUE;FALSE;2;4;3;1803;673;894;5339;3225;5602;801;3673;5796;4836;569;948;Auto;speex-32000;Auto;rtx;ulpfec;red;480;1080;720;NotDone
IRC;iPPi;iPPi;Off;On;On;Tls;UDP;TCP;Off;BestEffort;Off;Auto;Auto;TRUE;3;4;2;1246;1130;1935;1799;4819;2599;1386;625;4039;5338;5819;5598;PCMA-8000;speex-16000;SILK-8000;ulpfec;Auto;VP8;480;480;480;NotDone
iPPi;IRC;SIP;Off;Off;Off;UDP;Auto;TCP;BestEffort;On;On;FALSE;Auto;FALSE;3;4;3;651;1621;855;5963;3601;5896;1593;779;1058;5488;841;5910;Auto;telephone-event-80000;opus-48000;red;Auto;VP8;360;480;360;NotDone
IRC;ICQ;ICQ;Off;On;On;Tls;Auto;Tls;Off;BestEffort;BestEffort;Auto;Auto;FALSE;2;2;2;1128;1187;1666;5571;419;4101;4267;3706;3645;262;5852;5910;G722-16000;SILK-8000;GSM-8000;h264;ulpfec;VP8;360;720;720;NotDone
AIM;ICQ;SIP;On;Off;Off;Auto;UDP;Auto;On;Off;Off;Auto;TRUE;TRUE;4;4;3;746;1994;894;522;4472;1379;400;831;4172;3225;1605;996;PCMA-8000;speex-8000;SILK-12000;h264;Auto;VP8;360;360;240;NotDone
GoogleTalk;IRC;SIP;Off;On;Off;Tls;Tls;Tls;Off;BestEffort;On;FALSE;Auto;Auto;4;3;4;1187;1509;680;4560;5855;2739;3182;5897;5665;3335;4122;5667;iLBC-8000;iLBC-8000;GSM-8000;red;ulpfec;VP8;240;240;240;NotDone
IRC;SIP;ICQ;On;Off;Off;TCP;Auto;UDP;On;Off;Off;FALSE;TRUE;Auto;4;4;3;1780;592;1166;935;1198;5381;441;1982;349;4850;175;5251;GSM-8000;telephone-event-80000;SILK-24000;h264;Auto;VP8;360;720;360;NotDone
AIM;SIP;AIM;On;On;Off;Auto;UDP;UDP;Off;Off;Off;Auto;Auto;FALSE;4;4;4;682;1310;1886;4068;375;3064;183;5975;138;4583;1590;5365;opus-48000;GSM-8000;iLBC-8000;h264;VP8;ulpfec;240;480;360;NotDone
SIP;iptel.org;GoogleTalk;On;On;On;Auto;Tls;TCP;BestEffort;BestEffort;On;FALSE;TRUE;TRUE;4;3;4;1348;851;1181;575;726;324;5524;590;4269;1282;5131;5428;AMR-WB-16000;PCMA-8000;GSM-8000;Auto;Auto;VP8;480;240;480;NotDone
iptel.org;IRC;ICQ;On;Off;Off;UDP;UDP;TCP;Off;Off;Off;FALSE;FALSE;TRUE;4;2;2;1772;925;1324;3596;5467;72;4511;2038;4375;2889;2665;2625;G722-16000;iLBC-8000;GSM-8000;ulpfec;Auto;VP8;360;720;480;NotDone
SIP;iPPi;iPPi;Off;On;Off;Auto;TCP;Tls;Off;BestEffort;Off;Auto;Auto;Auto;4;4;3;1583;1994;1313;4199;5871;5906;4296;205;4966;1064;402;5784;SILK-24000;speex-8000;speex-8000;red;Auto;rtx;1080;360;720;NotDone
ICQ;IRC;IRC;On;On;Off;Auto;Auto;Auto;Off;BestEffort;BestEffort;TRUE;FALSE;FALSE;2;3;4;768;1920;1089;3079;959;1371;786;750;1117;2470;2753;3169;speex-8000;PCMU-8000;SILK-8000;Auto;Auto;VP8;1080;720;1080;NotDone
AIM;IRC;iPPi;Off;On;On;Auto;TCP;Auto;On;Off;Off;TRUE;TRUE;FALSE;4;3;3;1335;1873;1915;4538;5941;3678;1572;1572;1584;1561;469;3852;SILK-8000;iLBC-8000;speex-32000;h264;Auto;h264;480;480;480;NotDone
AIM;GoogleTalk;IRC;On;On;Off;Tls;Tls;Auto;On;BestEffort;BestEffort;Auto;TRUE;FALSE;2;4;3;1708;1884;1291;5350;314;4771;2207;5448;5036;2257;4501;5808;speex-8000;GSM-8000;SILK-8000;h264;Auto;ulpfec;360;720;720;NotDone
IRC;IRC;IRC;Off;On;On;TCP;Tls;Tls;On;BestEffort;Off;TRUE;FALSE;FALSE;2;2;2;1686;1788;732;5921;1764;5491;4798;5069;3366;4814;5438;5516;telephone-event-80000;PCMA-8000;SILK-16000;red;Auto;VP8;720;480;240;NotDone
AIM;iPPi;iptel.org;Off;On;Off;Tls;TCP;Tls;Off;Off;BestEffort;FALSE;TRUE;FALSE;4;4;4;1538;1739;1229;3311;446;1358;4498;5682;2203;907;765;5496;speex-32000;SILK-12000;SILK-8000;VP8;Auto;ulpfec;720;240;720;NotDone
AIM;iptel.org;ICQ;Off;On;Off;Tls;Auto;UDP;BestEffort;Off;BestEffort;TRUE;TRUE;TRUE;2;4;4;1785;1319;1428;5930;5983;469;112;362;675;1115;842;5718;SILK-8000;speex-8000;speex-16000;rtx;ulpfec;Auto;720;360;720;NotDone
SIP;GoogleTalk;iPPi;Off;On;Off;TCP;UDP;UDP;Off;BestEffort;Off;FALSE;TRUE;FALSE;2;4;2;1309;1621;1219;5184;5909;2920;213;308;968;3097;4607;4677;iLBC-8000;GSM-8000;GSM-8000;h264;ulpfec;VP8;1080;360;240;NotDone
AIM;iptel.org;iptel.org;Off;On;Off;TCP;TCP;TCP;On;BestEffort;Off;FALSE;FALSE;FALSE;4;2;4;1796;988;1116;5721;3992;3992;3550;5779;4942;5426;685;1727;PCMU-8000;PCMA-8000;SILK-12000;rtx;Auto;ulpfec;240;360;720;NotDone
AIM;IRC;iptel.org;On;On;On;TCP;UDP;Auto;Off;Off;On;TRUE;FALSE;TRUE;3;3;3;1553;1800;1282;309;376;5785;5929;319;5362;2242;5036;5507;telephone-event-80000;telephone-event-80000;PCMA-8000;Auto;rtx;rtx;360;720;1080;NotDone
AIM;AIM;iptel.org;Off;Off;On;UDP;Tls;UDP;Off;BestEffort;Off;Auto;TRUE;FALSE;3;3;2;1254;1896;1736;4446;5775;1324;1003;4679;3091;2133;622;5559;speex-32000;telephone-event-80000;speex-32000;rtx;Auto;VP8;360;720;240;NotDone
SIP;iPPi;iptel.org;Off;Off;On;UDP;Tls;Auto;Off;BestEffort;BestEffort;FALSE;TRUE;TRUE;2;3;4;1976;834;633;159;5402;392;3509;1236;462;420;5671;4762;AMR-WB-16000;SILK-24000;AMR-WB-16000;Auto;rtx;VP8;240;720;720;NotDone
SIP;iptel.org;iptel.org;Off;Off;On;Tls;TCP;UDP;Off;Off;Off;FALSE;TRUE;FALSE;3;2;3;1375;653;727;345;4404;658;231;3128;5494;90;5348;5318;SILK-12000;G722-16000;telephone-event-80000;VP8;ulpfec;Auto;480;720;360;NotDone
AIM;SIP;GoogleTalk;Off;Off;On;Tls;Auto;Auto;Off;Off;Off;TRUE;TRUE;FALSE;3;2;2;1344;1003;807;5518;5888;268;2493;5918;3917;5639;1859;1876;speex-8000;speex-16000;SILK-8000;Auto;VP8;ulpfec;720;240;720;NotDone
IRC;iptel.org;AIM;Off;On;Off;TCP;TCP;Auto;Off;BestEffort;BestEffort;FALSE;Auto;FALSE;2;4;3;1828;1973;1629;627;4472;5172;1543;755;4927;5515;4820;5857;iLBC-8000;telephone-event-80000;SILK-12000;ulpfec;Auto;ulpfec;720;480;360;NotDone
IRC;AIM;iPPi;On;Off;Off;UDP;TCP;TCP;On;Off;BestEffort;FALSE;TRUE;FALSE;3;2;4;1582;941;1812;5934;226;5855;469;1044;4921;5532;5058;5762;GSM-8000;SILK-16000;SILK-16000;h264;rtx;Auto;1080;360;720;NotDone
IRC;AIM;iptel.org;On;On;On;Auto;Tls;Tls;On;BestEffort;BestEffort;TRUE;Auto;TRUE;4;4;2;1947;1159;1952;585;1068;2112;529;130;2670;5666;5310;5480;PCMU-8000;speex-8000;SILK-12000;ulpfec;VP8;ulpfec;240;360;360;NotDone
IRC;IRC;IRC;Off;Off;On;TCP;TCP;Auto;Off;BestEffort;BestEffort;Auto;FALSE;FALSE;3;4;3;1607;1307;1970;2963;373;4515;3128;5759;5662;302;5599;5233;G722-16000;SILK-16000;AMR-WB-16000;Auto;Auto;red;360;480;720;NotDone
AIM;AIM;AIM;On;On;Off;UDP;TCP;Auto;BestEffort;On;Off;FALSE;TRUE;TRUE;4;3;2;1954;858;1876;5511;5103;409;1164;4841;5084;4985;5094;5718;SILK-16000;SILK-16000;SILK-8000;red;Auto;VP8;360;720;720;NotDone
ICQ;iptel.org;IRC;On;On;Off;Auto;Tls;TCP;Off;Off;Off;TRUE;Auto;Auto;4;3;3;885;1236;1076;237;1265;450;4909;4436;64;345;5756;4700;speex-32000;telephone-event-80000;PCMA-8000;VP8;Auto;VP8;360;360;240;NotDone
IRC;IRC;IRC;On;On;On;Tls;UDP;Tls;BestEffort;Off;Off;TRUE;Auto;FALSE;2;3;2;1612;1847;1016;5929;1936;216;2161;4334;4597;5468;308;5941;opus-48000;GSM-8000;Auto;ulpfec;Auto;ulpfec;720;240;1080;NotDone
IRC;AIM;iPPi;On;On;On;Auto;Auto;UDP;Off;BestEffort;On;TRUE;Auto;TRUE;4;2;4;1721;1970;1289;301;1706;5722;4419;187;5477;3691;5285;5432;GSM-8000;GSM-8000;G722-16000;Auto;VP8;ulpfec;480;1080;240;NotDone
AIM;ICQ;AIM;On;Off;On;TCP;UDP;Tls;Off;BestEffort;BestEffort;TRUE;Auto;FALSE;3;2;2;1323;1715;1567;5628;5108;5838;516;5550;2695;699;1226;5372;SILK-12000;telephone-event-80000;SILK-8000;Auto;ulpfec;VP8;480;720;360;NotDone
AIM;SIP;iPPi;On;Off;On;TCP;Auto;Auto;Off;On;Off;TRUE;TRUE;Auto;3;3;3;1641;1438;686;1153;5642;5652;3040;4321;4343;112;5931;5465;telephone-event-80000;speex-32000;iLBC-8000;h264;ulpfec;VP8;480;360;360;NotDone
IRC;iptel.org;AIM;Off;On;On;TCP;Auto;Auto;Off;Off;Off;Auto;TRUE;TRUE;3;3;2;1987;1013;657;4635;4002;2633;5569;543;969;2378;760;4794;PCMA-8000;Auto;Auto;VP8;ulpfec;red;1080;480;1080;NotDone
IRC;IRC;iptel.org;Off;On;On;TCP;Tls;UDP;Off;Off;Off;Auto;TRUE;FALSE;4;2;4;1251;700;1986;4433;4371;5253;1761;263;5862;5473;4836;1738;SILK-12000;speex-8000;opus-48000;VP8;ulpfec;Auto;720;1080;1080;NotDone
IRC;IRC;iPPi;Off;On;On;UDP;Tls;TCP;Off;Off;On;TRUE;Auto;Auto;3;4;4;1962;1496;1025;808;4469;230;5990;1692;5913;5913;3371;5174;speex-16000;telephone-event-80000;Auto;rtx;Auto;Auto;1080;480;360;NotDone
AIM;ICQ;ICQ;Off;On;On;Tls;TCP;Tls;On;Off;Off;Auto;FALSE;FALSE;2;2;2;1730;1032;929;3937;3527;1868;4958;5029;1813;4502;933;663;opus-48000;PCMU-8000;SILK-8000;ulpfec;Auto;VP8;720;360;240;NotDone
ICQ;IRC;AIM;On;Off;On;Tls;TCP;TCP;Off;Off;Off;TRUE;FALSE;TRUE;3;2;3;1182;1301;1687;3394;2492;4730;5902;3357;4359;5581;3618;4220;telephone-event-80000;PCMU-8000;telephone-event-80000;rtx;Auto;VP8;720;720;360;NotDone
AIM;SIP;IRC;Off;On;On;TCP;Tls;UDP;Off;BestEffort;Off;Auto;Auto;TRUE;4;2;4;1716;1763;1038;5034;1344;5657;451;1697;1016;5324;3125;5260;G722-16000;PCMA-8000;GSM-8000;VP8;Auto;VP8;720;720;240;NotDone
AIM;ICQ;SIP;Off;Off;On;Auto;UDP;Tls;BestEffort;Off;On;Auto;FALSE;FALSE;2;4;2;1779;615;721;498;826;1952;5674;5108;5983;5526;5304;5739;speex-32000;telephone-event-80000;SILK-8000;h264;ulpfec;red;480;720;720;NotDone
AIM;GoogleTalk;SIP;Off;On;Off;TCP;Auto;UDP;Off;On;BestEffort;FALSE;Auto;Auto;2;3;2;1689;1506;957;5752;5031;5987;4659;5941;2085;5219;158;4572;AMR-WB-16000;telephone-event-80000;telephone-event-80000;red;Auto;VP8;720;480;360;NotDone
ICQ;iptel.org;GoogleTalk;On;On;Off;Auto;Tls;Tls;Off;BestEffort;Off;FALSE;FALSE;FALSE;4;3;3;1654;1155;1713;1522;5803;5168;5710;3627;4915;5307;650;5579;G722-16000;SILK-12000;AMR-WB-16000;rtx;rtx;Auto;360;1080;1080;NotDone
IRC;iptel.org;GoogleTalk;On;Off;On;Tls;UDP;Auto;On;On;On;TRUE;TRUE;FALSE;4;2;4;1434;1552;1396;5631;339;4738;5751;5419;5609;5899;1653;4512;speex-32000;telephone-event-80000;Auto;VP8;red;rtx;720;1080;1080;NotDone
AIM;iptel.org;GoogleTalk;On;On;On;Auto;TCP;Auto;Off;Off;BestEffort;Auto;Auto;Auto;2;4;2;963;1396;1399;4865;4797;997;329;5277;5111;4111;5125;3427;PCMA-8000;SILK-8000;SILK-8000;VP8;Auto;ulpfec;240;480;480;NotDone
ICQ;IRC;IRC;On;On;Off;UDP;Tls;UDP;Off;On;BestEffort;FALSE;FALSE;TRUE;2;2;2;1422;1697;1511;1921;4527;1244;5306;1310;395;1746;572;3937;SILK-16000;telephone-event-80000;iLBC-8000;red;ulpfec;ulpfec;1080;240;720;NotDone
AIM;SIP;AIM;Off;Off;On;UDP;Auto;Tls;Off;On;Off;TRUE;TRUE;TRUE;4;3;4;1094;1244;1449;85;2568;586;4081;4824;1463;3453;4510;5447;speex-32000;SILK-8000;iLBC-8000;VP8;Auto;VP8;720;360;360;NotDone
IRC;ICQ;iPPi;Off;Off;Off;Auto;Tls;TCP;On;On;BestEffort;Auto;TRUE;Auto;4;2;3;915;1153;1635;887;1601;4843;3836;5149;5179;1038;5469;3264;opus-48000;speex-32000;speex-32000;ulpfec;Auto;red;480;720;1080;NotDone
iPPi;SIP;IRC;Off;Off;Off;Auto;Tls;UDP;Off;Off;BestEffort;Auto;FALSE;Auto;4;2;3;1232;1063;734;3532;1570;462;4653;2395;3838;672;3425;5647;GSM-8000;speex-16000;SILK-8000;Auto;red;ulpfec;720;1080;1080;NotDone
GoogleTalk;ICQ;GoogleTalk;On;On;On;UDP;TCP;Tls;On;Off;Off;FALSE;TRUE;TRUE;2;2;4;1717;923;1266;5412;3831;4191;4893;3158;3516;2325;175;1646;SILK-8000;telephone-event-80000;speex-8000;Auto;Auto;VP8;360;240;480;NotDone
ICQ;GoogleTalk;GoogleTalk;Off;On;On;Tls;Auto;Auto;Off;BestEffort;Off;Auto;TRUE;Auto;3;4;2;744;1032;1637;4311;5673;1959;2700;4111;4894;1589;2142;3719;PCMU-8000;PCMA-8000;PCMU-8000;red;red;ulpfec;480;240;360;NotDone
ICQ;SIP;IRC;On;Off;On;Auto;UDP;TCP;Off;Off;BestEffort;TRUE;TRUE;FALSE;4;3;4;1024;1888;1006;5431;5480;400;4728;2892;2412;691;76;4514;SILK-24000;PCMA-8000;SILK-12000;rtx;h264;VP8;1080;1080;480;NotDone
AIM;GoogleTalk;ICQ;On;Off;Off;Tls;UDP;Auto;On;BestEffort;On;TRUE;Auto;FALSE;3;2;2;1988;1692;1526;5476;4735;4775;4829;4917;2057;3271;2901;3372;SILK-12000;PCMA-8000;SILK-16000;red;rtx;VP8;360;1080;360;NotDone
IRC;iPPi;GoogleTalk;Off;Off;Off;TCP;TCP;Auto;Off;Off;BestEffort;FALSE;Auto;FALSE;4;3;3;1174;1278;1802;736;243;4296;2543;4869;5055;4280;5386;4343;Auto;GSM-8000;Auto;VP8;ulpfec;Auto;360;240;1080;NotDone
ICQ;GoogleTalk;iPPi;Off;Off;Off;Tls;Auto;UDP;On;BestEffort;Off;TRUE;FALSE;TRUE;2;3;4;1362;1304;1258;4976;496;5422;1086;1413;2338;387;1900;4770;speex-16000;GSM-8000;SILK-12000;Auto;rtx;red;720;480;480;NotDone
AIM;iPPi;IRC;On;Off;On;TCP;Auto;Tls;On;Off;BestEffort;FALSE;FALSE;Auto;3;4;3;934;732;1433;2026;2781;1499;5168;5588;5716;967;3698;1410;speex-8000;SILK-8000;SILK-8000;h264;red;Auto;720;480;360;NotDone
IRC;ICQ;ICQ;Off;Off;On;UDP;Tls;TCP;BestEffort;BestEffort;Off;FALSE;TRUE;FALSE;3;3;3;1867;1985;585;5811;4675;5784;5271;5909;291;5620;469;5243;G722-16000;SILK-24000;speex-16000;Auto;Auto;red;480;480;720;NotDone
SIP;SIP;ICQ;On;On;Off;TCP;Tls;Tls;Off;BestEffort;Off;Auto;Auto;Auto;3;3;2;907;1289;705;1492;5836;1436;3804;3808;4649;1243;3382;3890;SILK-8000;opus-48000;speex-16000;red;ulpfec;ulpfec;240;360;720;NotDone
ICQ;IRC;iptel.org;Off;On;On;TCP;UDP;UDP;On;Off;Off;FALSE;FALSE;FALSE;2;4;2;961;810;943;3613;4566;1493;4200;4063;2991;4632;705;2426;G722-16000;speex-16000;G722-16000;ulpfec;h264;ulpfec;720;1080;480;NotDone
GoogleTalk;iPPi;iPPi;On;Off;Off;Auto;UDP;Tls;BestEffort;Off;Off;FALSE;TRUE;Auto;2;3;2;744;807;1103;1821;2348;2330;4765;3221;2129;3535;3385;4389;Auto;SILK-24000;PCMU-8000;rtx;VP8;h264;240;480;1080;NotDone
iPPi;SIP;ICQ;On;On;Off;UDP;Auto;UDP;Off;BestEffort;On;FALSE;TRUE;FALSE;3;3;2;1054;1184;805;4557;3910;523;3564;4313;2329;4985;1973;461;Auto;GSM-8000;Auto;red;ulpfec;ulpfec;240;480;240;NotDone
AIM;GoogleTalk;SIP;Off;Off;On;TCP;Tls;TCP;Off;Off;BestEffort;FALSE;Auto;Auto;3;3;3;1028;932;1051;1043;2844;5524;4222;2820;2764;3144;470;1382;opus-48000;telephone-event-80000;SILK-12000;red;h264;h264;360;480;480;NotDone
AIM;AIM;SIP;On;On;On;Tls;UDP;TCP;BestEffort;Off;Off;FALSE;TRUE;FALSE;2;3;4;1976;691;1194;3697;5843;5052;4997;105;4691;2529;655;1314;telephone-event-80000;GSM-8000;SILK-24000;red;Auto;Auto;480;1080;1080;NotDone
AIM;IRC;iptel.org;On;On;On;TCP;Auto;Auto;On;Off;On;TRUE;Auto;TRUE;3;2;3;1388;1757;1285;2841;4336;5578;5272;2822;3857;4655;3439;2407;G722-16000;PCMU-8000;SILK-24000;ulpfec;rtx;ulpfec;1080;360;720;NotDone
AIM;IRC;AIM;On;Off;On;Tls;UDP;Auto;On;BestEffort;On;TRUE;TRUE;TRUE;2;3;3;1602;1208;702;2745;2199;4315;1108;1518;2289;1838;3696;310;PCMA-8000;SILK-12000;Auto;Auto;h264;VP8;240;1080;240;NotDone
AIM;IRC;IRC;Off;Off;On;UDP;Tls;Auto;Off;Off;BestEffort;FALSE;Auto;Auto;4;2;2;1744;1946;1781;3521;5194;2279;1377;4100;3635;1853;441;4181;opus-48000;opus-48000;iLBC-8000;Auto;h264;h264;360;720;480;NotDone
AIM;AIM;AIM;Off;On;Off;Tls;TCP;UDP;On;BestEffort;BestEffort;FALSE;TRUE;FALSE;3;2;4;652;861;910;3795;1740;3585;2415;5469;4459;2476;1672;4761;opus-48000;iLBC-8000;G722-16000;red;h264;h264;360;480;360;NotDone
IRC;IRC;AIM;Off;On;Off;UDP;Tls;Auto;Off;BestEffort;BestEffort;FALSE;TRUE;TRUE;3;2;4;1372;863;1325;5487;5344;4486;5649;2559;2399;5872;1647;3749;PCMU-8000;PCMA-8000;SILK-12000;ulpfec;rtx;Auto;360;480;480;NotDone
iptel.org;SIP;iptel.org;On;Off;Off;Auto;Tls;Auto;Off;Off;BestEffort;Auto;FALSE;FALSE;4;2;2;1461;947;633;1144;1747;3184;4642;1991;1268;5572;891;347;speex-16000;GSM-8000;speex-8000;h264;Auto;rtx;360;240;240;NotDone
AIM;IRC;AIM;On;Off;Off;Tls;Tls;Tls;Off;Off;Off;TRUE;TRUE;Auto;4;4;4;1374;1638;1591;123;2036;212;5395;2230;5684;111;5952;4376;PCMU-8000;speex-16000;SILK-8000;VP8;ulpfec;VP8;720;360;720;NotDone
IRC;GoogleTalk;IRC;On;On;On;Tls;UDP;Auto;BestEffort;On;Off;FALSE;TRUE;TRUE;4;2;2;580;971;1979;5880;991;3231;1564;2184;968;5764;5246;2837;PCMU-8000;PCMA-8000;AMR-WB-16000;VP8;red;rtx;720;240;480;NotDone
AIM;GoogleTalk;iptel.org;Off;On;On;TCP;TCP;TCP;BestEffort;On;BestEffort;TRUE;FALSE;FALSE;3;3;2;1047;715;1186;3581;3181;249;2326;3850;1234;330;4001;723;PCMU-8000;speex-8000;PCMU-8000;rtx;rtx;rtx;1080;720;1080;NotDone
IRC;AIM;SIP;On;On;Off;UDP;TCP;Tls;On;BestEffort;Off;Auto;Auto;TRUE;4;3;2;1117;761;705;1749;321;1984;5825;1077;4063;4250;216;5310;iLBC-8000;SILK-24000;speex-16000;rtx;ulpfec;h264;720;1080;720;NotDone
IRC;GoogleTalk;iptel.org;On;On;On;TCP;TCP;Tls;On;BestEffort;BestEffort;Auto;TRUE;TRUE;3;4;3;613;1987;1738;3356;1006;2613;4307;2184;3011;1793;4173;3107;G722-16000;SILK-16000;AMR-WB-16000;VP8;h264;Auto;1080;360;240;NotDone
