caller_protocol;callee1_protocol;callee2_protocol;caller_listenport;callee1_listenport;callee2_listenport;caller_transportprotocol;callee1_transportprotocol;callee2_transportprotocol;caller_encryption;callee1_encryption;callee2_encryption;caller_sipzrtpattribute;callee1_sipzrtpattribute;callee2_sipzrtpattribute;caller_maxpeers;callee1_maxpeers;callee2_maxpeers;caller_mtu;callee1_mtu;callee2_mtu;caller_defaultcallrate;callee1_defaultcallrate;callee2_defaultcallrate;caller_maxreceivecallrate;callee1_maxreceivecallrate;callee2_maxreceivecallrate;caller_maxtransmitcallrate;callee1_maxtransmitcallrate;callee2_maxtransmitcallrate;caller_audiocodec;callee1_audiocodec;callee2_audiocodec;caller_videocodec;callee1_videocodec;callee2_videocodec;caller_maxresolution;callee1_maxresolution;callee2_maxresolution;
GoogleTalk;IRC;GoogleTalk;Off;On;On;Auto;Tls;TCP;On;On;Off;Auto;TRUE;TRUE;3;3;4;1816;895;1888;5710;5803;5689;398;5866;4938;5935;5257;539;Auto;SILK-8000;SILK-8000;Auto;VP8;VP8;1080;360;1080;NotDone
GoogleTalk;IRC;iPPi;Off;Off;Off;Auto;Auto;TCP;Off;On;Off;Auto;FALSE;TRUE;4;3;4;1816;1970;635;5710;516;5689;398;5866;2480;5935;5257;539;SILK-8000;telephone-event-80000;telephone-event-80000;h264;VP8;VP8;1080;240;480;NotDone
GoogleTalk;IRC;GoogleTalk;Off;On;On;Auto;Auto;TCP;Off;On;Off;Auto;FALSE;FALSE;4;3;3;1816;895;635;5710;5589;5689;1129;622;737;5317;552;145;SILK-8000;PCMA-8000;SILK-12000;h264;VP8;VP8;1080;480;240;NotDone
GoogleTalk;IRC;GoogleTalk;Off;On;On;Auto;Auto;TCP;Off;Off;Off;Auto;TRUE;TRUE;3;3;4;1816;1970;635;5710;516;5689;398;5866;2480;5935;552;145;SILK-8000;SILK-8000;SILK-8000;Auto;VP8;VP8;1080;480;240;NotDone
GoogleTalk;IRC;GoogleTalk;Off;On;On;Auto;Auto;TCP;Off;Off;Off;Auto;TRUE;TRUE;3;3;4;1907;1970;1945;5710;516;5689;398;117;258;5317;552;539;SILK-8000;SILK-8000;SILK-8000;red;VP8;VP8;1080;360;480;NotDone
GoogleTalk;IRC;GoogleTalk;On;On;On;Auto;Auto;TCP;Off;BestEffort;Off;Auto;TRUE;FALSE;3;3;4;1907;1970;1945;5710;516;5689;398;260;258;5935;5946;539;SILK-8000;SILK-8000;SILK-8000;Auto;VP8;VP8;1080;360;480;NotDone
GoogleTalk;GoogleTalk;GoogleTalk;Off;On;On;UDP;Tls;TCP;On;On;Off;Auto;FALSE;Auto;3;3;3;1816;1035;635;5710;5589;4686;1129;3927;4938;5935;5257;539;Auto;SILK-8000;SILK-8000;Auto;VP8;VP8;1080;360;1080;NotDone
GoogleTalk;IRC;GoogleTalk;Off;On;On;Auto;Auto;TCP;Off;Off;Off;Auto;TRUE;TRUE;3;3;4;1907;1970;1945;5710;5589;5689;398;117;258;5317;552;412;SILK-8000;SILK-8000;SILK-8000;red;ulpfec;VP8;1080;360;480;NotDone
GoogleTalk;IRC;GoogleTalk;Off;On;On;Auto;Auto;TCP;Off;Off;Off;Auto;TRUE;TRUE;3;3;4;1907;1970;1945;5710;516;5689;398;117;258;5317;552;539;SILK-8000;SILK-8000;SILK-8000;red;VP8;VP8;1080;360;480;NotDone
GoogleTalk;IRC;GoogleTalk;On;On;On;Auto;Auto;TCP;Off;Off;Off;Auto;TRUE;TRUE;3;3;2;1907;1970;1945;5710;516;5689;398;117;258;5935;552;4081;SILK-8000;telephone-event-80000;telephone-event-80000;h264;VP8;VP8;1080;1080;480;NotDone
GoogleTalk;IRC;GoogleTalk;On;On;On;Auto;Auto;TCP;Off;Off;Off;Auto;TRUE;TRUE;3;3;4;1907;1970;1945;5710;321;5689;398;114;5741;5935;5946;145;speex-32000;SILK-8000;SILK-8000;Auto;VP8;VP8;240;360;1080;NotDone
GoogleTalk;IRC;GoogleTalk;Off;On;On;Tls;UDP;TCP;On;On;Off;Auto;FALSE;TRUE;2;2;4;768;895;817;412;5649;104;4074;114;1834;5935;552;145;speex-32000;SILK-8000;SILK-8000;ulpfec;VP8;VP8;720;360;1080;NotDone
iptel.org;IRC;GoogleTalk;Off;On;On;Auto;Auto;TCP;Off;BestEffort;Off;Auto;FALSE;TRUE;4;3;4;1907;1970;1945;5710;516;5689;398;260;258;5935;5946;539;SILK-8000;SILK-8000;SILK-8000;Auto;red;VP8;1080;360;480;NotDone
GoogleTalk;IRC;iptel.org;Off;On;Off;Auto;Auto;TCP;Off;On;Off;Auto;FALSE;TRUE;2;3;4;1907;1970;1945;5710;198;5689;112;114;5741;5935;5946;145;GSM-8000;SILK-8000;SILK-8000;Auto;VP8;red;240;360;1080;NotDone
GoogleTalk;IRC;GoogleTalk;Off;On;On;Tls;UDP;TCP;BestEffort;On;Off;Auto;FALSE;TRUE;2;2;4;768;895;817;412;5649;104;4074;114;5825;5935;5705;145;speex-32000;SILK-8000;SILK-8000;ulpfec;VP8;VP8;240;360;1080;NotDone
GoogleTalk;IRC;GoogleTalk;Off;On;On;Tls;UDP;TCP;On;On;Off;FALSE;FALSE;TRUE;2;2;4;768;895;817;412;5649;104;4074;114;1834;5935;552;145;speex-32000;SILK-8000;SILK-8000;ulpfec;VP8;VP8;720;360;1080;NotDone
GoogleTalk;IRC;SIP;Off;On;On;Tls;UDP;TCP;On;On;Off;Auto;FALSE;TRUE;2;2;4;768;895;817;412;5649;104;4074;114;1834;5935;67;145;GSM-8000;SILK-8000;SILK-12000;ulpfec;VP8;VP8;720;360;1080;NotDone
GoogleTalk;IRC;GoogleTalk;Off;On;On;Auto;Auto;TCP;Off;Off;Off;TRUE;FALSE;TRUE;3;3;3;1816;759;635;4933;5803;5689;398;117;258;5935;319;539;SILK-12000;SILK-8000;SILK-8000;Auto;VP8;VP8;1080;480;240;NotDone
GoogleTalk;IRC;GoogleTalk;On;On;On;Auto;Auto;TCP;Off;Off;Off;Auto;TRUE;TRUE;3;3;4;1907;1970;1945;5710;516;5689;398;260;258;5935;5946;539;SILK-8000;SILK-8000;SILK-8000;Auto;VP8;VP8;1080;360;480;NotDone
GoogleTalk;IRC;GoogleTalk;On;On;On;Auto;Auto;TCP;Off;On;Off;Auto;FALSE;FALSE;2;2;3;1874;1970;1945;5710;5363;5689;5997;114;5957;5935;67;5565;SILK-8000;SILK-8000;SILK-8000;Auto;VP8;VP8;1080;360;480;NotDone
GoogleTalk;IRC;GoogleTalk;Off;On;On;UDP;UDP;TCP;BestEffort;On;Off;Auto;FALSE;TRUE;3;3;4;678;1970;1945;412;5649;104;5997;114;5957;5935;67;145;GSM-8000;SILK-8000;SILK-8000;ulpfec;VP8;VP8;720;360;1080;NotDone
AIM;IRC;GoogleTalk;Off;On;On;Tls;UDP;TCP;On;On;Off;Auto;FALSE;FALSE;2;2;4;1907;1997;1945;5710;142;5689;5997;114;5957;5935;67;145;PCMU-8000;SILK-8000;SILK-8000;ulpfec;VP8;VP8;360;360;1080;NotDone
SIP;IRC;GoogleTalk;Off;On;Off;Auto;Auto;TCP;Off;Off;Off;Auto;TRUE;FALSE;3;3;4;1907;1970;1945;5710;516;5689;398;260;258;5935;5946;539;SILK-8000;SILK-8000;SILK-8000;Auto;VP8;VP8;1080;360;240;NotDone
SIP;IRC;GoogleTalk;Off;On;Off;Auto;Auto;TCP;Off;Off;Off;Auto;TRUE;FALSE;3;3;4;1907;1970;1945;5710;516;5689;398;260;258;5935;5946;539;SILK-8000;SILK-8000;SILK-8000;Auto;VP8;VP8;1080;360;240;NotDone
GoogleTalk;IRC;GoogleTalk;Off;On;On;Auto;Auto;TCP;Off;On;Off;Auto;FALSE;TRUE;2;3;4;1654;1085;817;5025;5589;1633;3015;622;3167;5935;552;2601;PCMU-8000;SILK-8000;SILK-8000;ulpfec;VP8;VP8;720;360;1080;NotDone
GoogleTalk;IRC;IRC;Off;On;On;Auto;Auto;TCP;Off;Off;Off;Auto;TRUE;TRUE;3;3;2;1907;1970;1945;5710;516;5689;398;117;258;5935;552;4081;SILK-8000;telephone-event-80000;telephone-event-80000;h264;VP8;VP8;1080;1080;480;NotDone
GoogleTalk;IRC;GoogleTalk;On;On;On;Auto;Auto;TCP;Off;On;Off;Auto;FALSE;TRUE;4;3;3;1816;895;635;5627;5803;5689;398;5866;258;5935;319;539;Auto;SILK-8000;SILK-8000;Auto;VP8;VP8;1080;720;1080;NotDone
GoogleTalk;IRC;GoogleTalk;Off;On;On;Tls;UDP;TCP;On;On;Off;TRUE;FALSE;TRUE;4;2;3;768;1970;1945;5710;5589;5689;5997;114;5957;5935;67;145;GSM-8000;SILK-8000;SILK-12000;ulpfec;VP8;VP8;720;360;1080;NotDone
GoogleTalk;IRC;GoogleTalk;Off;On;On;Auto;Auto;TCP;On;On;Off;Auto;FALSE;TRUE;3;2;4;678;1970;1945;412;5649;104;5997;114;5821;5935;67;145;GSM-8000;SILK-8000;SILK-8000;ulpfec;VP8;VP8;240;360;1080;NotDone
GoogleTalk;IRC;GoogleTalk;Off;On;On;Tls;UDP;TCP;On;On;Off;Auto;FALSE;TRUE;2;2;3;768;1085;817;4628;5649;3488;4906;114;5825;5458;552;145;speex-32000;SILK-8000;SILK-8000;ulpfec;VP8;VP8;720;360;1080;NotDone
GoogleTalk;IRC;iptel.org;Off;On;Off;Auto;Auto;TCP;Off;Off;Off;Auto;TRUE;TRUE;3;3;4;1907;1970;1945;5710;5589;5689;5997;114;5957;5935;67;1990;GSM-8000;SILK-8000;SILK-12000;ulpfec;VP8;VP8;720;360;1080;NotDone
GoogleTalk;IRC;GoogleTalk;Off;On;On;Tls;UDP;TCP;On;On;Off;TRUE;FALSE;TRUE;2;2;3;768;1085;817;4628;5649;104;4906;114;2360;5935;552;3680;PCMU-8000;SILK-8000;SILK-8000;ulpfec;VP8;VP8;360;360;1080;NotDone
GoogleTalk;GoogleTalk;GoogleTalk;Off;On;On;UDP;UDP;UDP;On;On;Off;Auto;Auto;TRUE;2;2;4;768;1085;817;5315;5649;104;5997;114;5957;5935;67;145;GSM-8000;SILK-8000;SILK-8000;ulpfec;VP8;VP8;720;360;1080;NotDone
GoogleTalk;IRC;GoogleTalk;On;On;On;Auto;Auto;TCP;Off;On;Off;Auto;FALSE;FALSE;2;2;3;1874;1970;1945;5710;5363;5689;5997;114;90;5935;67;5565;SILK-8000;SILK-8000;SILK-8000;Auto;VP8;VP8;1080;360;480;NotDone
GoogleTalk;IRC;GoogleTalk;Off;On;On;Auto;Auto;TCP;On;On;Off;Auto;Auto;TRUE;2;4;4;768;1085;817;5315;5649;104;5997;114;5957;5935;67;145;GSM-8000;SILK-8000;SILK-8000;h264;VP8;VP8;1080;360;1080;NotDone
GoogleTalk;IRC;ICQ;Off;On;On;Tls;UDP;TCP;On;On;Off;Auto;FALSE;TRUE;2;2;4;1907;1085;817;4628;5589;1633;3015;622;3167;5935;552;5565;SILK-8000;SILK-8000;SILK-8000;Auto;VP8;VP8;1080;360;480;NotDone
GoogleTalk;SIP;GoogleTalk;Off;On;On;Tls;UDP;TCP;On;On;Off;Auto;FALSE;TRUE;2;2;3;768;1085;817;4628;5649;104;3783;114;5825;5458;552;3680;PCMU-8000;SILK-8000;SILK-8000;ulpfec;VP8;VP8;720;360;1080;NotDone
GoogleTalk;IRC;GoogleTalk;Off;On;On;UDP;UDP;UDP;On;On;Off;Auto;Auto;TRUE;2;2;4;700;1085;817;5315;5987;104;5997;114;5957;5935;67;3537;GSM-8000;SILK-8000;SILK-8000;ulpfec;VP8;VP8;720;360;1080;NotDone
GoogleTalk;IRC;iPPi;Off;On;On;Auto;Auto;TCP;Off;Off;Off;Auto;FALSE;TRUE;3;3;3;1793;1035;859;5710;5589;4686;179;622;3167;5935;5257;539;Auto;SILK-8000;SILK-8000;Auto;VP8;VP8;1080;360;480;NotDone
IRC;ICQ;IRC;On;On;Off;TCP;UDP;Auto;BestEffort;On;BestEffort;FALSE;Auto;Auto;2;5;2;763;981;1027;2977;5994;1792;3402;2226;3363;4011;1447;3185;PCMU-8000;G722-16000;GSM-8000;ulpfec;red;red;1080;1080;240;NotDone
GoogleTalk;IRC;GoogleTalk;Off;On;On;Auto;Auto;TCP;Off;On;Off;Auto;FALSE;FALSE;4;3;3;1816;895;635;5710;5803;5689;398;622;3167;5935;319;3403;SILK-12000;SILK-8000;SILK-8000;Auto;VP8;VP8;720;720;240;NotDone
GoogleTalk;IRC;GoogleTalk;Off;On;On;Auto;Auto;TCP;Off;On;Off;Auto;FALSE;Auto;4;3;3;1816;1862;1692;5710;5589;5689;1129;622;737;5935;319;872;SILK-12000;SILK-8000;SILK-12000;ulpfec;VP8;VP8;720;1080;720;NotDone
GoogleTalk;IRC;GoogleTalk;On;On;On;Tls;UDP;TCP;On;On;Off;Auto;FALSE;TRUE;2;2;3;768;1085;817;4628;5649;104;4906;114;5825;5458;552;145;speex-32000;SILK-8000;SILK-8000;ulpfec;VP8;VP8;720;360;1080;NotDone
GoogleTalk;IRC;GoogleTalk;On;On;On;Auto;Auto;Tls;Off;Off;Off;Auto;FALSE;FALSE;2;2;2;1907;1970;1964;5786;142;5689;5997;114;5996;5935;67;145;SILK-8000;SILK-8000;Auto;VP8;VP8;VP8;1080;360;1080;NotDone
GoogleTalk;IRC;GoogleTalk;Off;On;On;UDP;UDP;TCP;BestEffort;On;Off;Auto;FALSE;TRUE;3;3;4;678;1970;1945;412;5649;104;5997;114;5957;5935;67;145;GSM-8000;SILK-8000;SILK-8000;ulpfec;VP8;VP8;720;360;1080;NotDone
GoogleTalk;IRC;GoogleTalk;Off;On;On;Auto;Auto;TCP;Off;Off;Off;TRUE;FALSE;TRUE;3;3;4;1816;895;1888;5710;5589;5689;5997;114;5957;5935;67;145;GSM-8000;SILK-8000;SILK-12000;ulpfec;VP8;VP8;720;360;1080;NotDone
GoogleTalk;IRC;GoogleTalk;On;On;On;Tls;UDP;TCP;Off;On;Off;Auto;FALSE;TRUE;4;3;3;1816;1035;817;5025;5589;1633;5220;622;3167;5935;552;539;PCMU-8000;SILK-8000;SILK-8000;Auto;VP8;VP8;240;1080;480;NotDone
GoogleTalk;GoogleTalk;GoogleTalk;Off;On;On;UDP;Tls;TCP;On;On;Off;Auto;TRUE;TRUE;4;3;3;1816;895;635;5710;5803;5689;398;117;258;5935;67;145;GSM-8000;SILK-8000;SILK-8000;h264;VP8;VP8;720;1080;480;NotDone
GoogleTalk;IRC;GoogleTalk;Off;On;On;Auto;Auto;TCP;Off;Off;Off;Auto;TRUE;TRUE;3;3;4;1907;1970;1945;5710;5589;5689;398;260;258;5935;5946;539;SILK-8000;SILK-8000;SILK-8000;Auto;VP8;VP8;1080;360;240;NotDone
GoogleTalk;IRC;GoogleTalk;On;On;On;Auto;Auto;TCP;Off;Off;Off;Auto;TRUE;TRUE;3;3;4;1907;1970;1945;5710;5363;998;5997;114;5957;5935;67;5565;SILK-8000;SILK-8000;SILK-8000;Auto;VP8;VP8;1080;360;480;NotDone
GoogleTalk;GoogleTalk;GoogleTalk;Off;On;On;UDP;UDP;TCP;On;On;Off;Auto;Auto;TRUE;2;2;4;700;1085;817;5315;5987;104;5997;114;5957;5935;67;3537;GSM-8000;SILK-8000;SILK-8000;ulpfec;VP8;VP8;240;360;1080;NotDone
GoogleTalk;IRC;GoogleTalk;Off;On;On;Auto;Auto;TCP;Off;Off;Off;Auto;FALSE;TRUE;3;3;3;1816;759;635;4933;5803;5689;398;117;258;5935;319;539;SILK-12000;SILK-8000;SILK-8000;Auto;VP8;VP8;1080;480;240;NotDone
GoogleTalk;GoogleTalk;GoogleTalk;Off;On;On;Auto;Auto;TCP;On;On;Off;TRUE;FALSE;TRUE;2;3;4;768;1085;817;5025;5589;1633;2452;622;3167;5935;552;3680;PCMU-8000;SILK-8000;SILK-8000;ulpfec;VP8;VP8;240;1080;720;NotDone
GoogleTalk;iptel.org;GoogleTalk;On;On;On;Auto;Auto;Tls;Off;Off;Off;Auto;FALSE;FALSE;2;2;2;1907;1970;1945;5786;142;5689;5997;114;5996;5935;5946;539;SILK-8000;SILK-8000;SILK-8000;Auto;VP8;VP8;1080;360;480;NotDone
GoogleTalk;IRC;GoogleTalk;Off;On;On;UDP;UDP;TCP;Off;Off;Off;Auto;TRUE;TRUE;3;3;4;1907;1970;1945;5710;5589;5689;5997;114;5957;5935;67;145;GSM-8000;SILK-8000;SILK-12000;ulpfec;VP8;VP8;720;360;1080;NotDone
GoogleTalk;IRC;GoogleTalk;On;On;On;Auto;Auto;TCP;On;On;Off;TRUE;FALSE;TRUE;2;3;4;768;1085;817;5025;5589;1633;3893;260;258;5935;5946;539;SILK-8000;SILK-8000;SILK-8000;Auto;VP8;VP8;1080;360;240;NotDone
GoogleTalk;IRC;GoogleTalk;On;On;On;Tls;UDP;TCP;On;On;Off;Auto;FALSE;TRUE;2;2;3;768;1085;817;4628;5649;104;4906;114;5825;5458;552;3680;PCMU-8000;SILK-8000;SILK-8000;ulpfec;VP8;VP8;720;360;1080;NotDone
GoogleTalk;iptel.org;GoogleTalk;On;On;On;Auto;Auto;Tls;Off;Off;Off;Auto;FALSE;FALSE;2;2;2;1907;1085;817;5025;5589;1633;3015;622;3167;5935;552;2601;PCMU-8000;SILK-8000;SILK-8000;ulpfec;VP8;VP8;720;360;1080;NotDone
GoogleTalk;IRC;GoogleTalk;Off;On;On;Auto;Auto;TCP;On;On;Off;Auto;FALSE;TRUE;3;3;3;1816;1035;635;5710;516;5689;398;5866;4938;5935;5257;539;speex-32000;SILK-8000;SILK-8000;ulpfec;VP8;VP8;1080;360;720;NotDone
GoogleTalk;IRC;GoogleTalk;Off;On;On;Auto;UDP;TCP;On;On;Off;Auto;FALSE;TRUE;2;2;3;768;1085;817;4628;5649;104;4906;114;5825;5458;552;3680;PCMU-8000;SILK-8000;SILK-8000;ulpfec;VP8;VP8;720;360;1080;NotDone
GoogleTalk;IRC;GoogleTalk;Off;On;On;Auto;Auto;TCP;Off;On;Off;Auto;FALSE;TRUE;4;3;3;1816;1035;817;5025;5589;1633;5220;2807;3167;5935;552;539;PCMU-8000;SILK-8000;SILK-8000;Auto;VP8;VP8;720;360;1080;NotDone
GoogleTalk;IRC;GoogleTalk;Off;On;On;Tls;UDP;UDP;On;On;Off;Auto;Auto;TRUE;2;2;4;700;1085;817;5315;5987;104;5997;114;5957;5935;67;145;GSM-8000;SILK-8000;SILK-8000;h264;VP8;VP8;1080;360;1080;NotDone
GoogleTalk;IRC;GoogleTalk;Off;On;On;Tls;UDP;UDP;On;On;Off;Auto;Auto;TRUE;2;2;4;700;1085;817;5315;5987;104;5997;114;5957;5935;67;3537;GSM-8000;SILK-8000;SILK-8000;ulpfec;VP8;VP8;720;360;1080;NotDone
GoogleTalk;IRC;iptel.org;Off;On;On;Tls;UDP;TCP;On;On;Off;TRUE;FALSE;TRUE;2;2;3;758;895;817;4628;5649;5037;3015;622;3167;5935;319;539;SILK-12000;SILK-8000;SILK-12000;ulpfec;VP8;VP8;720;1080;720;NotDone
GoogleTalk;IRC;GoogleTalk;Off;On;On;UDP;UDP;TCP;On;On;Off;TRUE;Auto;TRUE;3;3;4;678;1970;1945;412;5649;104;5997;114;5821;5935;67;145;GSM-8000;SILK-8000;SILK-8000;ulpfec;VP8;VP8;720;720;1080;NotDone
GoogleTalk;IRC;iptel.org;Off;On;On;Tls;UDP;TCP;On;On;Off;Auto;FALSE;TRUE;2;2;2;768;1085;817;4628;5649;104;3783;114;5825;5458;552;3680;PCMU-8000;SILK-8000;SILK-8000;ulpfec;VP8;VP8;720;360;1080;NotDone
GoogleTalk;iPPi;GoogleTalk;Off;On;On;Tls;UDP;TCP;On;On;Off;TRUE;FALSE;TRUE;2;2;3;768;1085;817;4628;5649;104;4906;114;5825;5935;552;3680;PCMU-8000;SILK-8000;SILK-8000;ulpfec;VP8;VP8;360;360;1080;NotDone
GoogleTalk;IRC;GoogleTalk;Off;On;On;Tls;UDP;TCP;On;On;Off;Auto;Auto;TRUE;2;2;3;758;1720;817;412;5649;104;5997;114;5957;5935;67;145;GSM-8000;SILK-8000;SILK-8000;ulpfec;VP8;VP8;720;240;1080;NotDone
GoogleTalk;GoogleTalk;GoogleTalk;Off;On;On;Tls;UDP;TCP;On;On;Off;Auto;Auto;TRUE;2;2;3;758;895;817;412;5649;104;5997;114;5957;5935;67;145;GSM-8000;SILK-8000;SILK-8000;ulpfec;VP8;VP8;720;360;1080;NotDone
GoogleTalk;GoogleTalk;GoogleTalk;Off;On;On;UDP;Tls;TCP;On;On;Off;Auto;Auto;TRUE;2;2;4;700;1997;1945;5710;142;5689;5997;114;5957;5935;67;145;PCMU-8000;SILK-8000;SILK-8000;ulpfec;VP8;VP8;360;360;1080;NotDone
GoogleTalk;GoogleTalk;GoogleTalk;Off;On;On;Tls;UDP;TCP;On;On;Off;Auto;Auto;TRUE;2;2;3;758;895;817;412;5649;104;5997;114;5957;5935;67;145;GSM-8000;SILK-8000;SILK-8000;ulpfec;VP8;VP8;720;360;1080;NotDone
GoogleTalk;IRC;GoogleTalk;Off;Off;On;Auto;UDP;TCP;On;On;Off;TRUE;FALSE;TRUE;2;3;4;768;895;725;5710;5589;4686;3015;622;3167;5935;319;3403;SILK-12000;SILK-8000;SILK-8000;Auto;VP8;VP8;720;480;240;NotDone
GoogleTalk;IRC;GoogleTalk;Off;On;On;Tls;UDP;TCP;On;On;Off;Auto;FALSE;TRUE;2;3;4;1907;629;1945;5710;198;104;5997;114;5957;5935;67;145;GSM-8000;SILK-8000;SILK-8000;ulpfec;VP8;VP8;720;360;1080;NotDone
GoogleTalk;IRC;GoogleTalk;Off;On;On;UDP;Auto;TCP;BestEffort;On;Off;Auto;FALSE;TRUE;2;3;4;1907;1970;1945;5710;198;104;5997;114;5957;5935;67;145;GSM-8000;SILK-8000;SILK-8000;ulpfec;VP8;VP8;720;360;1080;NotDone
GoogleTalk;IRC;GoogleTalk;Off;On;On;Auto;Auto;TCP;Off;On;Off;Auto;FALSE;TRUE;4;3;3;1816;1862;635;4933;5803;5689;398;117;258;5754;319;539;SILK-12000;SILK-8000;SILK-8000;Auto;VP8;VP8;1080;480;240;NotDone
GoogleTalk;iPPi;GoogleTalk;On;On;On;Auto;Auto;TCP;On;On;Off;TRUE;FALSE;TRUE;2;3;4;768;1085;817;5025;5589;1633;398;260;258;5935;5946;539;SILK-8000;SILK-8000;SILK-8000;red;VP8;VP8;1080;360;240;NotDone
GoogleTalk;IRC;iptel.org;Off;On;On;UDP;UDP;TCP;BestEffort;On;Off;Auto;FALSE;TRUE;3;3;4;678;1970;1945;412;5649;104;5997;114;5957;5935;67;145;speex-8000;SILK-8000;SILK-8000;ulpfec;VP8;VP8;720;360;1080;NotDone
GoogleTalk;IRC;GoogleTalk;Off;On;On;Tls;UDP;TCP;On;On;Off;Auto;FALSE;TRUE;2;3;3;1907;1970;1945;5710;198;104;5997;114;5957;5935;67;145;GSM-8000;SILK-8000;SILK-8000;ulpfec;VP8;VP8;720;360;1080;NotDone
GoogleTalk;IRC;GoogleTalk;Off;On;On;Tls;UDP;TCP;On;On;Off;Auto;FALSE;TRUE;2;2;3;768;1085;1945;412;5649;104;5997;114;5957;5935;67;145;GSM-8000;SILK-8000;SILK-8000;ulpfec;VP8;VP8;720;360;1080;NotDone
GoogleTalk;IRC;GoogleTalk;Off;On;On;Tls;UDP;TCP;On;Off;Off;TRUE;FALSE;TRUE;3;3;3;1816;759;635;4933;5803;5689;398;117;258;5935;319;539;speex-16000;SILK-8000;SILK-8000;Auto;VP8;VP8;1080;480;240;NotDone
GoogleTalk;IRC;GoogleTalk;Off;On;On;UDP;UDP;TCP;BestEffort;On;Off;TRUE;Auto;TRUE;3;3;4;678;1970;1945;412;5649;104;5997;114;5821;5935;67;145;GSM-8000;SILK-8000;SILK-8000;ulpfec;VP8;VP8;720;720;1080;NotDone
GoogleTalk;IRC;GoogleTalk;Off;On;On;Tls;UDP;TCP;On;On;Off;TRUE;FALSE;TRUE;2;2;4;768;1085;817;5025;5589;1633;3015;622;5031;5935;552;3680;PCMU-8000;SILK-8000;SILK-8000;ulpfec;VP8;VP8;720;360;1080;NotDone
GoogleTalk;iPPi;GoogleTalk;On;On;On;Auto;Auto;TCP;On;On;Off;TRUE;FALSE;TRUE;2;3;4;768;1085;817;5025;5589;1633;2452;622;3167;5935;5946;539;SILK-8000;SILK-8000;SILK-8000;ulpfec;VP8;VP8;720;720;1080;NotDone
GoogleTalk;GoogleTalk;GoogleTalk;Off;On;On;UDP;UDP;TCP;BestEffort;On;Off;Auto;FALSE;TRUE;2;2;2;1907;1970;1945;5786;142;5689;5997;114;5861;5935;67;145;SILK-8000;SILK-8000;Auto;h264;VP8;VP8;1080;720;240;NotDone
GoogleTalk;IRC;GoogleTalk;Off;On;On;UDP;Auto;TCP;BestEffort;On;Off;Auto;FALSE;TRUE;2;3;4;1907;1970;1945;5710;198;104;5997;114;5957;5935;67;145;GSM-8000;SILK-8000;SILK-8000;ulpfec;VP8;VP8;720;360;1080;NotDone
GoogleTalk;IRC;GoogleTalk;Off;On;On;Auto;Auto;Tls;Off;Off;Off;Auto;FALSE;FALSE;2;2;2;1907;1085;817;4628;5589;1633;3015;622;3167;5935;552;5565;SILK-8000;SILK-8000;SILK-8000;Auto;VP8;VP8;1080;360;480;NotDone
GoogleTalk;IRC;GoogleTalk;Off;On;On;Auto;UDP;TCP;On;On;Off;Auto;FALSE;TRUE;3;3;4;1816;895;1888;5710;5803;104;398;5866;5741;5935;552;539;speex-32000;SILK-8000;SILK-8000;Auto;VP8;VP8;1080;360;1080;NotDone
GoogleTalk;IRC;GoogleTalk;On;On;On;Auto;Auto;TCP;Off;On;Off;Auto;FALSE;FALSE;2;2;3;1994;1970;1945;5710;5363;5689;5997;114;5957;5935;67;5565;SILK-8000;SILK-8000;SILK-8000;Auto;VP8;VP8;1080;360;480;NotDone
GoogleTalk;SIP;GoogleTalk;On;On;On;Auto;Auto;Tls;Off;Off;Off;Auto;FALSE;FALSE;2;2;2;1907;1970;1945;5786;142;5689;5997;117;258;5935;319;539;SILK-12000;SILK-8000;SILK-8000;Auto;VP8;VP8;1080;480;240;NotDone
GoogleTalk;IRC;GoogleTalk;Off;On;On;Tls;UDP;TCP;On;On;Off;TRUE;FALSE;TRUE;2;2;4;768;1085;817;5025;5589;1633;3015;622;3167;5935;552;3680;PCMU-8000;SILK-8000;SILK-8000;ulpfec;VP8;VP8;720;360;1080;NotDone
GoogleTalk;IRC;GoogleTalk;On;On;On;Auto;Auto;Tls;Off;Off;Off;Auto;FALSE;FALSE;2;2;2;1907;1970;1945;5786;142;5689;5997;114;5996;5935;67;145;SILK-8000;SILK-8000;Auto;VP8;VP8;VP8;1080;720;240;NotDone
GoogleTalk;IRC;GoogleTalk;Off;On;On;Tls;UDP;TCP;On;On;Off;TRUE;FALSE;TRUE;2;2;4;768;1085;817;5025;5589;1633;3015;622;3167;5935;552;3680;PCMU-8000;SILK-8000;SILK-8000;ulpfec;VP8;VP8;720;360;1080;NotDone
GoogleTalk;iptel.org;GoogleTalk;On;On;On;Auto;Auto;TCP;Off;Off;Off;Auto;TRUE;TRUE;3;3;4;1907;1970;1945;5710;5803;3745;3088;117;258;5935;319;539;Auto;SILK-8000;SILK-8000;Auto;VP8;VP8;1080;720;480;NotDone
GoogleTalk;GoogleTalk;SIP;Off;Off;On;UDP;UDP;Auto;BestEffort;Off;BestEffort;FALSE;Auto;Auto;3;4;2;1445;983;1028;4730;1556;1872;3407;2226;5826;4011;1440;2494;PCMU-8000;G722-16000;GSM-8000;rtx;red;red;1080;720;360;NotDone
GoogleTalk;IRC;GoogleTalk;Off;On;On;Auto;Auto;TCP;Off;On;Off;Auto;FALSE;TRUE;2;3;4;768;1085;817;4628;5589;1633;3015;622;3167;5935;552;539;PCMU-8000;SILK-8000;SILK-8000;ulpfec;VP8;VP8;720;1080;480;NotDone
GoogleTalk;IRC;GoogleTalk;Off;On;On;UDP;UDP;TCP;BestEffort;On;Off;TRUE;Auto;TRUE;3;3;4;678;1970;1945;412;5649;104;5997;114;5821;5935;67;145;GSM-8000;SILK-8000;SILK-8000;ulpfec;VP8;VP8;720;720;1080;NotDone
GoogleTalk;IRC;GoogleTalk;On;On;On;Auto;Auto;TCP;Off;On;Off;Auto;FALSE;TRUE;2;3;4;768;1085;817;5025;5589;1633;2452;622;3167;5935;5946;145;GSM-8000;SILK-8000;SILK-8000;ulpfec;VP8;VP8;720;360;1080;NotDone
GoogleTalk;IRC;GoogleTalk;Off;On;On;Auto;Tls;TCP;On;On;Off;Auto;TRUE;TRUE;3;3;4;1816;895;1888;5710;5803;5689;5997;114;90;5935;67;5565;SILK-8000;SILK-8000;SILK-8000;Auto;VP8;VP8;1080;360;480;NotDone
GoogleTalk;IRC;GoogleTalk;Off;On;On;Tls;UDP;TCP;On;On;Off;TRUE;TRUE;TRUE;2;2;4;768;1085;817;5315;5987;104;5997;114;5957;5935;67;145;GSM-8000;SILK-8000;SILK-8000;h264;VP8;VP8;1080;360;1080;NotDone
GoogleTalk;IRC;GoogleTalk;Off;On;On;Tls;UDP;TCP;Off;Off;Off;Auto;FALSE;FALSE;2;2;2;1907;1970;1945;5786;142;5689;5997;114;5996;5935;67;145;SILK-8000;SILK-8000;Auto;VP8;VP8;VP8;1080;720;240;NotDone
