caller_protocol;callee1_protocol;callee2_protocol;caller_listenport;callee1_listenport;callee2_listenport;caller_transportprotocol;callee1_transportprotocol;callee2_transportprotocol;caller_encryption;callee1_encryption;callee2_encryption;caller_sipzrtpattribute;callee1_sipzrtpattribute;callee2_sipzrtpattribute;caller_maxpeers;callee1_maxpeers;callee2_maxpeers;caller_mtu;callee1_mtu;callee2_mtu;caller_defaultcallrate;callee1_defaultcallrate;callee2_defaultcallrate;caller_maxreceivecallrate;callee1_maxreceivecallrate;callee2_maxreceivecallrate;caller_maxtransmitcallrate;callee1_maxtransmitcallrate;callee2_maxtransmitcallrate;caller_audiocodec;callee1_audiocodec;callee2_audiocodec;caller_videocodec;callee1_videocodec;callee2_videocodec;caller_maxresolution;callee1_maxresolution;callee2_maxresolution;
GoogleTalk;IRC;iptel.org;Off;On;On;Auto;Auto;TCP;On;On;Off;Auto;FALSE;TRUE;4;3;3;1009;950;609;4287;5929;350;3140;538;3199;5942;310;933;opus-48000;SILK-8000;SILK-12000;h264;VP8;VP8;720;240;240;NotDone
GoogleTalk;IRC;GoogleTalk;Off;On;On;Auto;Auto;TCP;On;On;Off;Auto;FALSE;TRUE;3;3;3;1798;1846;1941;5961;5929;5985;100;364;5868;5942;228;90;PCMU-8000;SILK-8000;SILK-12000;h264;VP8;VP8;720;360;240;NotDone
GoogleTalk;IRC;iptel.org;Off;On;On;Auto;Auto;TCP;Off;On;Off;Auto;FALSE;Auto;3;3;2;1967;1959;1941;5961;5929;5985;100;364;5977;5942;228;90;PCMU-8000;SILK-8000;SILK-12000;h264;VP8;VP8;720;240;240;NotDone
GoogleTalk;IRC;GoogleTalk;Off;On;On;Auto;Auto;TCP;Off;Off;Off;Auto;FALSE;TRUE;3;3;3;1798;1959;1941;5961;5929;5985;100;364;100;5942;171;90;AMR-WB-16000;SILK-8000;SILK-12000;h264;VP8;VP8;480;240;240;NotDone
GoogleTalk;IRC;iptel.org;On;On;On;Auto;Auto;TCP;Off;Off;Off;Auto;FALSE;TRUE;3;3;3;1798;1184;609;5961;5929;5985;100;364;461;5942;310;90;PCMU-8000;SILK-8000;SILK-12000;VP8;VP8;VP8;720;360;240;NotDone
GoogleTalk;IRC;GoogleTalk;Off;On;On;Auto;Auto;TCP;Off;Off;Off;Auto;FALSE;TRUE;3;3;3;1798;1959;1941;5961;5929;5985;100;595;100;5942;310;90;Auto;SILK-8000;SILK-12000;VP8;VP8;VP8;720;360;240;NotDone
GoogleTalk;IRC;iptel.org;Off;On;On;Auto;Auto;TCP;On;On;Off;Auto;FALSE;TRUE;3;3;3;1828;1184;609;5961;5929;5985;100;364;100;5942;310;90;AMR-WB-16000;SILK-8000;SILK-12000;h264;VP8;VP8;480;240;240;NotDone
SIP;IRC;IRC;Off;On;On;Auto;Auto;TCP;Off;Off;BestEffort;Auto;FALSE;TRUE;3;3;3;1798;1959;1941;5961;5929;5985;100;364;100;5942;171;90;AMR-WB-16000;SILK-8000;SILK-12000;h264;VP8;VP8;720;240;240;NotDone
GoogleTalk;IRC;iptel.org;On;On;On;Auto;Auto;TCP;Off;Off;Off;Auto;FALSE;TRUE;4;3;3;1798;1184;609;5961;5929;5985;100;364;1140;5942;310;90;AMR-WB-16000;SILK-8000;SILK-12000;h264;VP8;VP8;720;360;240;NotDone
GoogleTalk;IRC;iptel.org;On;On;On;Auto;Auto;TCP;Off;Off;Off;Auto;FALSE;TRUE;3;3;2;1967;1959;1941;5961;5929;5985;100;364;5977;5942;228;90;PCMU-8000;SILK-8000;SILK-12000;h264;VP8;VP8;720;240;240;NotDone
GoogleTalk;IRC;GoogleTalk;On;On;On;Tls;Auto;TCP;On;Off;Off;Auto;FALSE;TRUE;3;3;2;1967;1959;1941;5961;5929;5985;100;364;5977;5942;228;90;PCMU-8000;SILK-8000;SILK-12000;h264;VP8;VP8;720;240;240;NotDone
SIP;IRC;iptel.org;On;On;On;Auto;Auto;TCP;Off;On;Off;Auto;FALSE;TRUE;3;3;3;1798;1959;1941;5961;5929;5985;100;595;100;5942;310;90;AMR-WB-16000;SILK-8000;SILK-12000;h264;VP8;VP8;720;360;240;NotDone
GoogleTalk;IRC;GoogleTalk;Off;On;On;Auto;Auto;TCP;On;On;Off;Auto;FALSE;TRUE;2;3;2;1828;1184;899;4287;5929;350;3140;538;3199;5942;310;89;PCMU-8000;SILK-8000;SILK-12000;ulpfec;VP8;VP8;720;240;240;NotDone
GoogleTalk;IRC;GoogleTalk;Off;On;On;Auto;Auto;TCP;On;Off;Off;Auto;FALSE;TRUE;3;3;3;1828;950;609;4287;5929;350;3140;538;3199;5942;310;90;Auto;SILK-8000;SILK-12000;VP8;VP8;VP8;720;360;240;NotDone
GoogleTalk;IRC;iptel.org;Off;On;On;Auto;Auto;TCP;On;On;Off;Auto;FALSE;TRUE;3;3;3;1798;1184;609;5152;5929;350;411;538;100;5942;310;90;PCMU-8000;SILK-8000;SILK-12000;VP8;VP8;VP8;720;360;240;NotDone
GoogleTalk;IRC;GoogleTalk;Off;On;On;Auto;Tls;TCP;On;On;Off;Auto;Auto;TRUE;3;4;3;661;633;609;5961;5929;350;5818;364;1158;5942;310;90;PCMU-8000;SILK-8000;SILK-12000;ulpfec;VP8;VP8;720;360;1080;NotDone
GoogleTalk;IRC;iptel.org;Off;On;On;Auto;Auto;TCP;Off;On;Off;Auto;FALSE;TRUE;3;3;3;1828;950;609;4287;5929;350;3140;538;3199;5942;310;90;Auto;SILK-8000;SILK-12000;ulpfec;VP8;VP8;720;480;240;NotDone
GoogleTalk;IRC;GoogleTalk;Off;On;On;Auto;Auto;TCP;On;Off;Off;Auto;FALSE;TRUE;3;3;3;1009;1253;609;5961;5929;5985;100;364;461;5942;310;90;PCMU-8000;SILK-8000;SILK-12000;VP8;VP8;VP8;720;360;240;NotDone
GoogleTalk;IRC;IRC;Off;On;On;Auto;Auto;TCP;Off;Off;Off;Auto;FALSE;TRUE;3;4;3;1798;1959;609;5961;5929;5985;100;364;100;5942;310;90;AMR-WB-16000;SILK-8000;SILK-12000;h264;VP8;VP8;720;360;240;NotDone
GoogleTalk;IRC;GoogleTalk;Off;On;Off;UDP;Auto;TCP;On;On;Off;Auto;FALSE;Auto;3;3;2;1967;1959;1941;5961;5929;5985;100;364;5977;5942;228;90;PCMU-8000;SILK-8000;SILK-12000;h264;VP8;VP8;720;240;240;NotDone
GoogleTalk;IRC;GoogleTalk;Off;On;On;Tls;Auto;TCP;On;Off;Off;TRUE;FALSE;TRUE;3;3;3;1798;1184;609;5961;5929;5985;100;364;5868;5942;310;90;AMR-WB-16000;SILK-8000;SILK-12000;ulpfec;VP8;VP8;720;240;1080;NotDone
GoogleTalk;IRC;iptel.org;Off;On;On;Auto;Auto;TCP;Off;On;Off;Auto;FALSE;TRUE;2;3;3;1009;950;609;5961;5929;350;5818;364;3199;5942;310;90;PCMU-8000;SILK-8000;SILK-12000;ulpfec;VP8;VP8;720;240;1080;NotDone
GoogleTalk;IRC;iptel.org;Off;On;On;Auto;Auto;TCP;Off;On;Off;Auto;FALSE;TRUE;2;2;3;1009;950;609;4287;5929;350;2317;538;3199;5942;310;561;PCMU-8000;SILK-8000;SILK-12000;ulpfec;VP8;VP8;720;360;240;NotDone
GoogleTalk;IRC;GoogleTalk;Off;On;On;Auto;Tls;TCP;On;On;Off;Auto;FALSE;TRUE;4;3;3;1009;950;609;4287;5929;350;3140;538;3199;5942;310;90;Auto;SILK-8000;SILK-12000;VP8;VP8;VP8;720;360;240;NotDone
GoogleTalk;IRC;GoogleTalk;Off;On;On;Auto;Auto;TCP;Off;Off;Off;Auto;FALSE;TRUE;4;3;3;1009;950;609;4287;5929;350;3140;538;3199;5942;310;90;Auto;SILK-8000;SILK-12000;VP8;VP8;VP8;720;360;240;NotDone
SIP;IRC;iptel.org;On;On;On;Auto;Auto;TCP;On;Off;Off;Auto;FALSE;TRUE;3;3;3;1798;1184;609;5961;5929;5985;100;364;100;5942;310;90;AMR-WB-16000;SILK-8000;SILK-12000;h264;VP8;VP8;720;360;240;NotDone
GoogleTalk;IRC;GoogleTalk;Off;On;On;Auto;Tls;TCP;On;On;Off;Auto;FALSE;TRUE;3;3;3;1798;1959;1941;5961;5929;5985;100;595;100;5942;310;90;AMR-WB-16000;SILK-8000;SILK-12000;h264;VP8;VP8;720;360;240;NotDone
GoogleTalk;IRC;GoogleTalk;Off;On;Off;Auto;Auto;TCP;On;On;Off;Auto;FALSE;TRUE;2;3;2;1976;1286;1941;5961;5929;5985;100;364;5977;5942;228;90;PCMU-8000;SILK-8000;SILK-12000;ulpfec;VP8;VP8;720;240;1080;NotDone
GoogleTalk;IRC;iptel.org;On;On;On;Auto;Auto;TCP;Off;Off;Off;Auto;FALSE;TRUE;2;3;3;1798;1117;609;5961;5929;5985;100;538;461;5942;310;90;Auto;SILK-8000;SILK-12000;VP8;VP8;VP8;720;360;240;NotDone
GoogleTalk;IRC;iptel.org;Off;On;On;Auto;Auto;TCP;On;On;Off;Auto;FALSE;TRUE;2;3;3;1031;1959;1941;5961;5929;5985;100;364;5977;5942;228;90;AMR-WB-16000;SILK-8000;SILK-12000;rtx;VP8;VP8;720;360;480;NotDone
GoogleTalk;IRC;iptel.org;Off;On;On;Auto;Auto;TCP;On;On;Off;Auto;FALSE;TRUE;3;3;3;1798;1184;609;5961;5929;350;411;538;4605;5942;310;90;PCMU-8000;SILK-8000;SILK-12000;VP8;VP8;VP8;720;360;240;NotDone
GoogleTalk;IRC;GoogleTalk;Off;On;On;Auto;Auto;TCP;On;On;Off;Auto;FALSE;TRUE;3;3;3;653;1184;609;5961;5929;350;5818;364;3199;5942;310;90;PCMU-8000;SILK-8000;SILK-12000;ulpfec;VP8;VP8;720;360;240;NotDone
GoogleTalk;IRC;iptel.org;Off;On;On;Auto;Auto;TCP;On;On;Off;Auto;FALSE;TRUE;3;3;3;1828;1184;1941;5961;5929;5985;100;595;100;5942;310;90;PCMU-8000;SILK-8000;SILK-12000;h264;VP8;VP8;720;360;240;NotDone
GoogleTalk;IRC;iptel.org;Off;On;On;Auto;Auto;TCP;On;On;Off;Auto;FALSE;TRUE;2;3;3;1031;950;609;4287;5929;350;5818;364;3199;5942;310;90;PCMU-8000;SILK-8000;SILK-12000;ulpfec;VP8;VP8;720;240;1080;NotDone
GoogleTalk;IRC;GoogleTalk;Off;On;On;Auto;Auto;TCP;On;Off;Off;Auto;FALSE;TRUE;3;3;3;1009;950;1941;5961;5929;5985;100;595;100;5942;310;90;AMR-WB-16000;SILK-8000;SILK-12000;ulpfec;VP8;VP8;720;240;1080;NotDone
SIP;IRC;iptel.org;On;On;On;Auto;Auto;TCP;Off;Off;Off;TRUE;FALSE;TRUE;3;3;3;1828;950;609;4287;5929;350;3140;538;3199;5942;310;4728;Auto;SILK-8000;SILK-12000;h264;VP8;VP8;720;360;240;NotDone
GoogleTalk;IRC;GoogleTalk;Off;On;On;Auto;Auto;TCP;Off;Off;Off;TRUE;FALSE;TRUE;3;3;3;1828;950;609;4287;5929;350;3140;538;3199;5942;310;4728;Auto;SILK-8000;SILK-12000;h264;VP8;VP8;720;360;240;NotDone
GoogleTalk;IRC;GoogleTalk;Off;On;On;Auto;Tls;TCP;On;On;Off;Auto;FALSE;TRUE;4;3;3;1009;950;609;4287;5929;350;3140;538;3199;5942;310;3660;speex-32000;SILK-8000;SILK-12000;ulpfec;VP8;VP8;720;240;1080;NotDone
GoogleTalk;IRC;GoogleTalk;Off;On;On;Auto;Auto;TCP;On;Off;Off;Auto;FALSE;TRUE;3;3;3;1009;1253;609;5961;5929;5985;100;364;100;5942;310;90;opus-48000;SILK-8000;SILK-12000;ulpfec;VP8;VP8;720;240;1080;NotDone
GoogleTalk;IRC;GoogleTalk;Off;On;On;Auto;Auto;TCP;On;Off;Off;Auto;FALSE;TRUE;3;3;3;1798;950;609;4287;5929;350;3140;364;461;5942;310;90;PCMU-8000;SILK-8000;SILK-12000;VP8;VP8;VP8;720;360;240;NotDone
GoogleTalk;IRC;GoogleTalk;Off;On;On;Auto;Auto;TCP;Off;Off;Off;Auto;FALSE;TRUE;3;3;3;1798;1959;609;5961;5929;5985;100;364;100;5942;310;90;PCMU-8000;SILK-8000;SILK-12000;VP8;VP8;VP8;720;360;240;NotDone
GoogleTalk;IRC;iptel.org;On;On;On;Auto;Auto;TCP;Off;Off;Off;Auto;FALSE;TRUE;4;3;3;1009;950;609;4287;5929;350;3140;538;3199;5942;310;90;Auto;SILK-8000;SILK-12000;VP8;VP8;VP8;720;360;240;NotDone
GoogleTalk;IRC;iptel.org;Off;On;On;Auto;Auto;TCP;On;Off;Off;Auto;FALSE;TRUE;3;3;3;1798;1959;1941;5961;5929;5985;100;595;100;5942;310;90;AMR-WB-16000;SILK-8000;SILK-12000;h264;VP8;VP8;720;360;240;NotDone
GoogleTalk;IRC;iptel.org;Off;On;On;Auto;Auto;TCP;On;Off;Off;TRUE;FALSE;TRUE;3;3;3;1798;1117;609;5961;5929;5985;100;538;461;5942;310;90;AMR-WB-16000;SILK-8000;SILK-12000;rtx;VP8;VP8;720;360;480;NotDone
GoogleTalk;IRC;iptel.org;Off;On;On;Auto;Auto;TCP;Off;On;Off;Auto;FALSE;TRUE;2;3;3;1009;950;609;5961;5929;350;100;538;3199;5942;310;4728;Auto;SILK-8000;SILK-12000;h264;VP8;VP8;720;360;240;NotDone
GoogleTalk;IRC;iptel.org;Off;On;On;Auto;Auto;TCP;Off;On;Off;Auto;FALSE;TRUE;4;3;3;1009;950;609;4287;5929;350;100;364;100;5942;310;90;AMR-WB-16000;SILK-8000;SILK-12000;h264;VP8;VP8;720;360;240;NotDone
SIP;IRC;iptel.org;On;On;On;Auto;Auto;TCP;Off;Off;Off;TRUE;FALSE;TRUE;3;3;3;1828;950;609;4287;5929;350;3140;538;3199;5942;310;90;Auto;SILK-8000;SILK-12000;VP8;VP8;VP8;720;360;240;NotDone
SIP;IRC;iptel.org;On;On;On;Auto;Auto;TCP;Off;Off;Off;Auto;FALSE;TRUE;3;3;2;1967;1959;1941;5961;5929;5985;100;364;5977;5942;228;90;AMR-WB-16000;SILK-8000;SILK-12000;rtx;VP8;VP8;720;360;480;NotDone
SIP;IRC;IRC;On;On;On;Auto;Auto;TCP;Off;Off;Off;Auto;FALSE;TRUE;3;3;3;1798;1959;1941;5961;5929;5985;100;364;100;5942;171;90;AMR-WB-16000;SILK-8000;SILK-12000;h264;VP8;VP8;720;240;240;NotDone
GoogleTalk;IRC;iptel.org;On;On;On;Auto;Auto;TCP;Off;Off;Off;Auto;FALSE;TRUE;4;3;3;1798;1184;609;5961;5929;5985;100;364;1140;5942;310;90;AMR-WB-16000;SILK-8000;SILK-12000;h264;VP8;VP8;720;360;240;NotDone
SIP;IRC;iptel.org;On;On;On;Auto;Auto;TCP;Off;Off;Off;Auto;FALSE;TRUE;3;3;3;1798;1959;1941;5961;5929;5985;100;595;100;5942;310;90;AMR-WB-16000;SILK-8000;SILK-12000;h264;VP8;VP8;720;360;240;NotDone
GoogleTalk;IRC;GoogleTalk;Off;On;On;Auto;Auto;TCP;On;On;Off;Auto;FALSE;TRUE;4;3;3;1009;950;609;4287;5929;350;3140;364;461;5942;310;90;PCMU-8000;SILK-8000;SILK-12000;VP8;VP8;VP8;720;360;240;NotDone
GoogleTalk;IRC;iptel.org;Off;On;On;Auto;Auto;TCP;Off;On;Off;Auto;FALSE;TRUE;4;3;3;1009;950;609;4320;5929;350;3140;538;3199;5942;310;3660;PCMU-8000;SILK-8000;SILK-12000;ulpfec;VP8;VP8;720;240;240;NotDone
GoogleTalk;IRC;GoogleTalk;Off;On;On;Auto;Tls;TCP;On;On;Off;Auto;FALSE;TRUE;4;3;3;1009;950;609;4287;5929;350;5818;364;461;5942;310;90;PCMU-8000;SILK-8000;SILK-12000;h264;VP8;VP8;720;360;240;NotDone
GoogleTalk;IRC;GoogleTalk;Off;On;On;Auto;Auto;TCP;On;On;Off;Auto;FALSE;TRUE;4;3;3;1009;950;609;4287;5929;350;3140;538;3199;5942;310;561;PCMU-8000;SILK-8000;SILK-12000;ulpfec;VP8;VP8;720;360;240;NotDone
GoogleTalk;IRC;iptel.org;On;On;On;UDP;Tls;TCP;On;On;Off;Auto;FALSE;TRUE;2;3;3;1828;1959;609;5961;5929;5985;100;364;5868;5942;310;90;iLBC-8000;SILK-8000;SILK-12000;VP8;VP8;VP8;720;360;240;NotDone
GoogleTalk;IRC;iptel.org;Off;On;On;Auto;Auto;TCP;Off;On;Off;Auto;FALSE;TRUE;2;3;3;1009;950;609;5961;5929;350;5818;364;461;5942;310;114;PCMU-8000;SILK-8000;SILK-12000;VP8;VP8;VP8;720;360;240;NotDone
GoogleTalk;IRC;GoogleTalk;Off;On;On;Auto;Auto;TCP;On;On;Off;Auto;FALSE;TRUE;2;3;4;653;1959;1941;5346;5929;5985;100;364;5868;5942;228;90;PCMU-8000;SILK-8000;SILK-12000;ulpfec;VP8;VP8;720;360;240;NotDone
GoogleTalk;IRC;GoogleTalk;Off;On;On;Auto;Auto;TCP;On;On;Off;Auto;FALSE;TRUE;2;3;3;1828;1184;899;5961;5929;350;2543;364;87;5942;310;90;AMR-WB-16000;SILK-8000;SILK-12000;h264;VP8;VP8;720;360;240;NotDone
GoogleTalk;IRC;iptel.org;Off;On;On;Auto;Auto;TCP;On;On;Off;Auto;FALSE;TRUE;3;3;3;1798;1184;609;5961;5929;350;411;538;461;5942;310;90;opus-48000;SILK-8000;SILK-12000;VP8;VP8;VP8;720;360;240;NotDone
GoogleTalk;IRC;SIP;Off;On;On;Auto;Auto;TCP;Off;Off;Off;FALSE;FALSE;TRUE;4;3;3;1009;950;609;4287;5929;350;5818;364;461;5942;310;90;PCMU-8000;SILK-8000;SILK-12000;VP8;VP8;VP8;720;360;240;NotDone
GoogleTalk;IRC;GoogleTalk;Off;On;On;Auto;Auto;TCP;Off;Off;Off;Auto;Auto;FALSE;3;4;3;661;633;609;5961;5929;350;5818;364;5868;5942;310;90;opus-48000;SILK-8000;SILK-12000;ulpfec;VP8;VP8;720;240;1080;NotDone
GoogleTalk;AIM;GoogleTalk;Off;On;Off;Tls;Auto;TCP;BestEffort;On;Off;Auto;FALSE;TRUE;2;3;3;653;1959;1941;5961;5929;5985;100;364;5868;5942;228;90;PCMU-8000;SILK-8000;SILK-12000;ulpfec;VP8;VP8;720;360;240;NotDone
GoogleTalk;IRC;iptel.org;Off;On;On;Auto;Auto;TCP;Off;On;Off;Auto;FALSE;TRUE;2;3;3;1009;950;609;5961;5929;350;100;364;100;5942;310;90;AMR-WB-16000;SILK-8000;SILK-12000;h264;VP8;VP8;720;360;240;NotDone
GoogleTalk;IRC;iptel.org;Off;On;On;Auto;Auto;TCP;Off;Off;Off;Auto;FALSE;TRUE;3;3;3;1521;1117;609;5961;5929;350;2543;364;461;5942;310;4728;Auto;SILK-8000;SILK-12000;h264;VP8;VP8;720;360;240;NotDone
GoogleTalk;IRC;GoogleTalk;Off;On;Off;UDP;Auto;TCP;On;On;Off;Auto;FALSE;TRUE;3;3;2;1967;1959;1941;5961;5929;5985;100;364;5977;5942;228;90;PCMU-8000;SILK-8000;SILK-12000;h264;VP8;VP8;720;240;240;NotDone
GoogleTalk;IRC;GoogleTalk;Off;On;On;Auto;Auto;TCP;On;On;Off;Auto;FALSE;TRUE;2;3;4;653;1959;1941;5346;5929;5985;100;364;5868;5942;228;90;PCMU-8000;SILK-8000;SILK-12000;ulpfec;VP8;VP8;720;360;240;NotDone
GoogleTalk;IRC;iptel.org;On;On;On;Auto;Auto;TCP;Off;Off;Off;Auto;FALSE;TRUE;4;3;3;1798;1184;609;5961;5929;5985;100;364;1140;5942;310;90;AMR-WB-16000;SILK-8000;SILK-12000;h264;VP8;VP8;720;360;240;NotDone
GoogleTalk;IRC;GoogleTalk;Off;On;On;Tls;Tls;TCP;On;On;Off;Auto;Auto;TRUE;3;4;3;661;633;609;5961;5929;350;5818;364;3199;5942;310;90;PCMU-8000;SILK-8000;SILK-12000;ulpfec;VP8;VP8;720;240;1080;NotDone
SIP;IRC;iptel.org;On;On;On;Auto;UDP;TCP;Off;Off;Off;Auto;FALSE;TRUE;2;3;3;1828;1184;1941;5961;5929;5985;100;595;100;5942;310;90;PCMU-8000;SILK-8000;SILK-12000;h264;VP8;VP8;720;360;240;NotDone
GoogleTalk;IRC;GoogleTalk;Off;On;Off;UDP;Auto;TCP;On;On;Off;Auto;FALSE;TRUE;3;3;2;1967;1959;1941;5961;5929;5985;100;364;5977;5942;228;90;PCMU-8000;SILK-8000;SILK-12000;h264;VP8;VP8;720;240;240;NotDone
GoogleTalk;IRC;GoogleTalk;Off;On;On;Auto;Auto;TCP;Off;Off;Off;Auto;FALSE;TRUE;3;3;3;1798;1959;609;5961;5929;5985;100;364;100;5942;310;90;AMR-WB-16000;SILK-8000;SILK-12000;h264;VP8;VP8;720;360;240;NotDone
GoogleTalk;IRC;iptel.org;Off;On;On;Auto;Auto;TCP;Off;On;Off;Auto;FALSE;TRUE;2;3;3;1009;950;1941;5961;5929;5985;100;595;100;5942;310;90;AMR-WB-16000;SILK-8000;SILK-12000;h264;VP8;VP8;720;360;240;NotDone
GoogleTalk;IRC;GoogleTalk;Off;On;On;Auto;Auto;TCP;Off;Off;Off;Auto;FALSE;TRUE;3;3;3;1798;1959;609;5961;5929;5985;100;364;100;5942;310;90;AMR-WB-16000;SILK-8000;SILK-12000;h264;VP8;VP8;720;360;240;NotDone
GoogleTalk;IRC;GoogleTalk;Off;On;On;Tls;Auto;TCP;On;Off;Off;TRUE;FALSE;TRUE;3;3;3;1798;1184;609;5961;5929;5985;100;364;5868;5942;310;90;SILK-8000;SILK-8000;SILK-12000;h264;VP8;VP8;480;360;480;NotDone
SIP;IRC;iptel.org;On;On;On;Auto;Auto;TCP;Off;Off;Off;Auto;FALSE;TRUE;3;3;3;1798;1959;1941;5961;5929;5985;100;595;100;5942;310;90;AMR-WB-16000;SILK-8000;SILK-12000;h264;VP8;VP8;720;360;240;NotDone
GoogleTalk;IRC;iptel.org;Off;On;On;Auto;Auto;TCP;On;On;Off;Auto;FALSE;TRUE;3;3;3;1798;1184;609;5961;5929;350;411;538;100;5942;310;90;PCMU-8000;SILK-8000;SILK-12000;VP8;VP8;VP8;720;360;240;NotDone
GoogleTalk;IRC;iptel.org;On;On;On;Auto;Auto;TCP;Off;Off;Off;Auto;FALSE;TRUE;3;3;3;1798;1117;609;5961;5929;350;100;364;461;5942;310;90;PCMA-8000;SILK-8000;SILK-12000;VP8;VP8;VP8;720;240;1080;NotDone
GoogleTalk;IRC;iptel.org;Off;On;On;Auto;Auto;TCP;On;On;Off;Auto;FALSE;TRUE;3;3;3;1798;1184;609;5961;5929;350;411;538;461;5942;310;90;AMR-WB-16000;SILK-8000;SILK-12000;h264;VP8;VP8;720;360;240;NotDone
SIP;IRC;iptel.org;On;On;On;Auto;Auto;TCP;Off;Off;Off;Auto;FALSE;TRUE;3;3;3;1798;1959;1941;5961;5929;5985;100;595;100;5942;310;90;AMR-WB-16000;SILK-8000;SILK-12000;h264;VP8;VP8;720;360;240;NotDone
GoogleTalk;IRC;iptel.org;Off;On;On;Auto;Auto;TCP;Off;On;Off;Auto;FALSE;TRUE;2;3;3;1798;1117;609;5961;5929;350;2543;538;5868;5942;310;90;AMR-WB-16000;SILK-8000;SILK-12000;rtx;VP8;VP8;720;360;240;NotDone
GoogleTalk;IRC;GoogleTalk;Off;On;On;Auto;Tls;TCP;On;On;Off;Auto;FALSE;TRUE;4;3;3;1009;950;609;4287;5929;350;5818;364;461;5942;310;90;PCMU-8000;SILK-8000;SILK-12000;VP8;VP8;VP8;720;360;240;NotDone
GoogleTalk;IRC;GoogleTalk;Off;On;On;Auto;Auto;TCP;On;On;Off;Auto;FALSE;TRUE;2;3;3;653;1184;609;4412;5929;350;5818;538;3199;5942;310;90;PCMU-8000;SILK-8000;SILK-12000;VP8;VP8;VP8;720;360;240;NotDone
GoogleTalk;IRC;GoogleTalk;Off;On;On;Auto;Auto;TCP;On;On;Off;Auto;FALSE;TRUE;2;3;3;653;1184;609;4412;5929;350;3140;538;3199;5125;310;90;PCMU-8000;SILK-8000;SILK-12000;VP8;VP8;VP8;720;720;240;NotDone
GoogleTalk;IRC;GoogleTalk;Off;On;On;Auto;Auto;TCP;On;Off;Off;Auto;FALSE;TRUE;3;3;3;998;825;1941;5961;5929;5985;100;364;5868;5942;310;90;PCMU-8000;SILK-8000;SILK-12000;VP8;VP8;VP8;720;360;240;NotDone
GoogleTalk;IRC;GoogleTalk;Off;On;On;Auto;Tls;TCP;On;On;Off;Auto;FALSE;TRUE;4;3;3;1009;950;609;4287;5929;350;5818;364;461;5942;310;90;PCMU-8000;SILK-8000;SILK-12000;VP8;VP8;VP8;720;360;240;NotDone
GoogleTalk;IRC;iptel.org;On;On;On;Auto;Auto;TCP;Off;Off;Off;Auto;FALSE;TRUE;3;3;3;1009;1253;609;5961;5929;5985;100;364;100;5942;310;90;opus-48000;SILK-8000;SILK-12000;ulpfec;VP8;VP8;720;240;1080;NotDone
GoogleTalk;IRC;GoogleTalk;Off;On;On;Tls;Auto;TCP;On;On;Off;Auto;Auto;FALSE;3;4;3;661;633;609;5961;5929;350;5818;364;5868;5942;310;90;opus-48000;SILK-8000;SILK-12000;ulpfec;VP8;VP8;720;240;1080;NotDone
GoogleTalk;IRC;GoogleTalk;Off;On;On;Auto;Auto;TCP;On;Off;Off;Auto;FALSE;TRUE;3;3;3;1009;1253;609;5961;5929;5985;100;364;461;5942;310;90;PCMU-8000;SILK-8000;SILK-12000;VP8;VP8;VP8;720;360;720;NotDone
GoogleTalk;IRC;iptel.org;Off;On;On;Auto;Auto;TCP;Off;On;Off;Auto;FALSE;TRUE;2;3;3;1798;1117;609;5961;5929;5985;100;364;461;5081;310;90;SILK-8000;telephone-event-80000;SILK-12000;ulpfec;VP8;VP8;720;360;240;NotDone
GoogleTalk;IRC;GoogleTalk;Off;On;On;Auto;Tls;TCP;On;On;Off;Auto;FALSE;TRUE;4;3;3;1009;950;609;4287;5929;350;5818;364;461;5942;310;90;PCMU-8000;SILK-8000;SILK-12000;VP8;VP8;VP8;720;360;240;NotDone
GoogleTalk;IRC;iptel.org;Off;On;On;Auto;Auto;TCP;On;On;Off;Auto;FALSE;TRUE;3;3;3;1798;1184;609;5961;5929;350;411;538;461;5942;310;90;AMR-WB-16000;SILK-8000;SILK-12000;h264;VP8;VP8;720;360;240;NotDone
GoogleTalk;IRC;GoogleTalk;Off;On;On;UDP;Tls;TCP;On;On;Off;Auto;FALSE;TRUE;3;3;3;1798;1117;609;5961;5929;350;2543;364;461;5942;310;4728;Auto;SILK-8000;SILK-12000;h264;VP8;VP8;720;360;240;NotDone
GoogleTalk;IRC;iptel.org;On;On;On;Auto;Auto;TCP;Off;Off;Off;Auto;FALSE;TRUE;3;3;3;1798;1184;609;5961;5929;5985;100;364;100;5942;310;90;AMR-WB-16000;SILK-8000;SILK-12000;h264;VP8;VP8;720;360;240;NotDone
SIP;IRC;iptel.org;On;On;On;Auto;Auto;TCP;Off;Off;Off;Auto;FALSE;TRUE;3;3;3;1798;1117;609;5961;5929;5985;100;538;461;5942;310;90;AMR-WB-16000;SILK-8000;SILK-12000;rtx;VP8;VP8;720;360;480;NotDone
GoogleTalk;IRC;iptel.org;On;On;On;Auto;Auto;TCP;Off;Off;Off;Auto;FALSE;TRUE;3;3;3;1798;1117;609;5961;5929;350;2543;538;5868;5942;310;90;AMR-WB-16000;SILK-8000;SILK-12000;rtx;VP8;VP8;720;360;240;NotDone
SIP;IRC;iptel.org;On;On;On;Auto;UDP;TCP;Off;Off;Off;Auto;FALSE;TRUE;2;3;3;1828;1184;899;5961;5929;350;2543;364;100;5942;310;90;AMR-WB-16000;SILK-8000;SILK-12000;h264;VP8;VP8;720;360;240;NotDone
GoogleTalk;IRC;GoogleTalk;On;On;On;Auto;Auto;TCP;Off;Off;Off;Auto;FALSE;TRUE;3;3;3;1798;825;609;5961;5929;5253;2543;538;461;5942;310;933;SILK-8000;SILK-8000;SILK-12000;Auto;VP8;VP8;480;360;480;NotDone
GoogleTalk;IRC;iptel.org;On;On;On;Auto;Auto;TCP;Off;Off;Off;Auto;FALSE;TRUE;3;3;3;1798;825;609;5961;5929;5253;2543;538;461;5942;310;933;SILK-8000;SILK-8000;SILK-12000;Auto;VP8;VP8;480;360;480;NotDone
iPPi;SIP;GoogleTalk;Off;On;On;TCP;TCP;Tls;BestEffort;Off;On;Auto;Auto;FALSE;4;2;2;853;1156;1698;2634;3281;2330;2065;3963;5442;724;1152;5952;PCMA-8000;Auto;SILK-8000;ulpfec;rtx;h264;240;1080;1080;NotDone
