caller_protocol;callee1_protocol;callee2_protocol;caller_listenport;callee1_listenport;callee2_listenport;caller_transportprotocol;callee1_transportprotocol;callee2_transportprotocol;caller_encryption;callee1_encryption;callee2_encryption;caller_sipzrtpattribute;callee1_sipzrtpattribute;callee2_sipzrtpattribute;caller_maxpeers;callee1_maxpeers;callee2_maxpeers;caller_mtu;callee1_mtu;callee2_mtu;caller_defaultcallrate;callee1_defaultcallrate;callee2_defaultcallrate;caller_maxreceivecallrate;callee1_maxreceivecallrate;callee2_maxreceivecallrate;caller_maxtransmitcallrate;callee1_maxtransmitcallrate;callee2_maxtransmitcallrate;caller_audiocodec;callee1_audiocodec;callee2_audiocodec;caller_videocodec;callee1_videocodec;callee2_videocodec;caller_maxresolution;callee1_maxresolution;callee2_maxresolution;
ICQ;IRC;iptel.org;On;Off;On;TCP;Tls;TCP;Off;On;Off;TRUE;Auto;Auto;3;4;4;964;1634;1837;5692;4909;3527;1148;598;3913;4212;97;2688;SILK-24000;speex-32000;iLBC-8000;rtx;rtx;ulpfec;720;480;240;NotDone
AIM;AIM;iptel.org;Off;Off;Off;TCP;Tls;UDP;Off;BestEffort;BestEffort;FALSE;Auto;TRUE;3;2;4;1982;1917;797;5671;709;4667;1535;5939;5172;92;606;3162;SILK-8000;speex-16000;Auto;rtx;Auto;VP8;480;240;240;NotDone
AIM;iPPi;iptel.org;On;Off;On;Auto;Tls;Tls;Off;BestEffort;On;FALSE;Auto;Auto;4;4;4;1511;599;1271;5950;1682;3328;468;1614;2707;4076;3673;266;PCMU-8000;telephone-event-80000;telephone-event-80000;red;VP8;VP8;720;480;360;NotDone
IRC;ICQ;IRC;Off;On;On;Auto;TCP;TCP;Off;BestEffort;BestEffort;Auto;Auto;FALSE;2;2;3;695;1827;759;5230;5980;2080;1868;5466;1032;4530;4736;5313;AMR-WB-16000;PCMU-8000;SILK-24000;ulpfec;Auto;VP8;240;480;240;NotDone
SIP;IRC;AIM;Off;Off;On;Tls;Auto;TCP;Off;BestEffort;On;FALSE;TRUE;Auto;4;3;2;687;1688;1873;5972;4674;5755;566;3987;5959;106;5837;5793;PCMU-8000;SILK-24000;SILK-8000;VP8;Auto;h264;360;1080;1080;NotDone
ICQ;iptel.org;iptel.org;On;Off;On;Tls;UDP;Tls;Off;On;BestEffort;FALSE;FALSE;TRUE;3;3;3;1864;1286;1203;5098;4016;3053;4692;801;5718;5703;4929;4930;opus-48000;telephone-event-80000;SILK-12000;rtx;Auto;h264;480;1080;1080;NotDone
ICQ;SIP;IRC;On;On;Off;Auto;TCP;UDP;Off;BestEffort;Off;FALSE;TRUE;FALSE;2;2;3;1639;867;1150;4767;4897;5889;197;3761;3055;5367;1195;3341;opus-48000;Auto;telephone-event-80000;red;Auto;VP8;720;360;360;NotDone
ICQ;iPPi;iptel.org;Off;On;Off;TCP;UDP;Tls;Off;On;Off;Auto;FALSE;FALSE;3;3;4;1113;809;633;5547;5325;464;1629;5815;2751;5267;935;4593;telephone-event-80000;PCMU-8000;PCMA-8000;VP8;Auto;VP8;480;1080;360;NotDone
IRC;AIM;iptel.org;On;Off;On;TCP;Tls;Tls;BestEffort;Off;Off;Auto;Auto;FALSE;4;3;2;1650;1569;819;5649;1922;5331;5570;4946;1117;4816;3857;5266;opus-48000;speex-32000;speex-8000;h264;Auto;VP8;360;1080;360;NotDone
IRC;GoogleTalk;AIM;On;On;On;Auto;Tls;Tls;BestEffort;Off;Off;TRUE;Auto;TRUE;3;3;3;1848;1656;677;80;1035;3642;3841;5402;5687;3395;1989;5980;AMR-WB-16000;PCMA-8000;speex-32000;red;Auto;VP8;480;480;480;NotDone
IRC;GoogleTalk;SIP;Off;Off;Off;Auto;Tls;UDP;Off;Off;Off;FALSE;Auto;TRUE;3;4;4;1542;1511;819;3266;328;5030;4756;3651;5277;3226;699;4723;SILK-12000;speex-32000;PCMU-8000;Auto;red;Auto;720;240;1080;NotDone
ICQ;AIM;IRC;Off;On;On;TCP;TCP;TCP;On;Off;Off;Auto;TRUE;TRUE;2;4;3;1668;1630;1196;1250;5395;539;794;3356;70;2973;5098;5479;PCMA-8000;PCMA-8000;speex-16000;red;Auto;VP8;720;480;360;NotDone
IRC;IRC;IRC;Off;Off;On;UDP;TCP;Tls;Off;BestEffort;BestEffort;TRUE;TRUE;TRUE;2;4;4;1119;1504;1059;5316;3258;5733;2849;256;3986;5536;5049;4987;SILK-16000;speex-8000;opus-48000;red;Auto;VP8;360;1080;360;NotDone
ICQ;GoogleTalk;GoogleTalk;Off;On;Off;Auto;UDP;UDP;Off;On;Off;FALSE;Auto;FALSE;4;3;2;1904;1374;663;5674;5019;5200;5681;5133;614;1390;4377;5372;iLBC-8000;opus-48000;opus-48000;rtx;ulpfec;VP8;240;240;360;NotDone
SIP;ICQ;iPPi;On;On;Off;TCP;TCP;TCP;Off;BestEffort;Off;TRUE;Auto;Auto;4;2;2;1912;655;778;2690;3813;4433;1856;3427;66;406;760;5841;SILK-12000;PCMA-8000;SILK-12000;h264;VP8;VP8;360;1080;720;NotDone
AIM;AIM;AIM;On;Off;On;Auto;Auto;Tls;Off;BestEffort;BestEffort;FALSE;TRUE;Auto;4;3;3;1530;900;603;3649;3575;5919;1768;1725;1771;4172;253;5541;iLBC-8000;speex-32000;telephone-event-80000;Auto;Auto;VP8;240;360;720;NotDone
AIM;IRC;ICQ;Off;On;On;UDP;Auto;UDP;Off;BestEffort;BestEffort;Auto;FALSE;Auto;4;3;2;1865;1033;645;1141;5258;361;706;5591;5620;4399;5568;5765;speex-16000;PCMA-8000;SILK-12000;rtx;rtx;VP8;240;480;480;NotDone
AIM;GoogleTalk;SIP;On;On;Off;TCP;TCP;UDP;Off;BestEffort;Off;FALSE;FALSE;TRUE;4;3;2;1079;1150;1446;4432;5484;4704;804;3386;4810;4882;4428;4406;PCMU-8000;PCMU-8000;PCMA-8000;Auto;VP8;VP8;240;360;240;NotDone
AIM;AIM;IRC;Off;On;On;Tls;Tls;UDP;On;BestEffort;Off;TRUE;TRUE;Auto;4;2;4;1757;796;1138;5684;537;4422;3701;4963;5654;3970;5903;5615;AMR-WB-16000;SILK-12000;AMR-WB-16000;h264;rtx;ulpfec;480;240;720;NotDone
IRC;ICQ;GoogleTalk;On;Off;Off;TCP;Tls;Auto;On;BestEffort;Off;Auto;TRUE;TRUE;4;3;4;761;1975;639;1445;372;636;658;3336;2297;5509;1429;4923;iLBC-8000;opus-48000;SILK-12000;rtx;Auto;VP8;480;720;720;NotDone
IRC;ICQ;iPPi;On;On;Off;UDP;TCP;Auto;Off;Off;Off;FALSE;FALSE;FALSE;4;2;2;1320;1071;919;4500;5292;4311;1041;4470;2545;4889;211;4093;PCMU-8000;telephone-event-80000;SILK-12000;red;VP8;ulpfec;1080;720;240;NotDone
iptel.org;GoogleTalk;IRC;Off;Off;On;Auto;UDP;UDP;Off;BestEffort;Off;Auto;Auto;Auto;3;4;2;1690;1826;1410;5816;1214;1998;925;3710;1500;5654;4409;1670;SILK-16000;telephone-event-80000;SILK-8000;red;VP8;VP8;720;360;360;NotDone
ICQ;ICQ;IRC;Off;Off;On;TCP;Tls;Tls;Off;BestEffort;Off;FALSE;TRUE;TRUE;2;3;3;1334;1695;1637;415;5716;1408;556;5439;4519;5210;4374;3677;opus-48000;PCMA-8000;iLBC-8000;h264;Auto;VP8;1080;240;480;NotDone
AIM;AIM;GoogleTalk;On;Off;On;Tls;Tls;Auto;Off;Off;BestEffort;FALSE;Auto;FALSE;4;3;4;1907;1759;947;5470;5724;2852;4192;2285;178;4580;5600;5926;GSM-8000;PCMA-8000;AMR-WB-16000;VP8;Auto;ulpfec;480;1080;240;NotDone
AIM;GoogleTalk;iptel.org;Off;Off;Off;Auto;Tls;Tls;Off;On;BestEffort;FALSE;TRUE;FALSE;4;4;2;1851;594;1874;5688;1434;3677;124;840;731;5567;83;5482;SILK-16000;speex-8000;SILK-12000;red;ulpfec;Auto;480;480;480;NotDone
ICQ;SIP;IRC;On;On;Off;UDP;TCP;Tls;Off;Off;BestEffort;FALSE;Auto;TRUE;2;2;2;1376;1259;1748;5620;3967;1980;4384;5633;1486;98;1114;5953;Auto;speex-16000;telephone-event-80000;red;ulpfec;VP8;1080;480;720;NotDone
IRC;GoogleTalk;IRC;On;Off;On;Auto;Auto;Auto;Off;Off;Off;TRUE;Auto;Auto;3;3;2;1240;1262;789;396;1013;299;5875;164;4950;300;84;5271;speex-32000;telephone-event-80000;SILK-12000;ulpfec;rtx;ulpfec;480;720;1080;NotDone
AIM;iPPi;iPPi;Off;On;Off;Auto;UDP;TCP;Off;Off;On;Auto;FALSE;TRUE;2;3;3;1023;1856;1282;4797;5919;401;1613;1073;2329;2620;5494;5371;SILK-24000;iLBC-8000;speex-8000;VP8;rtx;h264;480;240;360;NotDone
GoogleTalk;ICQ;ICQ;On;On;On;UDP;Tls;TCP;Off;BestEffort;Off;Auto;TRUE;TRUE;2;4;3;1847;1281;1606;419;5890;263;5153;989;5884;859;663;5107;iLBC-8000;speex-8000;opus-48000;h264;red;VP8;720;360;1080;NotDone
IRC;AIM;GoogleTalk;Off;Off;On;TCP;UDP;TCP;Off;BestEffort;Off;TRUE;Auto;TRUE;3;3;3;1290;1019;1870;5684;511;862;524;445;5975;2409;4986;4021;speex-8000;Auto;SILK-8000;h264;h264;VP8;360;1080;720;NotDone
IRC;ICQ;SIP;Off;On;On;UDP;Tls;UDP;Off;BestEffort;Off;Auto;TRUE;TRUE;3;2;2;1598;729;1031;733;1683;5455;2686;1436;5380;5454;266;4545;PCMU-8000;speex-16000;opus-48000;ulpfec;Auto;VP8;720;1080;720;NotDone
AIM;iPPi;AIM;On;On;On;UDP;TCP;UDP;BestEffort;BestEffort;BestEffort;TRUE;TRUE;FALSE;4;4;4;1244;1876;1406;4102;5817;204;468;4142;5138;5288;273;5918;SILK-16000;telephone-event-80000;telephone-event-80000;h264;VP8;ulpfec;720;720;360;NotDone
ICQ;iptel.org;AIM;On;Off;Off;UDP;Auto;Auto;Off;Off;BestEffort;FALSE;Auto;Auto;2;4;2;1602;1521;1054;5853;2456;3789;1957;474;1331;4670;5452;2452;telephone-event-80000;speex-16000;SILK-24000;ulpfec;Auto;VP8;1080;240;1080;NotDone
ICQ;ICQ;GoogleTalk;Off;On;On;Tls;UDP;TCP;On;BestEffort;Off;TRUE;Auto;TRUE;2;3;3;757;1705;1994;238;1954;1780;4919;2620;4348;1875;938;4595;G722-16000;speex-8000;GSM-8000;VP8;Auto;VP8;720;360;360;NotDone
IRC;AIM;iPPi;On;On;On;TCP;Tls;Auto;On;Off;BestEffort;TRUE;Auto;TRUE;2;2;3;1998;1687;1432;326;85;4852;138;2095;4128;1119;5536;5326;SILK-24000;iLBC-8000;opus-48000;h264;Auto;VP8;1080;360;360;NotDone
IRC;iptel.org;ICQ;Off;On;Off;Tls;Tls;UDP;Off;BestEffort;Off;TRUE;TRUE;TRUE;4;4;2;1022;1780;896;3582;5912;5995;1610;4686;5540;4117;1434;4497;SILK-8000;iLBC-8000;opus-48000;rtx;Auto;ulpfec;240;360;480;NotDone
IRC;GoogleTalk;SIP;Off;On;Off;Tls;Tls;Auto;Off;Off;BestEffort;FALSE;FALSE;TRUE;2;4;3;1601;1987;634;5966;5294;191;3784;5761;5289;512;1609;4546;GSM-8000;telephone-event-80000;AMR-WB-16000;Auto;Auto;red;240;1080;480;NotDone
IRC;iPPi;IRC;On;On;On;TCP;TCP;Tls;BestEffort;Off;On;TRUE;FALSE;TRUE;2;2;4;894;867;1967;947;5329;5383;5647;907;3443;5502;5883;5967;iLBC-8000;speex-16000;speex-16000;VP8;Auto;VP8;240;480;360;NotDone
ICQ;ICQ;iptel.org;On;On;On;Auto;TCP;Auto;Off;BestEffort;BestEffort;TRUE;FALSE;TRUE;4;2;2;1567;1326;839;4983;4598;5816;188;2870;517;3238;5820;4929;speex-8000;iLBC-8000;telephone-event-80000;red;Auto;VP8;480;360;1080;NotDone
AIM;SIP;GoogleTalk;Off;On;Off;TCP;Tls;UDP;Off;Off;BestEffort;TRUE;FALSE;FALSE;2;4;2;838;898;1596;4603;524;1801;478;95;277;5627;3898;5779;Auto;PCMA-8000;opus-48000;red;ulpfec;ulpfec;360;240;240;NotDone
iPPi;SIP;GoogleTalk;Off;Off;On;Auto;UDP;Tls;On;On;Off;FALSE;Auto;Auto;3;2;3;1748;1772;1111;5975;4229;423;5039;950;5951;2432;383;5015;iLBC-8000;iLBC-8000;speex-8000;h264;Auto;ulpfec;480;240;360;NotDone
IRC;IRC;IRC;On;On;Off;Tls;Tls;Auto;Off;BestEffort;BestEffort;TRUE;FALSE;Auto;3;3;2;1358;1725;1473;5706;2217;5697;3053;5825;234;743;657;3588;opus-48000;SILK-24000;SILK-24000;VP8;red;VP8;240;240;720;NotDone
ICQ;GoogleTalk;ICQ;Off;On;Off;UDP;TCP;TCP;Off;BestEffort;Off;TRUE;FALSE;TRUE;2;3;4;1369;1360;895;584;5827;4645;1598;5925;5916;1522;5817;5273;telephone-event-80000;PCMA-8000;AMR-WB-16000;red;h264;VP8;480;720;360;NotDone
SIP;IRC;iPPi;On;On;On;Auto;UDP;Auto;Off;BestEffort;On;TRUE;Auto;Auto;4;3;4;666;1562;976;3931;1133;1169;2342;4537;4840;1170;5942;2670;speex-8000;AMR-WB-16000;SILK-12000;rtx;Auto;VP8;240;360;360;NotDone
AIM;ICQ;AIM;On;Off;Off;Auto;Tls;TCP;Off;BestEffort;Off;TRUE;Auto;FALSE;4;4;2;1773;1819;1734;787;5503;789;271;2514;616;4880;5335;4708;opus-48000;PCMA-8000;speex-8000;rtx;Auto;VP8;720;1080;720;NotDone
AIM;GoogleTalk;iptel.org;Off;Off;On;Auto;Auto;Tls;Off;BestEffort;Off;TRUE;Auto;TRUE;3;3;4;1996;709;1257;4490;5599;5186;1533;4269;376;5722;5600;4538;SILK-24000;iLBC-8000;SILK-24000;VP8;Auto;ulpfec;360;480;240;NotDone
AIM;iPPi;AIM;On;Off;On;Auto;TCP;TCP;Off;Off;BestEffort;Auto;FALSE;FALSE;4;3;3;1981;935;1615;2922;5908;1967;5225;4713;495;1038;721;5973;telephone-event-80000;PCMA-8000;SILK-24000;Auto;ulpfec;ulpfec;720;1080;240;NotDone
ICQ;GoogleTalk;ICQ;On;Off;Off;UDP;UDP;Auto;Off;On;BestEffort;FALSE;TRUE;TRUE;2;3;3;670;1713;577;415;5598;2589;5564;1830;5576;5960;2335;5425;Auto;PCMU-8000;SILK-24000;Auto;Auto;VP8;240;480;720;NotDone
AIM;GoogleTalk;SIP;Off;On;Off;Auto;UDP;UDP;Off;Off;BestEffort;FALSE;Auto;FALSE;3;3;4;1698;1694;659;5662;144;5705;5385;5845;5366;1625;2722;5843;G722-16000;SILK-24000;iLBC-8000;red;Auto;h264;1080;720;480;NotDone
IRC;iptel.org;IRC;On;On;Off;Tls;Auto;UDP;Off;BestEffort;Off;Auto;Auto;FALSE;2;4;3;1163;1102;978;5348;5942;5499;1003;544;962;5381;4809;4336;SILK-24000;GSM-8000;GSM-8000;h264;Auto;red;720;480;240;NotDone
IRC;SIP;SIP;Off;On;Off;Auto;Auto;Tls;Off;Off;Off;FALSE;Auto;TRUE;2;3;2;1943;1118;1544;5219;4869;3105;1835;3326;1579;5450;5933;2978;PCMU-8000;G722-16000;AMR-WB-16000;red;VP8;VP8;1080;720;720;NotDone
AIM;SIP;ICQ;Off;On;Off;Auto;Auto;TCP;Off;On;Off;Auto;FALSE;TRUE;2;3;2;1830;1946;677;5293;3173;4344;2656;2833;2428;5628;4712;5463;SILK-8000;Auto;SILK-12000;Auto;Auto;ulpfec;1080;360;720;NotDone
IRC;GoogleTalk;ICQ;On;Off;Off;TCP;TCP;UDP;Off;Off;On;FALSE;FALSE;Auto;4;2;3;1068;1859;761;5829;457;1463;3286;153;511;5522;1259;5480;telephone-event-80000;telephone-event-80000;iLBC-8000;h264;h264;VP8;1080;360;1080;NotDone
IRC;iPPi;AIM;On;Off;Off;TCP;TCP;Tls;Off;BestEffort;Off;TRUE;Auto;TRUE;3;2;3;1735;1558;580;4395;4646;992;3894;905;340;2136;2951;4239;telephone-event-80000;speex-32000;SILK-8000;rtx;Auto;VP8;480;360;360;NotDone
ICQ;GoogleTalk;SIP;Off;On;Off;UDP;Auto;Auto;Off;On;BestEffort;FALSE;Auto;TRUE;2;2;3;1990;1570;1197;5279;5043;5361;640;2518;4508;997;5743;4893;PCMU-8000;speex-16000;PCMU-8000;Auto;Auto;VP8;720;720;240;NotDone
IRC;ICQ;SIP;On;Off;On;UDP;Auto;Tls;Off;BestEffort;Off;TRUE;Auto;FALSE;4;4;2;816;889;867;102;4348;3966;4748;1722;4997;3530;1164;4857;opus-48000;G722-16000;telephone-event-80000;red;Auto;VP8;480;360;720;NotDone
IRC;IRC;iPPi;Off;On;On;Auto;Tls;Tls;Off;Off;BestEffort;FALSE;Auto;Auto;2;4;4;1058;1329;910;4628;5930;3077;4854;615;5207;4033;482;3912;speex-16000;Auto;GSM-8000;Auto;VP8;VP8;1080;360;360;NotDone
SIP;IRC;IRC;Off;On;Off;TCP;TCP;UDP;On;Off;Off;FALSE;TRUE;TRUE;3;3;2;1111;959;1906;5776;1078;3448;2749;5561;2340;3553;2019;5950;SILK-16000;G722-16000;speex-8000;VP8;Auto;VP8;480;360;360;NotDone
AIM;GoogleTalk;iptel.org;On;Off;On;Auto;TCP;Tls;Off;Off;On;Auto;FALSE;TRUE;3;3;4;1137;1565;907;5957;490;4711;1218;1272;1002;5691;5781;4756;SILK-8000;AMR-WB-16000;SILK-8000;ulpfec;Auto;ulpfec;360;240;720;NotDone
AIM;IRC;IRC;Off;Off;On;Tls;Auto;TCP;BestEffort;On;Off;Auto;Auto;Auto;2;2;3;1761;1587;1940;342;597;1910;3392;101;5680;3898;4126;5351;PCMA-8000;SILK-12000;telephone-event-80000;rtx;Auto;VP8;1080;720;480;NotDone
ICQ;iPPi;GoogleTalk;On;On;On;UDP;Tls;Auto;Off;Off;Off;TRUE;Auto;Auto;4;2;3;763;1781;1464;835;3056;1810;761;5623;794;76;3925;5406;GSM-8000;G722-16000;Auto;ulpfec;VP8;VP8;360;1080;240;NotDone
AIM;GoogleTalk;SIP;On;On;Off;Tls;Auto;Auto;BestEffort;Off;Off;TRUE;FALSE;Auto;3;4;2;616;1058;1149;447;1057;3236;346;571;3411;1087;5826;5780;PCMU-8000;telephone-event-80000;iLBC-8000;VP8;Auto;VP8;360;240;1080;NotDone
ICQ;AIM;IRC;Off;Off;On;TCP;UDP;Tls;BestEffort;Off;On;Auto;FALSE;TRUE;2;3;3;1831;1828;1103;2728;5449;5482;344;649;5684;336;536;4968;SILK-24000;SILK-12000;opus-48000;red;Auto;h264;240;240;240;NotDone
iptel.org;AIM;IRC;On;On;On;Auto;UDP;UDP;Off;BestEffort;BestEffort;FALSE;Auto;FALSE;3;4;4;753;1712;637;5989;3542;5544;1091;5840;511;5214;4993;5965;speex-16000;iLBC-8000;SILK-12000;VP8;Auto;VP8;720;360;720;NotDone
ICQ;AIM;ICQ;On;On;On;Tls;Auto;TCP;Off;BestEffort;BestEffort;Auto;TRUE;Auto;2;2;4;1687;1383;1494;5687;3739;71;3773;573;5322;239;5673;5369;SILK-8000;AMR-WB-16000;AMR-WB-16000;rtx;ulpfec;VP8;240;1080;1080;NotDone
ICQ;iptel.org;iPPi;On;Off;Off;UDP;TCP;Auto;Off;BestEffort;BestEffort;FALSE;Auto;TRUE;4;4;3;1672;1904;1972;4798;1623;229;448;1226;334;249;1324;5473;AMR-WB-16000;opus-48000;AMR-WB-16000;rtx;Auto;VP8;360;480;1080;NotDone
SIP;IRC;AIM;On;Off;On;Tls;Tls;Tls;Off;Off;Off;Auto;FALSE;Auto;3;3;4;1948;1137;1428;5378;5937;4052;745;5577;4547;5525;3951;3089;AMR-WB-16000;PCMU-8000;PCMU-8000;rtx;red;ulpfec;720;360;480;NotDone
IRC;iptel.org;ICQ;Off;On;Off;Auto;Auto;UDP;Off;On;Off;Auto;TRUE;TRUE;2;4;4;880;926;1408;5984;5785;5908;2543;565;5645;4161;5442;2174;GSM-8000;iLBC-8000;AMR-WB-16000;h264;ulpfec;VP8;480;480;480;NotDone
IRC;SIP;iptel.org;On;Off;Off;Tls;UDP;Tls;On;BestEffort;Off;Auto;TRUE;TRUE;3;2;2;1993;1753;1419;5579;3106;5919;237;1254;4768;2391;5863;4837;speex-8000;telephone-event-80000;speex-8000;ulpfec;Auto;h264;480;240;720;NotDone
AIM;SIP;GoogleTalk;Off;Off;On;Tls;Auto;UDP;Off;On;Off;TRUE;Auto;TRUE;4;3;3;1236;634;1555;3085;1046;4984;1252;868;3816;4616;3536;1324;AMR-WB-16000;opus-48000;speex-8000;h264;Auto;VP8;360;1080;360;NotDone
ICQ;AIM;ICQ;Off;On;Off;Auto;Auto;UDP;On;Off;Off;FALSE;TRUE;TRUE;2;4;4;1270;841;950;2812;1744;1881;3291;2271;93;1993;1533;4099;SILK-24000;PCMU-8000;speex-8000;red;Auto;VP8;720;720;360;NotDone
IRC;IRC;GoogleTalk;On;Off;On;Tls;Tls;TCP;Off;BestEffort;Off;Auto;FALSE;TRUE;4;4;2;1951;1985;1930;4333;5313;1638;2784;5167;1614;5985;5965;5570;Auto;GSM-8000;telephone-event-80000;h264;Auto;ulpfec;360;240;1080;NotDone
AIM;IRC;AIM;On;On;On;TCP;Auto;Auto;Off;BestEffort;On;Auto;FALSE;TRUE;2;3;4;1200;609;958;3885;5114;3336;1068;3990;4811;4084;3890;5401;SILK-16000;telephone-event-80000;iLBC-8000;Auto;Auto;VP8;360;480;240;NotDone
IRC;iPPi;SIP;Off;Off;On;UDP;TCP;UDP;Off;BestEffort;Off;TRUE;FALSE;TRUE;2;4;3;1531;609;815;3620;2621;3429;634;347;262;5764;5735;3290;SILK-24000;speex-16000;PCMU-8000;rtx;VP8;VP8;720;240;240;NotDone
IRC;SIP;AIM;Off;Off;Off;TCP;UDP;UDP;Off;Off;Off;FALSE;TRUE;TRUE;2;2;4;934;1639;1550;4194;1743;3915;5980;5690;4499;333;969;4513;GSM-8000;GSM-8000;SILK-12000;ulpfec;Auto;VP8;720;720;720;NotDone
AIM;GoogleTalk;AIM;On;Off;Off;Tls;UDP;UDP;Off;BestEffort;BestEffort;FALSE;TRUE;Auto;2;2;4;1654;1996;828;411;3010;5822;673;123;5866;4933;5778;5845;AMR-WB-16000;telephone-event-80000;SILK-8000;Auto;h264;ulpfec;720;720;360;NotDone
iPPi;GoogleTalk;iPPi;On;On;On;Auto;Tls;TCP;Off;Off;BestEffort;Auto;FALSE;TRUE;3;2;4;912;1583;835;5392;4685;837;5605;1109;5121;195;3775;5834;G722-16000;speex-16000;GSM-8000;ulpfec;ulpfec;ulpfec;720;720;240;NotDone
AIM;IRC;AIM;Off;On;Off;Tls;Auto;Auto;Off;On;On;TRUE;TRUE;FALSE;2;3;2;657;1905;1320;4134;336;4313;2958;1036;5598;5826;444;5179;Auto;SILK-16000;speex-8000;VP8;Auto;ulpfec;480;480;240;NotDone
IRC;ICQ;GoogleTalk;On;Off;On;Tls;Auto;UDP;Off;On;BestEffort;FALSE;FALSE;TRUE;3;3;4;1772;1403;1657;5997;3197;5674;744;326;5682;592;709;5159;speex-8000;SILK-24000;SILK-12000;ulpfec;Auto;Auto;240;480;360;NotDone
GoogleTalk;ICQ;iPPi;On;On;Off;Auto;Auto;Auto;On;Off;BestEffort;FALSE;FALSE;FALSE;2;3;3;1791;1456;1708;3245;4633;5184;5334;3380;5913;3541;4453;3995;speex-8000;GSM-8000;AMR-WB-16000;h264;Auto;VP8;1080;720;360;NotDone
IRC;ICQ;AIM;Off;Off;On;Auto;Auto;TCP;Off;Off;Off;TRUE;FALSE;TRUE;3;2;3;1771;1332;1216;4318;4919;5338;5457;2852;5927;5737;701;4986;PCMA-8000;Auto;GSM-8000;VP8;Auto;ulpfec;360;720;1080;NotDone
iPPi;iPPi;iPPi;Off;On;On;Tls;Auto;UDP;Off;Off;On;FALSE;TRUE;FALSE;3;4;3;1815;1380;1864;5814;2299;495;613;2111;694;5955;5781;5133;GSM-8000;telephone-event-80000;SILK-8000;h264;h264;VP8;240;480;1080;NotDone
AIM;ICQ;GoogleTalk;On;On;On;UDP;Tls;Auto;BestEffort;Off;Off;Auto;FALSE;FALSE;2;4;3;715;1002;866;2911;3756;4393;5632;4488;4353;5294;516;4176;Auto;PCMU-8000;speex-8000;VP8;Auto;VP8;480;360;480;NotDone
IRC;SIP;iptel.org;Off;On;On;UDP;Tls;UDP;Off;BestEffort;BestEffort;Auto;FALSE;Auto;2;2;2;1782;1304;588;5706;485;1855;4855;682;426;5927;171;5838;speex-32000;Auto;AMR-WB-16000;ulpfec;Auto;VP8;1080;360;1080;NotDone
IRC;AIM;AIM;Off;On;Off;Auto;TCP;UDP;On;BestEffort;BestEffort;Auto;TRUE;Auto;2;2;3;1361;721;1238;684;4426;255;1207;5994;5812;4426;314;5844;Auto;GSM-8000;PCMA-8000;h264;Auto;ulpfec;1080;360;480;NotDone
AIM;AIM;AIM;On;On;On;Auto;TCP;UDP;Off;On;BestEffort;FALSE;Auto;FALSE;4;3;4;1197;1734;1350;5019;2025;2858;1540;1823;2347;2790;1592;4800;SILK-12000;PCMU-8000;SILK-8000;Auto;Auto;VP8;360;720;360;NotDone
ICQ;iPPi;AIM;On;On;On;Auto;TCP;TCP;Off;Off;Off;Auto;TRUE;TRUE;3;4;4;849;1286;1346;5158;5980;1471;1710;210;706;83;111;2175;SILK-24000;telephone-event-80000;SILK-12000;VP8;Auto;VP8;240;240;240;NotDone
IRC;ICQ;iptel.org;On;Off;Off;UDP;UDP;Tls;BestEffort;On;Off;FALSE;Auto;Auto;2;2;4;1211;829;1621;5803;5923;5874;2155;5542;5718;5717;3757;3641;speex-16000;telephone-event-80000;SILK-12000;VP8;VP8;rtx;1080;1080;480;NotDone
ICQ;ICQ;AIM;Off;Off;On;Auto;UDP;Auto;Off;Off;Off;TRUE;Auto;Auto;2;2;3;1597;758;1730;234;436;4972;352;1033;3846;4302;374;5230;PCMA-8000;speex-8000;AMR-WB-16000;rtx;Auto;ulpfec;480;360;720;NotDone
AIM;iPPi;iPPi;Off;On;On;Tls;Auto;Tls;Off;Off;On;FALSE;FALSE;Auto;3;3;3;1688;641;1492;5069;3812;489;2325;784;465;3736;5579;3820;AMR-WB-16000;speex-8000;SILK-8000;h264;VP8;VP8;720;1080;360;NotDone
AIM;GoogleTalk;iPPi;On;On;On;UDP;UDP;TCP;Off;Off;BestEffort;FALSE;Auto;Auto;3;3;4;1685;1057;1565;4467;659;3485;490;4930;167;1462;591;4041;speex-8000;speex-8000;AMR-WB-16000;h264;h264;ulpfec;1080;360;480;NotDone
IRC;SIP;iPPi;Off;Off;On;TCP;Auto;Tls;Off;On;Off;Auto;FALSE;TRUE;4;2;2;1029;1007;1957;5676;78;5189;5715;5383;2529;2480;5476;5311;speex-8000;PCMA-8000;GSM-8000;Auto;Auto;VP8;720;240;360;NotDone
IRC;GoogleTalk;GoogleTalk;Off;On;On;UDP;Auto;Auto;BestEffort;BestEffort;Off;Auto;Auto;Auto;4;3;4;800;1324;1347;5185;1220;5877;3097;1780;5828;814;2537;2611;PCMU-8000;PCMU-8000;GSM-8000;red;Auto;VP8;1080;480;1080;NotDone
IRC;iPPi;AIM;On;On;On;Tls;UDP;Tls;On;Off;Off;Auto;TRUE;TRUE;2;2;3;1010;1696;1768;2905;1793;213;4818;1935;415;5872;4227;2116;speex-8000;PCMU-8000;iLBC-8000;VP8;Auto;VP8;360;720;480;NotDone
IRC;GoogleTalk;AIM;Off;On;Off;TCP;Tls;Auto;Off;Off;Off;FALSE;Auto;TRUE;4;3;4;1696;815;1608;65;2217;100;2589;1829;437;5069;2041;5480;opus-48000;iLBC-8000;Auto;Auto;VP8;VP8;240;480;480;NotDone
AIM;GoogleTalk;iPPi;Off;Off;On;UDP;Auto;UDP;Off;Off;Off;TRUE;Auto;TRUE;2;4;4;1976;1600;1119;1516;5777;149;421;79;5976;1646;171;5554;Auto;speex-32000;telephone-event-80000;rtx;ulpfec;Auto;720;240;240;NotDone
IRC;iPPi;iPPi;Off;On;Off;TCP;Auto;Auto;Off;BestEffort;Off;TRUE;Auto;TRUE;4;2;3;1387;1013;1626;5990;2388;229;4960;1545;205;138;2126;5427;SILK-12000;SILK-24000;GSM-8000;red;ulpfec;VP8;1080;360;360;NotDone
ICQ;ICQ;iptel.org;Off;Off;On;UDP;Tls;Tls;Off;BestEffort;BestEffort;TRUE;Auto;TRUE;2;3;2;1113;1023;621;2982;272;4981;5835;181;5535;2645;4552;4912;SILK-12000;speex-32000;SILK-8000;Auto;VP8;VP8;480;240;360;NotDone
ICQ;iPPi;GoogleTalk;Off;Off;Off;Auto;Tls;Auto;Off;Off;BestEffort;FALSE;FALSE;FALSE;4;2;3;1671;1807;727;3046;998;5119;3796;305;1398;5485;1798;4453;AMR-WB-16000;iLBC-8000;SILK-12000;rtx;red;h264;360;1080;360;NotDone
IRC;iptel.org;AIM;On;On;On;TCP;TCP;Auto;Off;Off;Off;TRUE;TRUE;FALSE;4;2;2;1378;1469;1787;4472;538;546;5769;5116;5773;2629;974;2105;speex-32000;SILK-24000;speex-8000;h264;Auto;VP8;720;720;360;NotDone
