caller_protocol;callee1_protocol;callee2_protocol;caller_listenport;callee1_listenport;callee2_listenport;caller_transportprotocol;callee1_transportprotocol;callee2_transportprotocol;caller_encryption;callee1_encryption;callee2_encryption;caller_sipzrtpattribute;callee1_sipzrtpattribute;callee2_sipzrtpattribute;caller_maxpeers;callee1_maxpeers;callee2_maxpeers;caller_mtu;callee1_mtu;callee2_mtu;caller_defaultcallrate;callee1_defaultcallrate;callee2_defaultcallrate;caller_maxreceivecallrate;callee1_maxreceivecallrate;callee2_maxreceivecallrate;caller_maxtransmitcallrate;callee1_maxtransmitcallrate;callee2_maxtransmitcallrate;caller_audiocodec;callee1_audiocodec;callee2_audiocodec;caller_videocodec;callee1_videocodec;callee2_videocodec;caller_maxresolution;callee1_maxresolution;callee2_maxresolution;
GoogleTalk;IRC;iptel.org;Off;On;On;Tls;Auto;TCP;On;On;Off;Auto;Auto;TRUE;2;2;3;701;1156;800;4368;5055;204;2685;734;2429;5900;673;2381;PCMU-8000;SILK-8000;SILK-8000;ulpfec;VP8;VP8;720;240;240;NotDone
GoogleTalk;IRC;GoogleTalk;Off;On;On;Tls;TCP;TCP;On;On;Off;Auto;FALSE;TRUE;2;3;3;1983;962;1001;4368;5055;204;2685;245;2429;5900;673;681;PCMU-8000;SILK-8000;SILK-8000;ulpfec;VP8;VP8;720;240;240;NotDone
GoogleTalk;IRC;IRC;On;On;On;Auto;TCP;Auto;Off;Off;Off;Auto;FALSE;TRUE;3;3;3;1536;1204;800;4368;5527;204;2414;245;2429;5900;203;681;Auto;SILK-8000;SILK-8000;ulpfec;VP8;VP8;720;240;240;NotDone
GoogleTalk;IRC;GoogleTalk;Off;On;On;UDP;UDP;TCP;On;On;Off;Auto;Auto;Auto;2;2;3;1983;1950;1837;5859;5954;5978;5963;259;5802;5823;5974;167;AMR-WB-16000;SILK-8000;SILK-8000;ulpfec;VP8;VP8;720;360;240;NotDone
GoogleTalk;IRC;GoogleTalk;Off;On;On;UDP;UDP;TCP;On;On;Off;Auto;Auto;TRUE;3;4;3;1983;974;1837;5859;5954;5978;5963;259;5802;5823;203;681;PCMU-8000;SILK-8000;SILK-8000;ulpfec;VP8;VP8;720;240;240;NotDone
GoogleTalk;IRC;iptel.org;Off;On;On;Auto;Auto;TCP;Off;Off;Off;TRUE;FALSE;TRUE;3;3;3;1536;1204;1837;5859;5644;5978;207;286;301;5900;203;167;AMR-WB-16000;SILK-8000;SILK-8000;Auto;VP8;VP8;720;240;240;NotDone
GoogleTalk;IRC;iptel.org;Off;On;On;Auto;Auto;TCP;On;On;Off;Auto;FALSE;TRUE;3;4;3;1983;1950;1837;5859;5954;5978;5963;259;5802;5823;5974;167;AMR-WB-16000;SILK-8000;SILK-8000;ulpfec;VP8;VP8;720;720;240;NotDone
GoogleTalk;IRC;GoogleTalk;Off;On;On;Auto;Auto;Auto;On;On;Off;Auto;FALSE;TRUE;4;2;3;1983;962;1001;3988;5644;204;207;286;2031;5900;203;681;PCMU-8000;SILK-8000;SILK-8000;ulpfec;VP8;VP8;720;360;240;NotDone
GoogleTalk;IRC;IRC;On;On;On;Auto;Auto;Auto;Off;Off;Off;FALSE;FALSE;FALSE;2;3;3;1983;1950;639;5859;5644;5978;207;286;301;5900;203;167;AMR-WB-16000;SILK-8000;SILK-8000;ulpfec;VP8;VP8;720;720;240;NotDone
SIP;IRC;IRC;On;Off;On;Auto;Auto;Auto;Off;Off;Off;FALSE;FALSE;TRUE;2;3;3;1983;1950;800;5859;5644;5978;207;286;301;5900;203;681;telephone-event-80000;SILK-8000;SILK-8000;Auto;VP8;VP8;720;240;240;NotDone
GoogleTalk;IRC;GoogleTalk;Off;On;On;UDP;UDP;TCP;On;On;Off;Auto;Auto;Auto;2;2;3;1983;1950;1837;5859;346;5978;5963;259;5802;5900;203;167;telephone-event-80000;SILK-8000;SILK-8000;Auto;VP8;VP8;720;240;240;NotDone
GoogleTalk;IRC;iptel.org;Off;On;On;TCP;Auto;TCP;Off;On;Off;TRUE;FALSE;TRUE;2;3;3;1983;714;1001;5859;5901;5978;207;679;301;5900;203;681;Auto;SILK-8000;SILK-8000;ulpfec;VP8;VP8;720;240;240;NotDone
GoogleTalk;AIM;GoogleTalk;Off;On;On;Tls;Auto;TCP;On;On;Off;Auto;Auto;TRUE;2;2;3;701;1156;1922;5859;5954;5978;5963;259;5802;5823;5887;681;PCMU-8000;SILK-8000;SILK-8000;ulpfec;VP8;VP8;720;240;240;NotDone
GoogleTalk;IRC;iptel.org;Off;On;On;Auto;Auto;TCP;On;On;Off;Auto;FALSE;TRUE;3;4;3;1695;1950;1837;5859;5954;5978;5963;259;5802;5823;5974;167;AMR-WB-16000;SILK-8000;SILK-8000;ulpfec;VP8;VP8;720;720;240;NotDone
GoogleTalk;IRC;GoogleTalk;Off;On;On;UDP;UDP;TCP;On;On;Off;Auto;FALSE;TRUE;2;3;3;1983;962;1001;5859;5644;5978;207;286;301;5900;203;681;telephone-event-80000;SILK-8000;SILK-8000;Auto;VP8;VP8;720;240;240;NotDone
GoogleTalk;IRC;iptel.org;Off;On;On;Auto;Auto;TCP;Off;Off;Off;TRUE;FALSE;TRUE;3;3;3;1558;714;800;4368;5055;5367;2685;286;301;5900;203;681;telephone-event-80000;SILK-8000;SILK-8000;ulpfec;VP8;VP8;720;360;240;NotDone
GoogleTalk;IRC;iptel.org;Off;On;On;Auto;Auto;TCP;Off;Off;Off;Auto;FALSE;TRUE;2;3;3;1983;962;1001;5859;5644;204;1317;286;2031;5900;203;3377;PCMU-8000;SILK-8000;SILK-8000;ulpfec;VP8;VP8;720;240;240;NotDone
GoogleTalk;IRC;iptel.org;Off;On;On;UDP;UDP;TCP;On;On;Off;TRUE;FALSE;TRUE;2;4;3;1983;1304;1837;5859;5954;5978;5963;259;5802;5823;5974;167;AMR-WB-16000;SILK-8000;SILK-8000;ulpfec;VP8;VP8;720;360;240;NotDone
SIP;IRC;IRC;On;On;On;Auto;Auto;TCP;Off;Off;Off;TRUE;FALSE;TRUE;3;3;3;1972;714;800;4368;5055;5367;2685;286;301;5900;203;681;PCMU-8000;SILK-8000;SILK-8000;Auto;VP8;VP8;720;240;240;NotDone
GoogleTalk;IRC;GoogleTalk;Off;On;On;Tls;UDP;TCP;On;On;Off;Auto;FALSE;TRUE;2;2;3;701;1249;800;4368;5055;204;2685;245;2429;4851;673;2381;PCMU-8000;SILK-8000;SILK-8000;ulpfec;VP8;VP8;720;240;240;NotDone
SIP;IRC;IRC;On;Off;On;Auto;Auto;Auto;Off;Off;Off;FALSE;FALSE;TRUE;3;3;3;1983;1950;1837;5859;346;5978;5963;259;5802;5900;203;167;telephone-event-80000;SILK-8000;opus-48000;VP8;VP8;VP8;720;240;240;NotDone
GoogleTalk;IRC;iptel.org;Off;On;On;Auto;Auto;Auto;Off;Off;Off;TRUE;FALSE;TRUE;4;3;3;1983;974;1837;5859;5954;5978;5963;259;5802;5823;203;681;PCMU-8000;SILK-8000;SILK-8000;ulpfec;VP8;VP8;720;240;240;NotDone
SIP;IRC;IRC;On;On;On;Auto;TCP;Auto;Off;Off;Off;TRUE;FALSE;TRUE;2;3;3;1983;714;1001;5859;5901;5978;207;679;301;5226;673;5879;telephone-event-80000;SILK-8000;SILK-8000;Auto;VP8;VP8;720;240;240;NotDone
GoogleTalk;IRC;GoogleTalk;Off;On;On;UDP;UDP;TCP;On;On;Off;TRUE;FALSE;TRUE;2;4;3;1983;1304;1001;5859;5055;204;3280;245;301;5900;5887;681;PCMU-8000;SILK-8000;SILK-8000;ulpfec;VP8;VP8;720;240;480;NotDone
GoogleTalk;IRC;GoogleTalk;Off;On;On;UDP;UDP;TCP;On;On;Off;Auto;Auto;Auto;2;2;3;721;1053;1007;5859;5055;3834;2685;245;2429;5900;203;681;PCMU-8000;SILK-8000;SILK-8000;Auto;VP8;VP8;720;240;240;NotDone
GoogleTalk;IRC;iptel.org;Off;On;On;Tls;UDP;Auto;Off;Off;Off;TRUE;FALSE;TRUE;4;3;3;1983;974;1001;5549;4488;5482;1032;286;301;5900;5887;681;PCMU-8000;SILK-8000;SILK-8000;ulpfec;VP8;VP8;720;240;240;NotDone
GoogleTalk;IRC;GoogleTalk;Off;On;On;UDP;UDP;TCP;On;On;Off;Auto;Auto;TRUE;2;2;3;701;1156;800;4368;5055;204;2685;3711;2429;5900;673;681;PCMU-8000;SILK-8000;SILK-8000;ulpfec;VP8;VP8;720;240;240;NotDone
GoogleTalk;IRC;iptel.org;Off;On;On;Auto;Auto;TCP;On;On;Off;Auto;Auto;TRUE;2;2;3;701;1156;800;4368;5055;204;2685;245;2429;5900;673;681;PCMU-8000;SILK-8000;SILK-8000;ulpfec;VP8;VP8;720;240;240;NotDone
GoogleTalk;IRC;GoogleTalk;Off;On;On;UDP;UDP;TCP;On;On;Off;Auto;Auto;TRUE;2;2;3;701;1156;800;4368;5055;204;2685;245;2429;5900;673;681;PCMU-8000;SILK-8000;SILK-8000;ulpfec;VP8;VP8;720;240;240;NotDone
GoogleTalk;IRC;IRC;On;On;On;Auto;Auto;Auto;Off;Off;Off;FALSE;FALSE;FALSE;2;3;3;1983;1950;1837;5859;5644;5978;207;286;301;5900;203;167;AMR-WB-16000;SILK-8000;SILK-8000;Auto;VP8;VP8;720;240;240;NotDone
GoogleTalk;IRC;GoogleTalk;Off;Off;On;UDP;UDP;TCP;On;On;Off;Auto;Auto;TRUE;2;2;3;1983;1950;1837;5859;5644;5978;207;286;301;5900;203;681;Auto;SILK-8000;SILK-8000;ulpfec;VP8;VP8;720;240;240;NotDone
GoogleTalk;IRC;GoogleTalk;Off;On;On;Auto;UDP;Auto;Off;Off;Off;Auto;FALSE;TRUE;2;3;3;1983;962;1837;5859;5954;5978;5963;259;5802;5823;5974;167;AMR-WB-16000;SILK-8000;SILK-8000;ulpfec;VP8;VP8;720;720;240;NotDone
GoogleTalk;IRC;GoogleTalk;Off;On;On;Auto;Auto;TCP;Off;Off;Off;Auto;FALSE;TRUE;2;3;3;1983;962;1001;4368;5055;204;2685;245;2429;5900;673;681;PCMU-8000;SILK-8000;SILK-8000;ulpfec;VP8;VP8;720;240;240;NotDone
GoogleTalk;IRC;GoogleTalk;Off;On;On;UDP;UDP;UDP;On;On;Off;Auto;Auto;TRUE;3;4;3;1983;974;1837;5859;5954;5978;5963;259;5802;5823;203;681;PCMU-8000;SILK-8000;SILK-8000;ulpfec;VP8;VP8;720;240;240;NotDone
GoogleTalk;IRC;GoogleTalk;Off;On;On;Auto;Auto;Auto;On;On;Off;Auto;FALSE;TRUE;2;3;3;1983;962;1001;4368;5055;204;1047;245;2429;5900;673;681;PCMU-8000;SILK-8000;SILK-8000;ulpfec;VP8;VP8;720;240;240;NotDone
GoogleTalk;IRC;GoogleTalk;Off;On;On;Tls;Auto;TCP;On;On;Off;Auto;Auto;TRUE;2;2;3;701;1156;1922;5859;5954;5978;5963;259;5802;5823;5887;681;PCMU-8000;SILK-8000;SILK-8000;ulpfec;VP8;VP8;720;240;240;NotDone
GoogleTalk;IRC;iptel.org;Off;On;On;UDP;UDP;TCP;On;On;Off;Auto;Auto;TRUE;2;2;3;701;1156;956;325;5134;191;5920;259;5802;5900;5974;167;opus-48000;SILK-8000;SILK-8000;ulpfec;VP8;VP8;720;240;360;NotDone
GoogleTalk;IRC;GoogleTalk;Off;On;On;Auto;Auto;TCP;Off;Off;Off;Auto;FALSE;TRUE;2;3;3;1983;1950;1837;5859;5644;5978;207;286;301;5900;203;167;AMR-WB-16000;SILK-8000;SILK-8000;Auto;VP8;VP8;720;240;480;NotDone
SIP;IRC;IRC;On;On;On;Auto;TCP;Auto;Off;Off;Off;TRUE;FALSE;Auto;2;3;3;1983;714;800;4368;5055;204;2685;245;2429;5900;673;2381;PCMU-8000;SILK-8000;SILK-8000;ulpfec;VP8;VP8;720;240;240;NotDone
GoogleTalk;IRC;GoogleTalk;Off;On;On;Auto;UDP;Auto;Off;Off;Off;Auto;FALSE;TRUE;3;3;3;1536;1204;800;5859;5644;5978;207;286;301;5900;203;681;telephone-event-80000;SILK-8000;SILK-8000;Auto;VP8;VP8;720;240;240;NotDone
SIP;IRC;IRC;On;On;On;Auto;TCP;Auto;Off;Off;Off;Auto;FALSE;TRUE;3;3;3;1536;1204;800;4368;5527;204;2414;245;2429;5900;203;681;Auto;SILK-8000;SILK-8000;ulpfec;VP8;VP8;720;240;240;NotDone
GoogleTalk;IRC;iptel.org;Off;On;On;Auto;Auto;TCP;On;On;Off;Auto;Auto;TRUE;2;2;3;1983;714;1001;5859;5644;5978;207;286;301;5900;203;167;AMR-WB-16000;SILK-8000;SILK-8000;Auto;VP8;VP8;720;240;240;NotDone
GoogleTalk;IRC;GoogleTalk;Off;On;On;Auto;Auto;Auto;Off;Off;Off;Auto;Auto;TRUE;2;3;3;1983;962;1001;5859;5644;5367;2685;245;2429;5900;203;681;PCMU-8000;SILK-8000;SILK-8000;Auto;VP8;VP8;720;240;240;NotDone
GoogleTalk;AIM;GoogleTalk;Off;On;On;Tls;Auto;TCP;On;On;Off;Auto;Auto;TRUE;2;2;3;701;1249;800;4368;5055;204;2685;245;2429;5900;673;2381;PCMU-8000;SILK-8000;SILK-8000;ulpfec;VP8;VP8;720;240;240;NotDone
SIP;IRC;IRC;On;On;On;Auto;Auto;Auto;Off;Off;Off;FALSE;FALSE;FALSE;2;3;3;1498;1950;1837;5859;5644;5978;207;286;301;5900;203;167;AMR-WB-16000;SILK-8000;SILK-8000;Auto;VP8;VP8;720;240;240;NotDone
GoogleTalk;IRC;GoogleTalk;Off;On;On;Tls;Auto;TCP;On;On;Off;Auto;Auto;TRUE;2;2;3;701;1156;1001;5859;5954;5978;5963;259;5802;5823;5887;1140;PCMU-8000;SILK-8000;SILK-8000;ulpfec;VP8;VP8;720;240;240;NotDone
GoogleTalk;IRC;iptel.org;Off;On;On;Auto;Auto;TCP;Off;Off;Off;Auto;FALSE;TRUE;2;2;3;701;1204;800;5859;5644;5978;207;286;301;5900;203;681;telephone-event-80000;SILK-8000;SILK-8000;Auto;VP8;VP8;720;240;240;NotDone
GoogleTalk;IRC;iptel.org;Off;On;On;Auto;Auto;TCP;Off;Off;Off;Auto;FALSE;TRUE;2;2;3;1983;1950;1837;5859;5954;5978;5963;259;5802;5823;5974;167;telephone-event-80000;SILK-8000;SILK-8000;Auto;VP8;VP8;720;240;240;NotDone
GoogleTalk;IRC;iptel.org;Off;On;On;Auto;Auto;TCP;Off;Off;Off;TRUE;FALSE;TRUE;3;3;3;1536;1204;800;4368;5055;204;2685;245;2429;5900;673;681;telephone-event-80000;SILK-8000;SILK-8000;Auto;VP8;VP8;720;240;240;NotDone
SIP;IRC;IRC;On;On;On;Auto;TCP;Auto;Off;Off;Off;TRUE;FALSE;FALSE;2;4;3;1983;1950;1837;5859;346;5978;5963;259;5802;5900;5887;5879;telephone-event-80000;SILK-8000;SILK-8000;VP8;VP8;VP8;720;240;240;NotDone
GoogleTalk;IRC;GoogleTalk;Off;On;On;Tls;Auto;TCP;On;On;Off;Auto;Auto;TRUE;2;2;3;701;1156;1001;5859;5055;204;5655;259;5802;5823;203;681;PCMU-8000;SILK-8000;SILK-8000;ulpfec;VP8;VP8;720;240;240;NotDone
GoogleTalk;IRC;GoogleTalk;Off;On;On;Auto;Auto;Auto;Off;Off;Off;Auto;FALSE;TRUE;2;3;3;1983;962;1001;5859;5644;5367;2685;286;301;5900;203;681;telephone-event-80000;SILK-8000;SILK-8000;Auto;VP8;VP8;720;240;240;NotDone
GoogleTalk;IRC;GoogleTalk;Off;On;On;Tls;Auto;TCP;On;On;Off;Auto;Auto;TRUE;2;2;3;701;1156;1001;5859;5954;5978;5963;259;5802;5823;5887;681;PCMU-8000;SILK-8000;SILK-8000;ulpfec;VP8;VP8;720;240;240;NotDone
GoogleTalk;IRC;GoogleTalk;Off;On;On;UDP;UDP;TCP;On;On;Off;Auto;Auto;Auto;2;2;3;721;1053;1007;5859;5055;204;2685;245;2429;5900;203;681;PCMU-8000;SILK-8000;SILK-8000;Auto;VP8;VP8;720;240;240;NotDone
GoogleTalk;IRC;iptel.org;Off;On;On;Auto;Auto;Auto;Off;On;Off;Auto;FALSE;TRUE;2;4;3;1419;962;1001;5859;5644;204;207;286;301;5900;203;681;PCMU-8000;SILK-8000;SILK-8000;ulpfec;VP8;VP8;720;240;240;NotDone
GoogleTalk;IRC;iptel.org;Off;On;On;Auto;Auto;TCP;On;On;Off;Auto;FALSE;TRUE;2;4;3;1419;962;1001;5859;4918;204;207;286;301;5900;203;681;PCMU-8000;SILK-8000;SILK-8000;ulpfec;VP8;VP8;720;360;240;NotDone
GoogleTalk;IRC;iptel.org;Off;On;On;Auto;Auto;Auto;Off;Off;Off;FALSE;FALSE;TRUE;2;3;3;1419;962;1001;5859;5644;204;207;286;301;5900;203;681;PCMU-8000;SILK-8000;SILK-8000;ulpfec;VP8;VP8;720;240;240;NotDone
GoogleTalk;IRC;iptel.org;Off;On;On;Auto;Auto;TCP;Off;Off;Off;Auto;FALSE;TRUE;2;2;3;701;1156;800;4368;5055;204;2685;245;2429;5900;673;681;PCMU-8000;SILK-8000;SILK-8000;ulpfec;VP8;VP8;720;240;240;NotDone
SIP;IRC;IRC;On;On;On;Auto;Tls;TCP;Off;Off;Off;TRUE;FALSE;TRUE;3;3;3;1536;1204;800;5859;5644;5978;207;286;301;5900;203;167;AMR-WB-16000;SILK-8000;SILK-8000;Auto;VP8;VP8;720;240;240;NotDone
GoogleTalk;IRC;GoogleTalk;Off;On;On;Auto;Auto;Auto;On;On;Off;Auto;FALSE;TRUE;2;4;3;1419;962;1001;5859;5644;204;207;286;301;5900;203;167;AMR-WB-16000;SILK-8000;SILK-8000;rtx;VP8;VP8;720;720;480;NotDone
GoogleTalk;IRC;iptel.org;Off;On;On;Auto;Auto;Auto;Off;Off;Off;FALSE;FALSE;FALSE;2;3;3;1983;1950;1837;5859;5644;5978;207;286;301;5900;203;167;AMR-WB-16000;SILK-8000;SILK-8000;Auto;VP8;VP8;720;240;480;NotDone
GoogleTalk;IRC;GoogleTalk;Off;On;On;UDP;UDP;TCP;On;On;Off;Auto;Auto;Auto;2;2;3;721;1053;1007;5859;5055;204;2685;245;2429;5900;203;681;PCMU-8000;SILK-8000;SILK-8000;Auto;VP8;VP8;720;240;240;NotDone
GoogleTalk;IRC;AIM;Off;On;On;Auto;Auto;Auto;On;On;Off;Auto;FALSE;TRUE;4;2;3;1983;962;1001;5859;5644;204;207;286;2031;5900;203;681;telephone-event-80000;SILK-8000;SILK-8000;ulpfec;VP8;VP8;720;240;240;NotDone
GoogleTalk;IRC;GoogleTalk;Off;On;On;Auto;Auto;Auto;On;On;Off;Auto;FALSE;TRUE;2;4;3;1419;962;1001;5859;5644;204;207;286;301;5900;203;3356;AMR-WB-16000;SILK-8000;SILK-8000;ulpfec;VP8;VP8;720;240;240;NotDone
GoogleTalk;IRC;iptel.org;Off;On;On;Auto;Auto;TCP;On;On;Off;Auto;FALSE;TRUE;3;4;3;1983;962;1001;5859;5055;204;2685;245;2429;5900;673;681;PCMU-8000;SILK-8000;SILK-8000;ulpfec;VP8;VP8;720;240;240;NotDone
GoogleTalk;IRC;GoogleTalk;Off;On;On;Tls;UDP;TCP;On;On;Off;Auto;FALSE;TRUE;2;2;2;1983;962;1001;5859;5644;204;207;286;301;5900;203;681;PCMU-8000;SILK-8000;SILK-8000;ulpfec;VP8;VP8;720;360;240;NotDone
SIP;IRC;IRC;On;On;On;Auto;TCP;Auto;Off;Off;Off;Auto;FALSE;TRUE;3;3;3;1536;1204;800;5859;5644;5978;207;286;301;5900;203;681;telephone-event-80000;SILK-8000;SILK-8000;Auto;VP8;VP8;720;240;240;NotDone
SIP;IRC;IRC;On;On;On;Auto;Auto;Auto;Off;Off;Off;FALSE;FALSE;FALSE;2;3;3;1983;1950;1837;5859;5644;5978;207;286;301;5900;203;167;AMR-WB-16000;SILK-8000;SILK-8000;Auto;VP8;VP8;720;240;240;NotDone
GoogleTalk;IRC;GoogleTalk;Off;On;On;UDP;UDP;TCP;On;On;Off;Auto;Auto;Auto;2;2;3;1983;1950;1837;5859;5954;5978;5963;259;5802;5900;5887;681;PCMU-8000;SILK-8000;SILK-8000;ulpfec;VP8;VP8;720;240;240;NotDone
GoogleTalk;IRC;GoogleTalk;Off;On;On;Auto;Auto;TCP;On;On;Off;Auto;FALSE;TRUE;3;4;3;1983;962;1001;5859;5644;204;207;286;5802;5823;5974;167;AMR-WB-16000;SILK-8000;SILK-8000;ulpfec;VP8;VP8;720;240;480;NotDone
GoogleTalk;IRC;GoogleTalk;Off;On;On;Auto;Auto;Auto;On;On;Off;Auto;FALSE;TRUE;2;4;3;1419;962;1001;5859;5644;204;207;286;301;5900;203;681;PCMU-8000;SILK-8000;SILK-8000;ulpfec;VP8;VP8;720;360;240;NotDone
GoogleTalk;IRC;iptel.org;Off;On;On;Auto;Tls;TCP;On;On;Off;Auto;FALSE;TRUE;3;4;3;1983;974;1837;5859;5954;5978;5963;259;5802;5823;203;681;PCMU-8000;SILK-8000;SILK-8000;ulpfec;VP8;VP8;720;240;240;NotDone
GoogleTalk;IRC;iptel.org;Off;On;On;UDP;UDP;TCP;On;On;Off;Auto;Auto;TRUE;2;2;3;701;1156;956;325;5134;191;2685;245;2429;5900;673;2381;PCMU-8000;SILK-8000;SILK-8000;ulpfec;VP8;VP8;720;240;240;NotDone
GoogleTalk;SIP;iptel.org;Off;On;On;UDP;UDP;TCP;On;On;Off;Auto;Auto;TRUE;4;2;3;701;1156;1001;5859;5055;204;5655;5818;5802;5900;5887;681;PCMU-8000;SILK-8000;SILK-8000;ulpfec;VP8;VP8;720;240;240;NotDone
GoogleTalk;IRC;iptel.org;Off;On;On;Tls;UDP;Auto;Off;Off;Off;TRUE;FALSE;TRUE;4;3;3;1983;974;1837;5859;5954;5978;5963;259;5802;5823;203;681;PCMU-8000;SILK-8000;SILK-8000;ulpfec;VP8;VP8;720;240;240;NotDone
SIP;IRC;GoogleTalk;Off;On;On;Auto;Auto;TCP;Off;Off;Off;Auto;FALSE;TRUE;2;3;3;1983;1950;1837;4368;5055;204;2685;245;269;5900;203;681;telephone-event-80000;SILK-8000;SILK-8000;Auto;VP8;VP8;720;240;240;NotDone
SIP;IRC;IRC;On;On;On;Auto;Auto;TCP;Off;Off;Off;TRUE;FALSE;TRUE;3;3;3;1972;714;800;4368;5055;5367;2685;286;301;5900;203;681;telephone-event-80000;SILK-8000;SILK-8000;Auto;VP8;VP8;720;240;240;NotDone
GoogleTalk;IRC;GoogleTalk;Off;On;On;UDP;UDP;TCP;On;On;Off;TRUE;FALSE;TRUE;3;3;3;1983;1156;956;5859;5901;191;5920;259;5802;5900;5887;3150;PCMU-8000;G722-16000;SILK-8000;ulpfec;VP8;VP8;720;480;480;NotDone
GoogleTalk;IRC;iptel.org;Off;Off;On;TCP;Auto;TCP;Off;On;Off;TRUE;FALSE;TRUE;2;3;3;1983;714;1001;5859;5901;5978;207;679;301;5226;673;5879;telephone-event-80000;SILK-8000;SILK-8000;Auto;VP8;VP8;720;240;240;NotDone
SIP;IRC;IRC;On;On;On;Auto;TCP;Auto;Off;Off;On;TRUE;FALSE;TRUE;2;3;3;1983;1950;1837;5859;346;5978;5963;259;5802;5900;203;167;telephone-event-80000;SILK-8000;SILK-8000;ulpfec;VP8;VP8;720;240;240;NotDone
GoogleTalk;IRC;GoogleTalk;Off;On;On;UDP;UDP;TCP;On;On;Off;TRUE;FALSE;TRUE;2;4;3;1983;1304;1001;5859;5055;204;3280;245;301;5900;5887;681;PCMU-8000;SILK-8000;SILK-8000;ulpfec;VP8;VP8;720;240;480;NotDone
GoogleTalk;IRC;GoogleTalk;Off;On;On;UDP;UDP;TCP;On;On;Off;Auto;FALSE;TRUE;3;4;3;721;992;1001;5859;5055;204;5655;708;2279;5900;203;681;PCMU-8000;SILK-8000;SILK-8000;Auto;VP8;VP8;720;240;240;NotDone
SIP;IRC;IRC;On;Off;On;Auto;Auto;Auto;Off;Off;Off;FALSE;FALSE;TRUE;2;3;3;1983;1950;800;5859;5644;5978;207;286;301;5900;203;681;telephone-event-80000;SILK-8000;SILK-8000;Auto;VP8;VP8;720;240;240;NotDone
SIP;IRC;IRC;On;On;On;Auto;TCP;Auto;Off;Off;Off;Auto;FALSE;TRUE;3;3;3;1536;1204;800;5859;5644;5978;207;286;301;5900;203;681;telephone-event-80000;SILK-8000;SILK-8000;Auto;VP8;VP8;720;240;240;NotDone
GoogleTalk;IRC;GoogleTalk;Off;On;On;UDP;UDP;TCP;On;On;Off;Auto;Auto;TRUE;2;2;3;1983;714;1001;5859;1067;191;5920;259;5802;5900;5887;681;PCMU-8000;SILK-8000;SILK-8000;ulpfec;VP8;VP8;720;240;240;NotDone
SIP;IRC;IRC;On;On;On;Auto;TCP;Auto;Off;Off;Off;Auto;FALSE;TRUE;3;3;3;1536;1204;800;4368;5055;204;2685;245;2429;5900;673;2381;PCMU-8000;SILK-8000;SILK-8000;ulpfec;VP8;VP8;720;240;240;NotDone
GoogleTalk;IRC;iptel.org;Off;On;On;Auto;Auto;Auto;Off;Off;Off;FALSE;FALSE;TRUE;3;3;3;1983;1950;1837;5859;346;5978;5963;259;5802;5900;203;167;telephone-event-80000;SILK-8000;SILK-8000;ulpfec;VP8;VP8;720;240;240;NotDone
GoogleTalk;IRC;GoogleTalk;Off;Off;On;UDP;UDP;TCP;On;On;Off;Auto;Auto;TRUE;2;2;3;1983;714;956;325;1983;191;5920;259;5343;5823;1053;681;PCMU-8000;SILK-8000;SILK-8000;ulpfec;VP8;VP8;720;240;240;NotDone
SIP;IRC;IRC;On;On;On;Auto;Auto;TCP;Off;Off;Off;TRUE;FALSE;TRUE;3;3;3;1983;714;800;4368;5055;5367;2685;245;2429;5900;673;2381;telephone-event-80000;SILK-8000;SILK-8000;Auto;VP8;VP8;720;240;240;NotDone
SIP;IRC;IRC;On;On;On;Auto;Auto;Auto;Off;Off;Off;Auto;FALSE;TRUE;2;3;3;1983;1950;1837;4368;5055;204;2685;245;301;5226;203;681;telephone-event-80000;SILK-8000;SILK-8000;Auto;VP8;VP8;720;240;240;NotDone
GoogleTalk;IRC;iptel.org;Off;On;On;Tls;UDP;Auto;Off;Off;Off;TRUE;FALSE;TRUE;4;3;3;1983;974;1001;5549;4488;5482;1032;286;301;5900;5887;681;PCMU-8000;SILK-8000;SILK-8000;ulpfec;VP8;VP8;720;240;240;NotDone
SIP;IRC;IRC;On;On;On;Auto;TCP;Auto;Off;Off;Off;TRUE;FALSE;TRUE;2;3;3;1983;714;1001;5859;5901;5978;207;679;301;5226;673;5879;telephone-event-80000;SILK-8000;SILK-8000;Auto;VP8;VP8;720;240;240;NotDone
GoogleTalk;IRC;GoogleTalk;Off;On;On;UDP;UDP;TCP;On;On;Off;Auto;Auto;TRUE;2;2;3;1983;714;956;325;1067;191;5920;259;5802;5823;5887;681;PCMU-8000;SILK-8000;SILK-8000;ulpfec;VP8;VP8;720;720;240;NotDone
GoogleTalk;AIM;iptel.org;Off;On;On;Tls;UDP;TCP;On;Off;On;Auto;FALSE;TRUE;2;2;3;1983;1053;1888;5859;5644;5978;207;286;301;5900;5887;681;PCMU-8000;SILK-8000;SILK-8000;Auto;VP8;VP8;720;240;240;NotDone
SIP;IRC;IRC;On;On;On;Auto;TCP;Auto;Off;Off;Off;TRUE;FALSE;Auto;2;3;3;1983;714;800;4368;5055;204;2685;245;301;5226;203;681;PCMU-8000;SILK-8000;SILK-8000;Auto;VP8;VP8;720;240;240;NotDone
SIP;IRC;IRC;On;On;On;Auto;TCP;Auto;Off;Off;Off;TRUE;FALSE;FALSE;2;4;3;1983;1950;1837;5859;346;5978;5963;259;5802;5900;5887;5879;telephone-event-80000;SILK-8000;opus-48000;Auto;VP8;VP8;720;240;240;NotDone
SIP;IRC;IRC;On;On;On;Auto;TCP;Auto;Off;Off;On;TRUE;FALSE;TRUE;2;3;3;1983;1053;866;5859;5555;3915;207;259;301;5226;673;5879;telephone-event-80000;SILK-8000;SILK-8000;Auto;VP8;VP8;720;240;240;NotDone
GoogleTalk;IRC;GoogleTalk;Off;On;On;Tls;UDP;TCP;On;On;Off;Auto;FALSE;TRUE;2;2;2;1983;1053;1001;5859;5055;204;5655;259;5802;5900;5887;681;PCMU-8000;SILK-8000;SILK-8000;Auto;VP8;VP8;720;240;240;NotDone
GoogleTalk;IRC;iptel.org;Off;On;On;Tls;TCP;TCP;On;On;Off;Auto;FALSE;FALSE;2;4;3;1983;1053;1001;5859;346;204;2685;245;301;5226;673;5879;telephone-event-80000;SILK-8000;SILK-8000;ulpfec;VP8;VP8;720;720;240;NotDone
SIP;IRC;IRC;On;On;On;Auto;TCP;Auto;Off;Off;Off;TRUE;FALSE;TRUE;2;3;3;1983;714;1001;5859;5055;2066;2685;245;301;5226;673;5879;telephone-event-80000;SILK-8000;SILK-8000;ulpfec;VP8;VP8;720;240;480;NotDone
