caller_protocol;callee1_protocol;callee2_protocol;caller_listenport;callee1_listenport;callee2_listenport;caller_transportprotocol;callee1_transportprotocol;callee2_transportprotocol;caller_encryption;callee1_encryption;callee2_encryption;caller_sipzrtpattribute;callee1_sipzrtpattribute;callee2_sipzrtpattribute;caller_maxpeers;callee1_maxpeers;callee2_maxpeers;caller_mtu;callee1_mtu;callee2_mtu;caller_defaultcallrate;callee1_defaultcallrate;callee2_defaultcallrate;caller_maxreceivecallrate;callee1_maxreceivecallrate;callee2_maxreceivecallrate;caller_maxtransmitcallrate;callee1_maxtransmitcallrate;callee2_maxtransmitcallrate;caller_audiocodec;callee1_audiocodec;callee2_audiocodec;caller_videocodec;callee1_videocodec;callee2_videocodec;caller_maxresolution;callee1_maxresolution;callee2_maxresolution;
AIM;SIP;SIP;Off;Off;On;UDP;UDP;Tls;BestEffort;Off;BestEffort;FALSE;Auto;FALSE;4;2;3;1077;628;1659;409;4076;4085;4117;1688;3041;2563;4633;4501;AMR-WB-16000;SILK-8000;PCMU-8000;Auto;rtx;h264;1080;360;720;NotDone
SIP;IRC;IRC;Off;Off;Off;Auto;Auto;Auto;Off;Off;Off;Auto;Auto;Auto;2;2;2;1996;1896;576;5978;319;6000;331;64;64;6000;5402;6000;SILK-8000;telephone-event-80000;Auto;Auto;ulpfec;ulpfec;1080;1080;480;NotDone
SIP;AIM;SIP;Off;Off;Off;Auto;Auto;Auto;Off;Off;Off;Auto;Auto;Auto;2;2;2;1306;576;576;5978;6000;4562;1586;5886;64;6000;5886;6000;Auto;telephone-event-80000;telephone-event-80000;Auto;VP8;VP8;1080;1080;240;NotDone
IRC;SIP;iPPi;Off;Off;Off;Auto;Auto;Auto;Off;Off;Off;Auto;Auto;Auto;2;2;2;2000;2000;2000;6000;64;6000;64;64;6000;64;64;64;telephone-event-80000;telephone-event-80000;Auto;VP8;Auto;Auto;240;1080;1080;NotDone
SIP;GoogleTalk;SIP;Off;Off;Off;Auto;Auto;Auto;Off;Off;Off;Auto;Auto;Auto;2;2;2;2000;2000;1720;6000;64;6000;64;358;6000;6000;118;172;SILK-12000;Auto;Auto;Auto;Auto;Auto;1080;1080;1080;NotDone
SIP;SIP;SIP;Off;Off;Off;Auto;Auto;Auto;Off;Off;Off;Auto;Auto;Auto;2;2;2;576;576;576;6000;6000;3779;64;6000;64;6000;6000;6000;Auto;telephone-event-80000;telephone-event-80000;Auto;VP8;VP8;1080;1080;240;NotDone
SIP;IRC;IRC;Off;Off;Off;Auto;Auto;Auto;Off;Off;Off;Auto;Auto;Auto;2;2;2;2000;2000;576;6000;64;6000;64;64;64;6000;64;6000;telephone-event-80000;telephone-event-80000;Auto;Auto;Auto;Auto;1080;1080;1080;NotDone
SIP;IRC;SIP;Off;Off;Off;Auto;Auto;Auto;Off;Off;Off;Auto;Auto;Auto;2;2;2;2000;2000;903;6000;64;6000;64;64;64;6000;64;6000;telephone-event-80000;Auto;Auto;Auto;Auto;Auto;1080;1080;1080;NotDone
SIP;SIP;AIM;Off;Off;Off;Auto;Auto;Auto;Off;Off;Off;Auto;Auto;Auto;2;2;2;1410;576;576;6000;6000;6000;6000;6000;64;6000;6000;6000;Auto;telephone-event-80000;telephone-event-80000;Auto;VP8;VP8;1080;1080;240;NotDone
SIP;iptel.org;iptel.org;Off;Off;Off;Auto;Auto;Auto;Off;Off;Off;Auto;Auto;Auto;2;2;2;2000;2000;2000;6000;154;6000;575;64;64;6000;166;64;speex-8000;Auto;Auto;Auto;Auto;Auto;1080;1080;1080;NotDone
SIP;SIP;SIP;Off;Off;Off;TCP;Auto;Auto;Off;Off;Off;Auto;Auto;TRUE;2;2;2;1203;576;576;3032;6000;2567;3503;6000;1867;6000;6000;6000;Auto;SILK-12000;telephone-event-80000;Auto;VP8;VP8;1080;1080;360;NotDone
SIP;SIP;SIP;Off;Off;Off;Auto;Auto;Auto;Off;Off;Off;Auto;Auto;Auto;2;2;2;1288;1243;647;3682;5703;3032;3032;5703;317;5988;5703;5703;Auto;SILK-8000;AMR-WB-16000;Auto;VP8;VP8;1080;1080;360;NotDone
SIP;SIP;GoogleTalk;Off;Off;Off;Auto;Auto;Auto;Off;Off;Off;Auto;Auto;Auto;2;2;2;1973;2000;1991;5862;64;5974;64;90;64;6000;5983;198;Auto;Auto;Auto;Auto;h264;h264;1080;1080;480;NotDone
SIP;SIP;SIP;Off;Off;Off;Auto;Auto;Auto;Off;Off;Off;Auto;Auto;Auto;2;2;2;2000;2000;2000;6000;64;6000;64;64;6000;6000;64;64;telephone-event-80000;Auto;Auto;Auto;Auto;Auto;1080;1080;1080;NotDone
SIP;GoogleTalk;SIP;Off;Off;Off;Auto;Auto;Auto;On;Off;Off;Auto;Auto;Auto;3;2;2;969;891;1005;3032;4333;2698;4319;4311;2000;3516;5805;5160;Auto;iLBC-8000;SILK-12000;h264;VP8;VP8;1080;1080;720;NotDone
IRC;SIP;IRC;Off;Off;Off;Auto;Auto;Auto;Off;Off;Off;Auto;Auto;Auto;2;2;2;2000;2000;2000;6000;64;6000;64;64;6000;64;64;64;telephone-event-80000;telephone-event-80000;Auto;VP8;Auto;Auto;240;1080;1080;NotDone
SIP;IRC;IRC;Off;Off;Off;Auto;Auto;Auto;Off;Off;Off;Auto;Auto;Auto;2;2;2;2000;2000;576;6000;64;6000;64;64;64;6000;64;1697;telephone-event-80000;Auto;Auto;Auto;Auto;Auto;1080;1080;1080;NotDone
IRC;SIP;IRC;Off;Off;Off;Auto;Auto;Auto;Off;Off;Off;Auto;Auto;Auto;2;2;2;2000;2000;2000;6000;64;6000;64;64;6000;64;64;64;SILK-8000;speex-16000;Auto;ulpfec;Auto;Auto;240;1080;1080;NotDone
SIP;SIP;iptel.org;Off;Off;Off;Auto;Auto;Auto;Off;Off;Off;Auto;Auto;Auto;2;2;2;1880;2000;2000;5642;64;5507;64;64;126;5938;5962;64;Auto;PCMU-8000;Auto;Auto;VP8;VP8;1080;1080;1080;NotDone
SIP;IRC;IRC;Off;Off;Off;Auto;Auto;Auto;Off;Off;Off;Auto;Auto;Auto;2;2;2;2000;2000;1985;6000;64;6000;64;64;64;6000;248;64;SILK-8000;Auto;Auto;Auto;Auto;Auto;1080;1080;1080;NotDone
SIP;SIP;iPPi;Off;Off;Off;Auto;Auto;Auto;Off;Off;Off;Auto;Auto;Auto;2;2;2;1929;1963;1972;6000;206;5733;112;215;64;6000;6000;64;Auto;speex-16000;Auto;Auto;ulpfec;ulpfec;1080;1080;1080;NotDone
SIP;SIP;SIP;Off;Off;Off;Auto;Auto;Auto;Off;Off;Off;Auto;Auto;Auto;2;2;2;576;576;635;3328;6000;64;2735;6000;1534;4808;5430;3548;Auto;SILK-8000;AMR-WB-16000;Auto;VP8;VP8;1080;1080;1080;NotDone
SIP;AIM;SIP;Off;Off;Off;Auto;Auto;Auto;On;Off;Off;Auto;Auto;Auto;3;2;2;1288;734;734;3032;5338;3032;3032;5338;3032;3032;2679;5431;Auto;AMR-WB-16000;AMR-WB-16000;Auto;VP8;VP8;1080;1080;720;NotDone
SIP;SIP;IRC;Off;Off;Off;Auto;Auto;Auto;Off;Off;Off;Auto;Auto;Auto;2;2;2;2000;576;2000;6000;64;6000;64;64;6000;64;6000;64;Auto;Auto;Auto;VP8;VP8;VP8;1080;1080;1080;NotDone
SIP;SIP;SIP;Off;Off;Off;Auto;Auto;Auto;Off;Off;Off;Auto;Auto;Auto;2;2;2;655;722;593;5700;5560;2546;5407;5538;868;5358;5420;5947;Auto;SILK-8000;SILK-12000;Auto;VP8;VP8;1080;1080;720;NotDone
SIP;SIP;SIP;Off;Off;Off;Auto;Auto;Auto;On;Off;Off;Auto;Auto;Auto;3;2;2;585;585;662;3032;5962;101;5962;5962;2434;4141;5319;3496;Auto;SILK-12000;AMR-WB-16000;Auto;VP8;VP8;1080;1080;1080;NotDone
SIP;SIP;SIP;Off;Off;Off;Auto;Auto;Auto;Off;Off;Off;Auto;Auto;Auto;2;2;2;1274;576;580;3032;6000;3032;3460;6000;2853;3437;5515;3032;Auto;AMR-WB-16000;GSM-8000;Auto;VP8;VP8;1080;1080;480;NotDone
SIP;SIP;SIP;Off;Off;Off;Auto;Auto;Auto;Off;Off;Off;Auto;Auto;Auto;2;2;2;644;807;577;3032;5995;360;1506;5985;68;5999;5985;5996;Auto;AMR-WB-16000;telephone-event-80000;Auto;VP8;VP8;1080;1080;720;NotDone
SIP;SIP;SIP;Off;Off;Off;Auto;Auto;Auto;Off;Off;Off;Auto;Auto;Auto;2;2;2;2000;2000;759;6000;64;6000;392;64;64;64;5731;6000;telephone-event-80000;telephone-event-80000;Auto;Auto;VP8;VP8;1080;1080;240;NotDone
SIP;SIP;GoogleTalk;Off;On;On;TCP;Auto;Auto;Off;On;Off;Auto;Auto;TRUE;2;2;2;1144;614;576;3885;6000;2336;3622;5613;1749;4630;5839;5839;Auto;AMR-WB-16000;SILK-8000;Auto;VP8;ulpfec;1080;1080;480;NotDone
SIP;SIP;IRC;Off;Off;Off;Auto;Auto;Auto;Off;Off;Off;Auto;Auto;Auto;2;2;2;2000;2000;2000;6000;64;6000;64;64;6000;64;64;64;telephone-event-80000;Auto;Auto;Auto;Auto;Auto;1080;1080;1080;NotDone
SIP;SIP;SIP;Off;Off;Off;Auto;Auto;Auto;BestEffort;Off;Off;Auto;Auto;Auto;4;2;2;576;576;576;64;6000;64;6000;6000;4291;4764;6000;6000;Auto;telephone-event-80000;telephone-event-80000;Auto;VP8;VP8;1080;1080;1080;NotDone
SIP;SIP;SIP;Off;Off;Off;TCP;Auto;TCP;On;Off;Off;Auto;Auto;TRUE;2;2;3;657;647;576;5687;6000;64;6000;5042;360;6000;2870;4445;Auto;SILK-8000;SILK-12000;Auto;VP8;VP8;1080;480;480;NotDone
SIP;SIP;SIP;Off;Off;Off;Auto;Auto;Auto;Off;Off;Off;Auto;Auto;Auto;2;2;2;1331;606;577;6000;6000;4585;1968;5859;64;6000;6000;5959;Auto;SILK-8000;SILK-8000;Auto;VP8;VP8;1080;1080;240;NotDone
SIP;SIP;SIP;Off;Off;Off;TCP;Auto;TCP;On;Off;Off;Auto;Auto;TRUE;2;2;3;576;576;670;6000;6000;1859;5060;2698;142;5936;3032;3032;Auto;telephone-event-80000;SILK-8000;Auto;VP8;VP8;480;480;480;NotDone
SIP;SIP;SIP;Off;Off;Off;TCP;Auto;TCP;On;On;Off;Auto;Auto;TRUE;2;2;3;1173;576;576;4995;6000;3032;3032;6000;64;6000;4105;6000;Auto;PCMA-8000;telephone-event-80000;Auto;VP8;VP8;1080;480;480;NotDone
SIP;SIP;SIP;Off;Off;Off;Auto;Auto;Auto;On;Off;Off;Auto;Auto;Auto;3;2;2;576;576;2000;64;6000;64;6000;6000;64;64;6000;6000;Auto;Auto;telephone-event-80000;Auto;VP8;VP8;1080;720;1080;NotDone
SIP;SIP;SIP;Off;Off;Off;Auto;Auto;Auto;BestEffort;Off;Off;Auto;Auto;Auto;4;2;2;576;576;2000;64;6000;64;6000;6000;64;64;6000;6000;Auto;Auto;telephone-event-80000;Auto;VP8;VP8;1080;360;1080;NotDone
IRC;SIP;IRC;Off;Off;Off;Auto;Auto;Auto;Off;Off;Off;Auto;Auto;Auto;2;2;2;2000;2000;2000;6000;64;6000;64;64;6000;64;64;64;telephone-event-80000;telephone-event-80000;Auto;VP8;Auto;Auto;240;240;1080;NotDone
SIP;SIP;SIP;Off;Off;Off;TCP;Auto;Auto;Off;Off;Off;Auto;Auto;TRUE;2;2;2;1288;647;639;3032;5735;3032;3032;5735;3032;3032;5703;5735;Auto;AMR-WB-16000;telephone-event-80000;red;VP8;VP8;1080;720;360;NotDone
SIP;IRC;IRC;Off;Off;Off;Auto;Auto;Auto;Off;Off;Off;Auto;Auto;Auto;2;2;2;2000;2000;2000;6000;64;6000;64;64;64;6000;6000;64;Auto;Auto;Auto;Auto;h264;h264;1080;1080;240;NotDone
SIP;IRC;SIP;Off;Off;Off;Auto;Auto;UDP;BestEffort;Off;Off;Auto;Auto;Auto;4;2;4;576;576;576;64;6000;64;6000;64;64;6000;64;64;Auto;Auto;telephone-event-80000;Auto;VP8;VP8;240;240;480;NotDone
SIP;AIM;SIP;Off;Off;Off;Auto;Auto;Auto;Off;Off;Off;Auto;Auto;Auto;2;2;2;1145;576;576;6000;6000;3695;2025;6000;64;6000;6000;6000;Auto;telephone-event-80000;telephone-event-80000;Auto;VP8;VP8;1080;1080;360;NotDone
ICQ;SIP;SIP;Off;Off;Off;Auto;Auto;Auto;Off;Off;Off;Auto;Auto;Auto;2;2;2;2000;2000;1834;6000;64;6000;64;64;6000;6000;64;64;telephone-event-80000;PCMA-8000;Auto;red;Auto;Auto;480;720;1080;NotDone
SIP;AIM;SIP;Off;Off;Off;Auto;Auto;Auto;Off;Off;Off;Auto;Auto;Auto;2;2;2;1405;576;576;6000;6000;3598;2465;6000;64;6000;5861;6000;Auto;telephone-event-80000;SILK-12000;Auto;VP8;VP8;1080;1080;480;NotDone
SIP;SIP;SIP;Off;Off;Off;Auto;Auto;Auto;On;Off;Off;Auto;Auto;Auto;2;2;2;1564;588;602;4757;5948;3185;3546;5948;1184;4879;3619;4531;Auto;GSM-8000;SILK-8000;Auto;VP8;VP8;1080;720;720;NotDone
SIP;SIP;SIP;Off;Off;Off;Auto;Auto;Auto;On;Off;Off;Auto;Auto;Auto;2;2;2;1300;594;611;4637;5920;3531;3221;5920;1455;4618;3156;3933;Auto;PCMA-8000;SILK-12000;Auto;VP8;VP8;1080;480;480;NotDone
SIP;IRC;SIP;Off;Off;Off;Auto;Auto;Auto;Off;Off;Off;Auto;Auto;Auto;2;2;2;2000;2000;576;6000;64;6000;363;64;64;6000;6000;6000;SILK-8000;iLBC-8000;Auto;Auto;VP8;VP8;1080;1080;240;NotDone
SIP;iptel.org;IRC;Off;Off;Off;Auto;Auto;Auto;Off;Off;Off;Auto;Auto;Auto;2;2;2;2000;2000;2000;6000;64;6000;64;64;64;6000;64;64;telephone-event-80000;Auto;Auto;Auto;Auto;Auto;1080;1080;1080;NotDone
SIP;SIP;SIP;Off;Off;Off;TCP;Auto;TCP;On;Off;Off;Auto;Auto;TRUE;2;2;3;576;576;576;6000;6000;64;6000;2108;77;6000;1885;2886;Auto;SILK-8000;AMR-WB-16000;Auto;VP8;VP8;1080;480;480;NotDone
SIP;SIP;SIP;Off;Off;Off;Auto;Auto;Auto;Off;Off;Off;Auto;Auto;Auto;2;2;2;1798;695;576;5586;5628;5475;5697;5628;155;5858;5920;5883;Auto;SILK-8000;SILK-8000;Auto;VP8;VP8;1080;1080;480;NotDone
SIP;SIP;SIP;Off;Off;Off;Auto;Auto;Auto;Off;Off;Off;Auto;Auto;Auto;2;2;2;1135;1097;600;4036;5898;2911;3161;5898;308;5994;5752;5898;Auto;SILK-8000;AMR-WB-16000;Auto;VP8;VP8;1080;1080;480;NotDone
SIP;SIP;SIP;Off;Off;Off;TCP;Auto;TCP;On;Off;Off;Auto;Auto;TRUE;2;2;3;576;576;576;6000;6000;390;5582;4693;382;5995;3032;3889;Auto;SILK-8000;SILK-12000;Auto;VP8;VP8;1080;480;480;NotDone
SIP;AIM;SIP;Off;Off;Off;Auto;Auto;Auto;Off;Off;Off;Auto;Auto;Auto;2;2;2;1288;576;582;6000;5998;3032;2142;5844;64;6000;5845;5973;Auto;telephone-event-80000;telephone-event-80000;Auto;VP8;VP8;1080;1080;240;NotDone
SIP;SIP;SIP;Off;Off;Off;Tls;Auto;Tls;BestEffort;Off;Off;Auto;Auto;FALSE;2;2;4;576;576;576;6000;6000;64;6000;6000;64;6000;902;6000;Auto;Auto;telephone-event-80000;Auto;VP8;VP8;1080;240;720;NotDone
iPPi;SIP;iPPi;Off;Off;Off;Auto;Auto;Auto;Off;Off;Off;Auto;Auto;Auto;2;2;2;1997;2000;2000;6000;64;5986;64;105;6000;64;64;64;SILK-8000;Auto;Auto;rtx;Auto;Auto;1080;1080;1080;NotDone
SIP;SIP;SIP;Off;Off;Off;TCP;Auto;TCP;On;Off;Off;Auto;Auto;TRUE;2;2;3;576;576;653;6000;5666;2007;4406;2735;64;6000;2735;2735;Auto;SILK-8000;AMR-WB-16000;Auto;VP8;VP8;480;480;480;NotDone
SIP;SIP;SIP;Off;Off;Off;Auto;Auto;Auto;Off;Off;Off;Auto;Auto;Auto;2;2;2;884;576;576;6000;6000;2311;6000;6000;64;6000;6000;6000;Auto;telephone-event-80000;telephone-event-80000;Auto;VP8;VP8;1080;1080;360;NotDone
SIP;SIP;SIP;Off;Off;Off;Auto;Auto;Auto;Off;Off;Off;Auto;Auto;Auto;2;2;2;576;576;576;6000;6000;64;6000;6000;1310;6000;6000;6000;Auto;telephone-event-80000;telephone-event-80000;Auto;VP8;VP8;1080;1080;240;NotDone
SIP;SIP;SIP;Off;Off;Off;Auto;Auto;Auto;Off;Off;Off;Auto;Auto;Auto;2;2;2;1507;576;576;6000;6000;5836;6000;6000;533;5257;6000;6000;Auto;telephone-event-80000;telephone-event-80000;Auto;VP8;VP8;1080;1080;240;NotDone
SIP;SIP;SIP;Off;Off;Off;Auto;Auto;Auto;Off;Off;Off;Auto;Auto;Auto;2;2;2;1672;576;576;6000;6000;5841;6000;6000;64;6000;6000;6000;Auto;speex-8000;telephone-event-80000;Auto;VP8;VP8;1080;1080;360;NotDone
IRC;SIP;IRC;Off;Off;Off;Auto;Auto;Auto;Off;Off;Off;Auto;Auto;Auto;2;2;2;2000;2000;2000;6000;64;6000;64;64;6000;64;64;64;telephone-event-80000;Auto;Auto;rtx;Auto;Auto;360;1080;1080;NotDone
SIP;SIP;AIM;Off;Off;Off;Auto;Auto;Auto;Off;Off;Off;Auto;Auto;Auto;2;2;2;1374;576;576;6000;6000;6000;6000;6000;64;6000;6000;6000;Auto;telephone-event-80000;telephone-event-80000;Auto;VP8;VP8;1080;1080;240;NotDone
SIP;SIP;SIP;Off;Off;Off;Auto;Auto;Auto;Off;Off;Off;Auto;Auto;Auto;2;2;2;576;576;576;6000;6000;64;6000;6000;64;6000;6000;6000;Auto;telephone-event-80000;telephone-event-80000;Auto;VP8;VP8;1080;720;240;NotDone
SIP;SIP;SIP;Off;Off;Off;Auto;Auto;Auto;On;Off;Off;Auto;Auto;Auto;3;2;2;1479;577;599;3880;6000;808;5954;5967;2721;2841;5726;2891;Auto;SILK-8000;SILK-12000;Auto;VP8;VP8;1080;1080;720;NotDone
IRC;SIP;IRC;Off;Off;Off;Auto;Auto;Auto;Off;Off;Off;Auto;Auto;Auto;2;2;2;2000;2000;2000;6000;64;6000;64;64;6000;64;64;64;telephone-event-80000;telephone-event-80000;Auto;VP8;Auto;Auto;240;240;1080;NotDone
IRC;IRC;IRC;Off;Off;Off;Auto;Auto;Auto;Off;Off;Off;Auto;Auto;Auto;2;2;2;2000;2000;2000;6000;64;6000;64;64;6000;64;64;64;telephone-event-80000;Auto;Auto;ulpfec;Auto;Auto;240;1080;1080;NotDone
SIP;SIP;SIP;Off;Off;Off;TCP;Auto;TCP;On;Off;Off;Auto;Auto;TRUE;2;2;3;576;576;576;5411;6000;64;6000;6000;64;6000;4545;6000;Auto;telephone-event-80000;telephone-event-80000;Auto;VP8;VP8;1080;360;360;NotDone
IRC;SIP;GoogleTalk;Off;Off;Off;Auto;Auto;Auto;Off;Off;Off;Auto;Auto;Auto;2;2;2;2000;576;672;6000;6000;64;6000;6000;6000;64;64;64;AMR-WB-16000;AMR-WB-16000;telephone-event-80000;VP8;VP8;VP8;240;1080;1080;NotDone
SIP;SIP;SIP;Off;Off;Off;Auto;Auto;Auto;BestEffort;Off;Off;Auto;Auto;Auto;3;2;2;576;576;576;64;6000;64;6000;6000;6000;64;6000;6000;Auto;telephone-event-80000;telephone-event-80000;Auto;VP8;VP8;1080;1080;1080;NotDone
SIP;SIP;AIM;Off;Off;Off;Auto;Auto;Auto;Off;Off;Off;Auto;Auto;Auto;2;2;2;1282;583;576;6000;6000;2284;3800;6000;250;5321;5968;6000;Auto;SILK-8000;SILK-8000;Auto;VP8;VP8;1080;1080;360;NotDone
SIP;SIP;SIP;Off;Off;Off;Auto;Auto;Auto;Off;Off;Off;Auto;Auto;Auto;2;2;2;608;652;610;6000;5946;2408;5814;6000;163;5898;5864;5764;Auto;telephone-event-80000;AMR-WB-16000;Auto;VP8;VP8;1080;1080;1080;NotDone
SIP;SIP;SIP;Off;Off;Off;Auto;Auto;Auto;Off;Off;Off;Auto;Auto;Auto;2;2;2;576;576;576;3728;6000;64;6000;6000;762;6000;1144;6000;Auto;SILK-8000;telephone-event-80000;Auto;VP8;VP8;1080;1080;1080;NotDone
SIP;SIP;SIP;Off;Off;Off;Auto;Auto;Auto;Off;Off;Off;Auto;Auto;Auto;2;2;2;2000;2000;2000;6000;64;6000;64;64;6000;6000;517;517;telephone-event-80000;Auto;Auto;Auto;Auto;Auto;1080;1080;1080;NotDone
SIP;SIP;SIP;Off;Off;Off;Auto;Auto;Auto;Off;Off;Off;Auto;Auto;Auto;2;2;2;576;576;576;5804;6000;64;6000;6000;64;6000;6000;6000;Auto;telephone-event-80000;telephone-event-80000;Auto;VP8;VP8;1080;1080;1080;NotDone
SIP;AIM;GoogleTalk;Off;Off;On;Auto;Auto;Auto;Off;Off;Off;Auto;TRUE;Auto;2;2;4;1288;576;647;3378;5703;4229;3569;6000;2808;5703;3032;5779;Auto;SILK-8000;SILK-8000;ulpfec;VP8;VP8;1080;1080;480;NotDone
SIP;SIP;SIP;Off;Off;Off;Auto;Auto;Auto;Off;Off;Off;Auto;Auto;Auto;2;2;2;576;576;576;5179;6000;64;6000;6000;64;6000;5514;6000;Auto;telephone-event-80000;telephone-event-80000;Auto;VP8;VP8;1080;1080;360;NotDone
IRC;SIP;IRC;Off;Off;Off;Auto;Auto;Auto;Off;Off;Off;Auto;Auto;Auto;2;2;2;2000;2000;2000;6000;64;6000;64;64;64;6000;64;64;telephone-event-80000;telephone-event-80000;Auto;VP8;Auto;Auto;240;1080;240;NotDone
IRC;SIP;IRC;Off;Off;Off;Auto;Auto;Auto;Off;Off;Off;Auto;Auto;Auto;2;2;2;2000;2000;2000;6000;64;6000;64;64;6000;64;64;64;Auto;Auto;Auto;VP8;Auto;Auto;240;1080;1080;NotDone
SIP;SIP;SIP;Off;Off;Off;TCP;Auto;Auto;Off;Off;Off;Auto;Auto;TRUE;2;2;2;1238;576;576;3971;6000;2716;3017;6000;1130;5707;5809;6000;Auto;AMR-WB-16000;telephone-event-80000;Auto;VP8;VP8;1080;1080;360;NotDone
IRC;SIP;iPPi;Off;Off;Off;Auto;Auto;Auto;Off;Off;Off;Auto;Auto;Auto;2;2;2;2000;2000;2000;6000;64;6000;64;64;6000;64;64;64;telephone-event-80000;telephone-event-80000;Auto;VP8;Auto;Auto;240;1080;1080;NotDone
SIP;SIP;iptel.org;Off;Off;Off;Auto;Auto;Auto;Off;Off;Off;Auto;Auto;Auto;2;2;2;2000;576;2000;6000;64;6000;64;64;6000;64;6000;64;Auto;Auto;Auto;ulpfec;rtx;rtx;1080;1080;1080;NotDone
SIP;SIP;SIP;Off;Off;Off;Auto;Auto;Auto;Off;Off;Off;Auto;Auto;Auto;2;2;2;576;576;576;64;6000;64;6000;6000;4640;2720;6000;6000;Auto;telephone-event-80000;telephone-event-80000;Auto;VP8;VP8;1080;720;1080;NotDone
IRC;SIP;GoogleTalk;Off;Off;Off;Auto;Auto;Auto;Off;Off;Off;Auto;Auto;Auto;2;2;2;2000;2000;2000;6000;64;6000;64;64;6000;64;64;64;telephone-event-80000;telephone-event-80000;Auto;VP8;Auto;Auto;240;1080;1080;NotDone
SIP;AIM;AIM;Off;Off;Off;Auto;Auto;Auto;On;Off;Off;Auto;Auto;Auto;3;2;2;1524;589;642;3032;5941;2526;3135;5880;3385;2973;5712;3032;Auto;PCMU-8000;SILK-12000;Auto;VP8;VP8;1080;1080;1080;NotDone
SIP;SIP;SIP;Off;Off;Off;UDP;Auto;UDP;BestEffort;Off;Off;Auto;Auto;FALSE;2;2;4;2000;2000;1915;6000;240;6000;64;64;64;6000;64;64;Auto;Auto;Auto;Auto;Auto;ulpfec;1080;240;240;NotDone
SIP;IRC;SIP;Off;Off;Off;Auto;Auto;Auto;Off;Off;Off;Auto;Auto;Auto;2;2;2;2000;2000;576;6000;64;6000;64;64;64;6000;6000;6000;Auto;Auto;Auto;Auto;VP8;VP8;1080;1080;240;NotDone
SIP;SIP;SIP;Off;Off;Off;Auto;Auto;Auto;Off;Off;Off;Auto;Auto;Auto;2;2;2;1471;576;576;6000;6000;1722;1185;6000;64;6000;3706;5309;Auto;telephone-event-80000;telephone-event-80000;Auto;VP8;VP8;1080;1080;240;NotDone
SIP;SIP;SIP;Off;Off;Off;Auto;Auto;Auto;Off;Off;Off;Auto;Auto;Auto;2;2;2;883;609;589;5155;5988;998;5453;5941;217;5971;5349;5845;Auto;SILK-8000;SILK-8000;Auto;VP8;VP8;1080;1080;480;NotDone
SIP;SIP;SIP;Off;Off;Off;Auto;Auto;Auto;Off;Off;Off;Auto;Auto;Auto;2;2;2;730;576;576;5998;6000;64;6000;6000;333;5143;6000;6000;Auto;AMR-WB-16000;telephone-event-80000;Auto;VP8;VP8;1080;1080;360;NotDone
SIP;SIP;SIP;Off;Off;Off;Auto;Auto;Auto;Off;Off;Off;Auto;Auto;Auto;2;2;2;576;576;576;2864;6000;64;6000;6000;3032;4591;6000;6000;Auto;PCMA-8000;SILK-8000;Auto;VP8;VP8;1080;1080;1080;NotDone
SIP;GoogleTalk;IRC;Off;Off;Off;Auto;Auto;Auto;Off;Off;Off;Auto;Auto;Auto;2;2;2;2000;2000;2000;6000;64;6000;64;64;64;6000;64;64;telephone-event-80000;Auto;Auto;Auto;Auto;Auto;1080;1080;1080;NotDone
SIP;SIP;AIM;Off;Off;Off;Auto;Auto;Auto;Off;Off;Off;Auto;Auto;Auto;2;2;2;1288;576;576;6000;6000;2095;3032;6000;603;5138;6000;6000;Auto;SILK-8000;SILK-8000;Auto;VP8;VP8;1080;1080;360;NotDone
iptel.org;iptel.org;IRC;Off;Off;Off;Auto;Auto;Auto;Off;Off;Off;Auto;Auto;Auto;2;2;2;2000;2000;2000;6000;64;6000;64;64;6000;64;64;64;telephone-event-80000;Auto;Auto;rtx;Auto;Auto;360;1080;1080;NotDone
SIP;SIP;IRC;Off;Off;Off;Auto;Auto;Auto;Off;Off;Off;Auto;Auto;Auto;2;2;2;2000;2000;2000;6000;64;6000;64;64;64;6000;64;64;Auto;opus-48000;Auto;Auto;Auto;Auto;1080;1080;1080;NotDone
SIP;iptel.org;SIP;Off;Off;Off;Auto;Auto;Auto;Off;Off;Off;Auto;Auto;Auto;2;2;2;682;576;576;5435;6000;508;6000;5555;64;6000;6000;6000;Auto;AMR-WB-16000;AMR-WB-16000;Auto;VP8;VP8;1080;1080;360;NotDone
IRC;SIP;IRC;Off;Off;Off;Auto;Auto;Auto;Off;Off;Off;Auto;Auto;Auto;2;2;2;2000;2000;2000;5968;64;6000;64;64;6000;64;64;64;telephone-event-80000;Auto;Auto;ulpfec;Auto;Auto;240;240;1080;NotDone
iptel.org;SIP;iptel.org;Off;Off;Off;Auto;Auto;Auto;Off;Off;Off;Auto;Auto;Auto;2;2;2;2000;2000;2000;5969;64;6000;64;64;6000;247;64;64;telephone-event-80000;Auto;Auto;rtx;Auto;Auto;360;360;1080;NotDone
iptel.org;SIP;iPPi;Off;Off;Off;Auto;Auto;Auto;Off;Off;Off;Auto;Auto;Auto;2;2;2;2000;2000;2000;6000;64;6000;64;64;6000;64;64;64;PCMA-8000;Auto;Auto;rtx;Auto;Auto;240;1080;1080;NotDone
SIP;SIP;IRC;Off;Off;Off;Auto;Auto;Auto;Off;Off;Off;Auto;Auto;Auto;2;2;2;2000;2000;2000;6000;64;6000;64;64;64;6000;64;64;Auto;Auto;Auto;Auto;Auto;Auto;1080;1080;1080;NotDone
