caller_protocol;callee1_protocol;callee2_protocol;caller_listenport;callee1_listenport;callee2_listenport;caller_transportprotocol;callee1_transportprotocol;callee2_transportprotocol;caller_encryption;callee1_encryption;callee2_encryption;caller_sipzrtpattribute;callee1_sipzrtpattribute;callee2_sipzrtpattribute;caller_maxpeers;callee1_maxpeers;callee2_maxpeers;caller_mtu;callee1_mtu;callee2_mtu;caller_defaultcallrate;callee1_defaultcallrate;callee2_defaultcallrate;caller_maxreceivecallrate;callee1_maxreceivecallrate;callee2_maxreceivecallrate;caller_maxtransmitcallrate;callee1_maxtransmitcallrate;callee2_maxtransmitcallrate;caller_audiocodec;callee1_audiocodec;callee2_audiocodec;caller_videocodec;callee1_videocodec;callee2_videocodec;caller_maxresolution;callee1_maxresolution;callee2_maxresolution;
AIM;ICQ;GoogleTalk;Off;On;Off;UDP;Tls;Auto;On;Off;On;FALSE;TRUE;TRUE;2;3;4;1776;684;1808;2921;5211;2000;1325;3375;4242;4851;4933;5318;telephone-event-80000;SILK-16000;Auto;rtx;rtx;h264;480;720;240;NotDone
SIP;ICQ;iPPi;On;On;Off;Tls;Tls;Tls;On;Off;Off;TRUE;Auto;Auto;2;3;4;629;684;1339;2921;4442;2000;1325;329;4242;3850;4933;5652;telephone-event-80000;SILK-8000;AMR-WB-16000;rtx;rtx;rtx;720;720;1080;NotDone
ICQ;GoogleTalk;GoogleTalk;Off;Off;On;UDP;Auto;Auto;On;Off;On;FALSE;TRUE;TRUE;2;4;3;1776;1950;1808;5483;5211;5907;2105;2164;2005;212;5469;5888;PCMA-8000;SILK-16000;iLBC-8000;rtx;VP8;rtx;480;360;240;NotDone
AIM;ICQ;ICQ;Off;On;Off;UDP;TCP;Auto;On;On;On;TRUE;TRUE;TRUE;3;3;4;1328;1519;866;2921;5560;4808;3439;284;1069;4851;473;5318;PCMA-8000;GSM-8000;iLBC-8000;rtx;VP8;VP8;480;480;240;NotDone
AIM;iPPi;SIP;Off;Off;Off;TCP;Tls;Auto;Off;Off;On;FALSE;TRUE;TRUE;4;3;3;1379;1769;1808;2921;596;5791;1325;2183;157;5648;68;5318;telephone-event-80000;opus-48000;telephone-event-80000;Auto;h264;ulpfec;1080;360;240;NotDone
ICQ;IRC;iPPi;On;On;Off;Auto;Tls;Tls;Off;Off;Off;FALSE;TRUE;TRUE;2;3;4;1787;1908;1808;5559;989;2466;1325;4565;254;4851;239;5318;telephone-event-80000;SILK-16000;GSM-8000;rtx;ulpfec;h264;480;720;1080;NotDone
AIM;IRC;SIP;Off;On;On;TCP;UDP;TCP;Off;Off;BestEffort;TRUE;Auto;TRUE;4;3;4;708;925;1808;5266;550;5977;5405;501;4242;4851;4933;5719;SILK-16000;SILK-16000;SILK-8000;rtx;VP8;red;360;720;480;NotDone
AIM;IRC;AIM;Off;On;On;Auto;Tls;Auto;On;On;On;FALSE;TRUE;Auto;3;4;3;1620;1719;1808;4387;4565;1769;3478;221;836;4851;5243;5470;PCMA-8000;Auto;iLBC-8000;rtx;rtx;ulpfec;480;720;240;NotDone
AIM;ICQ;GoogleTalk;Off;On;Off;UDP;Tls;Auto;On;Off;On;Auto;TRUE;TRUE;2;3;3;1764;1979;1431;4494;4885;853;294;365;379;5332;5019;72;telephone-event-80000;SILK-16000;Auto;red;red;h264;1080;240;240;NotDone
iptel.org;ICQ;GoogleTalk;On;On;Off;TCP;Auto;Auto;On;Off;Off;Auto;FALSE;FALSE;2;2;4;1616;684;1808;5605;203;5813;1325;221;88;1015;1391;4990;speex-8000;SILK-16000;Auto;h264;rtx;h264;480;720;360;NotDone
SIP;iptel.org;GoogleTalk;Off;Off;On;Auto;Auto;Auto;Off;Off;On;FALSE;FALSE;Auto;4;3;4;1776;684;593;5360;71;2000;1325;302;5165;4851;4933;5930;PCMU-8000;SILK-16000;G722-16000;rtx;h264;VP8;480;1080;360;NotDone
AIM;IRC;GoogleTalk;Off;On;On;Auto;TCP;Auto;Off;BestEffort;On;FALSE;TRUE;TRUE;2;3;4;1893;684;1808;3771;1517;2345;5921;5963;841;946;5793;277;AMR-WB-16000;iLBC-8000;GSM-8000;rtx;h264;VP8;480;1080;1080;NotDone
GoogleTalk;iPPi;AIM;Off;Off;Off;TCP;Tls;TCP;On;On;Off;FALSE;TRUE;TRUE;4;4;4;1776;684;1808;2004;2208;5982;310;5814;509;4851;4933;1059;SILK-16000;speex-16000;Auto;rtx;VP8;VP8;480;360;480;NotDone
AIM;ICQ;GoogleTalk;On;Off;Off;UDP;UDP;UDP;On;Off;On;FALSE;Auto;Auto;2;3;2;1776;804;835;2921;641;516;584;626;264;662;4933;5318;telephone-event-80000;PCMU-8000;iLBC-8000;rtx;VP8;VP8;1080;1080;480;NotDone
iptel.org;iPPi;GoogleTalk;Off;Off;Off;UDP;TCP;Auto;Off;BestEffort;On;TRUE;FALSE;TRUE;3;3;2;1243;1064;1942;1259;406;4443;5952;319;265;949;438;5807;telephone-event-80000;SILK-16000;SILK-8000;Auto;VP8;h264;720;480;360;NotDone
AIM;iptel.org;AIM;On;Off;Off;TCP;UDP;Auto;Off;Off;BestEffort;FALSE;TRUE;Auto;2;3;4;1776;1755;1542;5134;4612;4014;3115;486;2155;4851;4933;657;telephone-event-80000;SILK-16000;GSM-8000;rtx;VP8;VP8;240;360;240;NotDone
GoogleTalk;iptel.org;IRC;On;On;On;Tls;Auto;Auto;Off;Off;BestEffort;Auto;TRUE;FALSE;2;2;4;1776;684;1808;5023;1288;1529;1325;3439;155;138;4933;5318;telephone-event-80000;SILK-8000;SILK-12000;rtx;VP8;h264;720;720;1080;NotDone
AIM;ICQ;iPPi;On;On;On;UDP;Auto;TCP;On;On;On;Auto;FALSE;TRUE;2;3;3;1776;1773;1983;5275;136;2965;105;518;5853;4851;468;634;iLBC-8000;SILK-16000;Auto;ulpfec;h264;ulpfec;480;720;720;NotDone
iptel.org;ICQ;iptel.org;Off;On;Off;UDP;Tls;UDP;On;Off;Off;FALSE;TRUE;TRUE;4;3;4;1776;647;1808;5534;5211;5995;1328;3375;4242;4851;5247;406;SILK-8000;iLBC-8000;PCMU-8000;VP8;VP8;VP8;240;720;480;NotDone
iPPi;ICQ;GoogleTalk;Off;On;On;Tls;Tls;Auto;On;Off;Off;FALSE;TRUE;TRUE;2;3;2;664;1356;1808;2921;5211;2000;375;4449;5734;4293;465;5318;Auto;PCMA-8000;AMR-WB-16000;Auto;VP8;VP8;1080;480;240;NotDone
GoogleTalk;ICQ;GoogleTalk;Off;On;Off;UDP;Tls;UDP;Off;Off;Off;FALSE;FALSE;TRUE;2;3;4;1776;684;1322;4551;5211;3380;5974;807;4242;4851;970;2654;Auto;telephone-event-80000;AMR-WB-16000;h264;VP8;VP8;360;720;240;NotDone
ICQ;GoogleTalk;IRC;On;Off;Off;Tls;Tls;Tls;On;On;On;FALSE;TRUE;TRUE;4;4;3;1776;703;1808;5129;5211;2877;3210;208;870;4851;447;5318;telephone-event-80000;PCMA-8000;telephone-event-80000;rtx;VP8;VP8;480;720;240;NotDone
AIM;ICQ;GoogleTalk;On;On;Off;UDP;Tls;Auto;On;Off;On;Auto;Auto;FALSE;2;4;4;1776;684;663;5093;5211;5932;1325;1564;167;4771;4933;447;SILK-8000;Auto;speex-8000;rtx;VP8;VP8;480;360;240;NotDone
SIP;ICQ;GoogleTalk;Off;On;Off;TCP;Tls;UDP;On;On;On;TRUE;Auto;Auto;2;3;4;859;1414;1808;5837;5348;2000;5774;685;4242;4851;5884;252;SILK-12000;SILK-16000;SILK-16000;rtx;VP8;rtx;360;720;240;NotDone
IRC;ICQ;iptel.org;Off;On;On;UDP;UDP;Auto;On;Off;On;FALSE;Auto;TRUE;2;3;4;1776;2000;1808;5933;5211;666;1325;315;4242;2711;5315;5318;telephone-event-80000;SILK-16000;Auto;ulpfec;VP8;VP8;240;720;480;NotDone
AIM;ICQ;AIM;Off;On;On;Auto;Tls;TCP;Off;Off;On;TRUE;TRUE;TRUE;4;3;4;1776;1827;638;5769;129;1751;1325;773;345;513;475;3766;Auto;speex-8000;speex-8000;red;rtx;h264;1080;720;240;NotDone
SIP;IRC;GoogleTalk;On;Off;On;Auto;Tls;Tls;On;Off;Off;FALSE;TRUE;TRUE;2;3;3;1776;1821;1243;5287;3928;5155;590;876;5726;282;515;4933;PCMU-8000;SILK-16000;GSM-8000;rtx;ulpfec;h264;1080;240;480;NotDone
ICQ;ICQ;GoogleTalk;Off;Off;Off;TCP;UDP;UDP;On;Off;On;Auto;TRUE;TRUE;3;2;3;1776;684;1808;5840;1052;2621;5927;2286;5678;4851;5702;679;AMR-WB-16000;speex-8000;Auto;ulpfec;rtx;VP8;480;720;720;NotDone
SIP;ICQ;iptel.org;Off;On;Off;UDP;UDP;Auto;Off;Off;Off;TRUE;TRUE;Auto;2;3;3;1441;955;1364;2921;5211;5841;5952;889;4242;5957;668;5318;speex-8000;SILK-16000;SILK-12000;rtx;ulpfec;ulpfec;360;720;240;NotDone
AIM;iPPi;GoogleTalk;On;Off;Off;TCP;Tls;Auto;On;BestEffort;On;TRUE;FALSE;TRUE;2;3;2;1421;684;1808;5981;236;5884;1079;4715;1768;342;474;987;telephone-event-80000;Auto;Auto;red;rtx;ulpfec;480;480;1080;NotDone
SIP;iptel.org;GoogleTalk;On;Off;Off;UDP;Tls;Tls;Off;Off;Off;TRUE;TRUE;TRUE;2;2;2;1776;684;1384;3832;674;5861;74;5754;4242;5603;2254;5453;telephone-event-80000;SILK-16000;Auto;Auto;VP8;VP8;480;720;240;NotDone
iPPi;ICQ;iptel.org;Off;Off;Off;Tls;Auto;Auto;On;On;On;TRUE;Auto;TRUE;4;3;4;1200;684;1808;5992;5211;1657;5287;5802;5259;623;715;5318;telephone-event-80000;SILK-16000;Auto;rtx;VP8;VP8;1080;1080;240;NotDone
AIM;SIP;SIP;Off;On;Off;UDP;Tls;Tls;BestEffort;Off;BestEffort;FALSE;FALSE;Auto;2;4;3;1776;1564;1810;4959;5211;2000;288;300;300;5891;4933;5318;telephone-event-80000;SILK-8000;speex-16000;rtx;rtx;VP8;240;240;480;NotDone
iPPi;IRC;GoogleTalk;Off;On;Off;Tls;TCP;Auto;On;On;On;Auto;TRUE;TRUE;4;4;2;1776;1843;1808;4445;5211;5704;89;5146;1041;4851;1874;5318;Auto;SILK-8000;PCMU-8000;rtx;VP8;h264;240;720;240;NotDone
iPPi;ICQ;iPPi;Off;Off;Off;Tls;Tls;UDP;On;On;On;TRUE;TRUE;Auto;2;2;3;1727;1875;1808;2921;5482;5408;270;5924;487;435;405;5318;opus-48000;SILK-16000;Auto;rtx;ulpfec;h264;480;720;240;NotDone
GoogleTalk;ICQ;iptel.org;On;On;Off;TCP;Tls;UDP;Off;Off;On;FALSE;TRUE;Auto;2;4;4;1776;1223;1808;2921;5211;2000;1703;1010;926;150;4933;5870;telephone-event-80000;GSM-8000;speex-8000;rtx;VP8;h264;480;360;240;NotDone
ICQ;ICQ;iptel.org;On;On;On;Tls;UDP;TCP;On;On;Off;Auto;TRUE;TRUE;2;3;4;1965;1823;1808;2921;5211;2000;3980;365;252;4851;4933;3818;G722-16000;AMR-WB-16000;AMR-WB-16000;VP8;VP8;VP8;480;360;720;NotDone
SIP;ICQ;iPPi;Off;On;Off;Tls;UDP;TCP;On;On;On;FALSE;TRUE;FALSE;2;4;3;1774;957;1808;628;331;470;1325;3375;5597;5668;4933;5318;SILK-24000;PCMU-8000;telephone-event-80000;ulpfec;VP8;VP8;240;720;240;NotDone
iPPi;IRC;GoogleTalk;Off;Off;Off;UDP;Tls;Auto;On;On;On;FALSE;FALSE;TRUE;2;3;4;1776;778;1808;5441;4522;357;1325;3375;263;5171;4933;5181;G722-16000;SILK-12000;speex-8000;rtx;VP8;ulpfec;480;360;720;NotDone
iPPi;ICQ;GoogleTalk;On;On;On;Auto;TCP;UDP;Off;Off;Off;FALSE;TRUE;FALSE;3;3;4;1776;684;1808;5359;511;5845;476;2026;533;5411;4933;5318;SILK-8000;speex-8000;Auto;rtx;rtx;VP8;240;480;240;NotDone
SIP;IRC;GoogleTalk;Off;On;On;TCP;Tls;Auto;On;Off;On;FALSE;Auto;TRUE;2;3;3;1776;1759;1808;5169;5211;2000;5525;313;5561;4851;4933;5547;telephone-event-80000;SILK-16000;Auto;VP8;VP8;red;720;240;240;NotDone
AIM;SIP;GoogleTalk;Off;On;On;UDP;Tls;Auto;Off;Off;On;FALSE;FALSE;TRUE;3;2;2;1776;1633;1808;4838;5375;5586;1325;2758;119;5914;1447;4713;telephone-event-80000;PCMU-8000;Auto;rtx;VP8;h264;480;240;240;NotDone
GoogleTalk;GoogleTalk;iPPi;On;On;Off;UDP;Tls;Auto;On;Off;On;FALSE;TRUE;TRUE;2;4;3;1776;684;1808;5360;387;251;5287;227;2163;4786;4933;5810;telephone-event-80000;PCMU-8000;AMR-WB-16000;Auto;rtx;ulpfec;1080;360;1080;NotDone
iPPi;ICQ;GoogleTalk;Off;On;Off;TCP;Auto;Auto;On;Off;On;TRUE;TRUE;TRUE;4;2;4;899;684;1808;5264;848;2000;296;5824;4163;5463;2662;384;telephone-event-80000;SILK-24000;PCMA-8000;red;VP8;VP8;480;240;1080;NotDone
iPPi;GoogleTalk;iptel.org;On;On;Off;TCP;Tls;TCP;Off;Off;On;FALSE;FALSE;TRUE;2;4;4;1703;684;1808;2933;5237;5943;1325;4646;3803;119;92;5166;SILK-12000;PCMA-8000;GSM-8000;rtx;VP8;h264;480;240;240;NotDone
GoogleTalk;ICQ;ICQ;Off;Off;Off;Auto;Tls;Tls;On;On;On;FALSE;TRUE;TRUE;2;3;4;1898;1167;1808;5884;5211;912;5458;2666;4242;5754;5267;2950;telephone-event-80000;Auto;SILK-8000;h264;VP8;VP8;240;240;240;NotDone
