caller_protocol;callee1_protocol;callee2_protocol;caller_listenport;callee1_listenport;callee2_listenport;caller_transportprotocol;callee1_transportprotocol;callee2_transportprotocol;caller_encryption;callee1_encryption;callee2_encryption;caller_sipzrtpattribute;callee1_sipzrtpattribute;callee2_sipzrtpattribute;caller_maxpeers;callee1_maxpeers;callee2_maxpeers;caller_mtu;callee1_mtu;callee2_mtu;caller_defaultcallrate;callee1_defaultcallrate;callee2_defaultcallrate;caller_maxreceivecallrate;callee1_maxreceivecallrate;callee2_maxreceivecallrate;caller_maxtransmitcallrate;callee1_maxtransmitcallrate;callee2_maxtransmitcallrate;caller_audiocodec;callee1_audiocodec;callee2_audiocodec;caller_videocodec;callee1_videocodec;callee2_videocodec;caller_maxresolution;callee1_maxresolution;callee2_maxresolution;
iPPi;iPPi;iptel.org;Off;On;Off;Tls;Auto;Tls;Off;On;Off;TRUE;FALSE;FALSE;2;3;2;1054;645;616;1011;634;3968;1596;960;2784;1165;5578;200;opus-48000;G722-16000;iLBC-8000;rtx;ulpfec;ulpfec;720;720;720;NotDone
AIM;IRC;GoogleTalk;Off;Off;Off;Tls;TCP;Auto;Off;Off;Off;Auto;Auto;TRUE;2;2;2;866;1772;581;5665;5622;2546;4604;5677;1133;4143;104;4670;PCMU-8000;speex-8000;AMR-WB-16000;h264;VP8;VP8;720;360;480;NotDone
AIM;SIP;iPPi;On;On;Off;UDP;Tls;Auto;On;Off;BestEffort;FALSE;FALSE;FALSE;2;2;4;1822;1246;1666;5939;1330;5947;5387;5966;89;5646;5609;830;speex-8000;SILK-24000;SILK-16000;h264;ulpfec;VP8;1080;240;1080;NotDone
AIM;SIP;ICQ;Off;On;Off;UDP;Tls;UDP;On;On;Off;TRUE;FALSE;TRUE;4;3;4;1954;2000;795;5239;5749;5562;487;841;207;1714;4815;291;iLBC-8000;opus-48000;speex-16000;VP8;VP8;VP8;480;360;240;NotDone
iPPi;iPPi;IRC;On;On;On;Tls;TCP;UDP;Off;Off;BestEffort;Auto;Auto;FALSE;4;2;3;1817;1983;1978;5727;5870;5037;115;1007;135;5998;1831;5120;Auto;GSM-8000;opus-48000;Auto;Auto;h264;240;360;720;NotDone
iptel.org;iPPi;iptel.org;On;Off;On;Auto;Tls;TCP;Off;Off;On;FALSE;Auto;Auto;2;4;2;1196;1580;1396;5666;4225;5790;119;281;5363;5653;155;5834;G722-16000;Auto;PCMA-8000;red;VP8;rtx;360;240;720;NotDone
iPPi;ICQ;SIP;On;On;On;Auto;TCP;Auto;Off;On;Off;TRUE;FALSE;Auto;3;4;3;733;928;1473;5665;5622;4760;5479;148;1133;2227;4488;2049;GSM-8000;PCMA-8000;AMR-WB-16000;VP8;VP8;VP8;720;360;720;NotDone
AIM;iptel.org;iptel.org;Off;Off;On;Auto;Tls;Auto;Off;Off;Off;FALSE;Auto;TRUE;3;4;4;1586;1214;1789;4767;2492;380;5553;306;1586;5938;4514;4855;SILK-8000;GSM-8000;opus-48000;rtx;VP8;VP8;720;480;720;NotDone
SIP;GoogleTalk;iPPi;On;Off;Off;Auto;Tls;Tls;Off;Off;On;FALSE;FALSE;TRUE;2;2;4;1717;1355;912;5415;4002;5219;378;5515;5398;5917;5712;4642;Auto;AMR-WB-16000;PCMU-8000;ulpfec;VP8;VP8;480;360;360;NotDone
iPPi;iptel.org;iptel.org;Off;On;Off;Auto;Auto;Tls;Off;Off;Off;FALSE;Auto;TRUE;3;4;4;1586;1507;1789;4767;1265;3869;5553;306;1586;5303;4325;1221;SILK-8000;iLBC-8000;AMR-WB-16000;h264;VP8;VP8;360;720;360;NotDone
GoogleTalk;IRC;IRC;Off;Off;Off;Tls;Tls;TCP;Off;Off;Off;FALSE;TRUE;FALSE;4;3;4;1974;1950;982;1753;5422;1169;5997;1441;131;4926;451;1096;speex-32000;SILK-8000;SILK-8000;Auto;VP8;VP8;360;1080;1080;NotDone
GoogleTalk;iptel.org;IRC;On;Off;On;TCP;Auto;Tls;Off;Off;Off;Auto;TRUE;TRUE;4;4;4;1225;1552;961;4416;142;1480;3989;1119;5474;5877;370;2923;SILK-16000;telephone-event-80000;SILK-8000;VP8;VP8;VP8;360;360;240;NotDone
GoogleTalk;GoogleTalk;IRC;On;On;Off;TCP;Auto;TCP;Off;On;Off;FALSE;FALSE;TRUE;3;3;4;1309;1560;961;3229;403;4602;5314;5803;5474;5366;370;292;Auto;telephone-event-80000;speex-16000;Auto;VP8;VP8;240;1080;240;NotDone
GoogleTalk;iPPi;SIP;Off;Off;On;TCP;TCP;TCP;On;On;On;FALSE;FALSE;Auto;4;3;3;1319;1148;1473;3966;5622;4760;3385;1043;358;5654;4488;2049;Auto;PCMA-8000;AMR-WB-16000;Auto;VP8;VP8;720;240;480;NotDone
IRC;AIM;SIP;On;On;Off;TCP;Auto;TCP;On;Off;BestEffort;TRUE;FALSE;TRUE;2;3;4;1492;1624;1499;5479;185;5842;110;2566;188;5917;333;320;SILK-24000;telephone-event-80000;speex-8000;red;h264;h264;240;1080;1080;NotDone
AIM;SIP;IRC;On;On;Off;UDP;Auto;UDP;On;On;Off;Auto;FALSE;TRUE;2;2;2;1874;869;680;4613;243;4002;87;790;1487;4963;5768;3897;speex-32000;SILK-8000;SILK-12000;h264;VP8;VP8;720;240;480;NotDone
iptel.org;SIP;AIM;Off;On;Off;UDP;Auto;UDP;Off;Off;Off;TRUE;Auto;FALSE;2;3;3;1117;1976;717;5053;5155;1956;3619;4495;5695;5896;125;2109;AMR-WB-16000;SILK-8000;PCMU-8000;VP8;VP8;VP8;720;240;240;NotDone
iptel.org;iPPi;GoogleTalk;On;On;Off;Auto;UDP;TCP;Off;On;Off;TRUE;TRUE;Auto;4;3;2;1803;665;764;5580;5287;5480;361;644;1451;3886;5469;531;telephone-event-80000;PCMA-8000;SILK-12000;ulpfec;VP8;ulpfec;480;480;360;NotDone
AIM;SIP;ICQ;On;On;Off;Tls;TCP;TCP;On;BestEffort;Off;FALSE;FALSE;TRUE;3;4;4;1598;1983;899;445;5651;5699;2577;221;5771;5620;1380;333;opus-48000;SILK-12000;AMR-WB-16000;ulpfec;VP8;VP8;360;360;360;NotDone
GoogleTalk;AIM;iPPi;Off;On;Off;Tls;TCP;Auto;On;On;Off;Auto;Auto;FALSE;3;2;3;585;1172;1359;899;5735;5392;2873;211;3594;5703;674;4799;SILK-12000;SILK-8000;SILK-16000;Auto;VP8;VP8;480;1080;720;NotDone
iPPi;ICQ;GoogleTalk;Off;On;Off;Tls;Auto;TCP;Off;BestEffort;Off;TRUE;TRUE;TRUE;4;3;2;755;1759;609;4972;5098;5160;2406;735;5993;5552;4481;450;AMR-WB-16000;SILK-8000;GSM-8000;rtx;VP8;VP8;1080;240;240;NotDone
SIP;SIP;ICQ;On;Off;On;Auto;Tls;TCP;Off;On;Off;TRUE;Auto;Auto;4;4;4;1538;1580;1777;3840;155;5006;5768;281;422;304;212;5982;opus-48000;iLBC-8000;PCMU-8000;h264;h264;VP8;360;720;720;NotDone
GoogleTalk;IRC;GoogleTalk;On;On;On;TCP;Tls;Auto;On;Off;Off;FALSE;Auto;Auto;3;3;3;1525;1306;1301;3348;4683;3888;3795;846;5426;5896;1008;5773;speex-8000;speex-8000;SILK-8000;red;VP8;VP8;1080;240;720;NotDone
GoogleTalk;AIM;iptel.org;Off;On;Off;Tls;Tls;TCP;Off;On;Off;Auto;FALSE;FALSE;2;3;3;1092;1109;924;5372;5155;5999;3619;628;626;5896;5133;5108;SILK-12000;GSM-8000;SILK-12000;h264;VP8;ulpfec;240;360;480;NotDone
SIP;IRC;IRC;Off;On;Off;Auto;UDP;TCP;Off;On;Off;FALSE;Auto;TRUE;2;4;3;1755;1762;1367;5666;4440;5543;2756;5858;1195;5849;273;406;SILK-8000;Auto;SILK-24000;red;VP8;VP8;1080;360;720;NotDone
iPPi;SIP;AIM;Off;On;On;TCP;UDP;Tls;On;Off;Off;Auto;Auto;FALSE;2;2;3;918;716;623;4259;1852;5919;1224;5164;2300;526;1866;608;GSM-8000;AMR-WB-16000;SILK-12000;VP8;VP8;VP8;720;240;360;NotDone
GoogleTalk;IRC;iPPi;On;Off;Off;TCP;Auto;UDP;Off;On;Off;FALSE;TRUE;FALSE;3;3;4;824;1246;2000;5939;115;5947;5387;2023;89;5646;5609;4992;speex-8000;SILK-12000;PCMU-8000;rtx;VP8;ulpfec;1080;480;1080;NotDone
GoogleTalk;iPPi;IRC;Off;On;Off;TCP;Auto;UDP;On;Off;Off;TRUE;FALSE;Auto;4;2;4;1148;1483;1824;434;430;1260;5609;318;484;5977;444;3897;PCMU-8000;SILK-12000;Auto;VP8;VP8;VP8;720;240;240;NotDone
ICQ;GoogleTalk;SIP;Off;On;Off;Auto;Tls;UDP;On;On;On;FALSE;Auto;TRUE;4;2;4;1433;948;1907;5484;1199;5871;3024;128;4856;3281;89;386;iLBC-8000;SILK-8000;PCMA-8000;Auto;VP8;VP8;1080;480;240;NotDone
GoogleTalk;ICQ;ICQ;Off;Off;On;UDP;UDP;Auto;BestEffort;Off;BestEffort;FALSE;TRUE;Auto;2;4;2;1005;983;861;5223;3365;4867;3432;2226;1344;4011;1404;5469;SILK-8000;Auto;PCMU-8000;rtx;h264;rtx;360;480;1080;NotDone
SIP;iPPi;SIP;Off;On;Off;Tls;TCP;TCP;On;On;On;TRUE;FALSE;TRUE;3;3;4;1984;1624;941;5479;461;5842;110;5013;188;5917;2019;488;SILK-24000;speex-16000;Auto;red;Auto;VP8;480;720;480;NotDone
GoogleTalk;IRC;SIP;Off;On;Off;Tls;TCP;Tls;Off;On;On;FALSE;Auto;Auto;2;4;2;997;1909;1867;5053;602;5287;5408;5575;5851;3759;954;5855;iLBC-8000;SILK-8000;telephone-event-80000;red;VP8;VP8;480;720;360;NotDone
iPPi;IRC;iptel.org;Off;On;Off;Tls;UDP;Tls;Off;Off;Off;TRUE;Auto;TRUE;2;4;4;1940;1507;680;4767;1996;1080;5031;306;555;384;5627;4111;Auto;GSM-8000;telephone-event-80000;VP8;VP8;VP8;360;360;240;NotDone
iptel.org;iPPi;IRC;On;On;On;Auto;TCP;Tls;Off;BestEffort;On;TRUE;FALSE;FALSE;4;3;2;768;848;1364;4572;4989;741;3206;282;3382;5965;428;5693;GSM-8000;telephone-event-80000;SILK-8000;h264;VP8;VP8;720;360;1080;NotDone
iptel.org;ICQ;SIP;On;On;On;Tls;Auto;Auto;Off;Off;Off;Auto;FALSE;FALSE;4;4;2;1789;1156;1119;5164;4880;5483;5810;348;5796;4672;2345;5166;SILK-12000;telephone-event-80000;PCMA-8000;ulpfec;VP8;VP8;720;360;1080;NotDone
GoogleTalk;IRC;GoogleTalk;On;On;Off;Tls;Auto;Tls;Off;Off;BestEffort;Auto;Auto;Auto;4;2;3;1283;1306;1301;3221;5445;3888;4786;846;5149;5896;155;5945;speex-8000;speex-8000;AMR-WB-16000;ulpfec;VP8;VP8;360;240;720;NotDone
SIP;iPPi;GoogleTalk;Off;On;Off;Tls;TCP;TCP;On;Off;Off;TRUE;TRUE;TRUE;2;2;3;656;875;692;5881;1749;407;2886;846;5149;2709;3417;5945;speex-8000;speex-8000;telephone-event-80000;ulpfec;VP8;VP8;1080;720;720;NotDone
GoogleTalk;ICQ;IRC;On;Off;Off;Tls;Tls;Auto;Off;Off;Off;TRUE;FALSE;Auto;2;4;2;609;1339;1886;5071;3262;783;5183;939;598;5760;5931;1615;G722-16000;telephone-event-80000;GSM-8000;rtx;VP8;VP8;480;1080;1080;NotDone
iPPi;iptel.org;AIM;On;On;Off;UDP;Auto;TCP;On;Off;Off;TRUE;FALSE;Auto;2;2;3;1775;577;1533;4309;194;4745;1527;2768;5598;5651;155;5945;SILK-12000;AMR-WB-16000;AMR-WB-16000;VP8;VP8;VP8;240;240;360;NotDone
AIM;AIM;iptel.org;On;Off;On;UDP;UDP;TCP;BestEffort;On;On;TRUE;Auto;TRUE;3;4;3;1754;1993;1763;5660;2611;3170;5414;5739;638;5917;1038;537;GSM-8000;SILK-12000;SILK-12000;VP8;VP8;VP8;240;720;1080;NotDone
SIP;iptel.org;ICQ;Off;Off;On;TCP;Tls;TCP;BestEffort;On;Off;Auto;Auto;FALSE;4;4;3;1902;1427;1907;5540;206;5006;5768;281;422;304;212;2049;speex-16000;iLBC-8000;speex-8000;rtx;VP8;VP8;480;240;720;NotDone
iptel.org;GoogleTalk;IRC;Off;On;Off;TCP;TCP;Tls;On;On;On;FALSE;FALSE;TRUE;3;2;3;1755;1932;1483;4635;1730;5659;5880;5858;5727;5849;5469;213;speex-16000;SILK-16000;SILK-16000;h264;VP8;VP8;240;360;720;NotDone
SIP;GoogleTalk;iPPi;Off;On;Off;TCP;Tls;TCP;Off;Off;Off;TRUE;TRUE;Auto;3;4;2;1943;624;1869;3262;311;5269;5625;5772;5781;5814;5300;4914;speex-8000;SILK-12000;speex-8000;rtx;VP8;VP8;360;1080;240;NotDone
iptel.org;SIP;GoogleTalk;Off;On;Off;TCP;UDP;Tls;BestEffort;Off;Off;TRUE;TRUE;TRUE;3;3;4;1113;1889;1917;4804;5437;5551;5233;161;3627;189;155;5945;telephone-event-80000;SILK-12000;speex-8000;Auto;VP8;VP8;240;240;1080;NotDone
iptel.org;AIM;IRC;On;On;Off;Tls;Tls;TCP;On;On;BestEffort;TRUE;TRUE;FALSE;3;4;4;1074;1821;1741;5466;5470;5483;5817;806;180;972;5411;452;telephone-event-80000;G722-16000;speex-8000;red;VP8;VP8;720;240;240;NotDone
GoogleTalk;iptel.org;GoogleTalk;On;On;On;Auto;UDP;UDP;On;On;Off;TRUE;Auto;TRUE;3;3;4;1710;1042;1257;4536;107;1427;2804;1085;4656;2165;3679;765;speex-8000;SILK-8000;SILK-8000;red;VP8;VP8;240;720;360;NotDone
iPPi;iPPi;IRC;On;On;Off;Tls;Auto;TCP;On;Off;On;TRUE;FALSE;Auto;4;4;3;1892;1363;1648;361;4683;5720;213;100;1018;5896;5322;1431;speex-32000;GSM-8000;SILK-24000;VP8;VP8;VP8;480;480;240;NotDone
AIM;SIP;GoogleTalk;On;Off;Off;Tls;Tls;TCP;BestEffort;Off;Off;FALSE;TRUE;TRUE;3;3;4;577;1305;982;237;5997;1169;341;1441;131;5489;5984;1096;AMR-WB-16000;Auto;speex-8000;rtx;VP8;VP8;1080;1080;1080;NotDone
AIM;iPPi;ICQ;Off;Off;On;TCP;Tls;TCP;On;Off;Off;Auto;Auto;FALSE;4;3;2;1902;1015;1907;2752;5363;5006;5768;281;422;568;1152;4654;speex-16000;iLBC-8000;SILK-8000;rtx;VP8;VP8;480;480;360;NotDone
ICQ;GoogleTalk;iPPi;Off;On;On;UDP;Auto;UDP;On;On;Off;TRUE;Auto;TRUE;3;3;3;746;1762;1367;5917;5863;3587;5670;2163;721;634;5797;5205;SILK-12000;speex-8000;AMR-WB-16000;ulpfec;VP8;VP8;720;720;720;NotDone
GoogleTalk;IRC;AIM;On;On;Off;TCP;TCP;TCP;On;Off;Off;Auto;Auto;Auto;2;2;3;1056;1313;1301;4997;2889;1053;5671;846;5268;1420;271;5019;SILK-12000;speex-8000;SILK-8000;h264;VP8;VP8;480;720;360;NotDone
SIP;ICQ;iPPi;On;On;Off;TCP;Tls;UDP;Off;On;BestEffort;TRUE;TRUE;Auto;3;4;3;1819;967;1624;5939;115;5947;5754;2023;89;5646;4797;5719;telephone-event-80000;PCMU-8000;PCMU-8000;ulpfec;VP8;rtx;360;720;1080;NotDone
GoogleTalk;iptel.org;AIM;Off;Off;Off;Tls;Auto;Tls;On;On;Off;FALSE;TRUE;TRUE;4;4;3;1666;732;982;5228;5183;4969;1075;1444;780;4926;342;5663;PCMA-8000;Auto;AMR-WB-16000;ulpfec;VP8;VP8;480;480;720;NotDone
AIM;AIM;iPPi;Off;On;Off;UDP;Tls;UDP;Off;On;Off;TRUE;Auto;TRUE;3;2;3;1108;666;1882;497;5470;5483;5817;806;3076;5640;5411;452;SILK-16000;SILK-24000;iLBC-8000;VP8;VP8;VP8;240;240;1080;NotDone
GoogleTalk;AIM;iptel.org;Off;On;Off;TCP;Auto;UDP;BestEffort;On;Off;TRUE;TRUE;FALSE;4;4;3;1692;831;634;5840;5232;1601;5491;1033;4618;5857;3145;120;opus-48000;AMR-WB-16000;PCMU-8000;h264;VP8;VP8;240;1080;240;NotDone
iPPi;IRC;iptel.org;Off;Off;On;UDP;TCP;UDP;On;Off;Off;Auto;Auto;Auto;3;2;3;1943;1297;1765;5763;5963;134;3964;5531;5698;5882;981;5849;SILK-8000;telephone-event-80000;SILK-8000;rtx;VP8;rtx;1080;240;480;NotDone
SIP;iPPi;iPPi;On;Off;On;Auto;TCP;Tls;Off;On;Off;TRUE;TRUE;TRUE;4;2;3;1992;1975;915;5783;1990;5247;5768;789;1568;5852;212;5982;opus-48000;Auto;GSM-8000;VP8;VP8;rtx;480;360;360;NotDone
SIP;GoogleTalk;AIM;On;Off;Off;Tls;UDP;TCP;Off;On;Off;Auto;TRUE;Auto;4;4;3;1501;1140;1301;4997;2889;3095;810;846;232;4016;191;5019;SILK-12000;AMR-WB-16000;AMR-WB-16000;h264;VP8;VP8;240;720;360;NotDone
ICQ;AIM;ICQ;On;Off;On;Auto;TCP;Auto;Off;Off;Off;FALSE;FALSE;TRUE;3;4;3;1303;1795;604;5665;5622;4760;5479;302;1767;2227;4488;2049;Auto;SILK-12000;AMR-WB-16000;ulpfec;VP8;VP8;720;1080;720;NotDone
iPPi;SIP;IRC;Off;On;On;TCP;Tls;TCP;Off;On;Off;FALSE;TRUE;FALSE;3;3;4;1646;1733;1257;4572;4989;1400;813;4664;99;4582;428;246;telephone-event-80000;telephone-event-80000;PCMU-8000;red;VP8;VP8;1080;360;1080;NotDone
iptel.org;iPPi;iptel.org;Off;Off;Off;Tls;Tls;Auto;Off;On;Off;FALSE;Auto;Auto;3;3;2;1753;1631;943;5341;1747;5779;427;4517;5840;5311;5310;986;PCMA-8000;SILK-8000;GSM-8000;VP8;VP8;VP8;1080;240;240;NotDone
SIP;iptel.org;iptel.org;Off;On;Off;TCP;TCP;Tls;On;Off;On;Auto;FALSE;FALSE;3;4;2;1586;1214;1789;4767;233;380;5549;306;235;4992;369;768;SILK-8000;PCMU-8000;telephone-event-80000;Auto;VP8;VP8;240;720;240;NotDone
GoogleTalk;IRC;iptel.org;On;Off;Off;Auto;Tls;TCP;On;On;Off;Auto;Auto;TRUE;2;3;4;721;1165;779;5580;5287;5975;297;4835;5854;853;5469;5348;iLBC-8000;PCMA-8000;SILK-12000;h264;VP8;ulpfec;1080;1080;480;NotDone
IRC;ICQ;iptel.org;On;On;Off;TCP;UDP;Auto;BestEffort;On;BestEffort;FALSE;Auto;Auto;2;4;2;578;982;1027;2979;5998;4464;3403;2226;4620;4011;5997;2505;telephone-event-80000;G722-16000;GSM-8000;ulpfec;red;red;720;1080;720;NotDone
SIP;GoogleTalk;GoogleTalk;On;On;On;UDP;Tls;UDP;On;On;Off;TRUE;Auto;TRUE;3;2;4;1959;1025;769;4804;5437;4177;5233;5536;5599;3763;2497;2889;GSM-8000;speex-8000;SILK-8000;h264;VP8;VP8;480;1080;720;NotDone
