caller_protocol;callee1_protocol;callee2_protocol;caller_listenport;callee1_listenport;callee2_listenport;caller_transportprotocol;callee1_transportprotocol;callee2_transportprotocol;caller_encryption;callee1_encryption;callee2_encryption;caller_sipzrtpattribute;callee1_sipzrtpattribute;callee2_sipzrtpattribute;caller_maxpeers;callee1_maxpeers;callee2_maxpeers;caller_mtu;callee1_mtu;callee2_mtu;caller_defaultcallrate;callee1_defaultcallrate;callee2_defaultcallrate;caller_maxreceivecallrate;callee1_maxreceivecallrate;callee2_maxreceivecallrate;caller_maxtransmitcallrate;callee1_maxtransmitcallrate;callee2_maxtransmitcallrate;caller_audiocodec;callee1_audiocodec;callee2_audiocodec;caller_videocodec;callee1_videocodec;callee2_videocodec;caller_maxresolution;callee1_maxresolution;callee2_maxresolution;
AIM;GoogleTalk;IRC;Off;Off;On;TCP;Auto;Auto;On;BestEffort;BestEffort;Auto;Auto;FALSE;4;2;4;1450;1186;1670;4986;630;2910;3939;4166;5670;5066;4570;3768;SILK-8000;PCMA-8000;SILK-16000;VP8;Auto;VP8;480;240;1080;NotDone
GoogleTalk;iPPi;SIP;On;Off;On;Auto;UDP;Auto;Off;BestEffort;Off;TRUE;FALSE;TRUE;2;4;4;954;1463;652;552;573;5550;1773;1227;881;4195;3734;4190;speex-8000;GSM-8000;SILK-8000;VP8;Auto;VP8;240;1080;360;NotDone
ICQ;AIM;ICQ;Off;Off;On;Tls;TCP;Tls;Off;BestEffort;BestEffort;FALSE;Auto;FALSE;3;2;2;1772;1454;1184;365;5892;4552;5901;191;5482;4781;5155;4780;SILK-12000;SILK-24000;SILK-16000;ulpfec;red;VP8;240;240;1080;NotDone
AIM;IRC;SIP;Off;Off;On;UDP;Tls;Tls;Off;BestEffort;BestEffort;Auto;TRUE;FALSE;2;4;4;1802;1131;1030;5820;3325;2518;437;3631;2193;4435;283;5854;speex-16000;telephone-event-80000;speex-8000;Auto;VP8;VP8;360;480;360;NotDone
ICQ;ICQ;ICQ;Off;Off;On;Auto;Tls;UDP;Off;Off;BestEffort;TRUE;FALSE;FALSE;2;2;3;1761;770;1234;5822;5821;5837;884;177;3446;2826;1641;2828;SILK-24000;PCMU-8000;telephone-event-80000;Auto;h264;VP8;360;480;240;NotDone
IRC;AIM;AIM;Off;On;On;TCP;Auto;Tls;Off;BestEffort;On;FALSE;TRUE;Auto;4;2;4;1813;1434;647;200;184;456;353;123;2895;906;5068;5906;SILK-16000;SILK-24000;AMR-WB-16000;Auto;red;VP8;240;1080;240;NotDone
ICQ;iptel.org;iptel.org;Off;Off;Off;Tls;TCP;UDP;Off;Off;Off;Auto;Auto;TRUE;3;2;2;1208;1139;1742;5012;4378;275;5690;5032;5007;5784;3295;4402;Auto;GSM-8000;iLBC-8000;VP8;Auto;VP8;1080;480;720;NotDone
ICQ;SIP;AIM;Off;Off;On;TCP;UDP;Tls;Off;Off;BestEffort;FALSE;FALSE;FALSE;4;2;3;1286;999;1484;4171;674;1489;4813;4813;1635;4374;5485;2034;SILK-8000;Auto;speex-8000;rtx;VP8;VP8;240;1080;1080;NotDone
AIM;iptel.org;GoogleTalk;On;Off;On;TCP;UDP;UDP;On;BestEffort;Off;TRUE;Auto;TRUE;4;3;3;788;1737;952;4797;4070;5271;991;4197;5568;365;1927;4320;AMR-WB-16000;AMR-WB-16000;SILK-8000;red;rtx;VP8;480;720;240;NotDone
ICQ;iPPi;iPPi;Off;Off;On;Tls;Auto;TCP;Off;Off;BestEffort;FALSE;TRUE;TRUE;2;2;2;1169;1881;1492;3282;4900;96;5625;1063;2047;2667;2188;2834;Auto;PCMU-8000;AMR-WB-16000;ulpfec;Auto;VP8;480;1080;720;NotDone
ICQ;IRC;SIP;On;Off;On;TCP;UDP;TCP;Off;BestEffort;BestEffort;Auto;Auto;Auto;2;3;4;1901;1868;1369;491;5818;5567;126;1305;3530;171;5150;5782;PCMA-8000;SILK-24000;speex-16000;red;ulpfec;ulpfec;1080;360;1080;NotDone
SIP;GoogleTalk;AIM;Off;On;On;Auto;Auto;Auto;Off;On;Off;FALSE;TRUE;TRUE;2;2;3;1876;1995;1718;249;164;434;1391;814;375;1306;2101;5838;opus-48000;speex-16000;telephone-event-80000;red;red;ulpfec;1080;1080;720;NotDone
IRC;SIP;AIM;On;On;On;Auto;Auto;UDP;On;BestEffort;Off;TRUE;Auto;FALSE;2;3;3;803;725;894;2796;5089;5708;2572;1223;1043;2210;2610;5792;SILK-12000;SILK-16000;PCMU-8000;Auto;VP8;VP8;1080;1080;240;NotDone
IRC;iPPi;ICQ;Off;Off;On;Tls;Tls;Tls;Off;BestEffort;On;Auto;Auto;FALSE;2;2;4;863;1708;788;3638;1588;3913;4632;1971;2199;1376;1033;4325;Auto;SILK-16000;telephone-event-80000;Auto;Auto;VP8;720;720;360;NotDone
IRC;IRC;SIP;On;On;On;TCP;UDP;Auto;On;On;Off;TRUE;TRUE;TRUE;3;3;3;1980;996;1322;5648;5335;3005;4406;5667;4822;4413;1504;5051;GSM-8000;PCMA-8000;AMR-WB-16000;ulpfec;Auto;VP8;480;480;360;NotDone
IRC;IRC;IRC;Off;On;On;Tls;TCP;Tls;Off;BestEffort;BestEffort;FALSE;FALSE;Auto;2;2;2;1524;1432;1729;5299;2941;4348;967;5256;778;5579;5889;5296;G722-16000;SILK-12000;SILK-8000;rtx;Auto;h264;1080;240;720;NotDone
ICQ;GoogleTalk;GoogleTalk;Off;Off;Off;UDP;Auto;UDP;BestEffort;Off;Off;Auto;FALSE;TRUE;4;2;4;1415;1076;669;140;4735;5540;3167;3437;4215;2602;5763;5048;speex-32000;PCMU-8000;telephone-event-80000;h264;Auto;VP8;720;720;720;NotDone
IRC;IRC;SIP;Off;On;Off;UDP;Auto;Auto;Off;Off;BestEffort;Auto;TRUE;FALSE;2;4;3;609;988;1188;5881;5808;5359;464;1352;812;107;5069;4958;speex-32000;telephone-event-80000;speex-8000;ulpfec;ulpfec;rtx;240;360;720;NotDone
AIM;ICQ;GoogleTalk;Off;On;On;UDP;TCP;TCP;On;On;BestEffort;TRUE;TRUE;FALSE;3;3;2;1835;1475;1751;5260;5121;5990;3591;5997;5373;2045;4011;5881;AMR-WB-16000;speex-8000;speex-8000;rtx;Auto;VP8;480;240;240;NotDone
ICQ;ICQ;SIP;Off;Off;On;Auto;Auto;Auto;Off;BestEffort;Off;FALSE;FALSE;Auto;3;2;2;1999;1981;1963;5764;5051;328;1262;140;5758;2866;411;5841;Auto;SILK-12000;telephone-event-80000;h264;rtx;ulpfec;720;360;360;NotDone
IRC;SIP;SIP;Off;Off;On;UDP;Tls;TCP;Off;Off;Off;Auto;FALSE;FALSE;2;3;4;1109;1437;937;4253;4720;5236;4816;5676;204;1619;4066;5380;speex-8000;SILK-12000;speex-32000;ulpfec;Auto;VP8;720;360;480;NotDone
ICQ;iPPi;AIM;Off;On;On;TCP;Tls;UDP;Off;BestEffort;Off;Auto;Auto;TRUE;3;3;3;1913;735;1838;5907;510;966;549;2249;646;5987;5870;4669;SILK-16000;speex-32000;SILK-12000;ulpfec;rtx;ulpfec;1080;480;720;NotDone
ICQ;iPPi;AIM;On;On;On;Auto;Tls;UDP;Off;Off;BestEffort;Auto;Auto;FALSE;3;2;3;1229;1261;578;5989;1820;3825;5007;226;5858;5840;2058;5075;opus-48000;speex-8000;SILK-24000;rtx;ulpfec;VP8;240;1080;360;NotDone
IRC;GoogleTalk;iptel.org;Off;On;On;UDP;UDP;Auto;Off;Off;BestEffort;Auto;FALSE;TRUE;4;4;2;928;1819;588;3455;155;4697;482;896;4688;372;5541;5527;Auto;telephone-event-80000;SILK-8000;red;Auto;VP8;240;1080;1080;NotDone
IRC;GoogleTalk;IRC;Off;On;On;UDP;Tls;Auto;BestEffort;On;Off;Auto;Auto;Auto;2;3;4;1873;1733;1243;5998;3769;5842;5878;2713;5937;4596;5529;5850;G722-16000;SILK-16000;iLBC-8000;VP8;Auto;rtx;240;720;720;NotDone
ICQ;AIM;SIP;Off;On;On;Tls;Auto;UDP;BestEffort;On;On;Auto;FALSE;Auto;4;2;3;1056;1176;1479;5614;5796;281;4984;836;4241;5837;1927;170;speex-16000;PCMA-8000;SILK-12000;VP8;VP8;VP8;480;720;480;NotDone
IRC;AIM;IRC;Off;Off;Off;TCP;Tls;TCP;Off;BestEffort;Off;TRUE;Auto;FALSE;4;2;2;1289;1332;942;3413;1922;1356;4814;4134;2199;3640;5785;3126;speex-32000;iLBC-8000;SILK-8000;ulpfec;VP8;VP8;240;240;360;NotDone
IRC;IRC;GoogleTalk;On;On;Off;TCP;Tls;Auto;Off;BestEffort;Off;TRUE;TRUE;Auto;4;2;4;1496;606;1286;5527;5040;2248;2879;996;1380;1805;5781;5743;SILK-8000;speex-8000;speex-8000;h264;Auto;rtx;720;1080;480;NotDone
IRC;GoogleTalk;ICQ;Off;On;Off;Auto;UDP;TCP;Off;On;Off;TRUE;Auto;Auto;3;3;4;1686;1713;1353;778;1735;5345;1743;921;189;5079;4399;1987;PCMU-8000;speex-16000;SILK-8000;Auto;Auto;VP8;1080;720;720;NotDone
IRC;iptel.org;ICQ;Off;Off;Off;Tls;UDP;Auto;Off;Off;BestEffort;TRUE;Auto;FALSE;4;2;4;1719;653;1054;3583;115;5942;1161;3740;396;861;5264;5753;PCMU-8000;telephone-event-80000;PCMA-8000;VP8;VP8;VP8;240;480;1080;NotDone
iPPi;iptel.org;iptel.org;On;Off;On;Tls;Tls;TCP;On;Off;Off;TRUE;TRUE;FALSE;3;2;4;924;1177;1522;5112;5502;2183;124;5081;928;4472;895;5906;SILK-8000;Auto;speex-32000;ulpfec;Auto;VP8;360;240;360;NotDone
ICQ;IRC;ICQ;On;Off;Off;TCP;Tls;UDP;Off;BestEffort;Off;TRUE;FALSE;Auto;2;4;3;1980;934;1132;5404;2239;252;2838;3103;3270;4557;2032;1435;PCMA-8000;SILK-16000;speex-8000;rtx;VP8;VP8;1080;1080;360;NotDone
IRC;IRC;AIM;Off;Off;Off;TCP;Auto;TCP;Off;Off;On;TRUE;Auto;Auto;2;4;4;990;680;862;2815;1817;2480;1129;4164;3719;2135;3811;145;SILK-8000;G722-16000;PCMU-8000;VP8;ulpfec;VP8;480;720;480;NotDone
AIM;IRC;AIM;On;Off;On;Tls;Tls;Tls;On;On;Off;FALSE;FALSE;TRUE;4;2;2;1502;1331;933;219;5662;5278;1808;170;5743;3871;592;5825;GSM-8000;SILK-8000;SILK-8000;VP8;ulpfec;rtx;1080;480;1080;NotDone
iptel.org;iPPi;ICQ;Off;On;On;Auto;TCP;UDP;Off;BestEffort;On;TRUE;TRUE;FALSE;3;3;3;1297;668;702;5132;1919;5821;4026;1500;3788;5885;267;4825;opus-48000;PCMA-8000;opus-48000;ulpfec;rtx;VP8;720;720;720;NotDone
AIM;GoogleTalk;iptel.org;On;On;Off;Tls;Tls;TCP;Off;BestEffort;BestEffort;FALSE;Auto;TRUE;2;4;2;812;1766;686;5983;1174;781;807;5742;228;5650;967;5021;SILK-12000;speex-32000;speex-8000;ulpfec;Auto;red;360;360;1080;NotDone
IRC;iPPi;SIP;On;Off;Off;Tls;UDP;UDP;BestEffort;Off;Off;TRUE;FALSE;TRUE;3;2;2;735;1262;798;3213;5121;4863;4825;720;948;579;797;3951;SILK-24000;speex-16000;telephone-event-80000;rtx;Auto;ulpfec;480;240;240;NotDone
ICQ;iptel.org;GoogleTalk;On;On;On;UDP;Auto;Auto;On;BestEffort;On;Auto;TRUE;TRUE;4;2;3;1661;788;1107;5095;1000;1121;2393;3474;5310;4711;1828;5385;Auto;telephone-event-80000;iLBC-8000;red;Auto;VP8;480;1080;480;NotDone
ICQ;SIP;iptel.org;Off;On;Off;UDP;Tls;TCP;On;BestEffort;Off;Auto;Auto;FALSE;4;4;4;1950;1054;1838;4298;4643;730;1638;4900;1296;4721;4009;3127;Auto;SILK-24000;telephone-event-80000;rtx;Auto;VP8;1080;240;720;NotDone
IRC;ICQ;SIP;Off;Off;Off;TCP;Auto;Tls;On;On;BestEffort;FALSE;TRUE;FALSE;4;2;3;971;1287;1820;277;665;5364;4726;273;4453;5684;5901;5168;Auto;speex-8000;Auto;red;Auto;red;240;480;720;NotDone
ICQ;ICQ;IRC;On;Off;On;Auto;Tls;TCP;Off;BestEffort;Off;Auto;FALSE;FALSE;4;2;4;1834;589;788;5975;4338;4860;5167;3897;5831;5659;5591;526;G722-16000;SILK-12000;AMR-WB-16000;h264;Auto;VP8;720;360;480;NotDone
ICQ;iptel.org;IRC;On;Off;Off;Tls;UDP;Auto;Off;BestEffort;On;FALSE;TRUE;Auto;2;2;4;1339;1002;808;4160;5404;1643;3421;5174;240;376;756;4985;Auto;PCMU-8000;telephone-event-80000;ulpfec;ulpfec;red;1080;1080;360;NotDone
IRC;ICQ;iPPi;On;Off;Off;UDP;TCP;TCP;Off;Off;BestEffort;Auto;TRUE;TRUE;4;3;2;1782;991;1865;3516;5976;2024;5966;655;4893;2559;1175;5748;telephone-event-80000;PCMU-8000;SILK-8000;red;rtx;ulpfec;240;240;720;NotDone
ICQ;GoogleTalk;IRC;On;On;Off;TCP;Tls;UDP;Off;Off;Off;FALSE;FALSE;Auto;3;4;2;1893;1733;1019;5528;5083;311;387;630;3978;4822;5690;5941;speex-8000;opus-48000;GSM-8000;Auto;h264;red;240;360;1080;NotDone
ICQ;iptel.org;AIM;Off;On;Off;TCP;UDP;Auto;On;Off;Off;TRUE;Auto;TRUE;3;4;4;577;765;863;2808;1427;116;494;3511;1063;972;5778;350;SILK-12000;telephone-event-80000;iLBC-8000;red;Auto;VP8;720;480;240;NotDone
GoogleTalk;SIP;IRC;Off;Off;Off;TCP;Auto;Tls;Off;BestEffort;BestEffort;TRUE;FALSE;TRUE;2;3;2;1826;1971;1304;5098;106;165;936;386;5895;4538;5977;5115;SILK-24000;PCMA-8000;speex-16000;VP8;red;rtx;240;240;240;NotDone
IRC;SIP;IRC;On;Off;Off;UDP;UDP;Tls;Off;On;Off;TRUE;TRUE;Auto;2;2;2;1244;1756;828;4957;4674;314;842;160;346;1048;1095;3971;SILK-12000;SILK-12000;AMR-WB-16000;red;Auto;rtx;1080;480;240;NotDone
ICQ;iPPi;ICQ;Off;On;On;TCP;UDP;Auto;On;BestEffort;Off;Auto;Auto;Auto;2;4;2;1437;990;1261;5945;313;2118;4898;5553;5123;4096;5801;2296;AMR-WB-16000;speex-32000;GSM-8000;h264;Auto;VP8;240;1080;720;NotDone
IRC;IRC;GoogleTalk;On;Off;Off;TCP;Tls;Tls;Off;Off;BestEffort;Auto;FALSE;TRUE;2;3;3;1896;917;1398;5484;5641;2778;602;5187;2754;991;4818;5189;iLBC-8000;SILK-8000;iLBC-8000;red;h264;ulpfec;1080;360;1080;NotDone
AIM;GoogleTalk;iPPi;Off;Off;On;UDP;Tls;TCP;Off;On;Off;Auto;TRUE;TRUE;4;3;4;674;1019;1947;3893;1758;5587;1937;768;5726;2321;5504;2030;iLBC-8000;PCMA-8000;SILK-8000;rtx;Auto;VP8;240;360;1080;NotDone
ICQ;ICQ;IRC;Off;On;On;Tls;TCP;Tls;Off;BestEffort;Off;Auto;TRUE;TRUE;4;2;2;936;858;1986;4680;5427;1836;83;2740;5093;371;450;5600;telephone-event-80000;telephone-event-80000;iLBC-8000;rtx;Auto;VP8;1080;480;1080;NotDone
IRC;IRC;ICQ;On;On;Off;Auto;Tls;Auto;Off;Off;On;TRUE;Auto;Auto;2;3;3;1214;938;609;4823;1271;1859;4198;4868;5358;5625;480;3733;SILK-12000;G722-16000;SILK-8000;red;ulpfec;VP8;1080;1080;360;NotDone
GoogleTalk;GoogleTalk;ICQ;Off;Off;Off;Tls;UDP;Tls;Off;BestEffort;On;Auto;TRUE;TRUE;4;4;2;1146;610;1998;3858;2440;3544;3028;670;2067;3217;2063;1904;SILK-8000;opus-48000;speex-32000;h264;Auto;VP8;360;240;1080;NotDone
ICQ;ICQ;AIM;On;Off;Off;UDP;Auto;TCP;Off;Off;Off;FALSE;Auto;Auto;4;4;2;717;627;961;5260;5809;5619;477;1278;5161;865;2066;5717;GSM-8000;GSM-8000;speex-32000;red;VP8;ulpfec;720;480;240;NotDone
IRC;IRC;IRC;Off;On;On;Auto;Auto;Auto;Off;Off;BestEffort;FALSE;Auto;TRUE;3;3;3;1126;1912;1428;3912;713;4018;2373;333;5407;4410;763;3314;Auto;iLBC-8000;telephone-event-80000;rtx;h264;Auto;720;720;720;NotDone
ICQ;AIM;iptel.org;On;On;On;Auto;TCP;Tls;Off;Off;On;FALSE;Auto;Auto;3;4;3;954;1847;693;5110;4340;4633;2082;4549;394;148;5510;5481;GSM-8000;PCMU-8000;GSM-8000;red;rtx;VP8;720;360;1080;NotDone
ICQ;ICQ;IRC;Off;On;On;Tls;Auto;TCP;Off;BestEffort;BestEffort;FALSE;Auto;Auto;2;3;3;1768;1842;615;4876;5318;1003;4974;149;3137;4684;4811;5701;SILK-24000;speex-32000;SILK-8000;ulpfec;red;red;360;480;720;NotDone
IRC;GoogleTalk;iptel.org;Off;On;On;Auto;Auto;Auto;Off;Off;BestEffort;FALSE;TRUE;FALSE;4;2;4;1062;1742;1758;5721;5225;170;1513;2921;721;67;3469;5279;speex-32000;Auto;SILK-24000;ulpfec;VP8;h264;720;480;480;NotDone
ICQ;SIP;iptel.org;On;On;On;TCP;TCP;UDP;Off;Off;BestEffort;TRUE;FALSE;Auto;2;3;3;1745;1646;852;405;3288;3586;870;71;5777;818;5455;5162;SILK-16000;telephone-event-80000;SILK-8000;rtx;Auto;ulpfec;720;240;480;NotDone
AIM;SIP;AIM;Off;On;On;Auto;TCP;Tls;On;BestEffort;Off;TRUE;FALSE;FALSE;3;3;3;1697;1440;1794;3360;4134;3716;1137;5855;405;5955;2118;4359;telephone-event-80000;opus-48000;SILK-8000;Auto;h264;VP8;360;240;240;NotDone
iptel.org;IRC;IRC;On;On;On;TCP;Tls;TCP;BestEffort;Off;Off;TRUE;TRUE;FALSE;4;2;3;1177;1018;1808;2699;362;5967;351;240;1050;5875;1484;3714;speex-8000;PCMA-8000;AMR-WB-16000;h264;Auto;ulpfec;480;720;360;NotDone
AIM;iptel.org;iptel.org;On;Off;Off;UDP;UDP;UDP;Off;On;On;FALSE;TRUE;TRUE;3;4;4;1080;1998;1984;5632;5057;4483;5356;433;150;427;5865;5585;G722-16000;telephone-event-80000;GSM-8000;red;h264;Auto;720;240;480;NotDone
IRC;iptel.org;iPPi;Off;Off;Off;Tls;UDP;Auto;Off;Off;Off;Auto;Auto;TRUE;4;2;4;1921;1246;607;4959;5447;4079;5152;2985;3000;5715;3460;1177;Auto;PCMA-8000;iLBC-8000;Auto;Auto;red;240;240;240;NotDone
AIM;AIM;AIM;On;Off;On;TCP;Auto;TCP;Off;Off;BestEffort;FALSE;Auto;TRUE;2;2;3;1539;728;639;4920;647;4770;1105;5024;1310;5677;1768;3965;PCMU-8000;PCMA-8000;speex-16000;rtx;ulpfec;VP8;1080;240;360;NotDone
ICQ;iptel.org;AIM;Off;Off;On;Tls;UDP;UDP;Off;Off;Off;Auto;Auto;Auto;2;4;2;1988;1070;1253;1425;920;4322;2044;1251;4909;1665;1619;5229;speex-8000;telephone-event-80000;AMR-WB-16000;Auto;VP8;VP8;480;1080;720;NotDone
AIM;iptel.org;GoogleTalk;On;Off;Off;Auto;Auto;Auto;BestEffort;Off;Off;TRUE;Auto;TRUE;3;2;3;590;1961;957;255;2177;211;4479;5285;4165;1999;1827;4596;AMR-WB-16000;AMR-WB-16000;speex-32000;ulpfec;VP8;VP8;1080;720;480;NotDone
iptel.org;iptel.org;ICQ;Off;On;On;Tls;Auto;Tls;Off;On;On;FALSE;TRUE;Auto;4;4;3;1598;1978;1397;5914;520;5788;3532;413;5808;4667;1664;5986;SILK-8000;speex-32000;SILK-16000;rtx;Auto;rtx;360;480;720;NotDone
AIM;SIP;AIM;On;On;On;TCP;TCP;UDP;Off;Off;Off;TRUE;FALSE;FALSE;4;2;4;1296;910;651;5435;5903;5881;5947;5759;2278;2595;5762;1493;GSM-8000;SILK-8000;opus-48000;red;Auto;VP8;720;240;240;NotDone
ICQ;iPPi;GoogleTalk;Off;Off;Off;UDP;Auto;UDP;Off;BestEffort;BestEffort;FALSE;Auto;FALSE;4;3;3;1329;1964;1947;467;3820;2318;1145;247;5976;420;5518;5847;AMR-WB-16000;PCMU-8000;PCMA-8000;red;ulpfec;VP8;360;1080;360;NotDone
SIP;iPPi;ICQ;On;On;On;Auto;TCP;UDP;Off;BestEffort;Off;Auto;TRUE;Auto;4;3;3;1654;652;1551;5848;4952;2624;479;1060;3370;3882;2162;3044;SILK-12000;G722-16000;SILK-12000;h264;Auto;VP8;720;360;480;NotDone
IRC;GoogleTalk;GoogleTalk;Off;On;On;TCP;UDP;Auto;BestEffort;Off;Off;Auto;TRUE;Auto;4;3;2;1490;884;1151;4568;1555;5744;5077;5143;4717;469;5673;4851;speex-16000;telephone-event-80000;telephone-event-80000;VP8;Auto;VP8;1080;480;360;NotDone
AIM;SIP;IRC;On;Off;Off;TCP;TCP;UDP;Off;Off;On;FALSE;Auto;Auto;2;4;2;1057;1237;605;4726;1569;5741;5281;1538;1492;1942;1504;4314;SILK-24000;GSM-8000;AMR-WB-16000;red;Auto;VP8;720;720;360;NotDone
IRC;ICQ;iPPi;Off;On;On;UDP;Auto;UDP;On;BestEffort;Off;TRUE;TRUE;TRUE;3;4;2;1951;1904;1737;3016;5633;4526;4651;5537;614;5852;4509;4492;telephone-event-80000;speex-32000;telephone-event-80000;ulpfec;Auto;VP8;480;240;1080;NotDone
ICQ;iPPi;GoogleTalk;Off;Off;Off;Auto;Auto;UDP;Off;BestEffort;On;Auto;Auto;FALSE;2;2;3;1172;1894;1554;3065;328;5759;1191;4275;377;5693;5565;5937;G722-16000;PCMA-8000;GSM-8000;VP8;Auto;VP8;1080;480;360;NotDone
ICQ;iPPi;SIP;On;Off;Off;TCP;TCP;Auto;Off;Off;On;FALSE;TRUE;Auto;2;4;3;1825;1664;942;3272;4714;4767;421;1761;2976;5439;480;2669;SILK-12000;SILK-16000;opus-48000;Auto;ulpfec;rtx;360;360;720;NotDone
IRC;iPPi;AIM;Off;Off;On;UDP;TCP;TCP;Off;Off;On;Auto;TRUE;TRUE;2;2;4;1906;771;970;4302;5575;4486;2317;116;2554;4816;4533;5780;opus-48000;Auto;SILK-24000;h264;ulpfec;VP8;1080;240;240;NotDone
iPPi;IRC;ICQ;Off;On;On;TCP;TCP;TCP;Off;Off;On;FALSE;FALSE;Auto;4;3;4;976;1089;1727;4183;2820;3028;3268;2504;629;3578;4235;4795;iLBC-8000;opus-48000;speex-16000;red;VP8;ulpfec;240;720;360;NotDone
iPPi;AIM;iptel.org;Off;Off;On;Auto;TCP;Tls;Off;Off;Off;Auto;TRUE;FALSE;3;3;4;1650;880;1486;3053;5284;3853;1307;926;5589;1267;549;5989;SILK-12000;PCMU-8000;speex-8000;Auto;ulpfec;Auto;240;240;360;NotDone
ICQ;GoogleTalk;ICQ;On;On;Off;TCP;TCP;TCP;Off;BestEffort;Off;TRUE;FALSE;TRUE;4;3;2;1674;1422;673;5971;5998;835;290;1097;2954;233;1312;5660;GSM-8000;Auto;speex-32000;rtx;red;VP8;720;720;480;NotDone
ICQ;iPPi;iPPi;On;On;On;TCP;UDP;TCP;Off;BestEffort;On;Auto;Auto;Auto;4;4;2;1479;1812;1654;4290;1842;803;324;4090;68;951;5798;5314;SILK-12000;GSM-8000;PCMA-8000;VP8;Auto;VP8;360;360;480;NotDone
ICQ;iptel.org;iptel.org;Off;On;Off;Auto;Tls;TCP;Off;Off;Off;TRUE;TRUE;TRUE;4;2;3;1320;1848;1780;3833;2127;3536;2977;5946;5901;3514;4106;545;SILK-24000;speex-16000;SILK-8000;red;ulpfec;h264;1080;240;360;NotDone
AIM;GoogleTalk;iPPi;Off;On;Off;UDP;Tls;Tls;Off;BestEffort;Off;TRUE;TRUE;FALSE;2;4;3;805;941;683;5917;5812;5589;1045;5691;1083;5462;5489;1171;SILK-12000;SILK-24000;SILK-8000;VP8;Auto;VP8;1080;720;720;NotDone
AIM;IRC;GoogleTalk;Off;On;Off;Tls;Tls;TCP;Off;On;BestEffort;Auto;TRUE;TRUE;2;4;3;1638;1428;1199;3346;1014;3285;2501;1218;272;422;2355;4334;speex-32000;speex-16000;SILK-12000;rtx;Auto;VP8;240;480;360;NotDone
AIM;IRC;iPPi;Off;Off;On;UDP;Auto;TCP;Off;BestEffort;On;TRUE;Auto;Auto;3;3;2;1728;751;788;5913;5908;4171;1987;5720;907;2646;2280;5384;AMR-WB-16000;PCMA-8000;SILK-12000;red;Auto;VP8;240;720;1080;NotDone
ICQ;AIM;iptel.org;On;Off;Off;TCP;Tls;Auto;Off;On;Off;TRUE;FALSE;TRUE;3;2;2;1191;1035;1746;4561;5539;4006;716;1164;3129;5291;5073;4369;AMR-WB-16000;PCMU-8000;SILK-12000;red;Auto;h264;480;720;720;NotDone
GoogleTalk;AIM;iPPi;On;Off;Off;Tls;Auto;UDP;On;Off;BestEffort;FALSE;Auto;FALSE;2;2;3;1540;716;1087;5272;4292;235;393;694;2110;239;5993;4168;AMR-WB-16000;speex-8000;PCMU-8000;Auto;Auto;VP8;360;1080;480;NotDone
ICQ;SIP;iptel.org;On;On;Off;Auto;Auto;Auto;Off;BestEffort;On;TRUE;Auto;FALSE;4;4;4;640;1403;1619;4786;509;5732;5972;322;1860;5570;467;2744;PCMA-8000;Auto;speex-8000;ulpfec;Auto;VP8;240;480;720;NotDone
ICQ;AIM;ICQ;On;Off;Off;TCP;Auto;UDP;Off;Off;On;FALSE;FALSE;FALSE;3;3;2;1810;1533;661;3059;3002;5810;3157;5356;2881;5521;2157;4957;iLBC-8000;iLBC-8000;telephone-event-80000;h264;Auto;ulpfec;720;240;720;NotDone
GoogleTalk;iPPi;ICQ;On;Off;Off;UDP;Tls;TCP;Off;Off;BestEffort;TRUE;Auto;Auto;4;4;4;1537;833;632;4923;3713;5086;2784;775;2741;2107;4251;453;speex-8000;opus-48000;AMR-WB-16000;red;Auto;red;480;480;1080;NotDone
ICQ;iPPi;SIP;On;Off;On;Tls;Auto;UDP;Off;BestEffort;Off;TRUE;TRUE;FALSE;3;2;4;1298;614;1109;423;5376;5933;726;4038;5459;4511;5659;5233;SILK-16000;speex-32000;speex-8000;red;ulpfec;VP8;240;240;1080;NotDone
ICQ;iptel.org;ICQ;Off;On;Off;TCP;Tls;Tls;Off;BestEffort;BestEffort;Auto;TRUE;FALSE;2;4;2;1682;761;587;1966;4130;5464;245;1349;3879;5011;4814;5343;speex-32000;PCMU-8000;SILK-12000;ulpfec;Auto;VP8;360;360;1080;NotDone
IRC;iPPi;GoogleTalk;Off;Off;On;Auto;Tls;Tls;Off;BestEffort;Off;Auto;Auto;FALSE;2;4;4;1169;1599;1683;4493;3071;4563;3173;607;2476;4584;4177;1379;Auto;G722-16000;PCMA-8000;red;rtx;VP8;1080;480;1080;NotDone
AIM;AIM;IRC;On;On;On;TCP;Tls;UDP;On;BestEffort;Off;Auto;TRUE;FALSE;4;3;3;1708;1814;841;4516;1520;217;716;3461;3761;5733;1421;912;speex-32000;GSM-8000;opus-48000;Auto;Auto;ulpfec;1080;240;240;NotDone
IRC;iPPi;iPPi;On;Off;On;UDP;Auto;UDP;Off;BestEffort;Off;Auto;TRUE;FALSE;2;2;2;1198;636;1314;3369;5561;5301;5597;5937;88;5467;731;5602;opus-48000;SILK-12000;GSM-8000;VP8;Auto;ulpfec;1080;360;240;NotDone
iptel.org;GoogleTalk;iptel.org;Off;On;On;Tls;UDP;Tls;Off;BestEffort;BestEffort;FALSE;TRUE;FALSE;4;2;3;1740;1078;1523;1005;1494;243;680;951;4030;2675;3441;1280;PCMA-8000;speex-8000;GSM-8000;Auto;red;ulpfec;360;480;1080;NotDone
ICQ;SIP;GoogleTalk;Off;Off;Off;TCP;TCP;Auto;BestEffort;Off;Off;FALSE;TRUE;Auto;4;3;3;577;1327;871;5962;886;4894;2470;4231;4191;3123;4548;2864;SILK-8000;speex-32000;SILK-8000;rtx;Auto;VP8;1080;240;720;NotDone
IRC;iPPi;iPPi;On;On;On;Auto;Tls;TCP;Off;On;BestEffort;Auto;FALSE;FALSE;2;2;4;1973;1279;733;2551;549;3397;5598;3788;3199;1093;2677;2205;GSM-8000;Auto;SILK-16000;rtx;VP8;rtx;360;1080;240;NotDone
GoogleTalk;iPPi;iptel.org;On;Off;Off;TCP;TCP;TCP;Off;On;BestEffort;Auto;TRUE;FALSE;4;3;2;1335;962;669;5938;3980;387;4880;4476;125;5614;3786;2456;SILK-12000;opus-48000;G722-16000;red;Auto;Auto;240;720;480;NotDone
ICQ;iPPi;AIM;On;Off;On;Auto;TCP;Tls;On;BestEffort;On;Auto;TRUE;FALSE;2;3;4;772;1499;980;5789;405;298;240;3005;5670;1876;5576;5329;SILK-16000;GSM-8000;PCMU-8000;Auto;rtx;VP8;240;240;360;NotDone
ICQ;iPPi;iptel.org;On;Off;Off;Auto;TCP;UDP;Off;BestEffort;Off;Auto;FALSE;Auto;3;2;3;825;958;1898;2262;4540;5905;4953;4662;5324;4138;2047;3317;speex-8000;PCMA-8000;SILK-12000;h264;rtx;h264;240;240;480;NotDone
