caller_protocol;callee1_protocol;callee2_protocol;caller_listenport;callee1_listenport;callee2_listenport;caller_transportprotocol;callee1_transportprotocol;callee2_transportprotocol;caller_encryption;callee1_encryption;callee2_encryption;caller_sipzrtpattribute;callee1_sipzrtpattribute;callee2_sipzrtpattribute;caller_maxpeers;callee1_maxpeers;callee2_maxpeers;caller_mtu;callee1_mtu;callee2_mtu;caller_defaultcallrate;callee1_defaultcallrate;callee2_defaultcallrate;caller_maxreceivecallrate;callee1_maxreceivecallrate;callee2_maxreceivecallrate;caller_maxtransmitcallrate;callee1_maxtransmitcallrate;callee2_maxtransmitcallrate;caller_audiocodec;callee1_audiocodec;callee2_audiocodec;caller_videocodec;callee1_videocodec;callee2_videocodec;caller_maxresolution;callee1_maxresolution;callee2_maxresolution;
iPPi;ICQ;iPPi;On;Off;On;Auto;TCP;UDP;On;Off;On;FALSE;Auto;TRUE;2;2;2;1270;974;1243;3277;1241;1329;5169;5959;4647;2116;4025;5631;SILK-16000;iLBC-8000;speex-32000;h264;ulpfec;rtx;480;240;720;NotDone
iPPi;iptel.org;SIP;On;Off;On;UDP;TCP;UDP;On;Off;Off;FALSE;Auto;Auto;3;2;2;1290;974;1243;1715;4445;1329;5169;5959;4647;2116;778;5631;SILK-16000;PCMU-8000;GSM-8000;rtx;ulpfec;ulpfec;720;240;480;NotDone
SIP;ICQ;GoogleTalk;On;Off;On;Auto;Auto;TCP;Off;Off;On;TRUE;Auto;Auto;2;3;2;1270;1431;1179;3277;4325;1329;4988;5959;4647;5112;421;5631;SILK-16000;telephone-event-80000;AMR-WB-16000;rtx;VP8;ulpfec;480;360;240;NotDone
GoogleTalk;ICQ;ICQ;On;Off;On;Auto;Auto;Auto;On;Off;BestEffort;FALSE;Auto;TRUE;2;2;3;1707;1688;1646;3277;5288;5372;5169;80;1488;5802;167;4674;SILK-16000;SILK-24000;GSM-8000;Auto;VP8;VP8;480;360;480;NotDone
iPPi;ICQ;SIP;On;On;Off;UDP;Tls;UDP;On;On;On;TRUE;TRUE;TRUE;2;3;3;1095;974;1243;5182;1241;550;5169;5959;763;126;4025;5791;GSM-8000;GSM-8000;AMR-WB-16000;h264;VP8;ulpfec;480;1080;720;NotDone
iPPi;iptel.org;iPPi;Off;On;On;Auto;TCP;UDP;Off;Off;BestEffort;Auto;FALSE;TRUE;2;2;2;1270;974;1542;3277;1241;2088;1264;1107;301;675;5574;4849;SILK-24000;GSM-8000;SILK-8000;Auto;ulpfec;VP8;480;1080;720;NotDone
iPPi;SIP;iPPi;On;Off;Off;Auto;Auto;UDP;BestEffort;Off;On;FALSE;Auto;Auto;2;2;4;1995;1493;1890;3277;78;5922;1928;5959;88;393;689;584;SILK-16000;iLBC-8000;SILK-8000;h264;ulpfec;VP8;480;240;360;NotDone
GoogleTalk;ICQ;iPPi;Off;Off;On;Auto;TCP;UDP;On;Off;On;TRUE;Auto;TRUE;2;2;2;1228;836;1336;3277;1241;1329;5169;66;5737;4209;4025;4321;speex-8000;iLBC-8000;GSM-8000;h264;VP8;VP8;480;240;1080;NotDone
GoogleTalk;iptel.org;iptel.org;On;Off;On;Auto;TCP;Auto;Off;On;On;FALSE;FALSE;TRUE;4;2;3;1421;1132;1243;3277;1241;5180;5169;1351;5180;5973;264;2540;GSM-8000;SILK-12000;PCMA-8000;h264;ulpfec;VP8;480;480;480;NotDone
iPPi;iptel.org;SIP;On;Off;On;Tls;TCP;UDP;On;BestEffort;On;FALSE;Auto;FALSE;2;4;4;1270;974;1243;4438;1134;5637;5169;5423;5666;2116;244;218;SILK-16000;iLBC-8000;speex-32000;h264;VP8;VP8;360;240;720;NotDone
iPPi;ICQ;IRC;On;Off;On;Auto;Tls;UDP;Off;On;On;Auto;Auto;TRUE;2;2;2;1529;974;1243;3277;4742;5424;478;5959;2171;2116;136;5057;telephone-event-80000;SILK-12000;SILK-8000;h264;Auto;VP8;720;240;720;NotDone
iPPi;AIM;iptel.org;On;Off;On;TCP;Tls;UDP;On;On;On;TRUE;Auto;Auto;3;2;2;1270;974;614;105;5106;5962;5169;5959;334;2116;4025;5631;iLBC-8000;telephone-event-80000;opus-48000;rtx;VP8;ulpfec;480;240;720;NotDone
AIM;iPPi;iPPi;On;Off;On;Auto;TCP;UDP;On;Off;On;TRUE;TRUE;TRUE;3;2;2;2000;881;1765;5273;1241;4684;526;5959;5700;2116;5876;353;SILK-16000;iLBC-8000;GSM-8000;VP8;ulpfec;ulpfec;480;240;720;NotDone
GoogleTalk;iptel.org;iPPi;On;Off;On;Auto;TCP;UDP;Off;Off;Off;FALSE;TRUE;FALSE;2;2;2;1892;1171;1514;4794;1241;3297;5169;1292;4724;5889;381;5631;SILK-12000;iLBC-8000;GSM-8000;VP8;ulpfec;Auto;240;1080;720;NotDone
SIP;ICQ;iptel.org;On;Off;On;Auto;TCP;Auto;On;On;Off;Auto;FALSE;Auto;2;2;3;1270;595;1243;3277;1241;1410;3104;488;4647;5967;1625;5631;SILK-12000;speex-8000;AMR-WB-16000;VP8;VP8;VP8;1080;720;240;NotDone
SIP;iPPi;ICQ;On;Off;On;Tls;TCP;TCP;On;Off;On;TRUE;Auto;FALSE;2;2;2;1774;940;695;4834;5838;1329;2475;5959;1419;3525;5778;5631;G722-16000;iLBC-8000;AMR-WB-16000;h264;VP8;VP8;480;240;720;NotDone
ICQ;IRC;IRC;On;Off;On;Auto;TCP;Tls;Off;On;On;TRUE;FALSE;TRUE;2;2;3;1270;644;1016;5710;5675;304;5169;4558;1263;3093;4025;5631;AMR-WB-16000;AMR-WB-16000;speex-16000;VP8;ulpfec;VP8;480;240;720;NotDone
iPPi;ICQ;IRC;Off;Off;Off;Auto;Auto;TCP;BestEffort;Off;Off;Auto;FALSE;TRUE;4;3;2;1270;697;1243;5696;1241;2536;5777;5959;4647;2116;4025;5631;PCMA-8000;telephone-event-80000;speex-32000;h264;VP8;VP8;720;240;720;NotDone
iPPi;IRC;IRC;On;On;On;Auto;Auto;UDP;On;On;On;FALSE;Auto;TRUE;3;2;2;1270;974;844;5858;1086;4650;5791;776;5540;5471;5212;5519;SILK-16000;iLBC-8000;SILK-16000;h264;ulpfec;ulpfec;720;720;720;NotDone
iptel.org;ICQ;iPPi;On;Off;On;Auto;TCP;TCP;Off;On;On;FALSE;TRUE;TRUE;2;2;2;1543;974;1243;3277;1084;1387;5169;743;4647;5095;856;5544;telephone-event-80000;AMR-WB-16000;SILK-8000;Auto;ulpfec;ulpfec;480;360;240;NotDone
iptel.org;ICQ;GoogleTalk;On;On;On;Tls;Tls;UDP;Off;BestEffort;On;Auto;Auto;Auto;2;2;2;929;1296;1970;4254;5332;1329;5860;624;4676;5698;5970;5631;SILK-16000;PCMA-8000;SILK-8000;h264;ulpfec;VP8;1080;240;720;NotDone
iPPi;ICQ;IRC;On;On;On;Auto;Auto;UDP;On;Off;Off;FALSE;FALSE;Auto;4;2;2;1270;1701;1649;5175;2317;5584;111;5959;136;5864;4025;5631;SILK-16000;telephone-event-80000;opus-48000;red;ulpfec;VP8;480;240;360;NotDone
iPPi;iptel.org;SIP;Off;Off;Off;Auto;TCP;UDP;Off;BestEffort;Off;TRUE;Auto;Auto;2;2;3;1995;974;1243;3277;3203;4615;2758;347;2869;5969;4025;4170;SILK-12000;SILK-8000;PCMU-8000;h264;ulpfec;VP8;720;240;1080;NotDone
iptel.org;ICQ;iPPi;On;On;On;Auto;TCP;Tls;On;On;Off;FALSE;Auto;TRUE;3;2;3;1270;643;966;5038;309;1329;221;737;5811;2141;3859;5631;PCMU-8000;speex-16000;AMR-WB-16000;red;VP8;ulpfec;480;360;720;NotDone
SIP;ICQ;SIP;On;Off;On;Auto;Auto;TCP;On;Off;On;TRUE;Auto;TRUE;4;4;2;1270;974;1984;258;1241;1741;5169;141;4704;2116;4856;5631;speex-32000;GSM-8000;speex-32000;ulpfec;VP8;VP8;240;240;720;NotDone
iPPi;SIP;iPPi;On;Off;On;Auto;Tls;UDP;On;Off;On;TRUE;Auto;FALSE;2;2;2;1744;974;1990;3277;5505;237;500;5054;5304;2116;5920;5631;SILK-16000;SILK-12000;speex-32000;VP8;VP8;ulpfec;480;240;360;NotDone
iPPi;SIP;SIP;On;Off;On;UDP;TCP;UDP;On;On;Off;TRUE;FALSE;TRUE;2;4;4;1270;974;1243;3277;202;2322;5011;5823;4647;93;4008;5667;PCMU-8000;iLBC-8000;AMR-WB-16000;Auto;VP8;VP8;480;240;720;NotDone
AIM;GoogleTalk;iPPi;On;On;On;Auto;UDP;TCP;On;BestEffort;Off;Auto;Auto;TRUE;4;4;2;711;1265;1390;3277;3598;4295;1160;449;4647;5716;903;5631;SILK-16000;SILK-8000;speex-8000;h264;VP8;VP8;480;480;360;NotDone
iPPi;ICQ;iPPi;On;On;Off;Tls;UDP;Auto;On;Off;On;FALSE;Auto;TRUE;4;2;4;1698;974;1936;5963;1241;1329;5169;5959;5242;5567;743;5647;SILK-16000;iLBC-8000;speex-32000;h264;VP8;rtx;480;240;1080;NotDone
iPPi;ICQ;iPPi;On;Off;On;Tls;TCP;Auto;Off;Off;BestEffort;FALSE;TRUE;Auto;2;4;4;1961;1885;1243;3277;1241;4818;5169;574;863;2012;623;5631;telephone-event-80000;GSM-8000;Auto;h264;VP8;ulpfec;1080;240;720;NotDone
AIM;ICQ;AIM;Off;Off;On;UDP;UDP;Auto;BestEffort;Off;BestEffort;Auto;TRUE;Auto;2;4;4;1043;983;984;5097;1255;1077;3455;2226;863;4011;5129;2704;AMR-WB-16000;Auto;PCMU-8000;rtx;h264;ulpfec;480;240;720;NotDone
ICQ;AIM;iPPi;Off;Off;On;Auto;TCP;Tls;On;Off;BestEffort;TRUE;Auto;TRUE;2;3;4;1484;974;1336;3277;1241;431;5169;94;867;5899;4025;5631;GSM-8000;iLBC-8000;PCMA-8000;h264;VP8;VP8;720;240;720;NotDone
iPPi;ICQ;SIP;On;On;Off;TCP;TCP;UDP;On;On;On;FALSE;FALSE;TRUE;2;3;2;635;1360;1243;4091;2295;5104;5169;5959;4822;5379;4025;1015;SILK-8000;SILK-24000;AMR-WB-16000;h264;VP8;VP8;480;240;480;NotDone
SIP;ICQ;iPPi;On;Off;Off;Auto;TCP;Tls;On;BestEffort;On;Auto;Auto;TRUE;2;4;2;1881;1104;1963;4612;1241;958;1067;5973;930;5513;5983;5578;SILK-24000;iLBC-8000;SILK-16000;Auto;VP8;ulpfec;480;240;480;NotDone
AIM;iptel.org;iPPi;Off;On;On;Auto;TCP;TCP;Off;Off;On;FALSE;Auto;TRUE;2;2;3;1965;974;1243;3186;5164;1329;194;458;1340;2116;423;4582;SILK-16000;SILK-12000;SILK-8000;h264;ulpfec;h264;720;480;240;NotDone
GoogleTalk;GoogleTalk;iPPi;On;On;On;TCP;TCP;UDP;On;Off;On;FALSE;Auto;Auto;2;4;3;1436;1341;758;3645;474;1329;5169;5959;4737;2116;321;2566;opus-48000;GSM-8000;GSM-8000;ulpfec;VP8;VP8;720;240;720;NotDone
SIP;IRC;iPPi;On;Off;On;TCP;UDP;Auto;On;Off;On;FALSE;Auto;FALSE;3;4;2;959;974;700;5026;4800;1951;5169;157;289;5788;4025;5631;SILK-16000;iLBC-8000;AMR-WB-16000;h264;VP8;VP8;240;360;1080;NotDone
iPPi;GoogleTalk;iPPi;Off;On;Off;Tls;TCP;Tls;BestEffort;Off;Off;FALSE;Auto;TRUE;2;2;3;1027;671;1243;3277;1241;5083;5725;1970;4647;4930;196;5631;iLBC-8000;iLBC-8000;SILK-16000;h264;VP8;VP8;480;720;720;NotDone
iPPi;IRC;iPPi;On;Off;On;Auto;TCP;TCP;Off;Off;On;FALSE;TRUE;TRUE;2;2;3;1270;820;1808;3882;5404;5746;5169;5356;606;1249;128;691;PCMU-8000;SILK-16000;AMR-WB-16000;h264;ulpfec;red;480;360;720;NotDone
GoogleTalk;iptel.org;GoogleTalk;On;Off;On;Auto;TCP;UDP;On;Off;Off;TRUE;Auto;TRUE;4;2;3;1865;1024;781;3277;229;1329;1095;5959;4647;4299;1137;5631;SILK-16000;SILK-12000;speex-32000;red;VP8;ulpfec;240;480;720;NotDone
iPPi;IRC;iptel.org;On;On;On;Auto;Auto;UDP;On;Off;Off;TRUE;TRUE;TRUE;3;4;2;1270;974;1243;5864;1241;4960;5169;5959;630;5943;1537;3583;speex-8000;G722-16000;speex-32000;Auto;VP8;VP8;480;480;720;NotDone
SIP;ICQ;iPPi;On;Off;Off;Auto;TCP;UDP;On;Off;Off;Auto;Auto;Auto;3;2;2;1270;1637;1243;280;151;5193;5169;5959;428;2276;1018;5960;iLBC-8000;speex-8000;speex-32000;ulpfec;VP8;VP8;480;720;480;NotDone
iPPi;ICQ;SIP;On;On;Off;UDP;TCP;Auto;On;On;Off;FALSE;Auto;TRUE;4;2;2;1270;974;1243;3277;2624;4587;540;5959;4647;6000;4025;1587;speex-8000;SILK-8000;AMR-WB-16000;h264;VP8;VP8;480;720;720;NotDone
iPPi;ICQ;iPPi;Off;Off;On;Tls;TCP;TCP;BestEffort;Off;On;Auto;FALSE;TRUE;4;2;2;1270;815;1243;208;5372;3812;5169;5959;267;5827;5396;107;SILK-12000;iLBC-8000;GSM-8000;Auto;ulpfec;VP8;480;720;240;NotDone
