caller_protocol;callee1_protocol;callee2_protocol;caller_listenport;callee1_listenport;callee2_listenport;caller_transportprotocol;callee1_transportprotocol;callee2_transportprotocol;caller_encryption;callee1_encryption;callee2_encryption;caller_sipzrtpattribute;callee1_sipzrtpattribute;callee2_sipzrtpattribute;caller_maxpeers;callee1_maxpeers;callee2_maxpeers;caller_mtu;callee1_mtu;callee2_mtu;caller_defaultcallrate;callee1_defaultcallrate;callee2_defaultcallrate;caller_maxreceivecallrate;callee1_maxreceivecallrate;callee2_maxreceivecallrate;caller_maxtransmitcallrate;callee1_maxtransmitcallrate;callee2_maxtransmitcallrate;caller_audiocodec;callee1_audiocodec;callee2_audiocodec;caller_videocodec;callee1_videocodec;callee2_videocodec;caller_maxresolution;callee1_maxresolution;callee2_maxresolution;
AIM;SIP;SIP;On;Off;On;TCP;TCP;Tls;On;On;BestEffort;TRUE;FALSE;Auto;4;3;2;1673;953;1874;3005;3659;2438;1653;1309;438;4563;5184;5159;AMR-WB-16000;iLBC-8000;speex-32000;Auto;Auto;red;1080;240;480;NotDone
AIM;SIP;iptel.org;Off;Off;On;TCP;Auto;UDP;Off;BestEffort;On;TRUE;FALSE;TRUE;3;4;4;1269;1674;1722;5524;5899;205;5251;98;4515;154;278;136;AMR-WB-16000;GSM-8000;SILK-8000;VP8;ulpfec;VP8;720;720;1080;NotDone
GoogleTalk;SIP;GoogleTalk;On;On;Off;TCP;Auto;UDP;On;On;Off;Auto;FALSE;FALSE;2;2;2;1255;1300;1480;245;4217;1938;2647;383;5726;3279;4200;3785;Auto;SILK-12000;SILK-12000;rtx;VP8;VP8;360;240;1080;NotDone
iPPi;GoogleTalk;GoogleTalk;Off;On;Off;Tls;Auto;TCP;On;On;Off;TRUE;FALSE;TRUE;3;4;4;1065;1173;967;160;3314;4073;402;2783;5076;5573;380;3572;speex-8000;SILK-12000;SILK-8000;ulpfec;VP8;VP8;480;480;360;NotDone
GoogleTalk;GoogleTalk;iPPi;Off;On;On;Auto;Auto;UDP;BestEffort;BestEffort;Off;TRUE;TRUE;Auto;3;4;2;641;984;1868;245;4642;123;2842;320;4814;2868;469;4248;speex-8000;telephone-event-80000;SILK-12000;h264;VP8;VP8;720;1080;1080;NotDone
ICQ;iptel.org;SIP;Off;On;Off;TCP;TCP;Tls;Off;On;On;TRUE;FALSE;Auto;3;3;4;1036;1470;1699;3155;168;5168;2146;198;497;5888;1307;163;telephone-event-80000;speex-32000;SILK-24000;rtx;VP8;VP8;1080;480;720;NotDone
iptel.org;SIP;iptel.org;On;On;Off;Auto;Tls;Auto;Off;Off;Off;Auto;FALSE;Auto;3;2;2;1905;601;726;5778;103;150;5055;971;5519;971;2103;3092;Auto;SILK-8000;speex-8000;h264;VP8;VP8;360;360;1080;NotDone
SIP;GoogleTalk;AIM;Off;On;Off;Auto;TCP;Tls;On;On;On;FALSE;FALSE;FALSE;4;2;2;910;1246;1892;5734;5833;5859;896;5474;108;5968;364;5640;SILK-8000;G722-16000;opus-48000;red;VP8;ulpfec;240;720;480;NotDone
ICQ;GoogleTalk;iptel.org;Off;Off;On;Auto;Tls;UDP;Off;Off;Off;FALSE;FALSE;FALSE;2;4;2;1038;732;1081;5779;4925;429;2973;5874;326;2217;588;500;opus-48000;telephone-event-80000;telephone-event-80000;red;ulpfec;VP8;1080;720;1080;NotDone
AIM;GoogleTalk;iptel.org;On;Off;Off;Tls;Auto;TCP;BestEffort;Off;Off;Auto;Auto;TRUE;2;3;3;1764;768;734;5930;89;1617;5814;1046;5837;5845;100;5109;speex-16000;G722-16000;telephone-event-80000;h264;VP8;ulpfec;1080;1080;480;NotDone
GoogleTalk;SIP;SIP;Off;On;On;Auto;UDP;Auto;Off;Off;Off;Auto;TRUE;TRUE;2;3;4;1757;1676;721;5758;5616;5051;1648;5195;480;629;469;233;SILK-24000;G722-16000;speex-8000;rtx;ulpfec;h264;360;1080;480;NotDone
SIP;IRC;IRC;On;On;On;Auto;Auto;UDP;Off;On;Off;Auto;Auto;Auto;3;4;2;1685;1843;1968;3657;5513;2930;3806;1001;1400;5263;4646;1353;Auto;GSM-8000;SILK-12000;red;VP8;VP8;480;480;1080;NotDone
GoogleTalk;IRC;GoogleTalk;On;On;On;Tls;Tls;Auto;Off;Off;Off;Auto;FALSE;FALSE;2;4;3;772;1676;1675;5753;5639;5051;468;5858;480;2921;469;3128;GSM-8000;speex-8000;Auto;ulpfec;VP8;VP8;240;240;480;NotDone
GoogleTalk;SIP;SIP;Off;On;On;Tls;Auto;Auto;Off;On;Off;TRUE;TRUE;Auto;4;4;3;772;1113;1585;4184;3010;3154;2348;4622;1209;3603;1812;3128;speex-32000;SILK-8000;speex-16000;ulpfec;VP8;VP8;720;1080;480;NotDone
GoogleTalk;IRC;IRC;Off;On;Off;UDP;TCP;TCP;Off;Off;Off;TRUE;FALSE;Auto;2;4;4;1204;729;967;4926;4418;4975;2777;861;1149;4270;2497;4329;speex-16000;PCMA-8000;AMR-WB-16000;VP8;VP8;VP8;1080;1080;480;NotDone
SIP;SIP;AIM;On;Off;Off;Auto;Tls;UDP;BestEffort;Off;On;FALSE;FALSE;Auto;2;4;2;1985;1873;606;5879;5974;5187;574;5900;3723;3878;5790;5854;SILK-16000;speex-16000;SILK-8000;rtx;VP8;VP8;720;360;1080;NotDone
SIP;iPPi;GoogleTalk;On;On;Off;Tls;UDP;TCP;Off;Off;Off;TRUE;FALSE;FALSE;4;2;4;1475;1338;671;4697;5413;4719;3749;755;82;3731;301;1737;telephone-event-80000;SILK-24000;SILK-12000;red;VP8;VP8;480;720;360;NotDone
AIM;AIM;iptel.org;On;On;Off;UDP;Auto;TCP;BestEffort;On;Off;FALSE;FALSE;FALSE;3;2;4;818;1210;1728;877;873;194;5564;1288;5470;5621;360;5700;telephone-event-80000;PCMU-8000;SILK-12000;h264;VP8;VP8;360;240;720;NotDone
iptel.org;IRC;iPPi;Off;Off;On;TCP;TCP;Auto;On;Off;Off;TRUE;FALSE;Auto;2;2;3;1492;1193;582;3952;437;3777;1047;390;1487;5444;360;5700;PCMU-8000;GSM-8000;AMR-WB-16000;h264;VP8;VP8;360;1080;720;NotDone
GoogleTalk;iPPi;IRC;Off;Off;Off;UDP;UDP;UDP;On;BestEffort;Off;TRUE;Auto;FALSE;2;4;3;1964;1483;1892;5734;5785;5859;2365;319;1632;1247;159;4064;Auto;SILK-8000;Auto;ulpfec;VP8;VP8;720;1080;360;NotDone
iptel.org;IRC;AIM;Off;Off;On;Auto;Auto;TCP;On;On;Off;TRUE;FALSE;Auto;4;2;3;1276;1316;1329;5695;5828;3458;1377;1001;1400;858;4646;5554;G722-16000;GSM-8000;speex-8000;Auto;VP8;VP8;480;720;240;NotDone
SIP;GoogleTalk;iptel.org;Off;On;On;Tls;TCP;UDP;Off;On;On;FALSE;Auto;TRUE;3;4;3;1671;1815;882;4950;5961;1010;97;4886;280;5409;684;5747;speex-32000;GSM-8000;G722-16000;VP8;VP8;VP8;1080;240;360;NotDone
AIM;iPPi;iptel.org;On;Off;Off;TCP;UDP;Tls;Off;On;BestEffort;TRUE;TRUE;TRUE;3;3;2;832;681;1697;5710;4673;2091;5905;773;935;1623;474;2354;opus-48000;PCMA-8000;speex-8000;h264;red;rtx;720;480;480;NotDone
GoogleTalk;iPPi;GoogleTalk;Off;On;Off;Auto;TCP;Tls;On;On;BestEffort;FALSE;TRUE;TRUE;2;4;2;1608;1579;1125;5939;5751;2412;5665;371;1003;5949;1081;4301;GSM-8000;SILK-8000;SILK-8000;ulpfec;VP8;VP8;1080;720;1080;NotDone
AIM;ICQ;SIP;Off;Off;Off;TCP;TCP;TCP;Off;On;On;Auto;TRUE;TRUE;2;4;2;900;1764;1961;4497;5751;4842;279;5183;5497;5992;278;390;SILK-12000;AMR-WB-16000;speex-8000;ulpfec;VP8;VP8;480;720;1080;NotDone
iPPi;AIM;GoogleTalk;On;On;Off;TCP;TCP;Auto;On;On;Off;TRUE;FALSE;TRUE;4;3;4;1705;1755;1238;4186;5510;732;5555;5990;5823;5355;535;5763;opus-48000;speex-32000;AMR-WB-16000;VP8;VP8;VP8;1080;720;720;NotDone
SIP;iptel.org;AIM;Off;On;On;TCP;TCP;Tls;On;BestEffort;Off;TRUE;FALSE;Auto;3;3;3;1760;1575;1849;5537;4659;3104;120;5961;412;4444;736;5815;PCMU-8000;opus-48000;SILK-12000;ulpfec;VP8;VP8;360;240;720;NotDone
GoogleTalk;iPPi;ICQ;On;On;Off;Auto;Auto;Tls;Off;On;Off;FALSE;Auto;Auto;2;2;2;1868;1735;906;73;5206;252;268;861;5722;5491;5922;1161;telephone-event-80000;GSM-8000;GSM-8000;rtx;VP8;ulpfec;480;240;360;NotDone
AIM;IRC;iPPi;Off;Off;On;Auto;Auto;TCP;BestEffort;BestEffort;On;FALSE;FALSE;Auto;3;3;2;1353;1625;734;5930;5903;807;5814;1046;5550;5845;100;5109;SILK-12000;iLBC-8000;telephone-event-80000;ulpfec;VP8;VP8;720;360;480;NotDone
iptel.org;iPPi;ICQ;Off;On;On;UDP;Tls;TCP;Off;Off;Off;Auto;TRUE;TRUE;4;3;2;1637;849;1638;5047;2188;4776;3284;2168;2225;5505;360;5559;speex-32000;SILK-8000;AMR-WB-16000;red;VP8;VP8;1080;1080;480;NotDone
GoogleTalk;iptel.org;iPPi;Off;Off;On;Auto;Tls;UDP;On;On;On;TRUE;Auto;Auto;2;2;3;1655;1483;1626;5734;5785;4270;5238;319;858;4915;5782;3706;speex-16000;SILK-8000;PCMA-8000;VP8;VP8;VP8;720;1080;240;NotDone
ICQ;ICQ;iPPi;On;On;On;UDP;Auto;Auto;Off;Off;On;TRUE;Auto;TRUE;4;3;4;784;1315;1961;5535;5994;4712;4948;693;207;5708;803;1213;speex-16000;speex-16000;speex-8000;rtx;VP8;VP8;240;360;240;NotDone
AIM;IRC;AIM;On;Off;On;Auto;Auto;Auto;Off;Off;On;Auto;Auto;Auto;3;2;2;1384;1717;1892;5896;5258;5859;4562;211;2130;5679;5790;503;PCMU-8000;iLBC-8000;SILK-8000;h264;rtx;Auto;1080;360;360;NotDone
SIP;ICQ;ICQ;On;On;Off;UDP;Auto;TCP;BestEffort;Off;Off;FALSE;Auto;FALSE;3;4;4;1282;1134;1728;877;873;194;5564;667;5470;1009;5915;5777;SILK-8000;speex-8000;SILK-12000;rtx;VP8;VP8;480;240;480;NotDone
SIP;iptel.org;iptel.org;Off;On;Off;TCP;Tls;TCP;Off;Off;Off;TRUE;FALSE;FALSE;2;3;3;1465;1345;678;5940;4316;1360;4618;754;2977;5751;2333;65;telephone-event-80000;SILK-16000;AMR-WB-16000;VP8;VP8;ulpfec;1080;360;1080;NotDone
GoogleTalk;GoogleTalk;iptel.org;Off;Off;Off;UDP;Tls;TCP;On;On;Off;FALSE;TRUE;FALSE;2;4;2;1321;1224;969;5939;614;5704;1139;693;2347;5786;803;4137;Auto;SILK-8000;telephone-event-80000;rtx;VP8;ulpfec;720;240;240;NotDone
AIM;IRC;AIM;On;On;On;UDP;Tls;Auto;On;Off;Off;Auto;Auto;Auto;4;3;3;1384;1717;1892;5291;5258;1540;98;211;2882;5070;1946;503;SILK-12000;speex-8000;telephone-event-80000;h264;VP8;VP8;240;240;360;NotDone
GoogleTalk;ICQ;ICQ;Off;On;On;TCP;Auto;TCP;BestEffort;Off;Off;Auto;Auto;TRUE;2;3;3;1690;946;743;4805;404;485;4853;1001;1124;2370;4715;2615;Auto;AMR-WB-16000;SILK-12000;rtx;VP8;VP8;1080;720;1080;NotDone
GoogleTalk;ICQ;IRC;Off;On;On;Auto;Auto;TCP;Off;On;Off;Auto;Auto;FALSE;3;4;4;1038;732;949;3005;2091;429;1261;833;5381;5354;1630;4697;PCMU-8000;speex-16000;SILK-12000;red;VP8;VP8;360;1080;480;NotDone
SIP;IRC;IRC;Off;On;On;Auto;Auto;Auto;Off;Off;Off;Auto;FALSE;TRUE;2;3;3;1744;979;965;5021;5616;2010;5474;231;480;629;4089;3982;telephone-event-80000;PCMA-8000;PCMA-8000;Auto;ulpfec;VP8;360;480;360;NotDone
GoogleTalk;SIP;iptel.org;Off;On;On;Tls;Tls;Auto;Off;Off;On;Auto;FALSE;TRUE;3;3;3;998;638;867;5301;5850;5693;1343;4136;5772;5766;1420;5985;opus-48000;iLBC-8000;AMR-WB-16000;rtx;VP8;VP8;1080;720;1080;NotDone
GoogleTalk;iptel.org;GoogleTalk;On;On;Off;Auto;Tls;Auto;BestEffort;On;Off;Auto;Auto;TRUE;2;2;3;1065;802;1690;5404;64;109;2745;376;3234;4239;2571;2167;AMR-WB-16000;SILK-8000;speex-32000;Auto;VP8;VP8;240;240;1080;NotDone
AIM;ICQ;AIM;Off;Off;On;UDP;UDP;Auto;BestEffort;On;On;Auto;TRUE;Auto;5;2;4;865;982;1225;3395;1255;4643;3403;2226;1035;4011;1439;3670;PCMU-8000;G722-16000;GSM-8000;ulpfec;red;red;240;1080;720;NotDone
GoogleTalk;AIM;iptel.org;On;On;Off;Tls;TCP;Tls;Off;On;On;Auto;TRUE;Auto;4;2;3;1676;820;726;5778;103;5081;5217;591;5519;413;2103;298;SILK-24000;SILK-8000;SILK-16000;h264;VP8;VP8;360;1080;720;NotDone
iPPi;AIM;ICQ;Off;On;On;Tls;Auto;TCP;On;On;Off;Auto;FALSE;Auto;4;3;3;1455;771;1943;281;5854;2034;5931;1737;5912;5845;100;5056;speex-16000;G722-16000;telephone-event-80000;ulpfec;VP8;ulpfec;1080;1080;720;NotDone
iPPi;IRC;iPPi;On;On;On;Tls;UDP;UDP;Off;On;On;TRUE;Auto;TRUE;2;3;2;1899;766;1588;5384;1001;5013;896;5780;108;5968;1797;5640;telephone-event-80000;iLBC-8000;PCMA-8000;Auto;VP8;ulpfec;240;1080;1080;NotDone
GoogleTalk;IRC;iPPi;Off;On;Off;UDP;Tls;Tls;BestEffort;Off;BestEffort;Auto;Auto;TRUE;3;2;4;1963;784;1861;5836;1515;198;5594;5080;1069;5967;524;3424;iLBC-8000;SILK-16000;iLBC-8000;rtx;VP8;VP8;480;240;240;NotDone
IRC;iPPi;SIP;On;Off;Off;Auto;Auto;TCP;Off;Off;On;TRUE;FALSE;FALSE;3;3;3;778;1956;688;5853;5850;5693;1343;190;4472;5766;109;5836;AMR-WB-16000;GSM-8000;AMR-WB-16000;ulpfec;VP8;VP8;360;360;1080;NotDone
iPPi;SIP;IRC;Off;On;On;Auto;Tls;Auto;On;Off;Off;FALSE;FALSE;TRUE;3;2;2;1010;1534;729;1281;3640;5953;227;5889;289;5323;248;817;speex-16000;Auto;SILK-12000;ulpfec;VP8;VP8;480;360;480;NotDone
iPPi;iPPi;GoogleTalk;Off;Off;On;UDP;UDP;TCP;Off;On;On;FALSE;TRUE;TRUE;4;3;2;1721;1335;1708;5584;5289;5914;1260;3769;269;5150;5726;6000;AMR-WB-16000;SILK-12000;AMR-WB-16000;ulpfec;VP8;VP8;240;720;1080;NotDone
iptel.org;iPPi;IRC;On;On;On;Auto;Tls;TCP;Off;Off;On;FALSE;TRUE;Auto;3;4;2;1725;627;1154;4724;4504;4402;3477;3329;477;4313;732;4393;telephone-event-80000;PCMA-8000;SILK-12000;h264;ulpfec;VP8;720;720;1080;NotDone
AIM;IRC;iptel.org;Off;Off;On;UDP;Tls;Auto;Off;Off;Off;Auto;TRUE;TRUE;3;3;2;1573;1033;935;4864;1804;5501;321;2551;1534;5936;1543;4643;speex-8000;AMR-WB-16000;SILK-8000;Auto;VP8;VP8;480;240;360;NotDone
GoogleTalk;iPPi;IRC;Off;On;Off;Auto;Tls;Auto;Off;On;Off;FALSE;FALSE;TRUE;4;4;4;1069;1263;920;5853;4905;3096;1826;1062;5606;4097;4862;3016;telephone-event-80000;SILK-8000;GSM-8000;h264;VP8;VP8;1080;240;240;NotDone
GoogleTalk;IRC;SIP;On;Off;On;Tls;UDP;TCP;BestEffort;Off;Off;Auto;TRUE;Auto;4;4;3;1499;1034;668;793;3802;646;1347;1004;5519;3910;1182;188;PCMA-8000;SILK-8000;SILK-12000;VP8;VP8;VP8;360;1080;240;NotDone
IRC;GoogleTalk;iPPi;On;Off;On;Tls;TCP;Auto;Off;Off;BestEffort;TRUE;Auto;Auto;2;4;2;1691;1274;955;3828;5110;4644;331;139;3153;5191;67;1910;SILK-24000;SILK-16000;AMR-WB-16000;rtx;VP8;VP8;720;360;720;NotDone
GoogleTalk;GoogleTalk;AIM;Off;On;Off;Tls;TCP;Auto;On;On;Off;FALSE;TRUE;Auto;2;4;3;1514;1009;1911;5779;2808;249;694;462;3687;5020;565;482;PCMA-8000;PCMA-8000;SILK-8000;Auto;VP8;VP8;360;1080;1080;NotDone
SIP;iPPi;SIP;Off;On;On;Tls;Auto;UDP;On;Off;Off;Auto;FALSE;TRUE;3;4;3;1192;778;1367;5870;4975;3524;4585;153;5903;4857;5936;5992;PCMU-8000;SILK-24000;SILK-12000;h264;VP8;VP8;360;360;240;NotDone
AIM;ICQ;GoogleTalk;On;On;On;Tls;Auto;UDP;BestEffort;Off;Off;TRUE;FALSE;TRUE;2;2;3;1928;1952;1880;5930;1238;382;1197;3346;5837;1748;100;5893;speex-16000;iLBC-8000;SILK-8000;rtx;VP8;VP8;720;360;360;NotDone
AIM;iptel.org;GoogleTalk;On;On;Off;Tls;TCP;Auto;On;Off;Off;TRUE;Auto;FALSE;2;3;2;1518;714;1299;5788;5542;4220;344;198;497;957;3473;163;PCMA-8000;GSM-8000;SILK-12000;red;VP8;VP8;360;720;720;NotDone
AIM;GoogleTalk;iptel.org;On;On;Off;Tls;UDP;Auto;On;On;BestEffort;Auto;TRUE;Auto;4;3;2;1192;1550;1367;5870;438;321;4585;153;5995;250;5942;508;opus-48000;SILK-16000;AMR-WB-16000;ulpfec;VP8;VP8;720;480;720;NotDone
ICQ;iPPi;iPPi;On;On;On;Tls;TCP;TCP;Off;On;On;TRUE;FALSE;Auto;4;4;2;1654;1316;1654;5796;614;3458;1877;4290;269;5263;284;5722;SILK-24000;GSM-8000;SILK-12000;red;ulpfec;VP8;480;360;240;NotDone
AIM;AIM;IRC;On;Off;On;Auto;Auto;UDP;On;Off;BestEffort;TRUE;Auto;FALSE;3;2;2;1069;1226;984;5853;1367;5447;321;190;5884;5728;109;5836;GSM-8000;SILK-8000;G722-16000;h264;VP8;VP8;240;360;360;NotDone
SIP;GoogleTalk;SIP;Off;On;Off;Auto;UDP;TCP;On;On;Off;Auto;Auto;TRUE;2;3;3;719;1526;1393;349;1199;3428;3379;1206;2952;5999;5498;2301;PCMA-8000;G722-16000;SILK-8000;h264;VP8;VP8;720;240;480;NotDone
iptel.org;GoogleTalk;IRC;Off;Off;Off;Tls;TCP;Tls;Off;On;On;TRUE;TRUE;Auto;3;4;3;1863;1312;597;5348;105;435;2146;198;497;5739;2819;5921;telephone-event-80000;speex-16000;PCMA-8000;Auto;VP8;VP8;720;1080;360;NotDone
SIP;iptel.org;iPPi;Off;On;On;TCP;Tls;Tls;BestEffort;On;On;Auto;Auto;Auto;3;2;3;985;1232;889;5537;5959;346;4243;1288;4701;4682;2051;1321;SILK-24000;SILK-12000;SILK-8000;VP8;VP8;VP8;360;240;360;NotDone
SIP;AIM;SIP;Off;On;Off;Auto;UDP;Tls;Off;Off;Off;TRUE;FALSE;TRUE;3;4;3;1607;1367;1868;3912;4416;453;2344;381;4863;989;818;1274;telephone-event-80000;speex-8000;telephone-event-80000;h264;VP8;VP8;720;360;240;NotDone
GoogleTalk;iptel.org;ICQ;On;On;Off;Tls;TCP;TCP;BestEffort;On;Off;Auto;Auto;Auto;3;2;2;1905;1164;1529;4080;2081;5788;5055;2418;5352;971;3853;704;G722-16000;SILK-8000;AMR-WB-16000;Auto;VP8;VP8;360;360;1080;NotDone
iPPi;GoogleTalk;ICQ;Off;On;Off;Auto;UDP;Auto;Off;Off;Off;TRUE;Auto;TRUE;3;4;3;1101;1050;1683;5734;4497;3014;893;192;2122;4501;5449;2178;SILK-16000;SILK-8000;AMR-WB-16000;ulpfec;VP8;VP8;720;1080;480;NotDone
GoogleTalk;SIP;iptel.org;Off;On;On;Tls;Tls;TCP;On;On;Off;Auto;TRUE;FALSE;3;2;4;581;926;871;3413;2130;194;5952;3865;1468;5621;1685;3268;SILK-8000;Auto;G722-16000;ulpfec;VP8;VP8;480;240;1080;NotDone
SIP;IRC;iptel.org;Off;Off;Off;TCP;TCP;Auto;Off;On;On;Auto;TRUE;FALSE;2;3;2;1794;1717;1301;5589;5082;5293;3160;430;622;5070;913;4389;speex-8000;SILK-8000;AMR-WB-16000;h264;rtx;VP8;1080;480;720;NotDone
SIP;iptel.org;iptel.org;On;On;Off;TCP;Tls;Tls;On;Off;On;TRUE;TRUE;Auto;3;2;2;1022;1535;889;4033;5959;346;984;198;5360;4679;1512;2457;speex-8000;SILK-12000;SILK-8000;ulpfec;VP8;VP8;480;480;1080;NotDone
GoogleTalk;IRC;IRC;Off;On;Off;Auto;TCP;TCP;Off;Off;Off;FALSE;TRUE;Auto;2;3;2;1044;729;1883;5435;5617;2978;2212;861;5718;195;3766;1309;telephone-event-80000;PCMA-8000;iLBC-8000;VP8;VP8;VP8;480;720;1080;NotDone
GoogleTalk;ICQ;AIM;On;Off;On;UDP;UDP;Auto;BestEffort;Off;BestEffort;FALSE;TRUE;Auto;5;3;2;1448;983;1047;4754;1255;4643;3403;2226;888;4011;5997;5739;SILK-8000;G722-16000;GSM-8000;ulpfec;red;red;720;1080;720;NotDone
GoogleTalk;iptel.org;IRC;On;On;On;Auto;TCP;TCP;On;Off;Off;FALSE;Auto;FALSE;3;3;4;910;1834;1614;3965;3948;5252;3229;833;5381;5354;1630;5703;SILK-24000;speex-8000;SILK-12000;ulpfec;VP8;VP8;1080;1080;480;NotDone
