caller_protocol;callee1_protocol;callee2_protocol;caller_listenport;callee1_listenport;callee2_listenport;caller_transportprotocol;callee1_transportprotocol;callee2_transportprotocol;caller_encryption;callee1_encryption;callee2_encryption;caller_sipzrtpattribute;callee1_sipzrtpattribute;callee2_sipzrtpattribute;caller_maxpeers;callee1_maxpeers;callee2_maxpeers;caller_mtu;callee1_mtu;callee2_mtu;caller_defaultcallrate;callee1_defaultcallrate;callee2_defaultcallrate;caller_maxreceivecallrate;callee1_maxreceivecallrate;callee2_maxreceivecallrate;caller_maxtransmitcallrate;callee1_maxtransmitcallrate;callee2_maxtransmitcallrate;caller_audiocodec;callee1_audiocodec;callee2_audiocodec;caller_videocodec;callee1_videocodec;callee2_videocodec;caller_maxresolution;callee1_maxresolution;callee2_maxresolution;
SIP;SIP;SIP;Off;Off;Off;Auto;Auto;Auto;Off;Off;Off;Auto;Auto;Auto;2;2;2;1971;576;576;5707;6000;5834;6000;128;6000;6000;64;379;Auto;Auto;SILK-8000;Auto;ulpfec;ulpfec;1080;1080;1080;NotDone
SIP;SIP;SIP;Off;Off;Off;Auto;Auto;Auto;Off;Off;Off;Auto;Auto;Auto;2;2;2;2000;2000;2000;6000;64;6000;64;64;6000;64;64;64;AMR-WB-16000;AMR-WB-16000;Auto;Auto;h264;h264;1080;1080;1080;NotDone
SIP;SIP;SIP;Off;Off;Off;Auto;Auto;Auto;Off;Off;Off;Auto;Auto;Auto;2;2;2;2000;2000;2000;6000;64;6000;6000;64;6000;6000;64;64;Auto;Auto;telephone-event-80000;Auto;VP8;VP8;1080;1080;1080;NotDone
SIP;SIP;SIP;Off;Off;Off;Auto;Auto;Auto;Off;Off;Off;Auto;Auto;Auto;2;2;2;2000;576;576;6000;6000;6000;6000;64;6000;6000;75;64;Auto;Auto;telephone-event-80000;Auto;VP8;VP8;1080;1080;1080;NotDone
SIP;SIP;SIP;Off;Off;Off;Auto;Auto;Auto;Off;Off;Off;Auto;Auto;Auto;2;2;2;2000;647;647;6000;5703;3853;5615;64;4530;5603;64;64;Auto;Auto;AMR-WB-16000;Auto;VP8;VP8;1080;1080;1080;NotDone
SIP;SIP;SIP;Off;Off;Off;Auto;Auto;Auto;Off;Off;Off;Auto;Auto;Auto;2;2;2;1940;576;576;5778;6000;6000;6000;245;6000;6000;70;246;Auto;Auto;telephone-event-80000;Auto;VP8;VP8;1080;1080;1080;NotDone
SIP;SIP;SIP;Off;Off;Off;Auto;Auto;Auto;Off;Off;Off;Auto;Auto;Auto;2;2;2;2000;576;576;6000;6000;6000;6000;64;6000;6000;78;64;Auto;Auto;telephone-event-80000;Auto;VP8;VP8;1080;1080;1080;NotDone
IRC;SIP;IRC;Off;Off;Off;Auto;Auto;Auto;Off;Off;Off;Auto;Auto;Auto;2;2;2;2000;2000;2000;6000;64;6000;64;64;6000;64;64;64;telephone-event-80000;telephone-event-80000;Auto;Auto;Auto;Auto;240;240;1080;NotDone
GoogleTalk;SIP;GoogleTalk;Off;Off;Off;TCP;Auto;TCP;On;Off;Off;TRUE;Auto;TRUE;3;2;2;580;576;576;3052;6000;64;6000;64;64;6000;2238;64;Auto;speex-8000;SILK-12000;Auto;VP8;VP8;1080;1080;1080;NotDone
IRC;SIP;IRC;Off;Off;Off;Auto;Auto;Auto;Off;Off;Off;Auto;Auto;Auto;2;2;2;2000;2000;2000;6000;64;6000;64;64;6000;64;64;64;telephone-event-80000;telephone-event-80000;Auto;Auto;Auto;Auto;240;240;1080;NotDone
GoogleTalk;SIP;GoogleTalk;Off;Off;Off;UDP;Auto;UDP;BestEffort;Off;Off;FALSE;Auto;FALSE;4;2;2;576;576;576;64;6000;64;6000;64;64;6000;6000;64;Auto;SILK-12000;SILK-12000;Auto;VP8;VP8;1080;1080;1080;NotDone
SIP;SIP;SIP;Off;Off;Off;Auto;Auto;Auto;BestEffort;Off;Off;FALSE;Auto;FALSE;4;2;2;576;576;576;64;6000;64;6000;64;64;6000;6000;64;Auto;Auto;telephone-event-80000;Auto;VP8;VP8;1080;1080;1080;NotDone
GoogleTalk;SIP;GoogleTalk;Off;Off;Off;TCP;Auto;TCP;On;Off;Off;TRUE;Auto;TRUE;3;2;2;576;576;576;64;6000;64;5988;64;64;6000;6000;64;Auto;PCMU-8000;SILK-12000;Auto;VP8;VP8;1080;1080;1080;NotDone
IRC;SIP;IRC;Off;Off;Off;Auto;Auto;Auto;Off;Off;Off;Auto;Auto;Auto;2;2;2;2000;2000;2000;6000;64;6000;64;64;6000;64;64;64;telephone-event-80000;telephone-event-80000;Auto;Auto;Auto;Auto;240;240;1080;NotDone
SIP;SIP;SIP;Off;Off;Off;Auto;Auto;Auto;Off;Off;Off;Auto;Auto;Auto;2;2;2;1984;1295;1308;5930;2993;5859;5978;105;5894;5994;65;148;Auto;Auto;telephone-event-80000;Auto;VP8;VP8;1080;1080;1080;NotDone
SIP;SIP;AIM;Off;Off;Off;Auto;Auto;Auto;Off;Off;Off;Auto;Auto;Auto;2;2;2;1299;1157;633;4583;5833;2600;3823;460;3646;5289;454;2722;Auto;speex-32000;AMR-WB-16000;Auto;VP8;VP8;1080;1080;1080;NotDone
SIP;SIP;AIM;Off;Off;Off;Auto;Auto;Auto;Off;Off;Off;Auto;Auto;Auto;2;2;2;1123;1329;576;4277;6000;2086;2846;628;3656;5438;294;2526;Auto;speex-16000;speex-8000;Auto;VP8;VP8;1080;1080;1080;NotDone
IRC;SIP;IRC;Off;Off;Off;Auto;Auto;Auto;Off;Off;Off;Auto;Auto;Auto;2;2;2;2000;2000;2000;6000;64;6000;64;64;6000;64;64;64;telephone-event-80000;telephone-event-80000;Auto;Auto;Auto;Auto;1080;1080;1080;NotDone
IRC;SIP;IRC;Off;Off;Off;UDP;Auto;UDP;BestEffort;Off;Off;FALSE;Auto;FALSE;4;2;2;576;576;576;64;6000;64;6000;64;64;6000;6000;64;Auto;telephone-event-80000;telephone-event-80000;Auto;VP8;VP8;1080;1080;1080;NotDone
IRC;SIP;IRC;Off;Off;Off;Auto;Auto;Auto;Off;Off;Off;Auto;Auto;Auto;2;2;2;2000;2000;2000;6000;64;6000;64;64;6000;64;64;64;telephone-event-80000;telephone-event-80000;Auto;Auto;Auto;Auto;240;240;1080;NotDone
IRC;SIP;IRC;Off;Off;Off;Auto;Auto;Auto;Off;Off;Off;Auto;Auto;Auto;2;2;2;2000;2000;2000;6000;64;6000;64;64;6000;64;64;64;telephone-event-80000;telephone-event-80000;Auto;Auto;Auto;Auto;240;240;1080;NotDone
SIP;SIP;SIP;Off;Off;Off;Auto;Auto;Auto;Off;Off;Off;Auto;Auto;Auto;2;2;2;770;576;576;4028;6000;2330;6000;105;1028;6000;77;3150;Auto;Auto;telephone-event-80000;Auto;VP8;VP8;1080;1080;1080;NotDone
SIP;SIP;SIP;Off;Off;Off;Auto;Auto;Auto;Off;Off;Off;Auto;Auto;Auto;2;2;2;1995;576;576;6000;6000;6000;6000;65;6000;6000;64;67;Auto;Auto;SILK-8000;Auto;VP8;VP8;1080;1080;1080;NotDone
AIM;SIP;AIM;Off;Off;Off;TCP;Auto;TCP;On;Off;Off;TRUE;Auto;TRUE;3;2;2;576;576;576;4202;6000;64;6000;64;64;5616;64;64;Auto;G722-16000;SILK-12000;Auto;VP8;VP8;1080;1080;1080;NotDone
SIP;SIP;SIP;Off;Off;Off;TCP;Auto;Tls;On;Off;Off;TRUE;Auto;TRUE;3;2;2;580;624;583;64;5970;117;5829;368;128;5948;5482;595;Auto;AMR-WB-16000;AMR-WB-16000;Auto;VP8;VP8;1080;1080;1080;NotDone
SIP;SIP;SIP;Off;Off;Off;Auto;Auto;Auto;Off;Off;Off;Auto;Auto;Auto;2;2;2;1530;576;576;5176;6000;64;6000;893;64;6000;64;5699;Auto;Auto;telephone-event-80000;Auto;VP8;VP8;1080;1080;1080;NotDone
SIP;SIP;SIP;Off;Off;Off;Auto;Auto;Auto;Off;Off;Off;Auto;Auto;Auto;2;2;2;982;603;603;4211;5887;1930;5887;64;1951;6000;2672;3888;Auto;Auto;telephone-event-80000;Auto;VP8;VP8;1080;1080;1080;NotDone
GoogleTalk;AIM;GoogleTalk;Off;Off;Off;Auto;Auto;Auto;Off;Off;Off;Auto;Auto;Auto;2;2;2;1252;1163;610;3123;5874;3468;2970;2011;2507;5988;1987;3948;Auto;PCMA-8000;SILK-12000;h264;VP8;VP8;1080;1080;1080;NotDone
AIM;ICQ;GoogleTalk;Off;Off;Off;TCP;TCP;TCP;On;Off;Off;TRUE;Auto;TRUE;4;3;3;1288;959;581;3032;5968;3032;3069;137;3108;6000;2827;3032;Auto;speex-8000;iLBC-8000;Auto;VP8;VP8;1080;720;1080;NotDone
AIM;SIP;AIM;Off;Off;Off;TCP;Auto;TCP;On;Off;Off;TRUE;Auto;TRUE;3;2;2;601;576;576;4336;6000;64;6000;64;64;5883;64;64;Auto;SILK-16000;AMR-WB-16000;Auto;VP8;VP8;1080;1080;1080;NotDone
SIP;AIM;GoogleTalk;Off;Off;Off;Auto;Auto;Auto;Off;Off;Off;Auto;Auto;TRUE;2;2;3;1343;1322;862;4692;5971;3435;2707;139;3422;5992;736;3223;Auto;PCMA-8000;speex-8000;Auto;VP8;VP8;1080;1080;720;NotDone
SIP;SIP;SIP;Off;Off;Off;Auto;Auto;Auto;Off;Off;Off;Auto;Auto;Auto;2;2;2;2000;652;576;6000;6000;6000;6000;230;6000;6000;64;64;Auto;Auto;telephone-event-80000;Auto;VP8;VP8;1080;1080;1080;NotDone
SIP;SIP;SIP;Off;Off;Off;Auto;Auto;Auto;Off;Off;Off;Auto;Auto;Auto;2;2;2;1928;576;576;5780;6000;5703;5992;64;5703;5301;252;71;Auto;Auto;telephone-event-80000;Auto;VP8;VP8;1080;1080;1080;NotDone
SIP;SIP;SIP;Off;Off;Off;Auto;Auto;Auto;On;Off;Off;TRUE;Auto;TRUE;3;2;2;1288;576;577;3032;5995;3032;5994;64;3032;5995;3032;64;Auto;Auto;SILK-8000;Auto;VP8;VP8;1080;1080;1080;NotDone
SIP;SIP;SIP;Off;Off;Off;Auto;Auto;Auto;Off;Off;Off;Auto;Auto;Auto;2;2;2;2000;666;586;5793;5954;6000;5954;260;6000;5867;79;64;Auto;Auto;SILK-8000;Auto;VP8;VP8;1080;1080;1080;NotDone
GoogleTalk;GoogleTalk;GoogleTalk;Off;Off;Off;Auto;Auto;Auto;Off;Off;Off;Auto;Auto;Auto;2;2;2;1335;1350;683;4353;5580;3154;5523;619;3381;5819;282;2902;Auto;iLBC-8000;SILK-8000;Auto;VP8;VP8;1080;1080;1080;NotDone
GoogleTalk;SIP;GoogleTalk;Off;Off;Off;TCP;Auto;TCP;On;Off;Off;TRUE;Auto;TRUE;3;2;2;576;576;576;64;6000;648;6000;64;648;6000;6000;64;Auto;AMR-WB-16000;SILK-12000;Auto;VP8;VP8;1080;1080;1080;NotDone
GoogleTalk;GoogleTalk;GoogleTalk;Off;Off;Off;TCP;TCP;TCP;On;Off;Off;TRUE;Auto;TRUE;3;3;3;1288;1288;657;3032;5639;3032;3032;64;3032;5987;3032;3032;Auto;SILK-8000;PCMU-8000;Auto;VP8;VP8;1080;720;1080;NotDone
GoogleTalk;AIM;GoogleTalk;Off;Off;Off;Auto;Auto;Auto;Off;Off;Off;Auto;Auto;Auto;2;2;2;1161;1120;576;2820;6000;2814;2847;2222;3032;6000;2427;3067;Auto;PCMA-8000;SILK-8000;h264;VP8;VP8;1080;1080;1080;NotDone
SIP;AIM;SIP;Off;Off;Off;Auto;Auto;Auto;Off;Off;Off;Auto;Auto;Auto;2;2;2;576;1232;576;64;6000;64;6000;6000;64;6000;6000;6000;Auto;Auto;telephone-event-80000;h264;VP8;VP8;1080;1080;1080;NotDone
SIP;SIP;SIP;Off;Off;Off;Auto;Auto;Auto;Off;Off;Off;Auto;Auto;Auto;3;2;2;1974;1943;1841;6000;686;6000;150;64;6000;6000;64;64;Auto;speex-32000;SILK-8000;Auto;VP8;VP8;1080;1080;1080;NotDone
GoogleTalk;GoogleTalk;GoogleTalk;Off;Off;Off;Auto;Auto;Auto;Off;Off;Off;Auto;Auto;Auto;2;2;2;1637;679;653;4958;5671;64;5691;1262;64;6000;64;3032;Auto;PCMU-8000;SILK-8000;h264;VP8;VP8;1080;1080;1080;NotDone
SIP;SIP;SIP;Off;Off;Off;Auto;Auto;Auto;Off;Off;Off;Auto;Auto;Auto;2;2;2;576;576;576;3618;6000;64;6000;64;486;6000;64;695;Auto;SILK-16000;SILK-12000;Auto;VP8;VP8;1080;1080;1080;NotDone
SIP;SIP;SIP;Off;Off;Off;TCP;Auto;TCP;On;Off;Off;TRUE;Auto;TRUE;3;2;2;576;576;576;64;6000;64;6000;160;64;6000;6000;371;Auto;PCMA-8000;telephone-event-80000;Auto;VP8;VP8;1080;1080;1080;NotDone
GoogleTalk;SIP;GoogleTalk;Off;Off;Off;Tls;Auto;Tls;BestEffort;Off;Off;FALSE;Auto;FALSE;4;2;2;576;576;576;64;6000;64;6000;360;64;6000;6000;64;Auto;SILK-12000;SILK-12000;Auto;VP8;VP8;1080;1080;1080;NotDone
SIP;SIP;SIP;Off;Off;Off;Auto;Auto;Auto;Off;Off;Off;Auto;Auto;Auto;2;2;2;1988;576;576;6000;6000;3545;6000;75;6000;6000;64;64;Auto;Auto;telephone-event-80000;Auto;VP8;VP8;1080;1080;1080;NotDone
SIP;SIP;SIP;Off;Off;Off;Auto;Auto;Auto;Off;Off;Off;Auto;Auto;Auto;2;2;2;2000;1955;1955;5999;247;6000;5980;68;5999;5980;64;64;Auto;Auto;SILK-8000;Auto;ulpfec;ulpfec;1080;1080;1080;NotDone
AIM;SIP;AIM;Off;Off;Off;Tls;Auto;Tls;On;Off;Off;TRUE;Auto;TRUE;3;2;2;576;576;576;64;6000;64;6000;64;64;6000;6000;64;Auto;SILK-12000;SILK-12000;Auto;VP8;VP8;1080;1080;1080;NotDone
GoogleTalk;SIP;GoogleTalk;Off;Off;Off;TCP;Auto;TCP;On;Off;Off;TRUE;Auto;TRUE;3;2;2;576;576;626;64;5789;64;6000;64;64;6000;6000;64;Auto;speex-32000;SILK-12000;Auto;VP8;VP8;1080;1080;1080;NotDone
GoogleTalk;SIP;GoogleTalk;Off;Off;Off;TCP;Auto;TCP;On;Off;Off;TRUE;Auto;TRUE;3;2;2;1413;631;663;3840;5636;3568;5801;64;3714;5530;2004;64;Auto;PCMU-8000;GSM-8000;Auto;VP8;VP8;1080;1080;1080;NotDone
SIP;SIP;SIP;Off;Off;Off;Auto;Auto;Auto;Off;Off;Off;Auto;Auto;Auto;2;2;2;1371;647;644;6000;5711;4169;5703;64;5923;5703;64;1174;Auto;Auto;AMR-WB-16000;Auto;VP8;VP8;1080;1080;1080;NotDone
SIP;SIP;ICQ;Off;Off;Off;Auto;Auto;Auto;Off;Off;Off;Auto;Auto;Auto;2;2;2;919;606;576;5079;6000;883;6000;1426;2136;6000;64;5582;Auto;opus-48000;telephone-event-80000;Auto;VP8;VP8;1080;1080;1080;NotDone
SIP;SIP;SIP;Off;Off;Off;Auto;Auto;Auto;Off;Off;Off;Auto;Auto;Auto;2;2;2;1333;797;741;4145;5314;1290;5701;1333;1194;5915;769;5058;Auto;Auto;SILK-8000;Auto;VP8;VP8;1080;1080;1080;NotDone
GoogleTalk;ICQ;GoogleTalk;Off;Off;Off;Auto;Auto;Auto;Off;Off;Off;Auto;Auto;Auto;2;2;2;1170;1359;707;3978;5542;3205;5349;845;3620;5739;64;3036;Auto;PCMA-8000;SILK-12000;Auto;VP8;VP8;1080;1080;1080;NotDone
GoogleTalk;SIP;GoogleTalk;Off;Off;Off;TCP;Auto;TCP;On;Off;Off;TRUE;Auto;TRUE;3;2;2;1288;647;712;3032;5428;2062;5891;112;3032;5948;3032;101;Auto;speex-16000;speex-8000;Auto;VP8;VP8;1080;1080;1080;NotDone
SIP;AIM;SIP;Off;Off;Off;Auto;Auto;Auto;Off;Off;Off;Auto;Auto;Auto;2;2;2;1433;576;605;5445;5879;4442;5887;193;3725;5953;64;1489;G722-16000;Auto;SILK-8000;Auto;VP8;VP8;1080;720;1080;NotDone
SIP;SIP;SIP;Off;Off;Off;Auto;Auto;Auto;Off;Off;Off;Auto;Auto;Auto;2;2;2;2000;1994;2000;6000;64;6000;6000;64;6000;6000;64;64;Auto;Auto;SILK-8000;Auto;ulpfec;ulpfec;1080;1080;1080;NotDone
IRC;SIP;IRC;Off;Off;Off;Auto;Auto;Auto;Off;Off;Off;Auto;Auto;Auto;2;2;2;2000;2000;2000;6000;64;6000;64;64;6000;64;64;64;telephone-event-80000;telephone-event-80000;Auto;Auto;Auto;Auto;240;240;1080;NotDone
AIM;SIP;AIM;Off;Off;Off;TCP;Auto;TCP;On;Off;Off;TRUE;Auto;TRUE;3;2;2;1288;647;658;3032;5638;2862;5985;64;2862;5995;3032;65;Auto;PCMU-8000;AMR-WB-16000;Auto;VP8;VP8;1080;1080;1080;NotDone
SIP;SIP;SIP;Off;Off;Off;Auto;Auto;Auto;Off;Off;Off;Auto;Auto;Auto;2;2;2;1955;2000;2000;6000;64;5813;6000;64;6000;6000;64;248;Auto;Auto;telephone-event-80000;Auto;VP8;VP8;1080;1080;1080;NotDone
AIM;SIP;GoogleTalk;Off;Off;Off;Auto;Auto;Auto;Off;Off;Off;Auto;Auto;Auto;2;2;2;1026;576;576;3036;6000;1615;5749;110;1008;5986;3026;413;Auto;GSM-8000;AMR-WB-16000;Auto;VP8;VP8;1080;1080;1080;NotDone
IRC;SIP;IRC;Off;Off;Off;Auto;Auto;Auto;Off;Off;Off;Auto;Auto;Auto;2;2;2;2000;2000;2000;6000;64;6000;64;64;6000;64;64;64;telephone-event-80000;telephone-event-80000;Auto;Auto;Auto;Auto;240;240;1080;NotDone
SIP;SIP;SIP;Off;Off;Off;Auto;Auto;Auto;Off;Off;Off;Auto;Auto;Auto;2;2;2;2000;2000;2000;6000;64;6000;64;64;6000;64;64;64;SILK-12000;PCMA-8000;Auto;Auto;Auto;Auto;1080;1080;1080;NotDone
SIP;SIP;SIP;Off;Off;Off;Auto;Auto;Auto;Off;Off;Off;Auto;Auto;Auto;2;2;2;2000;576;576;5959;6000;3217;6000;64;5821;6000;64;246;Auto;Auto;telephone-event-80000;Auto;VP8;VP8;1080;1080;1080;NotDone
GoogleTalk;GoogleTalk;GoogleTalk;Off;Off;Off;Auto;Auto;Auto;Off;Off;Off;Auto;Auto;Auto;2;2;2;1224;1317;843;4135;4897;2780;5470;649;3066;5783;332;3353;Auto;PCMA-8000;SILK-8000;Auto;VP8;VP8;1080;1080;1080;NotDone
SIP;SIP;SIP;Off;Off;Off;Auto;Auto;Auto;Off;Off;Off;Auto;Auto;Auto;2;2;2;2000;677;666;6000;5622;4504;5443;64;5362;5497;64;64;Auto;Auto;AMR-WB-16000;Auto;VP8;VP8;1080;1080;1080;NotDone
SIP;AIM;SIP;Off;Off;Off;Auto;Auto;Auto;Off;Off;Off;Auto;Auto;Auto;2;2;2;1285;831;576;5967;6000;3169;5999;64;3616;6000;621;2591;PCMU-8000;Auto;SILK-8000;Auto;VP8;VP8;1080;1080;1080;NotDone
iPPi;SIP;iPPi;Off;Off;Off;Auto;Auto;Auto;Off;Off;Off;Auto;Auto;Auto;2;2;2;2000;2000;2000;6000;64;6000;64;64;6000;64;64;64;telephone-event-80000;telephone-event-80000;Auto;Auto;Auto;Auto;480;1080;1080;NotDone
SIP;SIP;SIP;Off;Off;Off;Auto;Auto;Auto;Off;Off;Off;Auto;Auto;Auto;2;2;2;1072;1044;576;4384;6000;2232;3799;392;3741;5849;606;3307;Auto;G722-16000;SILK-12000;Auto;VP8;VP8;1080;1080;1080;NotDone
SIP;SIP;SIP;Off;Off;Off;Auto;Auto;Auto;Off;Off;Off;Auto;Auto;Auto;2;2;2;1060;590;697;3731;5515;2061;6000;107;2071;5933;984;64;Auto;Auto;SILK-12000;Auto;VP8;VP8;1080;1080;1080;NotDone
SIP;SIP;SIP;Off;Off;Off;Auto;Auto;Auto;Off;Off;Off;Auto;Auto;Auto;2;2;2;2000;717;717;6000;5407;6000;5901;93;6000;5903;64;64;Auto;Auto;telephone-event-80000;Auto;VP8;VP8;1080;1080;1080;NotDone
SIP;SIP;SIP;Off;Off;Off;Auto;Auto;Auto;Off;Off;Off;Auto;Auto;Auto;2;2;2;1993;1960;1963;5977;206;5715;6000;103;5979;6000;86;71;Auto;Auto;telephone-event-80000;Auto;VP8;VP8;1080;1080;1080;NotDone
SIP;SIP;SIP;Off;Off;Off;Auto;Auto;Auto;Off;Off;Off;Auto;Auto;Auto;2;2;2;2000;576;576;6000;6000;6000;6000;64;6000;6000;64;64;Auto;Auto;telephone-event-80000;Auto;VP8;VP8;1080;1080;1080;NotDone
SIP;SIP;SIP;Off;Off;Off;Auto;Auto;Auto;Off;Off;Off;Auto;Auto;Auto;2;2;2;1009;647;787;2927;5152;1838;5932;225;1394;5862;1179;64;Auto;Auto;SILK-12000;Auto;VP8;VP8;1080;1080;1080;NotDone
SIP;SIP;AIM;Off;Off;Off;Auto;Auto;Auto;Off;Off;Off;Auto;Auto;Auto;2;2;2;1272;1237;684;4536;5756;2696;3286;366;3420;5381;580;3112;Auto;speex-16000;AMR-WB-16000;Auto;VP8;VP8;1080;1080;1080;NotDone
SIP;SIP;SIP;Off;Off;Off;Auto;Auto;Auto;Off;Off;Off;Auto;Auto;Auto;2;2;2;2000;2000;1941;6000;300;6000;5625;64;6000;6000;86;64;Auto;Auto;SILK-8000;Auto;VP8;VP8;1080;1080;1080;NotDone
AIM;SIP;AIM;Off;Off;Off;Auto;Auto;Auto;Off;Off;Off;Auto;Auto;Auto;2;2;2;1288;576;576;3984;6000;3032;6000;64;3032;6000;1472;197;Auto;PCMA-8000;SILK-12000;Auto;VP8;VP8;1080;1080;1080;NotDone
SIP;SIP;SIP;Off;Off;Off;Auto;Auto;Auto;Off;Off;Off;Auto;Auto;Auto;2;2;2;2000;2000;2000;6000;64;6000;6000;64;6000;6000;64;64;Auto;Auto;SILK-12000;Auto;rtx;rtx;1080;1080;1080;NotDone
SIP;SIP;SIP;Off;Off;Off;Auto;Auto;Auto;Off;Off;Off;Auto;Auto;Auto;2;2;2;2000;2000;2000;6000;64;6000;5718;64;6000;5999;64;64;Auto;Auto;SILK-8000;Auto;ulpfec;ulpfec;1080;1080;1080;NotDone
SIP;SIP;SIP;Off;Off;Off;Auto;Auto;Auto;Off;Off;Off;Auto;Auto;Auto;2;2;2;2000;2000;2000;6000;64;6000;64;64;6000;64;64;64;SILK-12000;PCMA-8000;Auto;Auto;Auto;Auto;1080;1080;1080;NotDone
SIP;SIP;iptel.org;Off;Off;Off;Auto;Auto;Auto;Off;Off;Off;Auto;Auto;TRUE;2;2;3;1137;947;576;5155;6000;3015;6000;64;2863;6000;64;5033;Auto;iLBC-8000;telephone-event-80000;Auto;VP8;VP8;1080;1080;720;NotDone
IRC;SIP;IRC;Off;Off;Off;Auto;Auto;Auto;Off;Off;Off;Auto;Auto;Auto;2;2;2;2000;2000;2000;6000;64;6000;64;64;6000;64;64;64;telephone-event-80000;telephone-event-80000;Auto;Auto;Auto;Auto;240;240;1080;NotDone
SIP;SIP;SIP;Off;Off;Off;Auto;Auto;Auto;Off;Off;Off;Auto;Auto;Auto;2;2;2;1372;1288;1288;6000;3031;3034;6000;64;3336;6000;64;64;Auto;Auto;telephone-event-80000;Auto;VP8;VP8;1080;1080;1080;NotDone
SIP;SIP;ICQ;Off;Off;Off;Auto;Auto;Auto;Off;Off;Off;Auto;Auto;TRUE;2;2;3;1288;858;576;6000;5998;3639;6000;64;3272;6000;64;5542;Auto;GSM-8000;telephone-event-80000;Auto;VP8;VP8;1080;1080;720;NotDone
SIP;SIP;SIP;Off;Off;Off;Auto;Auto;Auto;Off;Off;Off;Auto;Auto;Auto;2;2;2;1288;755;913;3054;4628;3032;6000;64;3032;5996;1341;64;Auto;Auto;AMR-WB-16000;Auto;VP8;VP8;1080;1080;1080;NotDone
IRC;SIP;IRC;Off;Off;Off;Auto;Auto;Auto;Off;Off;Off;Auto;Auto;Auto;2;2;2;2000;2000;2000;6000;64;6000;64;64;6000;64;64;64;telephone-event-80000;telephone-event-80000;Auto;Auto;Auto;Auto;240;240;1080;NotDone
SIP;SIP;SIP;Off;Off;Off;Auto;Auto;Auto;Off;Off;Off;Auto;Auto;Auto;2;2;2;1710;630;640;4726;5723;4980;5941;270;4996;5942;1071;249;Auto;Auto;SILK-8000;Auto;VP8;VP8;1080;1080;1080;NotDone
SIP;SIP;SIP;Off;Off;Off;Auto;Auto;Auto;Off;Off;Off;Auto;Auto;Auto;2;2;2;2000;2000;2000;6000;64;6000;64;64;6000;6000;64;64;Auto;telephone-event-80000;opus-48000;Auto;Auto;Auto;1080;1080;1080;NotDone
SIP;AIM;SIP;Off;Off;Off;Auto;Auto;Auto;Off;Off;Off;Auto;Auto;Auto;2;2;2;1298;890;583;5483;6000;4345;6000;175;3153;6000;64;1720;speex-32000;Auto;SILK-8000;Auto;VP8;VP8;1080;720;1080;NotDone
SIP;SIP;SIP;Off;Off;Off;Auto;Auto;Auto;Off;Off;Off;Auto;Auto;Auto;2;2;2;2000;1996;2000;6000;64;6000;6000;113;6000;6000;64;70;Auto;Auto;telephone-event-80000;Auto;VP8;VP8;1080;1080;1080;NotDone
SIP;SIP;SIP;Off;Off;Off;Auto;Auto;Auto;Off;Off;Off;Auto;Auto;Auto;2;2;2;2000;693;659;6000;5645;6000;5832;241;5930;6000;64;273;Auto;Auto;telephone-event-80000;Auto;VP8;VP8;1080;1080;1080;NotDone
SIP;SIP;GoogleTalk;Off;Off;Off;Auto;Auto;Auto;Off;Off;Off;Auto;Auto;Auto;2;2;2;1254;818;579;4518;5982;3388;5931;137;3092;5983;1441;3177;Auto;iLBC-8000;SILK-8000;Auto;VP8;VP8;1080;1080;1080;NotDone
SIP;SIP;SIP;Off;Off;Off;Auto;Auto;Auto;Off;Off;Off;Auto;Auto;Auto;2;2;2;2000;576;576;6000;6000;6000;6000;64;6000;6000;64;147;Auto;Auto;SILK-12000;Auto;VP8;VP8;1080;1080;1080;NotDone
SIP;SIP;SIP;Off;Off;Off;Auto;Auto;Auto;Off;Off;Off;Auto;Auto;Auto;2;2;2;2000;1669;1631;6000;1616;6000;6000;64;6000;6000;64;64;Auto;Auto;telephone-event-80000;Auto;VP8;VP8;1080;1080;1080;NotDone
SIP;SIP;SIP;Off;Off;Off;Auto;Auto;Auto;Off;Off;Off;Auto;Auto;Auto;2;2;2;2000;576;576;6000;6000;6000;6000;413;6000;6000;64;64;Auto;Auto;telephone-event-80000;Auto;VP8;VP8;1080;1080;1080;NotDone
ICQ;SIP;ICQ;Off;Off;Off;TCP;Auto;TCP;On;Off;Off;TRUE;Auto;TRUE;3;2;2;576;576;576;3160;6000;64;6000;64;64;6000;2378;64;Auto;PCMU-8000;SILK-8000;Auto;VP8;VP8;1080;1080;1080;NotDone
SIP;SIP;SIP;Off;Off;Off;Auto;Auto;Auto;Off;Off;Off;Auto;Auto;Auto;2;2;2;1992;2000;2000;5976;64;5722;5897;101;5977;5897;84;73;Auto;Auto;telephone-event-80000;Auto;VP8;VP8;1080;1080;1080;NotDone
SIP;SIP;SIP;Off;Off;Off;Auto;Auto;Auto;Off;Off;Off;Auto;Auto;Auto;2;2;2;2000;2000;2000;6000;64;6000;6000;64;6000;6000;64;64;Auto;Auto;telephone-event-80000;Auto;ulpfec;ulpfec;1080;1080;1080;NotDone
SIP;SIP;SIP;Off;Off;Off;Auto;Auto;Auto;Off;Off;Off;Auto;Auto;Auto;2;2;2;2000;675;583;5873;5962;6000;5962;171;6000;5862;81;64;Auto;Auto;SILK-8000;Auto;VP8;VP8;1080;1080;1080;NotDone
GoogleTalk;AIM;GoogleTalk;Off;Off;Off;Auto;Auto;Auto;Off;Off;Off;Auto;Auto;Auto;2;2;2;1198;1146;576;3060;6000;3052;2500;1708;3328;6000;1968;2779;Auto;iLBC-8000;SILK-8000;h264;VP8;VP8;1080;1080;1080;NotDone
