expression;class;support;violation;confidence;rid;cluster;approach;iteration;isnormal
callee2_videocodec = vp8 and callee1_maxresolution = 240 and caller_mtu > 964;failedfailed;18;1;0.894737;713144;high;sbrm-part;5;f
caller_defaultcallrate > 2702 and callee2_audiocodec = silk-8000 and caller_sipzrtpattribute = auto;failedfailed;13;1;0.857143;713812;high;sbrm-part;5;f
caller_protocol = sip;failedfailed;194;0;1;714000;high;sbrm-part;5;f
caller_encryption = besteffort and callee2_videocodec = vp8 and caller_mtu <= 1190;connectedfailed;16;2;0.777778;714142;medium;sbrm-part;5;f
caller_encryption = off and callee2_encryption = on and callee1_encryption = on;failedfailed;27;0;1;714234;high;sbrm-part;5;f
callee1_videocodec = vp8 and callee1_audiocodec = speex-16000 and callee2_encryption = off and callee1_maxpeers = 2 and callee2_maxpeers = 2 and caller_defaultcallrate <= 3257;failedconnected;15;5;0.5;714546;low;sbrm-part;5;f
callee1_audiocodec = auto and caller_sipzrtpattribute = auto;failedconnected;13;4;0.529412;714814;low;sbrm-part;5;f
caller_protocol = sip;failedfailed;224;0;1;715105;high;sbrm-part;5;f
caller_encryption = besteffort and callee2_videocodec = rtx and caller_audiocodec = ilbc-8000 and callee1_maxtransmitcallrate <= 5175 and caller_transportprotocol  = udp and caller_listenport = off and callee2_transportprotocol = udp and caller_maxpeers = 2 and callee2_maxpeers = 2 and callee1_mtu <= 941 and callee2_mtu <= 1016;connectedconnected;12;4;0.5;715116;low;sbrm-part;5;t
callee1_videocodec = vp8 and caller_listenport = off and caller_protocol = googletalk and callee2_videocodec = red and caller_defaultcallrate <= 4440;failedconnected;37;0;1;715294;high;sbrm-part;5;f
callee1_videocodec = vp8 and callee2_videocodec = ulpfec and caller_protocol = ippi;failedfailed;54;0;1;715380;high;sbrm-part;5;f
caller_defaultcallrate > 2702 and callee2_audiocodec = silk-8000;failedfailed;20;8;0.428571;715556;low;sbrm-part;5;f
callee2_videocodec = vp8 and caller_encryption = besteffort and callee1_videocodec = auto and caller_audiocodec = ilbc-8000 and callee2_protocol = googletalk and caller_sipzrtpattribute = false;connectedfailed;14;1;0.866667;715559;medium;sbrm-part;5;f
caller_protocol = ippi and callee2_videocodec = ulpfec and callee1_maxreceivecallrate > 955;connectedfailed;24;8;0.5;715617;low;sbrm-part;5;f
caller_defaultcallrate > 2702 and callee1_audiocodec = amr-wb-16000;failedfailed;25;10;0.428571;715682;low;sbrm-part;5;f
callee2_videocodec = ulpfec and caller_protocol = iptel.org and callee1_mtu <= 1361;failedfailed;34;9;0.581395;715711;low;sbrm-part;5;f
callee2_audiocodec = silk-8000 and caller_encryption = on and callee1_encryption = off;failedfailed;11;0;1;715840;high;sbrm-part;5;f
callee2_videocodec = vp8 and caller_audiocodec = ilbc-8000 and caller_videocodec = red and callee2_maxpeers = 4;connectedfailed;19;6;0.52;715937;low;sbrm-part;5;f
caller_encryption = besteffort and caller_defaultcallrate <= 2793 and callee1_audiocodec = silk-12000;connectedconnected;12;3;0.6;716402;medium;sbrm-part;5;t
callee1_videocodec = vp8 and callee2_defaultcallrate <= 226 and callee2_videocodec = rtx and callee2_maxreceivecallrate	 <= 5160 and caller_mtu <= 1289;failedconnected;63;0;1;716414;high;sbrm-part;5;f
callee1_videocodec = vp8 and caller_protocol = sip;failedfailed;14;0;1;716550;high;sbrm-part;5;f
caller_protocol = ippi and callee2_videocodec = auto;connectedconnected;15;7;0.363636;716665;low;sbrm-part;5;t
callee1_videocodec = vp8 and caller_mtu <= 1175 and caller_sipzrtpattribute = false and caller_defaultcallrate <= 4638;failedconnected;32;3;0.828571;716766;medium;sbrm-part;5;f
callee1_videocodec = vp8 and caller_protocol = sip;failedfailed;26;0;1;716850;high;sbrm-part;5;f
callee2_videocodec = vp8 and callee1_listenport = on and caller_maxtransmitcallrate <= 5159 and callee2_maxreceivecallrate	 <= 2326 and caller_maxreceivecallrate <= 5399;connectedfailed;20;0;1;717140;high;sbrm-part;5;f
callee2_videocodec = vp8 and caller_encryption = besteffort and callee2_defaultcallrate <= 5403 and callee1_audiocodec = speex-16000 and callee2_mtu <= 1031 and caller_protocol = googletalk;connectedfailed;18;0;1;717148;high;sbrm-part;5;f
callee1_videocodec = vp8 and caller_sipzrtpattribute = false;failedconnected;28;8;0.555556;717315;low;sbrm-part;5;f
caller_defaultcallrate <= 1232 and caller_encryption = besteffort and callee2_videocodec = vp8;connectedfailed;12;1;0.846154;717460;medium;sbrm-part;5;f
callee1_videocodec = vp8 and caller_videocodec = ulpfec and callee2_transportprotocol = tcp and callee1_listenport = on and callee2_sipzrtpattribute = false;failedconnected;24;3;0.777778;717775;medium;sbrm-part;5;f
caller_defaultcallrate > 2705 and callee1_audiocodec = silk-8000;failedfailed;20;8;0.428571;717817;low;sbrm-part;5;f
callee1_videocodec = vp8 and caller_transportprotocol  = auto;failedfailed;12;0;1;717922;high;sbrm-part;5;f
callee1_videocodec = vp8 and caller_defaultcallrate <= 1342 and callee2_audiocodec = speex-32000 and caller_videocodec = ulpfec and callee1_protocol = irc and callee2_defaultcallrate <= 3244;failedconnected;12;2;0.714286;717972;medium;sbrm-part;5;f
caller_defaultcallrate <= 2702 and caller_encryption = besteffort and callee2_videocodec = red and callee1_videocodec = red;connectedconnected;13;3;0.625;718281;medium;sbrm-part;5;t
caller_defaultcallrate <= 1569 and callee1_videocodec = ulpfec and caller_protocol = googletalk and caller_maxreceivecallrate <= 4099;failedconnected;13;1;0.857143;718452;medium;sbrm-part;5;f
callee2_audiocodec = speex-32000 and caller_audiocodec = ilbc-8000 and callee1_sipzrtpattribute = auto and caller_maxtransmitcallrate > 478;failedconnected;12;5;0.411765;718471;low;sbrm-part;5;f
callee1_audiocodec = silk-8000 and caller_mtu > 749;failedfailed;11;1;0.833333;718503;medium;sbrm-part;5;f
caller_defaultcallrate > 2705 and callee1_audiocodec = silk-8000 and callee1_transportprotocol = auto;failedconnected;14;3;0.647059;718526;medium;sbrm-part;5;f
callee2_videocodec = vp8 and caller_protocol = sip;failedfailed;50;0;1;719280;high;sbrm-part;5;f
callee2_videocodec = vp8 and callee1_encryption = besteffort and callee1_audiocodec = pcma-8000 and caller_defaultcallrate <= 2658;connectedfailed;11;0;1;719370;high;sbrm-part;5;f
caller_encryption = besteffort and caller_audiocodec = speex-16000;connectedconnected;11;5;0.375;719594;low;sbrm-part;5;t
callee2_videocodec = vp8 and caller_encryption = besteffort and callee1_videocodec = auto and callee2_protocol = aim;connectedfailed;12;0;1;719612;high;sbrm-part;5;f
callee1_videocodec = vp8 and callee1_sipzrtpattribute = auto and callee2_audiocodec = speex-32000 and callee2_videocodec = auto and callee2_protocol = ippi and caller_protocol = iptel.org;failedconnected;12;0;1;719813;high;sbrm-part;5;f
callee1_audiocodec = amr-wb-16000 and callee2_transportprotocol = tcp;failedfailed;16;3;0.684211;719868;medium;sbrm-part;5;f
callee2_videocodec = vp8 and caller_mtu > 1292;failedfailed;18;2;0.8;720004;medium;sbrm-part;5;f
callee2_videocodec = vp8 and caller_encryption = besteffort and callee1_audiocodec = pcma-8000 and callee1_maxreceivecallrate <= 3916;connectedfailed;12;1;0.846154;720036;high;sbrm-part;5;f
caller_protocol = sip;failedfailed;281;0;1;720093;high;sbrm-part;5;f
caller_defaultcallrate > 4118 and callee1_audiocodec = silk-8000;failedfailed;21;9;0.4;720366;low;sbrm-part;5;f
callee1_videocodec = vp8 and callee2_mtu <= 1003 and caller_protocol = sip;failedfailed;30;0;1;721095;high;sbrm-part;5;f
callee1_videocodec = ulpfec and caller_protocol = iptel.org and caller_encryption = besteffort;failedconnected;12;2;0.714286;721100;medium;sbrm-part;5;f
callee2_videocodec = vp8 and caller_encryption = off and callee1_encryption = on;failedfailed;18;0;1;721375;high;sbrm-part;5;f
caller_defaultcallrate > 2702 and callee1_audiocodec = amr-wb-16000 and caller_encryption = besteffort and callee2_defaultcallrate > 724 and callee1_maxtransmitcallrate <= 3798;failedfailed;11;0;1;721665;high;sbrm-part;5;f
callee2_videocodec = vp8 and callee1_videocodec = ulpfec and caller_protocol = iptel.org;failedfailed;24;0;1;721786;high;sbrm-part;5;f
caller_defaultcallrate > 2705 and callee2_videocodec = ulpfec and caller_protocol = ippi and callee1_maxreceivecallrate <= 2062;failedfailed;13;0;1;721951;high;sbrm-part;5;f
callee1_videocodec = vp8 and caller_encryption = on and callee2_encryption = off;failedfailed;65;0;1;722745;high;sbrm-part;5;f
caller_encryption = on and callee2_encryption = off and callee1_encryption = off;failedfailed;26;0;1;722996;high;sbrm-part;5;f
callee2_videocodec = vp8 and caller_encryption = besteffort and callee2_audiocodec = silk-12000 and callee2_encryption = off and callee2_mtu <= 1013;connectedfailed;11;0;1;723148;high;sbrm-part;5;f
callee1_videocodec = vp8 and caller_listenport = off and caller_audiocodec = silk-12000 and caller_maxpeers = 2;failedconnected;15;2;0.764706;723164;medium;sbrm-part;5;f
callee2_videocodec = vp8 and callee2_maxtransmitcallrate > 3869 and caller_defaultcallrate <= 5402;connectedfailed;14;0;1;723492;high;sbrm-part;5;f
caller_defaultcallrate <= 2702 and callee2_audiocodec = amr-wb-16000;failedfailed;34;15;0.387755;723610;low;sbrm-part;5;f
caller_encryption = off and callee1_encryption = on and callee2_encryption = on;failedfailed;31;0;1;724082;high;sbrm-part;5;f
caller_defaultcallrate <= 2705 and callee1_videocodec = vp8;failedconnected;13;6;0.368421;724143;low;sbrm-part;5;f
callee1_videocodec = vp8 and caller_encryption = besteffort and callee2_audiocodec = silk-12000 and caller_maxtransmitcallrate > 1915;failedconnected;34;5;0.74359;724431;medium;sbrm-part;5;f
callee1_videocodec = vp8 and callee1_listenport = on and caller_videocodec = h264;failedconnected;11;3;0.571429;724518;low;sbrm-part;5;f
callee2_audiocodec = silk-8000 and caller_defaultcallrate > 3713 and callee2_transportprotocol = auto;failedfailed;12;0;1;724677;high;sbrm-part;5;f
callee1_videocodec = vp8 and caller_listenport = off and callee1_protocol = irc and callee1_mtu <= 1318;failedconnected;18;1;0.894737;724873;high;sbrm-part;5;f
callee1_videocodec = vp8 and caller_encryption = off and callee2_encryption = off and callee1_maxtransmitcallrate <= 4016;failedconnected;16;1;0.882353;724917;high;sbrm-part;5;f
callee1_videocodec = vp8 and caller_mtu > 1204 and callee1_audiocodec = speex-16000;failedfailed;26;7;0.575758;725008;low;sbrm-part;5;f
callee2_videocodec = vp8 and caller_videocodec = vp8;failedfailed;21;6;0.555556;725076;low;sbrm-part;5;f
callee1_videocodec = vp8 and callee2_videocodec = ulpfec and caller_protocol = googletalk;failedfailed;22;0;1;725119;high;sbrm-part;5;f
caller_defaultcallrate <= 1221 and caller_mtu <= 690 and caller_audiocodec = silk-16000 and callee2_maxreceivecallrate	 > 511 and callee2_defaultcallrate > 410;connectedconnected;30;3;0.818182;725390;medium;sbrm-part;5;t
caller_defaultcallrate > 2702 and callee2_audiocodec = silk-8000 and callee2_transportprotocol = auto;failedfailed;12;3;0.6;725432;medium;sbrm-part;5;f
caller_encryption = besteffort and callee2_listenport = off and callee1_videocodec = rtx;connectedconnected;13;4;0.529412;725558;low;sbrm-part;5;t
callee1_videocodec = vp8 and caller_videocodec = vp8;failedfailed;14;0;1;725578;high;sbrm-part;5;f
caller_encryption = off and callee1_encryption = on and caller_listenport = on and caller_videocodec = rtx;failedconnected;13;1;0.857143;725626;high;sbrm-part;5;f
caller_protocol = sip;failedfailed;179;0;1;725649;high;sbrm-part;5;f
callee1_videocodec = vp8 and caller_mtu <= 800 and callee2_videocodec = h264;failedconnected;16;1;0.882353;726164;high;sbrm-part;5;f
caller_encryption = besteffort and callee2_videocodec = rtx and callee1_audiocodec = silk-24000 and caller_defaultcallrate > 1553;connectedconnected;14;4;0.555556;726554;low;sbrm-part;5;t
callee2_videocodec = ulpfec and caller_protocol = iptel.org and callee1_mtu <= 1361 and caller_listenport = on;failedfailed;25;1;0.923077;727279;high;sbrm-part;5;f
callee1_videocodec = vp8 and caller_transportprotocol  = tls;failedfailed;29;8;0.567568;727669;low;sbrm-part;5;f
callee1_videocodec = vp8 and callee2_videocodec = ulpfec and caller_protocol = googletalk;failedfailed;38;0;1;727749;high;sbrm-part;5;f
caller_protocol = sip;failedfailed;176;0;1;727915;high;sbrm-part;5;f
caller_defaultcallrate <= 2705 and callee2_audiocodec = amr-wb-16000;failedfailed;21;7;0.5;728289;low;sbrm-part;5;f
caller_protocol = ippi and callee2_videocodec = ulpfec and callee1_maxreceivecallrate <= 2064;failedfailed;12;0;1;728350;high;sbrm-part;5;f
caller_protocol = sip;failedfailed;177;0;1;728498;high;sbrm-part;5;f
caller_defaultcallrate <= 2702 and callee2_videocodec = rtx and caller_audiocodec = silk-16000 and callee1_videocodec = red and caller_maxtransmitcallrate <= 5858 and callee2_encryption = off and caller_maxpeers = 4 and caller_mtu <= 1280;connectedconnected;18;0;1;728503;high;sbrm-part;5;t
callee1_videocodec = vp8 and caller_audiocodec = silk-12000 and caller_maxtransmitcallrate > 3710;failedconnected;11;0;1;728743;high;sbrm-part;5;f
callee1_audiocodec = telephone-event-80000 and caller_maxreceivecallrate > 2368;failedfailed;20;7;0.481481;729007;low;sbrm-part;5;f
callee1_videocodec = vp8 and callee1_sipzrtpattribute = auto and caller_maxtransmitcallrate > 2163 and callee2_audiocodec = opus-48000 and callee2_sipzrtpattribute = true and caller_encryption = on and caller_audiocodec = auto and callee1_maxresolution = 1080 and callee1_maxreceivecallrate <= 4754;failedconnected;50;10;0.666667;729377;low;sbrm-part;5;f
callee1_videocodec = vp8 and caller_encryption = on;failedfailed;17;4;0.619048;729787;low;sbrm-part;5;f
callee1_audiocodec = silk-8000 and caller_maxpeers = 5;failedconnected;24;4;0.714286;729966;medium;sbrm-part;5;f
callee1_videocodec = vp8 and caller_audiocodec = pcmu-8000;failedfailed;19;5;0.583333;729995;low;sbrm-part;5;f
callee1_videocodec = vp8 and caller_maxtransmitcallrate > 3968 and callee1_encryption = besteffort and callee2_audiocodec = silk-12000 and callee1_maxreceivecallrate > 999;failedconnected;20;1;0.904762;730072;high;sbrm-part;5;f
caller_encryption = besteffort and callee2_audiocodec = amr-wb-16000 and caller_maxtransmitcallrate > 2608;connectedfailed;13;2;0.733333;730137;medium;sbrm-part;5;f
callee1_videocodec = ulpfec and caller_protocol = ippi;failedfailed;20;7;0.481481;730256;low;sbrm-part;5;f
callee2_videocodec = vp8 and callee1_encryption = besteffort and caller_audiocodec = ilbc-8000 and callee1_maxtransmitcallrate > 2703;failedfailed;15;3;0.666667;730399;medium;sbrm-part;5;f
caller_defaultcallrate <= 1339 and caller_encryption = besteffort and callee1_videocodec = red;connectedconnected;21;8;0.448276;730403;low;sbrm-part;5;t
callee1_encryption = off and caller_encryption = on and callee2_videocodec = h264;failedconnected;13;2;0.733333;730497;medium;sbrm-part;5;f
callee1_encryption = on and caller_encryption = off and caller_mtu <= 1137;failedconnected;70;19;0.573034;730602;low;sbrm-part;5;f
caller_encryption = off and callee1_encryption = on and callee2_maxreceivecallrate	 > 393 and callee2_audiocodec = telephone-event-80000;failedconnected;23;3;0.769231;730740;medium;sbrm-part;5;f
caller_encryption = off and callee2_encryption = on and callee1_encryption = on;failedfailed;25;0;1;730768;high;sbrm-part;5;f
caller_encryption = besteffort and caller_protocol = icq;connectedconnected;14;4;0.555556;730974;low;sbrm-part;5;t
caller_encryption = off and callee1_encryption = on and callee2_listenport = on;failedconnected;11;0;1;731019;high;sbrm-part;5;f
callee1_videocodec = vp8 and callee2_videocodec = ulpfec and caller_protocol = googletalk;failedfailed;24;0;1;731292;high;sbrm-part;5;f
caller_defaultcallrate <= 2705 and callee2_encryption = besteffort and callee1_audiocodec = silk-12000 and caller_maxtransmitcallrate <= 5014;connectedconnected;12;1;0.846154;731608;medium;sbrm-part;5;t
caller_defaultcallrate <= 2702 and caller_encryption = besteffort and callee2_videocodec = red and callee1_videocodec = rtx;connectedconnected;36;5;0.756098;731702;medium;sbrm-part;5;t
callee1_videocodec = vp8 and caller_maxpeers = 2 and callee1_protocol = googletalk;failedfailed;23;2;0.84;732298;medium;sbrm-part;5;f
caller_encryption = on and callee2_encryption = off and callee1_encryption = off;failedfailed;25;0;1;732614;high;sbrm-part;5;f
caller_encryption = besteffort and callee1_videocodec = auto and callee2_defaultcallrate <= 196 and caller_mtu <= 961 and callee2_defaultcallrate <= 186 and callee2_maxreceivecallrate	 > 3304;connectedconnected;29;2;0.870968;732720;medium;sbrm-part;5;t
callee2_audiocodec = speex-32000 and caller_audiocodec = ilbc-8000 and callee1_sipzrtpattribute = auto and caller_protocol = irc and callee2_protocol = icq and callee2_maxpeers = 3;connectedconnected;14;5;0.473684;732723;low;sbrm-part;5;t
callee1_videocodec = vp8 and caller_encryption = on and callee2_encryption = off;failedfailed;66;0;1;732937;high;sbrm-part;5;f
callee1_videocodec = vp8 and caller_listenport = off and caller_audiocodec = gsm-8000;failedconnected;15;3;0.666667;732970;medium;sbrm-part;5;f
callee2_videocodec = vp8 and caller_protocol = sip;failedfailed;60;0;1;733009;high;sbrm-part;5;f
caller_audiocodec = speex-32000;failedconnected;17;10;0.259259;733291;low;sbrm-part;5;f
callee1_videocodec = vp8 and callee2_videocodec = ulpfec and caller_protocol = iptel.org;failedfailed;37;0;1;733501;high;sbrm-part;5;f
callee2_videocodec = ulpfec and caller_protocol = googletalk and callee1_videocodec = ulpfec;failedfailed;16;0;1;733702;high;sbrm-part;5;f
callee1_videocodec = vp8 and callee2_transportprotocol = tcp and callee2_encryption = off;failedconnected;20;1;0.904762;733895;high;sbrm-part;5;f
caller_encryption = on and callee2_encryption = off;connectedfailed;36;12;0.5;733924;low;sbrm-part;5;f
callee1_videocodec = vp8 and callee2_videocodec = red and callee2_transportprotocol = tcp;failedconnected;15;1;0.875;733979;high;sbrm-part;5;f
callee1_videocodec = vp8 and callee2_videocodec = rtx and callee2_maxresolution = 1080 and caller_audiocodec = ilbc-8000 and caller_sipzrtpattribute = auto and caller_mtu <= 770;failedconnected;15;0;1;734283;high;sbrm-part;5;f
callee2_videocodec = vp8 and caller_encryption = besteffort and caller_protocol = aim;connectedfailed;31;8;0.589744;734323;low;sbrm-part;5;f
caller_encryption = besteffort and callee2_audiocodec = amr-wb-16000 and caller_maxreceivecallrate > 2291;connectedfailed;21;3;0.75;734663;medium;sbrm-part;5;f
caller_encryption = besteffort and callee2_defaultcallrate <= 3641 and caller_audiocodec = pcmu-8000;connectedfailed;11;4;0.466667;734801;low;sbrm-part;5;f
callee1_videocodec = vp8 and caller_encryption = on and callee2_encryption = off;failedfailed;50;0;1;734998;high;sbrm-part;5;f
callee1_videocodec = vp8 and caller_defaultcallrate <= 383 and caller_encryption = besteffort and caller_transportprotocol  = udp and callee2_audiocodec = speex-32000 and callee2_protocol = googletalk and callee2_videocodec = rtx and callee1_defaultcallrate > 3278;failedconnected;40;2;0.904762;735005;high;sbrm-part;5;f
callee2_videocodec = ulpfec and caller_protocol = googletalk;connectedfailed;16;3;0.684211;735055;medium;sbrm-part;5;f
callee2_videocodec = vp8 and callee1_listenport = on and caller_encryption = besteffort and caller_sipzrtpattribute = true;connectedfailed;19;1;0.9;735501;high;sbrm-part;5;f
callee1_videocodec = vp8 and callee1_audiocodec = auto and callee2_videocodec = auto and callee1_mtu > 740 and callee1_listenport = on and caller_transportprotocol  = auto and callee1_defaultcallrate > 4800 and caller_maxreceivecallrate > 1958;failedconnected;53;6;0.79661;735515;medium;sbrm-part;5;f
callee1_encryption = besteffort and caller_audiocodec = silk-16000 and callee2_encryption = besteffort and caller_maxreceivecallrate > 3546;connectedconnected;13;3;0.625;735520;low;sbrm-part;5;t
callee2_audiocodec = silk-8000 and caller_defaultcallrate > 1189 and callee2_transportprotocol = auto;failedfailed;27;3;0.8;735698;medium;sbrm-part;5;f
callee1_videocodec = vp8 and callee1_listenport = off and caller_mtu > 1173;failedfailed;17;1;0.888889;735725;high;sbrm-part;5;f
callee2_videocodec = vp8 and callee1_encryption = on and callee1_listenport = off and callee1_protocol = sip and callee1_maxtransmitcallrate > 4047 and caller_listenport = off and callee2_transportprotocol = udp and callee2_maxresolution = 240 and callee1_maxpeers = 2 and caller_videocodec = h264 and callee1_mtu <= 614;connectedfailed;25;2;0.851852;736195;high;sbrm-part;5;f
caller_mtu <= 646 and callee2_audiocodec = auto and callee2_listenport = off and callee2_maxreceivecallrate	 <= 5338;connectedconnected;27;4;0.741935;736202;medium;sbrm-part;5;t
caller_encryption = besteffort and caller_defaultcallrate <= 2467 and callee2_listenport = on and callee1_protocol = icq and caller_transportprotocol  = udp and callee1_transportprotocol = udp and callee1_encryption = on;connectedconnected;11;3;0.571429;736379;medium;sbrm-part;5;t
callee1_audiocodec = opus-48000 and caller_transportprotocol  = udp;connectedconnected;12;2;0.714286;736389;medium;sbrm-part;5;t
callee1_videocodec = vp8 and caller_videocodec = auto and callee1_transportprotocol = auto;failedconnected;11;1;0.833333;736505;high;sbrm-part;5;f
caller_audiocodec = silk-16000 and callee1_encryption = besteffort and caller_encryption = on and callee2_maxresolution = 360;connectedfailed;11;2;0.692308;736741;medium;sbrm-part;5;f
callee2_videocodec = vp8 and callee1_encryption = off and caller_encryption = on;failedfailed;14;0;1;736840;high;sbrm-part;5;f
callee1_videocodec = vp8 and caller_defaultcallrate > 2590 and caller_encryption = on and callee2_encryption = off;failedfailed;93;0;1;737487;high;sbrm-part;5;f
caller_encryption = on and callee2_encryption = off and caller_audiocodec = telephone-event-80000;connectedfailed;11;3;0.571429;737832;low;sbrm-part;5;f
callee2_videocodec = ulpfec and caller_protocol = iptel.org;failedfailed;20;6;0.538462;738059;low;sbrm-part;5;f
caller_encryption = off and callee1_encryption = on and callee2_encryption = besteffort;failedconnected;70;19;0.573034;738412;low;sbrm-part;5;f
caller_encryption = besteffort and callee2_audiocodec = auto and callee1_maxtransmitcallrate > 863 and callee2_maxreceivecallrate	 > 3683 and callee1_videocodec = auto and callee2_listenport = off and callee2_protocol = sip and callee1_defaultcallrate <= 3752;connectedconnected;11;4;0.466667;738434;low;sbrm-part;5;t
callee2_videocodec = vp8 and callee1_videocodec = h264 and caller_encryption = besteffort;connectedfailed;23;7;0.533333;738471;low;sbrm-part;5;f
callee1_audiocodec = telephone-event-80000 and caller_audiocodec = opus-48000;failedfailed;14;5;0.473684;738555;low;sbrm-part;5;f
callee1_audiocodec = amr-wb-16000 and callee2_listenport = off and caller_maxtransmitcallrate > 2754;failedconnected;13;0;1;738632;high;sbrm-part;5;f
callee1_videocodec = vp8 and caller_encryption = besteffort and callee1_maxresolution = 720;failedconnected;30;3;0.818182;738737;medium;sbrm-part;5;f
callee1_videocodec = vp8 and caller_protocol = sip;failedfailed;75;0;1;738898;high;sbrm-part;5;f
caller_encryption = on and callee2_encryption = off and callee1_encryption = off;failedfailed;42;0;1;738977;high;sbrm-part;5;f
caller_protocol = sip;failedfailed;174;0;1;739122;high;sbrm-part;5;f
caller_encryption = besteffort and callee2_videocodec = rtx and callee2_audiocodec = silk-12000 and caller_videocodec = ulpfec and callee1_maxpeers = 4 and callee1_maxreceivecallrate <= 3559 and callee1_defaultcallrate <= 4411 and callee2_mtu > 1017;connectedconnected;15;5;0.5;739768;low;sbrm-part;5;t
caller_defaultcallrate > 2746 and callee2_audiocodec = silk-8000 and callee1_maxresolution = 240;failedfailed;17;1;0.888889;739811;high;sbrm-part;5;f
callee1_videocodec = vp8 and caller_videocodec = auto;failedconnected;20;5;0.6;758494;low;sbrm-part;5;f
callee2_videocodec = vp8 and caller_encryption = besteffort and callee2_defaultcallrate <= 5403 and callee1_audiocodec = speex-16000 and callee1_videocodec = auto and caller_listenport = off and callee2_transportprotocol = udp and callee2_maxreceivecallrate	 <= 4652 and caller_transportprotocol  = udp and caller_audiocodec = ilbc-8000 and callee2_maxresolution = 1080 and callee2_protocol = googletalk and callee2_defaultcallrate <= 185 and caller_defaultcallrate > 443;connectedfailed;11;2;0.692308;739911;medium;sbrm-part;5;f
caller_encryption = besteffort and callee2_sipzrtpattribute = auto and caller_defaultcallrate <= 3660 and callee1_maxpeers = 2;connectedconnected;12;7;0.263158;739973;low;sbrm-part;5;t
caller_encryption = off and callee1_encryption = on and caller_protocol = googletalk;failedfailed;11;1;0.833333;740128;high;sbrm-part;5;f
callee1_videocodec = vp8 and caller_defaultcallrate <= 2590 and callee2_audiocodec = silk-12000;failedconnected;26;5;0.677419;740366;medium;sbrm-part;5;f
callee1_videocodec = vp8 and caller_encryption = on and callee2_encryption = off;failedfailed;75;0;1;740502;high;sbrm-part;5;f
callee1_encryption = off and caller_encryption = on;failedconnected;22;6;0.571429;740602;low;sbrm-part;5;f
callee2_videocodec = ulpfec and caller_protocol = googletalk;connectedfailed;26;7;0.575758;741242;low;sbrm-part;5;f
callee1_encryption = on and caller_encryption = off and callee2_transportprotocol = tls;failedconnected;15;0;1;741267;high;sbrm-part;5;f
caller_encryption = besteffort and callee1_audiocodec = speex-32000 and caller_defaultcallrate <= 2793;connectedconnected;13;3;0.625;741280;medium;sbrm-part;5;t
caller_encryption = besteffort and callee2_videocodec = rtx and caller_audiocodec = pcmu-8000 and callee1_maxreceivecallrate <= 4355 and callee2_maxtransmitcallrate <= 5134;failedconnected;12;1;0.846154;741424;high;sbrm-part;5;f
caller_encryption = besteffort and callee2_audiocodec = silk-8000;connectedfailed;15;2;0.764706;741467;medium;sbrm-part;5;f
caller_encryption = off and callee2_encryption = on and callee1_encryption = on;failedfailed;37;0;1;741776;high;sbrm-part;5;f
caller_defaultcallrate <= 2705 and callee2_videocodec = rtx and callee2_maxresolution = 1080 and callee2_maxpeers = 4;connectedconnected;16;2;0.777778;741957;medium;sbrm-part;5;t
callee2_videocodec = vp8 and callee1_encryption = off and caller_encryption = on;failedfailed;17;0;1;742733;high;sbrm-part;5;f
callee1_videocodec = vp8 and caller_mtu <= 1179 and callee2_encryption = off and caller_videocodec = h264 and callee2_maxresolution = 240 and caller_encryption = besteffort;failedconnected;30;8;0.578947;742783;low;sbrm-part;5;f
callee1_videocodec = vp8 and caller_protocol = sip;failedfailed;57;0;1;742893;high;sbrm-part;5;f
callee1_videocodec = vp8 and callee2_audiocodec = silk-12000 and callee2_videocodec = h264 and callee1_sipzrtpattribute = auto and caller_maxreceivecallrate > 3238 and callee1_protocol = aim and callee2_protocol = irc;failedconnected;11;4;0.466667;743154;low;sbrm-part;5;f
callee1_videocodec = vp8 and callee1_protocol = icq and callee2_sipzrtpattribute = auto and caller_maxpeers = 4 and callee1_sipzrtpattribute = false;failedconnected;20;3;0.73913;743262;medium;sbrm-part;5;f
callee1_videocodec = vp8 and caller_audiocodec = opus-48000;failedfailed;18;5;0.565217;743595;low;sbrm-part;5;f
callee1_videocodec = vp8 and caller_protocol = sip;failedfailed;29;0;1;743833;high;sbrm-part;5;f
callee1_encryption = on and caller_encryption = off;failedconnected;19;8;0.407407;743899;low;sbrm-part;5;f
callee2_audiocodec = amr-wb-16000 and caller_listenport = on and callee1_maxreceivecallrate <= 5344;connectedfailed;13;0;1;744280;high;sbrm-part;5;f
caller_encryption = on and callee2_encryption = off and callee1_encryption = off;failedfailed;47;0;1;744374;high;sbrm-part;5;f
callee2_videocodec = ulpfec and caller_protocol = iptel.org and callee1_mtu <= 1361 and callee1_videocodec = ulpfec;failedfailed;12;0;1;744459;high;sbrm-part;5;f
caller_encryption = on and callee2_encryption = off and callee1_audiocodec = speex-16000;connectedfailed;13;2;0.733333;744465;medium;sbrm-part;5;f
caller_encryption = besteffort and callee1_audiocodec = telephone-event-80000 and caller_protocol = iptel.org and callee1_listenport = off and caller_maxresolution = 240 and callee2_videocodec = auto and caller_audiocodec = pcmu-8000 and callee2_protocol = iptel.org;failedconnected;12;0;1;744474;high;sbrm-part;5;f
caller_encryption = besteffort and caller_protocol = googletalk and callee1_videocodec = ulpfec;failedconnected;19;5;0.583333;744791;low;sbrm-part;5;f
callee1_encryption = on and caller_encryption = off and caller_protocol = icq;failedconnected;12;2;0.714286;744821;medium;sbrm-part;5;f
callee2_videocodec = vp8 and caller_protocol = irc and callee1_maxtransmitcallrate <= 2973;connectedfailed;24;2;0.846154;745021;medium;sbrm-part;5;f
caller_encryption = off and callee1_encryption = on and callee2_encryption = on;failedfailed;38;0;1;745232;high;sbrm-part;5;f
callee2_videocodec = vp8 and callee1_videocodec = ulpfec and caller_protocol = googletalk;failedfailed;37;0;1;745789;high;sbrm-part;5;f
callee1_encryption = off and caller_encryption = on and callee2_encryption = off;failedfailed;23;0;1;745877;high;sbrm-part;5;f
caller_defaultcallrate <= 2705 and callee2_audiocodec = silk-16000 and callee1_encryption = besteffort;connectedconnected;11;3;0.571429;745950;medium;sbrm-part;5;t
caller_defaultcallrate > 2705 and callee2_audiocodec = silk-8000;failedfailed;15;6;0.428571;746027;low;sbrm-part;5;f
caller_encryption = besteffort and caller_defaultcallrate <= 1505 and callee1_audiocodec = speex-32000;connectedconnected;16;3;0.684211;746043;medium;sbrm-part;5;t
caller_encryption = besteffort and callee2_defaultcallrate <= 3641 and callee2_videocodec = auto and callee2_audiocodec = speex-32000 and caller_listenport = off and callee2_maxreceivecallrate	 <= 3549 and callee1_encryption = besteffort and callee1_maxreceivecallrate <= 2515;connectedconnected;11;3;0.571429;746536;medium;sbrm-part;5;t
callee2_videocodec = vp8 and callee2_protocol = aim and callee2_transportprotocol = udp;failedfailed;11;0;1;746875;high;sbrm-part;5;f
caller_encryption = besteffort and callee2_videocodec = rtx and callee2_audiocodec = speex-32000 and callee2_transportprotocol = udp and callee1_listenport = off;connectedconnected;14;3;0.647059;747186;medium;sbrm-part;5;t
caller_encryption = on and callee2_encryption = off and caller_defaultcallrate > 5090 and callee2_mtu <= 1042;failedfailed;38;0;1;747440;high;sbrm-part;5;f
caller_audiocodec = opus-48000 and callee2_encryption = off;connectedfailed;11;3;0.571429;747666;low;sbrm-part;5;f
caller_defaultcallrate > 2705 and callee1_audiocodec = amr-wb-16000 and callee2_defaultcallrate > 724;failedfailed;31;8;0.589744;747670;low;sbrm-part;5;f
callee2_videocodec = auto and caller_maxresolution = 360;connectedconnected;15;6;0.428571;747704;low;sbrm-part;5;t
caller_encryption = on and callee2_encryption = off and callee2_mtu > 1342;connectedfailed;11;0;1;747891;high;sbrm-part;5;f
callee2_videocodec = vp8 and caller_protocol = sip;failedfailed;99;0;1;747949;high;sbrm-part;5;f
callee2_videocodec = vp8 and caller_encryption = besteffort and caller_audiocodec = opus-48000;connectedfailed;11;2;0.692308;748457;medium;sbrm-part;5;f
callee1_videocodec = vp8 and caller_maxresolution = 720;failedfailed;31;9;0.55;786943;low;sbrm-part;5;f
callee2_videocodec = vp8 and caller_encryption = off and callee1_encryption = on;failedfailed;43;0;1;749672;high;sbrm-part;5;f
caller_audiocodec = g722-16000;connectedconnected;12;5;0.411765;749352;low;sbrm-part;5;t
callee2_videocodec = vp8 and callee2_audiocodec = silk-12000 and callee2_maxresolution = 480 and caller_encryption = besteffort and callee1_protocol = googletalk and callee2_sipzrtpattribute = true;connectedfailed;11;0;1;749355;high;sbrm-part;5;f
caller_defaultcallrate <= 1339 and callee2_audiocodec = amr-wb-16000;connectedfailed;20;9;0.37931;749433;low;sbrm-part;5;f
callee2_videocodec = vp8 and caller_encryption = off and callee1_encryption = on;failedfailed;13;0;1;749538;high;sbrm-part;5;f
caller_encryption = besteffort and callee1_protocol = sip;connectedconnected;14;6;0.4;749690;low;sbrm-part;5;t
caller_defaultcallrate <= 1221 and caller_encryption = besteffort and callee2_maxreceivecallrate	 <= 668 and callee2_transportprotocol = tls and callee1_defaultcallrate > 371;connectedfailed;13;3;0.625;749737;low;sbrm-part;5;f
caller_defaultcallrate <= 1339 and callee2_videocodec = rtx and caller_maxpeers = 3;connectedconnected;11;4;0.466667;750077;low;sbrm-part;5;t
callee2_videocodec = vp8 and caller_encryption = on and callee1_encryption = off;failedfailed;61;0;1;750131;high;sbrm-part;5;f
callee1_videocodec = vp8 and caller_protocol = sip;failedfailed;72;0;1;750341;high;sbrm-part;5;f
caller_defaultcallrate <= 1339 and callee2_videocodec = rtx and caller_audiocodec = ilbc-8000 and caller_transportprotocol  = udp and callee1_protocol = icq and callee2_protocol = googletalk and caller_maxpeers = 2 and callee2_maxpeers = 2 and callee1_maxreceivecallrate > 1405;connectedconnected;11;1;0.833333;750465;high;sbrm-part;5;t
caller_encryption = besteffort and callee2_videocodec = rtx and callee2_audiocodec = speex-32000 and callee2_maxpeers = 2 and callee1_audiocodec = speex-16000;connectedconnected;13;4;0.529412;751074;low;sbrm-part;5;t
callee1_videocodec = vp8 and caller_sipzrtpattribute = false and caller_maxresolution = 240 and callee1_listenport = on and callee2_maxreceivecallrate	 > 128;failedconnected;15;3;0.666667;751089;medium;sbrm-part;5;f
caller_defaultcallrate > 2705 and callee2_audiocodec = amr-wb-16000;failedfailed;31;14;0.377778;751329;low;sbrm-part;5;f
caller_encryption = besteffort and callee2_videocodec = auto and callee2_audiocodec = speex-32000 and callee1_maxreceivecallrate > 1244;connectedconnected;14;2;0.75;751473;medium;sbrm-part;5;t
caller_encryption = besteffort and callee2_videocodec = ulpfec and caller_protocol = ippi;connectedfailed;17;5;0.545455;751492;low;sbrm-part;5;f
callee1_videocodec = vp8 and caller_videocodec = vp8 and caller_defaultcallrate <= 2792;failedconnected;14;6;0.4;751547;low;sbrm-part;5;f
callee1_videocodec = vp8 and caller_videocodec = auto and caller_mtu <= 815;failedconnected;13;0;1;751652;high;sbrm-part;5;f
callee2_videocodec = vp8 and callee2_maxpeers = 3 and caller_transportprotocol  = udp;connectedfailed;21;3;0.75;752213;medium;sbrm-part;5;f
callee1_audiocodec = silk-8000 and caller_maxpeers = 3;failedconnected;24;6;0.6;752307;low;sbrm-part;5;f
callee2_videocodec = vp8 and caller_encryption = besteffort and callee1_audiocodec = silk-8000;failedfailed;14;0;1;752389;high;sbrm-part;5;f
callee1_videocodec = vp8 and caller_videocodec = vp8 and callee1_sipzrtpattribute = false;failedfailed;12;1;0.846154;752733;high;sbrm-part;5;f
caller_encryption = off;failedfailed;21;10;0.354839;753049;low;sbrm-part;5;f
callee1_videocodec = vp8 and caller_listenport = off and callee1_protocol = aim;failedconnected;11;3;0.571429;753110;low;sbrm-part;5;f
caller_encryption = besteffort and callee1_protocol = aim;connectedconnected;30;16;0.304348;753112;low;sbrm-part;5;t
callee1_audiocodec = silk-8000 and caller_audiocodec = pcmu-8000;failedconnected;11;4;0.466667;753324;low;sbrm-part;5;f
callee2_videocodec = ulpfec and caller_protocol = googletalk;connectedfailed;18;7;0.44;753515;low;sbrm-part;5;f
caller_defaultcallrate <= 1200 and callee1_videocodec = ulpfec and caller_protocol = googletalk;failedconnected;14;3;0.647059;753639;medium;sbrm-part;5;f
callee2_videocodec = vp8 and caller_encryption = besteffort and caller_audiocodec = ilbc-8000 and callee2_maxreceivecallrate	 <= 3674 and caller_maxpeers = 2 and callee2_mtu <= 1036 and callee2_encryption = off and callee2_audiocodec = silk-12000;connectedfailed;11;0;1;754152;high;sbrm-part;5;f
callee1_encryption = off and caller_encryption = on;failedconnected;33;6;0.692308;754287;medium;sbrm-part;5;f
callee1_videocodec = vp8 and callee2_audiocodec = auto and callee2_maxtransmitcallrate <= 5058 and callee1_sipzrtpattribute = auto and callee1_transportprotocol = udp and callee1_maxresolution = 360;failedconnected;17;1;0.888889;754359;high;sbrm-part;5;f
caller_encryption = besteffort and callee2_videocodec = ulpfec and caller_protocol = ippi and callee2_listenport = off;connectedfailed;13;2;0.733333;754514;medium;sbrm-part;5;f
callee1_videocodec = vp8 and caller_defaultcallrate <= 1182 and callee2_maxreceivecallrate	 > 583 and callee2_audiocodec = silk-16000;failedconnected;11;2;0.692308;754685;medium;sbrm-part;5;f
caller_audiocodec = amr-wb-16000;connectedfailed;27;15;0.285714;754804;low;sbrm-part;5;f
caller_defaultcallrate > 2750 and callee2_audiocodec = silk-8000 and callee1_sipzrtpattribute = false;failedfailed;13;0;1;754989;high;sbrm-part;5;f
callee2_videocodec = vp8 and caller_encryption = besteffort and callee1_videocodec = red;connectedfailed;46;9;0.672727;755025;low;sbrm-part;5;f
caller_defaultcallrate <= 2702 and caller_encryption = besteffort and callee1_audiocodec = silk-8000;failedconnected;13;4;0.529412;755157;low;sbrm-part;5;f
caller_encryption = off and callee1_encryption = on and callee2_encryption = on;failedfailed;27;0;1;755185;high;sbrm-part;5;f
callee2_videocodec = vp8 and callee1_videocodec = ulpfec and caller_protocol = googletalk;failedfailed;13;0;1;755410;high;sbrm-part;5;f
callee1_videocodec = vp8 and callee2_defaultcallrate <= 290 and callee2_defaultcallrate > 181 and caller_videocodec = ulpfec and callee2_maxreceivecallrate	 > 2300;failedconnected;16;0;1;755639;high;sbrm-part;5;f
callee1_videocodec = vp8 and caller_audiocodec = speex-32000;failedconnected;12;3;0.6;756047;medium;sbrm-part;5;f
caller_encryption = besteffort and callee1_protocol = icq and callee1_maxpeers = 2 and callee2_maxresolution = 1080 and caller_transportprotocol  = udp and callee2_listenport = on and caller_maxreceivecallrate <= 1100;failedconnected;11;1;0.833333;756502;high;sbrm-part;5;f
callee2_videocodec = vp8 and caller_audiocodec = gsm-8000 and callee1_listenport = on and callee1_maxreceivecallrate > 664;connectedfailed;11;2;0.692308;756503;medium;sbrm-part;5;f
caller_encryption = on and callee2_encryption = off and callee1_encryption = off;failedfailed;39;0;1;756520;high;sbrm-part;5;f
callee1_videocodec = vp8 and callee1_encryption = besteffort and caller_defaultcallrate <= 2736;failedconnected;19;1;0.9;757071;high;sbrm-part;5;f
callee2_videocodec = vp8 and caller_protocol = sip;failedfailed;74;0;1;757336;high;sbrm-part;5;f
callee2_videocodec = vp8 and caller_protocol = sip;failedfailed;44;0;1;757473;high;sbrm-part;5;f
caller_encryption = besteffort and caller_defaultcallrate <= 2825 and caller_maxreceivecallrate <= 637;connectedfailed;18;5;0.565217;758344;low;sbrm-part;5;f
callee1_videocodec = vp8 and caller_sipzrtpattribute = auto;failedconnected;15;3;0.666667;758671;medium;sbrm-part;5;f
callee1_videocodec = vp8 and callee2_videocodec = ulpfec and caller_protocol = googletalk;failedfailed;14;0;1;758882;high;sbrm-part;5;f
callee1_videocodec = vp8 and caller_listenport = off and callee1_audiocodec = silk-8000;failedconnected;12;2;0.714286;758884;medium;sbrm-part;5;f
callee1_videocodec = vp8 and callee2_defaultcallrate <= 479 and callee1_transportprotocol = udp and caller_maxreceivecallrate > 693 and callee2_audiocodec = speex-32000 and callee2_maxreceivecallrate	 > 2957;failedconnected;44;5;0.795918;758898;medium;sbrm-part;5;f
callee1_videocodec = vp8 and callee2_encryption = besteffort and caller_maxresolution = 240 and callee1_audiocodec = pcma-8000 and callee1_maxpeers = 5;failedconnected;14;1;0.866667;758982;medium;sbrm-part;5;f
callee2_videocodec = vp8 and caller_audiocodec = auto and callee2_transportprotocol = tcp and callee2_defaultcallrate > 361;connectedfailed;13;2;0.733333;759130;medium;sbrm-part;5;f
caller_defaultcallrate > 3405 and callee1_audiocodec = silk-24000;failedfailed;17;7;0.416667;759358;low;sbrm-part;5;f
callee1_videocodec = vp8 and caller_videocodec = ulpfec and callee2_audiocodec = silk-12000 and callee2_maxresolution = 1080;failedconnected;22;3;0.76;759496;medium;sbrm-part;5;f
callee1_videocodec = vp8 and caller_defaultcallrate <= 1182 and callee2_maxreceivecallrate	 > 583 and callee2_audiocodec = speex-32000 and callee2_videocodec = auto;failedconnected;11;0;1;759824;high;sbrm-part;5;f
callee1_videocodec = vp8 and callee2_encryption = on and caller_encryption = off;failedfailed;38;0;1;759916;high;sbrm-part;5;f
callee1_videocodec = ulpfec and caller_protocol = ippi;failedfailed;33;10;0.534884;760264;low;sbrm-part;5;f
callee2_videocodec = vp8 and callee2_sipzrtpattribute = true and caller_maxtransmitcallrate > 791 and caller_listenport = off and callee2_audiocodec = silk-12000 and caller_transportprotocol  = auto and callee1_videocodec = auto and callee2_protocol = googletalk and callee1_audiocodec = speex-32000;connectedfailed;12;3;0.6;760271;low;sbrm-part;5;f
callee1_videocodec = vp8 and caller_encryption = on;failedconnected;11;1;0.833333;760346;high;sbrm-part;5;f
callee1_videocodec = vp8 and callee2_videocodec = ulpfec and caller_protocol = ippi;failedfailed;19;0;1;761052;high;sbrm-part;5;f
callee1_videocodec = vp8 and caller_encryption = besteffort and callee1_audiocodec = speex-8000 and callee1_maxtransmitcallrate <= 4321;failedconnected;13;0;1;761159;high;sbrm-part;5;f
callee1_videocodec = vp8 and callee2_encryption = on and caller_encryption = off;failedfailed;21;0;1;761318;high;sbrm-part;5;f
caller_encryption = besteffort and caller_audiocodec = silk-16000;connectedconnected;12;5;0.411765;761547;low;sbrm-part;5;t
callee1_videocodec = vp8 and caller_listenport = off and callee1_protocol = irc;failedconnected;16;3;0.684211;761740;medium;sbrm-part;5;f
callee2_videocodec = ulpfec and caller_protocol = ippi;failedfailed;32;16;0.333333;762163;low;sbrm-part;5;f
callee1_videocodec = ulpfec and caller_protocol = iptel.org and caller_encryption = on;failedfailed;16;2;0.777778;762422;medium;sbrm-part;5;f
callee1_videocodec = vp8 and callee2_maxpeers = 3 and caller_listenport = on;failedfailed;14;0;1;762736;high;sbrm-part;5;f
callee2_videocodec = vp8 and caller_mtu <= 772 and callee2_encryption = off;connectedfailed;15;0;1;762821;high;sbrm-part;5;f
callee1_videocodec = vp8 and caller_audiocodec = gsm-8000;failedconnected;13;1;0.857143;763158;medium;sbrm-part;5;f
callee1_videocodec = vp8 and callee2_audiocodec = speex-32000 and callee1_sipzrtpattribute = auto and caller_transportprotocol  = tls and callee2_protocol = sip and callee2_sipzrtpattribute = auto and callee1_encryption = on;failedconnected;15;4;0.578947;763301;low;sbrm-part;5;f
callee1_videocodec = vp8 and callee2_encryption = off and callee2_transportprotocol = tcp and callee1_sipzrtpattribute = auto;failedconnected;17;2;0.789474;763362;medium;sbrm-part;5;f
callee1_videocodec = vp8 and caller_videocodec = ulpfec and callee2_audiocodec = speex-32000 and callee1_maxpeers = 2 and callee1_mtu > 941 and callee2_protocol = googletalk and callee1_maxtransmitcallrate <= 3338;failedconnected;15;3;0.666667;763466;medium;sbrm-part;5;f
callee2_videocodec = vp8 and caller_encryption = off and callee1_encryption = on;failedfailed;21;0;1;763556;high;sbrm-part;5;f
caller_encryption = on and callee2_encryption = off and caller_sipzrtpattribute = true;failedfailed;21;4;0.68;763754;medium;sbrm-part;5;f
callee1_videocodec = ulpfec and caller_protocol = ippi;failedfailed;15;6;0.428571;763810;low;sbrm-part;5;f
callee1_videocodec = vp8 and caller_defaultcallrate <= 383 and callee2_encryption = off and caller_encryption = besteffort and caller_listenport = off and caller_maxresolution = 720 and callee2_audiocodec = silk-12000;failedconnected;22;0;1;763904;high;sbrm-part;5;f
callee1_videocodec = vp8 and callee2_encryption = off and callee2_maxreceivecallrate	 > 2948 and caller_mtu <= 925;failedconnected;25;0;1;764070;high;sbrm-part;5;f
callee1_videocodec = vp8 and callee2_defaultcallrate <= 479 and callee1_transportprotocol = udp and caller_encryption = besteffort and callee1_audiocodec = gsm-8000;failedconnected;15;1;0.875;764265;high;sbrm-part;5;f
caller_encryption = on and callee2_encryption = off and callee1_encryption = off;failedfailed;22;0;1;764487;high;sbrm-part;5;f
caller_encryption = besteffort and callee2_audiocodec = silk-8000 and callee2_listenport = on;connectedfailed;16;4;0.6;764543;low;sbrm-part;5;f
callee1_videocodec = vp8 and callee2_listenport = off and caller_maxreceivecallrate > 5359;failedfailed;12;0;1;764567;high;sbrm-part;5;f
callee1_encryption = on and caller_encryption = off and callee2_transportprotocol = tls;failedconnected;21;1;0.909091;764762;high;sbrm-part;5;f
callee2_videocodec = vp8 and caller_audiocodec = opus-48000 and callee1_listenport = on;failedfailed;12;3;0.6;764837;medium;sbrm-part;5;f
callee1_videocodec = vp8 and callee2_audiocodec = ilbc-8000 and caller_defaultcallrate <= 4386 and callee2_listenport = on;failedconnected;59;6;0.815385;764862;medium;sbrm-part;5;f
caller_audiocodec = speex-16000;connectedfailed;19;11;0.266667;764909;low;sbrm-part;5;f
callee2_videocodec = vp8 and caller_maxresolution = 480;connectedfailed;15;3;0.666667;764915;medium;sbrm-part;5;f
callee2_videocodec = vp8 and callee1_listenport = on and caller_protocol = googletalk and caller_encryption = besteffort and callee2_encryption = off and caller_maxtransmitcallrate > 3679 and caller_mtu <= 1310;connectedfailed;18;0;1;765513;high;sbrm-part;5;f
callee2_videocodec = vp8 and caller_encryption = besteffort and callee1_audiocodec = speex-32000;connectedfailed;11;3;0.571429;765816;medium;sbrm-part;5;f
callee1_videocodec = vp8 and caller_videocodec = ulpfec and callee1_audiocodec = opus-48000 and callee2_encryption = besteffort and caller_encryption = on;failedconnected;13;0;1;765897;high;sbrm-part;5;f
callee1_videocodec = vp8 and callee2_audiocodec = auto and caller_maxpeers = 5;failedfailed;14;4;0.555556;766022;low;sbrm-part;5;f
callee2_videocodec = vp8 and callee1_videocodec = ulpfec and caller_protocol = iptel.org;failedfailed;14;0;1;766416;high;sbrm-part;5;f
caller_audiocodec = silk-24000;connectedfailed;12;6;0.333333;766463;low;sbrm-part;5;f
caller_defaultcallrate <= 2705 and callee2_videocodec = rtx and callee2_audiocodec = silk-16000 and callee1_videocodec = auto and caller_defaultcallrate <= 2296;connectedconnected;20;3;0.73913;766547;medium;sbrm-part;5;t
callee1_encryption = on and caller_encryption = off and callee2_maxreceivecallrate	 > 393 and callee2_videocodec = red;failedconnected;15;1;0.875;766605;high;sbrm-part;5;f
callee1_videocodec = vp8 and caller_encryption = on and caller_defaultcallrate <= 2906;failedconnected;48;9;0.684211;766786;low;sbrm-part;5;f
callee2_videocodec = vp8 and caller_audiocodec = ilbc-8000 and callee1_encryption = besteffort and callee1_maxreceivecallrate > 667 and callee2_protocol = googletalk and caller_transportprotocol  = udp and callee2_audiocodec = silk-12000 and caller_videocodec = ulpfec and callee1_mtu > 998;connectedfailed;18;4;0.636364;766796;medium;sbrm-part;5;f
callee1_videocodec = vp8 and callee2_audiocodec = silk-12000 and caller_encryption = besteffort;failedfailed;11;2;0.692308;766802;medium;sbrm-part;5;f
callee2_videocodec = vp8 and callee1_audiocodec = pcma-8000 and caller_transportprotocol  = tls and callee2_audiocodec = speex-32000 and callee2_sipzrtpattribute = true and callee2_encryption = on and callee2_protocol = sip and callee1_transportprotocol = auto and callee1_sipzrtpattribute = false and callee1_maxpeers = 5;connectedfailed;11;3;0.571429;767446;low;sbrm-part;5;f
callee2_videocodec = ulpfec and caller_protocol = ippi;failedfailed;31;15;0.347826;767527;low;sbrm-part;5;f
callee2_videocodec = vp8 and callee1_audiocodec = pcma-8000 and callee1_videocodec = rtx and caller_transportprotocol  = tls and callee1_transportprotocol = tls and caller_maxresolution = 720 and callee2_sipzrtpattribute = true and callee1_maxpeers = 3 and callee2_listenport = on;connectedfailed;11;1;0.833333;767621;medium;sbrm-part;5;f
callee1_videocodec = vp8 and caller_maxpeers = 2;failedfailed;14;3;0.647059;767795;medium;sbrm-part;5;f
callee1_videocodec = vp8 and caller_audiocodec = amr-wb-16000;failedfailed;13;3;0.625;767827;low;sbrm-part;5;f
caller_encryption = besteffort and callee1_protocol = sip;connectedconnected;29;17;0.26087;768622;low;sbrm-part;5;t
callee1_videocodec = vp8 and caller_mtu <= 1099 and callee2_maxpeers = 5;failedconnected;26;8;0.529412;768775;low;sbrm-part;5;f
callee1_audiocodec = auto and caller_sipzrtpattribute = auto;failedconnected;12;3;0.6;769017;medium;sbrm-part;5;f
callee2_videocodec = vp8 and caller_protocol = sip;failedfailed;46;0;1;769107;high;sbrm-part;5;f
callee2_videocodec = vp8 and callee2_audiocodec = speex-8000 and caller_listenport = off;failedfailed;14;0;1;769118;high;sbrm-part;5;f
caller_encryption = on and callee1_encryption = off and caller_protocol = aim;failedconnected;14;1;0.866667;769702;high;sbrm-part;5;f
callee1_videocodec = vp8 and callee2_maxpeers = 4 and callee2_audiocodec = silk-12000 and caller_protocol = googletalk and callee2_videocodec = h264 and callee1_maxtransmitcallrate > 2529 and caller_listenport = off and callee2_protocol = googletalk and callee1_protocol = aim;failedconnected;14;1;0.866667;769925;high;sbrm-part;5;f
callee2_audiocodec = auto and caller_audiocodec = auto and callee1_maxtransmitcallrate > 2200;connectedfailed;12;3;0.6;770642;medium;sbrm-part;5;f
caller_defaultcallrate > 3923 and callee1_mtu <= 636;failedconnected;15;4;0.578947;770676;low;sbrm-part;5;f
callee1_videocodec = vp8 and callee2_defaultcallrate <= 436 and callee2_videocodec = rtx and caller_protocol = googletalk and callee2_protocol = googletalk and caller_encryption = besteffort and callee2_encryption = off and caller_maxresolution = 720 and callee1_sipzrtpattribute = auto and callee2_maxtransmitcallrate <= 4140;failedconnected;32;0;1;770772;high;sbrm-part;5;f
callee2_videocodec = vp8 and callee1_listenport = off and callee1_audiocodec = auto and caller_encryption = on;failedfailed;12;3;0.6;770781;medium;sbrm-part;5;f
callee1_videocodec = vp8 and caller_defaultcallrate <= 2682 and callee1_sipzrtpattribute = auto and callee2_audiocodec = speex-8000;failedconnected;121;13;0.80597;771165;low;sbrm-part;5;f
callee1_encryption = off and caller_encryption = on and caller_protocol = aim;failedconnected;12;1;0.846154;771414;high;sbrm-part;5;f
callee1_encryption = off and caller_encryption = on and callee2_maxresolution = 480;failedconnected;14;1;0.866667;771431;high;sbrm-part;5;f
callee1_videocodec = vp8 and callee2_maxresolution = 1080 and caller_maxpeers = 4;failedfailed;13;4;0.529412;771538;low;sbrm-part;5;f
callee2_videocodec = vp8 and caller_protocol = iptel.org and caller_defaultcallrate <= 1600 and caller_maxtransmitcallrate > 857 and callee2_sipzrtpattribute = false;connectedfailed;45;1;0.956522;771557;high;sbrm-part;5;f
caller_encryption = besteffort and callee1_audiocodec = silk-8000 and caller_defaultcallrate <= 4799;failedconnected;11;1;0.833333;772011;medium;sbrm-part;5;f
callee2_videocodec = vp8 and caller_encryption = besteffort and callee2_audiocodec = ilbc-8000 and callee2_listenport = off and callee2_protocol = ippi;connectedfailed;26;2;0.857143;772255;high;sbrm-part;5;f
caller_encryption = besteffort and callee2_defaultcallrate > 5384 and callee2_audiocodec = speex-32000 and callee1_audiocodec = telephone-event-80000 and caller_protocol = iptel.org and caller_maxresolution = 240 and callee2_videocodec = auto and callee1_transportprotocol = udp and callee1_maxreceivecallrate <= 579 and callee2_protocol = iptel.org and callee1_defaultcallrate > 4044;failedfailed;11;2;0.692308;772837;medium;sbrm-part;5;f
callee2_videocodec = vp8 and caller_audiocodec = ilbc-8000 and callee1_listenport = on;failedfailed;22;5;0.62963;773099;low;sbrm-part;5;f
callee2_videocodec = ulpfec and caller_protocol = ippi and callee2_maxreceivecallrate	 > 1688;failedfailed;13;2;0.733333;773295;medium;sbrm-part;5;f
caller_audiocodec = pcmu-8000;connectedfailed;11;4;0.466667;773335;low;sbrm-part;5;f
callee1_videocodec = vp8 and caller_protocol = sip;failedfailed;67;0;1;773858;high;sbrm-part;5;f
callee2_videocodec = ulpfec and caller_protocol = iptel.org and callee1_mtu <= 1361;failedfailed;27;6;0.636364;774026;medium;sbrm-part;5;f
callee1_videocodec = vp8 and caller_defaultcallrate <= 2682 and callee2_audiocodec = telephone-event-80000 and caller_maxtransmitcallrate > 2384 and callee2_listenport = off;failedconnected;19;0;1;774027;high;sbrm-part;5;f
callee2_videocodec = vp8 and caller_encryption = off and callee1_encryption = on;failedfailed;26;0;1;774131;high;sbrm-part;5;f
caller_defaultcallrate > 3963 and callee1_audiocodec = silk-8000;failedfailed;15;5;0.5;774540;low;sbrm-part;5;f
callee1_videocodec = vp8 and caller_sipzrtpattribute = auto;failedconnected;23;7;0.533333;774582;low;sbrm-part;5;f
callee1_videocodec = vp8 and callee2_encryption = on and caller_encryption = off;failedfailed;39;0;1;774626;high;sbrm-part;5;f
callee1_videocodec = ulpfec and caller_protocol = googletalk;failedfailed;13;5;0.444444;775195;low;sbrm-part;5;f
caller_encryption = besteffort and caller_audiocodec = gsm-8000 and caller_mtu <= 1018;connectedfailed;14;5;0.473684;775405;low;sbrm-part;5;f
callee1_videocodec = vp8 and callee2_encryption = besteffort and caller_audiocodec = silk-24000;failedconnected;12;1;0.846154;775584;medium;sbrm-part;5;f
callee2_videocodec = vp8 and callee1_videocodec = ulpfec and caller_protocol = googletalk;failedfailed;18;0;1;775670;high;sbrm-part;5;f
callee2_videocodec = ulpfec and caller_protocol = iptel.org and callee1_mtu <= 1355;failedfailed;22;5;0.62963;775737;low;sbrm-part;5;f
callee1_audiocodec = speex-32000 and caller_audiocodec = ilbc-8000;connectedconnected;17;5;0.545455;776146;low;sbrm-part;5;t
callee1_videocodec = vp8 and callee1_audiocodec = silk-12000 and callee2_encryption = besteffort and caller_videocodec = red and caller_listenport = off and callee1_transportprotocol = auto and callee2_maxreceivecallrate	 > 807;failedconnected;12;1;0.846154;776205;medium;sbrm-part;5;f
caller_audiocodec = pcma-8000;failedconnected;22;13;0.257143;776535;low;sbrm-part;5;f
callee1_videocodec = vp8 and caller_protocol = googletalk and caller_defaultcallrate <= 2600 and caller_encryption = besteffort and callee1_encryption = on;failedconnected;51;9;0.7;776618;medium;sbrm-part;5;f
caller_encryption = on and callee2_encryption = off and callee1_encryption = off;failedfailed;37;0;1;776886;high;sbrm-part;5;f
callee2_videocodec = vp8 and caller_encryption = on and callee1_encryption = off;failedfailed;20;0;1;776972;high;sbrm-part;5;f
caller_defaultcallrate > 2702 and callee1_audiocodec = amr-wb-16000 and callee2_audiocodec = silk-16000 and callee1_encryption = on and caller_mtu > 928 and caller_encryption = on;failedfailed;11;1;0.833333;777439;medium;sbrm-part;5;f
callee1_videocodec = vp8 and caller_mtu <= 886 and callee2_audiocodec = auto and callee2_encryption = off and caller_protocol = icq and callee2_maxreceivecallrate	 > 688;failedconnected;36;1;0.945946;777497;high;sbrm-part;5;f
callee2_videocodec = ulpfec and caller_protocol = iptel.org and callee1_mtu <= 1361;failedfailed;28;5;0.69697;777578;medium;sbrm-part;5;f
callee1_encryption = on and caller_encryption = off and caller_videocodec = h264;failedconnected;13;4;0.529412;777856;low;sbrm-part;5;f
callee2_videocodec = vp8 and callee1_videocodec = ulpfec and caller_protocol = googletalk;failedfailed;15;0;1;778002;high;sbrm-part;5;f
callee2_videocodec = vp8 and caller_videocodec = ulpfec;failedfailed;13;2;0.733333;778038;medium;sbrm-part;5;f
callee1_videocodec = vp8 and callee2_maxpeers = 4 and caller_defaultcallrate <= 1067;failedconnected;15;0;1;778061;high;sbrm-part;5;f
callee2_audiocodec = silk-8000 and callee1_transportprotocol = tls;connectedfailed;12;1;0.846154;778080;high;sbrm-part;5;f
callee1_videocodec = vp8 and caller_mtu > 1205;failedfailed;31;7;0.631579;778106;low;sbrm-part;5;f
callee1_videocodec = vp8 and callee2_defaultcallrate <= 473 and callee1_mtu > 679 and caller_transportprotocol  = udp and callee1_mtu <= 1328 and caller_maxresolution = 720 and callee2_sipzrtpattribute = auto and caller_videocodec = ulpfec and callee1_transportprotocol = udp and callee1_maxreceivecallrate > 1783;failedconnected;24;1;0.92;778193;high;sbrm-part;5;f
callee1_videocodec = vp8 and caller_encryption = on and callee2_encryption = off;failedfailed;24;0;1;778351;high;sbrm-part;5;f
caller_encryption = on and callee1_encryption = off and caller_protocol = aim;failedconnected;16;3;0.684211;778450;medium;sbrm-part;5;f
caller_defaultcallrate > 2681 and callee1_videocodec = vp8 and callee2_listenport = on;failedfailed;26;8;0.529412;778615;low;sbrm-part;5;f
caller_defaultcallrate <= 1232 and callee1_videocodec = vp8;failedconnected;20;4;0.666667;778772;medium;sbrm-part;5;f
callee2_videocodec = vp8 and callee1_videocodec = ulpfec and caller_protocol = ippi;failedfailed;16;0;1;779116;high;sbrm-part;5;f
caller_audiocodec = silk-8000;connectedconnected;15;7;0.363636;779244;low;sbrm-part;5;t
caller_encryption = on and callee2_encryption = off and callee1_encryption = off;failedfailed;21;0;1;779529;high;sbrm-part;5;f
caller_audiocodec = silk-24000;connectedconnected;11;6;0.294118;779538;low;sbrm-part;5;t
caller_defaultcallrate > 1221 and callee2_videocodec = vp8 and callee1_sipzrtpattribute = true and caller_listenport = off;connectedfailed;14;1;0.866667;779652;medium;sbrm-part;5;f
caller_encryption = besteffort and caller_audiocodec = silk-16000;failedconnected;20;10;0.333333;779869;low;sbrm-part;5;f
callee1_videocodec = vp8 and caller_encryption = on and callee2_encryption = off;failedfailed;106;0;1;780140;high;sbrm-part;5;f
callee2_videocodec = vp8 and callee1_listenport = on and callee2_maxpeers = 2 and caller_audiocodec = ilbc-8000 and callee1_encryption = besteffort and callee1_transportprotocol = udp and caller_mtu <= 1353;connectedfailed;14;1;0.866667;780236;high;sbrm-part;5;f
callee1_videocodec = vp8 and callee2_encryption = besteffort and caller_maxresolution = 240 and callee1_audiocodec = pcma-8000 and callee1_maxpeers = 3 and caller_listenport = off and caller_sipzrtpattribute = true and caller_videocodec = ulpfec;failedconnected;19;2;0.809524;780739;medium;sbrm-part;5;f
caller_encryption = off and callee2_encryption = on and caller_maxresolution = 360;connectedfailed;13;1;0.857143;780804;high;sbrm-part;5;f
callee1_videocodec = vp8 and caller_encryption = besteffort and callee2_audiocodec = speex-32000 and caller_transportprotocol  = udp and caller_videocodec = red and caller_mtu <= 1275 and callee2_encryption = off and callee2_maxpeers = 3;failedconnected;87;14;0.722772;780920;low;sbrm-part;5;f
callee1_videocodec = vp8 and callee2_videocodec = ulpfec and caller_protocol = googletalk;failedfailed;72;0;1;781009;high;sbrm-part;5;f
caller_encryption = on and callee2_encryption = off and callee1_audiocodec = silk-8000;failedfailed;11;0;1;781257;high;sbrm-part;5;f
callee1_videocodec = vp8 and caller_maxtransmitcallrate <= 1560 and callee1_audiocodec = telephone-event-80000 and callee1_protocol = sip and callee2_protocol = iptel.org;failedfailed;14;2;0.75;781419;medium;sbrm-part;5;f
caller_defaultcallrate > 3966 and callee2_audiocodec = telephone-event-80000;failedfailed;12;5;0.411765;781646;low;sbrm-part;5;f
caller_audiocodec = ilbc-8000 and caller_protocol = googletalk and caller_encryption = besteffort and callee1_defaultcallrate > 3356 and callee1_mtu > 967 and callee1_maxpeers = 2 and caller_maxtransmitcallrate <= 4012;connectedconnected;16;3;0.684211;782334;medium;sbrm-part;5;t
caller_encryption = off and callee2_encryption = on and callee1_encryption = on;failedfailed;33;0;1;782392;high;sbrm-part;5;f
callee2_videocodec = vp8 and caller_videocodec = auto;connectedfailed;13;4;0.529412;782415;low;sbrm-part;5;f
caller_encryption = off and callee1_encryption = on and callee2_maxtransmitcallrate > 597 and caller_listenport = on and callee2_sipzrtpattribute = auto;failedconnected;15;1;0.875;782416;high;sbrm-part;5;f
caller_encryption = besteffort and caller_audiocodec = speex-16000;connectedconnected;15;7;0.363636;782740;low;sbrm-part;5;t
callee1_videocodec = ulpfec and caller_protocol = googletalk and callee2_videocodec = ulpfec;failedfailed;13;0;1;782767;high;sbrm-part;5;f
callee2_videocodec = ulpfec and caller_protocol = iptel.org and callee1_videocodec = ulpfec;failedfailed;14;0;1;782803;high;sbrm-part;5;f
callee1_encryption = on and caller_encryption = off and callee2_transportprotocol = tls;failedconnected;14;1;0.866667;783006;high;sbrm-part;5;f
caller_encryption = besteffort and caller_maxresolution = 240;connectedconnected;17;6;0.478261;783182;low;sbrm-part;5;t
callee2_videocodec = vp8 and callee1_listenport = off and caller_protocol = sip;failedfailed;21;0;1;783257;high;sbrm-part;5;f
callee1_videocodec = vp8 and callee2_audiocodec = speex-32000 and callee1_listenport = on and caller_maxreceivecallrate > 1139;failedconnected;37;1;0.947368;783306;high;sbrm-part;5;f
callee2_videocodec = vp8 and caller_protocol = icq and caller_defaultcallrate > 2963;connectedfailed;18;0;1;783525;high;sbrm-part;5;f
callee2_videocodec = vp8 and caller_encryption = besteffort and callee1_audiocodec = silk-8000;failedfailed;17;0;1;783900;high;sbrm-part;5;f
callee1_videocodec = vp8 and caller_protocol = sip;failedfailed;25;0;1;783925;high;sbrm-part;5;f
callee1_videocodec = vp8 and caller_protocol = iptel.org and callee2_videocodec = ulpfec;failedfailed;22;0;1;783948;high;sbrm-part;5;f
callee2_videocodec = ulpfec and caller_protocol = ippi;failedfailed;20;8;0.428571;783997;low;sbrm-part;5;f
caller_protocol = sip;failedfailed;229;0;1;784040;high;sbrm-part;5;f
callee1_audiocodec = silk-8000 and caller_videocodec = h264;failedconnected;14;3;0.647059;784469;medium;sbrm-part;5;f
callee1_encryption = off and caller_encryption = on and callee2_videocodec = h264;failedconnected;12;2;0.714286;784946;medium;sbrm-part;5;f
caller_defaultcallrate <= 1221 and callee2_defaultcallrate <= 303 and caller_audiocodec = ilbc-8000 and callee1_protocol = icq and callee1_maxreceivecallrate > 895 and caller_mtu <= 989;connectedconnected;18;0;1;785233;high;sbrm-part;5;t
callee1_videocodec = vp8 and caller_defaultcallrate <= 2682 and caller_maxtransmitcallrate > 1876 and caller_audiocodec = silk-16000 and callee2_defaultcallrate > 1432;failedconnected;28;1;0.931035;785571;high;sbrm-part;5;f
callee2_videocodec = vp8 and caller_audiocodec = amr-wb-16000;connectedfailed;14;1;0.866667;785627;medium;sbrm-part;5;f
caller_encryption = besteffort and callee1_maxtransmitcallrate > 2240 and caller_audiocodec = gsm-8000;connectedconnected;17;7;0.416667;785703;low;sbrm-part;5;t
callee1_encryption = off and caller_encryption = on and caller_sipzrtpattribute = auto;failedconnected;20;6;0.538462;785813;low;sbrm-part;5;f
caller_defaultcallrate > 2705 and callee1_encryption = on and caller_encryption = off and callee1_videocodec = h264;failedconnected;12;2;0.714286;785846;medium;sbrm-part;5;f
callee1_videocodec = vp8 and caller_encryption = besteffort and caller_defaultcallrate <= 1345 and callee2_audiocodec = gsm-8000 and callee2_mtu > 1063;failedconnected;40;0;1;785891;high;sbrm-part;5;f
callee2_videocodec = vp8 and caller_maxresolution = 1080;failedfailed;15;2;0.764706;785926;medium;sbrm-part;5;f
caller_defaultcallrate > 2702 and callee1_audiocodec = amr-wb-16000;failedfailed;31;12;0.44186;785952;low;sbrm-part;5;f
callee2_videocodec = vp8 and caller_encryption = besteffort and callee1_audiocodec = speex-16000 and callee2_mtu <= 1031 and callee2_transportprotocol = udp and callee2_audiocodec = ilbc-8000 and callee2_protocol = ippi and caller_protocol = googletalk and callee2_maxresolution = 240;failedfailed;15;5;0.5;786027;low;sbrm-part;5;f
caller_defaultcallrate > 3405 and callee2_audiocodec = speex-32000;connectedconnected;15;5;0.5;786159;low;sbrm-part;5;t
caller_maxpeers = 2 and callee1_sipzrtpattribute = false and caller_maxtransmitcallrate <= 1626 and callee2_transportprotocol = udp and caller_audiocodec = auto;failedconnected;11;3;0.571429;786185;low;sbrm-part;5;f
callee2_audiocodec = amr-wb-16000 and caller_mtu <= 1145;connectedfailed;11;3;0.571429;786443;low;sbrm-part;5;f
callee2_videocodec = vp8 and callee1_videocodec = ulpfec and caller_protocol = googletalk;failedfailed;19;0;1;787131;high;sbrm-part;5;f
caller_encryption = off and callee1_encryption = on and callee2_maxtransmitcallrate > 597 and caller_mtu <= 695;failedconnected;11;0;1;787271;high;sbrm-part;5;f
callee2_videocodec = ulpfec and caller_protocol = iptel.org and callee1_mtu <= 1375;failedfailed;15;3;0.666667;787365;medium;sbrm-part;5;f
caller_encryption = off and callee2_encryption = on and caller_sipzrtpattribute = true;failedfailed;14;4;0.555556;787487;low;sbrm-part;5;f
caller_defaultcallrate <= 1389 and caller_defaultcallrate > 1307 and caller_encryption = besteffort;connectedconnected;47;6;0.773585;787896;medium;sbrm-part;5;t
callee1_videocodec = vp8 and callee2_videocodec = ulpfec and caller_protocol = googletalk;failedfailed;16;0;1;787971;high;sbrm-part;5;f
callee1_videocodec = vp8 and caller_encryption = besteffort and callee1_audiocodec = speex-8000 and callee2_defaultcallrate <= 5375;failedconnected;12;0;1;788365;high;sbrm-part;5;f
callee2_audiocodec = silk-8000 and callee1_transportprotocol = auto;failedfailed;14;5;0.473684;788713;low;sbrm-part;5;f
callee1_videocodec = vp8 and callee2_videocodec = ulpfec and caller_protocol = googletalk;failedfailed;17;0;1;788717;high;sbrm-part;5;f
callee2_videocodec = ulpfec and caller_protocol = iptel.org and callee1_mtu <= 1361;failedfailed;30;6;0.666667;788859;low;sbrm-part;5;f
caller_encryption = off and callee1_encryption = on and callee2_encryption = on;failedfailed;26;0;1;788909;high;sbrm-part;5;f
callee2_videocodec = vp8 and caller_encryption = besteffort and callee1_videocodec = red and caller_defaultcallrate <= 4085;connectedfailed;19;0;1;789247;high;sbrm-part;5;f
callee1_videocodec = vp8 and caller_audiocodec = ilbc-8000 and callee1_defaultcallrate <= 3363;failedconnected;11;3;0.571429;789276;low;sbrm-part;5;f
caller_defaultcallrate <= 1237 and callee1_videocodec = h264;connectedfailed;30;16;0.304348;789358;low;sbrm-part;5;f
caller_audiocodec = pcmu-8000 and caller_defaultcallrate > 2660;failedfailed;11;3;0.571429;789408;low;sbrm-part;5;f
callee1_videocodec = vp8 and callee2_videocodec = h264 and caller_maxtransmitcallrate <= 2154;failedfailed;13;0;1;789473;high;sbrm-part;5;f
callee2_videocodec = vp8 and caller_encryption = besteffort and callee1_audiocodec = silk-12000 and callee2_defaultcallrate <= 4192 and callee2_sipzrtpattribute = auto and callee2_protocol = icq;connectedfailed;13;2;0.733333;789670;medium;sbrm-part;5;f
callee2_videocodec = vp8 and callee1_audiocodec = pcma-8000 and callee1_videocodec = rtx and caller_transportprotocol  = tls and callee1_transportprotocol = tls and callee1_maxpeers = 5;connectedfailed;12;2;0.714286;789681;medium;sbrm-part;5;f
caller_defaultcallrate <= 1349 and callee2_audiocodec = speex-32000;connectedconnected;29;11;0.45;790029;low;sbrm-part;5;t
caller_defaultcallrate > 2705 and callee1_audiocodec = amr-wb-16000;failedconnected;11;1;0.833333;790150;high;sbrm-part;5;f
callee2_videocodec = vp8 and caller_protocol = sip;failedfailed;24;0;1;790752;high;sbrm-part;5;f
callee2_videocodec = vp8 and callee2_defaultcallrate <= 476 and callee1_videocodec = auto and callee2_transportprotocol = udp and callee2_encryption = off and callee1_maxpeers = 2;connectedfailed;20;0;1;790831;high;sbrm-part;5;f
